1409732683.446017067 : 2183.3
1409732684.446393852 : 822.82
1409732685.446630779 : 1753.37
1409732688.899883139 : 2359.05
1409732688.952863957 : 2265.18
1409732689.052976672 : 2461
1409732689.153152620 : 1123.73
1409732689.657179178 : 1337.81
1409732689.707374778 : 1369.84
1409732689.757276466 : 1403.41
1409732689.807253884 : 1403.41
1409732689.857255247 : 1438.65
1409732689.907170903 : 1438.65
1409732689.957243422 : 1514.63
1409732690.009776343 : 1481.2
1409732690.110020816 : 1555.66
1409732690.209943359 : 1644.65
1409732690.309985317 : 1652.31
1409732690.409904505 : 1753.37
1409732690.509986867 : 1753.37
1409732690.609944145 : 1760.95
1409732690.709997407 : 1808.61
1409732690.909941687 : 1816.94
1409732691.009956501 : 1940.18
1409732691.109832991 : 1940.18
1409732691.209827161 : 1867.39
1409732691.309950023 : 1876.56
1409732691.409938518 : 1867.39
1409732691.509826330 : 1867.39
1409732691.609978806 : 1940.18
1409732691.709969296 : 1867.39
1409732691.809919230 : 1940.18
1409732691.909920067 : 1867.39
1409732692.009968848 : 1940.18
1409732692.109985045 : 1876.56
1409732692.209944105 : 1876.56
1409732692.309938214 : 1876.56
1409732692.409873724 : 1876.56
1409732692.510003985 : 1816.94
1409732692.609937588 : 1816.94
1409732692.709990144 : 1816.94
1409732692.809948045 : 1867.39
1409732692.909948051 : 1816.94
1409732693.009826102 : 1816.94
1409732693.110003914 : 1816.94
1409732693.210046763 : 1816.94
1409732693.309964948 : 1816.94
1409732693.409915090 : 1876.56
1409732693.509971949 : 1816.94
1409732693.609918002 : 1816.94
1409732693.709923729 : 1808.61
1409732693.809897078 : 1816.94
1409732693.909980915 : 1823.49
1409732694.009997328 : 1823.49
1409732694.109936832 : 1816.94
1409732694.209924329 : 1760.95
1409732694.309943427 : 1823.49
1409732694.409989549 : 1816.94
1409732694.509935047 : 1753.37
1409732694.610030132 : 1808.61
1409732694.709917283 : 1816.94
1409732694.809950019 : 1867.39
1409732694.910048256 : 1816.94
1409732695.009923726 : 1808.61
1409732695.109953433 : 1816.94
1409732695.209906490 : 1816.94
1409732695.310013043 : 1760.95
1409732695.409956376 : 1760.95
1409732695.509972642 : 1816.94
1409732695.609963240 : 1760.95
1409732695.709900638 : 1760.95
1409732695.809983514 : 1760.95
1409732695.910007849 : 1760.95
1409732696.009933291 : 1816.94
1409732696.109916966 : 1766.92
1409732696.209904205 : 1766.92
1409732696.309963891 : 1760.95
1409732696.409917796 : 1816.94
1409732696.509946344 : 1760.95
1409732696.610077118 : 1816.94
1409732696.709965621 : 1760.95
1409732696.809944631 : 1760.95
1409732696.910036705 : 1708.29
1409732697.010092902 : 1708.29
1409732697.109922077 : 1760.95
1409732697.209986795 : 1708.29
1409732697.310025655 : 1753.37
1409732697.409847428 : 1708.29
1409732697.509982248 : 1760.95
1409732697.609936182 : 1808.61
1409732697.709938694 : 1760.95
1409732697.809933242 : 1760.95
1409732697.910026611 : 1808.61
1409732698.009909839 : 1753.37
1409732698.109842586 : 1760.95
1409732698.209946314 : 1816.94
1409732698.309821192 : 1760.95
1409732698.410070141 : 1876.56
1409732698.509915520 : 1760.95
1409732698.609937627 : 1816.94
1409732698.709947930 : 1760.95
1409732698.809933436 : 1816.94
1409732698.909924597 : 1816.94
1409732699.009958714 : 1816.94
1409732699.109904449 : 1816.94
1409732699.210038096 : 1816.94
1409732699.309950342 : 1808.61
1409732699.409972394 : 1760.95
1409732699.509899765 : 1808.61
1409732699.610008867 : 1808.61
1409732699.709979796 : 1816.94
1409732699.809918289 : 1876.56
1409732699.909918805 : 1808.61
1409732700.009946389 : 1816.94
1409732700.110001701 : 1808.61
1409732700.209923706 : 1876.56
1409732700.309952084 : 1867.39
1409732700.409861109 : 1816.94
1409732700.509969922 : 1816.94
1409732700.609967233 : 1816.94
1409732700.709954154 : 1816.94
1409732700.809918795 : 1876.56
1409732700.909842285 : 1816.94
1409732701.009961369 : 1816.94
1409732701.109835256 : 1816.94
1409732701.209832971 : 1766.92
1409732701.309958891 : 1816.94
1409732701.409951889 : 1816.94
1409732701.509938365 : 1760.95
1409732701.609855627 : 1760.95
1409732701.709934096 : 1766.92
1409732701.809963222 : 1766.92
1409732701.909976506 : 1766.92
1409732702.009893646 : 1816.94
1409732702.109920252 : 1760.95
1409732702.209961672 : 1760.95
1409732702.309841842 : 1816.94
1409732702.409947459 : 1823.49
1409732702.509835438 : 1760.95
1409732702.609933514 : 1816.94
1409732702.709830141 : 1823.49
1409732702.858338969 : 1816.94
1409732702.909915790 : 1823.49
1409732703.222145638 : 1816.94
1409732703.322201920 : 1876.56
1409732703.422440032 : 1823.49
1409732703.522196358 : 1816.94
1409732703.622345502 : 1883.78
1409732703.722383327 : 1876.56
1409732703.822330654 : 1816.94
1409732703.922321439 : 1883.78
1409732704.022315732 : 1816.94
1409732704.122364442 : 1816.94
1409732704.222353144 : 1883.78
1409732704.322273793 : 1948.17
1409732704.422311956 : 1948.17
1409732704.522357383 : 1876.56
1409732704.622287795 : 1940.18
1409732704.722315133 : 1940.18
1409732704.822304242 : 1940.18
1409732704.922207018 : 1948.17
1409732705.022257007 : 1948.17
1409732705.122194872 : 1940.18
1409732705.222322495 : 1948.17
1409732705.322340573 : 1948.17
1409732705.422435319 : 1883.78
1409732705.522330519 : 1948.17
1409732705.622319649 : 1948.17
1409732705.722337582 : 1883.78
1409732705.822322293 : 1948.17
1409732705.922330279 : 1876.56
1409732706.022304521 : 1948.17
1409732711.222372574 : 1883.78
1409732711.322236221 : 1893.19
1409732711.422333146 : 1888.99
1409732711.522396038 : 1888.99
1409732711.622344134 : 1888.99
1409732711.722348189 : 1823.49
1409732711.822347633 : 1888.99
1409732711.922339099 : 1892.14
1409732712.022350074 : 1823.49
1409732712.122233190 : 1888.99
1409732712.222307685 : 1893.19
1409732712.322199443 : 1828.22
1409732712.422304484 : 1888.99
1409732712.522306603 : 1883.78
1409732712.622333220 : 1948.17
1409732712.722439180 : 1888.99
1409732712.822305554 : 1823.49
1409732712.922318382 : 1888.99
1409732713.022317252 : 1883.78
1409732713.122339360 : 1888.99
1409732713.222309840 : 1888.99
1409732713.322322488 : 1883.78
1409732716.322353847 : 1983.54
1409732716.422300375 : 1903.82
1409732716.522357027 : 1931.17
1409732716.622304519 : 1950.46
1409732716.722360753 : 1903.82
1409732716.822384731 : 1903.82
1409732716.922315110 : 1867.39
1409732717.022354630 : 1753.37
1409732717.122445927 : 1753.37
1409732717.222342170 : 1753.37
1409732717.322387564 : 1753.37
1409732717.422332432 : 1701.36
1409732717.522338261 : 1708.29
1409732717.622355454 : 1760.95
1409732717.722403391 : 1766.92
1409732717.822506019 : 1760.95
1409732717.922370377 : 1816.94
1409732718.022427859 : 1816.94
1409732718.122361465 : 1766.92
1409732718.222330352 : 1816.94
1409732718.322363008 : 1760.95
1409732718.422430065 : 1876.56
1409732718.522389454 : 1823.49
1409732718.622358775 : 1823.49
1409732718.722297425 : 1876.56
1409732718.822388723 : 1883.78
1409732718.922284733 : 1883.78
1409732719.022329120 : 1876.56
1409732719.122355180 : 1816.94
1409732719.222360168 : 1816.94
1409732719.322290919 : 1940.18
1409732719.422415576 : 1876.56
1409732719.522316750 : 1876.56
1409732719.622366881 : 1940.18
1409732719.722327744 : 1816.94
1409732719.822331142 : 1876.56
1409732719.922477560 : 1876.56
1409732720.022243831 : 1883.78
1409732720.122230218 : 1940.18
1409732720.222209342 : 1940.18
1409732720.322315920 : 1948.17
1409732720.422364825 : 1876.56
1409732720.522297245 : 1930.06
1409732720.622304555 : 1940.18
1409732720.722319022 : 1867.39
1409732720.822806210 : 1876.56
1409732720.922221496 : 1883.78
1409732721.022365069 : 1940.18
1409732721.122298191 : 1883.78
1409732721.222365639 : 1948.17
1409732721.322331392 : 1940.18
1409732721.422316001 : 1940.18
1409732721.522355137 : 2008.22
1409732721.622378559 : 2017.07
1409732721.722342940 : 1940.18
1409732721.822315979 : 1948.17
1409732721.922358437 : 1948.17
1409732725.622282166 : 1983.54
1409732725.722289825 : 1930.06
1409732725.822351614 : 1940.18
1409732725.922356763 : 1940.18
1409732726.022433262 : 1876.56
1409732726.122371665 : 1948.17
1409732726.222294275 : 1883.78
1409732726.322359190 : 1883.78
1409732726.422303647 : 1876.56
1409732726.522298181 : 1883.78
1409732726.622205917 : 1883.78
1409732726.722289160 : 1883.78
1409732726.822292487 : 1883.78
1409732726.922440661 : 1888.99
1409732727.022319320 : 1948.17
1409732727.122318131 : 1883.78
1409732727.222317387 : 1883.78
1409732727.322306518 : 1888.99
1409732727.422192763 : 1948.17
1409732727.522414227 : 1883.78
1409732727.622356841 : 1823.49
1409732727.722302416 : 1876.56
1409732727.822292364 : 1883.78
1409732727.922217199 : 1883.78
1409732728.022290115 : 1883.78
1409732728.122364315 : 1816.94
1409732728.222297770 : 1876.56
1409732728.322206854 : 1816.94
1409732728.422353562 : 1823.49
1409732728.522318772 : 1876.56
1409732728.622210524 : 1883.78
1409732728.722312648 : 1883.78
1409732728.822359449 : 1876.56
1409732728.922333797 : 1876.56
1409732729.022377939 : 1930.06
1409732729.122354831 : 1876.56
1409732729.222375838 : 1876.56
1409732729.322330244 : 1948.17
1409732729.422307520 : 1948.17
1409732734.722323765 : 1940.18
1409732734.822306534 : 2008.22
1409732734.922306855 : 1940.18
1409732735.022308035 : 1940.18
1409732735.122332840 : 1940.18
1409732735.222373714 : 1948.17
1409732735.322366635 : 1883.78
1409732735.422351544 : 1876.56
1409732735.522350426 : 1948.17
1409732735.622452920 : 1948.17
1409732735.922333962 : 1940.18
1409732736.022357078 : 1948.17
1409732736.122281982 : 1876.56
1409732736.222324648 : 1876.56
1409732736.422341010 : 1876.56
1409732736.522344445 : 1876.56
1409732736.622388146 : 1940.18
1409732736.722341687 : 1876.56
1409732736.822339190 : 1876.56
1409732736.922344634 : 1883.78
1409732737.022350338 : 1940.18
1409732737.122377140 : 1867.39
1409732737.222294550 : 1917.9
1409732737.322331274 : 1867.39
1409732737.422340124 : 1867.39
1409732737.522203430 : 1867.39
1409732737.622375844 : 1867.39
1409732737.722448627 : 1856.37
1409732737.822357524 : 1876.56
1409732737.922341301 : 1867.39
1409732738.022191280 : 1816.94
1409732738.122353815 : 1816.94
1409732738.222297922 : 1816.94
1409732738.322281750 : 1766.92
1409732738.522365802 : 1766.92
1409732738.622312775 : 1766.92
1409732738.722314867 : 1760.95
1409732738.822376656 : 1717.65
1409732738.922322489 : 1708.29
1409732739.022400857 : 1708.29
1409732739.122312493 : 1713.73
1409732739.222401422 : 1713.73
1409732739.322445107 : 1717.65
1409732739.422357557 : 1717.65
1409732739.522371154 : 1717.65
1409732739.622335355 : 1766.92
1409732739.722537913 : 1771.22
1409732739.822303085 : 1713.73
1409732739.922316962 : 1713.73
1409732740.022301761 : 1766.92
1409732740.122352023 : 1760.95
1409732740.222321081 : 1766.92
1409732740.322375042 : 1823.49
1409732740.422312654 : 1760.95
1409732740.522315714 : 1760.95
1409732740.622306786 : 1760.95
1409732740.722362113 : 1823.49
1409732740.822342513 : 1823.49
1409732740.922389543 : 1760.95
1409732741.022368571 : 1766.92
1409732741.122207682 : 1816.94
1409732741.222358452 : 1823.49
1409732741.322362738 : 1816.94
1409732741.422436769 : 1816.94
1409732741.522408919 : 1816.94
1409732741.622527476 : 1883.78
1409732741.722312161 : 1816.94
1409732749.122297367 : 1940.18
1409732749.222319730 : 1876.56
1409732749.322360130 : 1876.56
1409732749.422557681 : 1876.56
1409732749.522332336 : 1816.94
1409732749.622314954 : 1876.56
1409732749.722310037 : 1876.56
1409732749.822340510 : 1876.56
1409732749.922316759 : 1808.61
1409732750.022397998 : 1876.56
1409732750.122336057 : 1876.56
1409732750.222310510 : 1876.56
1409732750.322308675 : 1876.56
1409732750.422262018 : 1876.56
1409732750.522240173 : 1948.17
1409732750.622305600 : 1940.18
1409732750.722348512 : 1883.78
1409732750.822324589 : 1940.18
1409732750.922308931 : 1876.56
1409732751.022321117 : 1876.56
1409732751.122293028 : 1876.56
1409732751.222398673 : 1876.56
1409732751.322308757 : 1940.18
1409732751.422281636 : 1867.39
1409732751.522341155 : 1095.43
1409732752.026619782 : 1876.56
1409732752.080964538 : 1940.18
1409732752.181121912 : 2008.22
1409732752.281179758 : 1876.56
1409732756.181110381 : 2467.96
1409732759.581145121 : 1967.97
1409732759.681120515 : 1829.17
1409732759.781106264 : 1917.9
1409732759.881161474 : 1917.9
1409732759.981135747 : 1917.9
1409732760.081186571 : 1867.39
1409732760.181114703 : 1856.37
1409732760.281065081 : 1816.94
1409732760.381120560 : 1816.94
1409732760.481127393 : 1753.37
1409732760.581091219 : 1753.37
1409732760.681023426 : 1760.95
1409732760.781100866 : 1753.37
1409732760.881113624 : 1708.29
1409732760.981147589 : 1760.95
1409732761.081090573 : 1753.37
1409732761.181101757 : 1713.73
1409732761.281107279 : 1766.92
1409732761.381002212 : 1760.95
1409732761.481181551 : 1766.92
1409732761.580997093 : 1766.92
1409732761.681159772 : 1693.01
1409732761.781072652 : 1744.23
1409732761.881129278 : 1744.23
1409732761.981111513 : 1744.23
1409732762.081133942 : 1744.23
1409732762.181121978 : 1693.01
1409732763.581099632 : 1713.73
1409732763.681155125 : 1708.29
1409732763.781108112 : 1658.65
1409732763.881188140 : 1708.29
1409732763.981212766 : 1708.29
1409732764.081113720 : 1708.29
1409732764.181110867 : 1708.29
1409732764.281121948 : 1708.29
1409732764.381186228 : 1760.95
1409732764.481163609 : 1760.95
1409732764.581134922 : 1760.95
1409732764.681106557 : 1823.49
1409732764.781088993 : 1816.94
1409732764.881105977 : 1760.95
1409732764.981121711 : 1876.56
1409732765.081160315 : 1816.94
1409732765.181124962 : 1876.56
1409732765.281038086 : 1876.56
1409732765.381162114 : 1876.56
1409732765.481042286 : 1816.94
1409732765.581208078 : 1876.56
1409732765.681157379 : 1930.06
1409732765.781143972 : 1876.56
1409732765.881138577 : 1876.56
1409732765.981151068 : 1867.39
1409732766.081069799 : 1940.18
1409732766.181120089 : 1930.06
1409732766.281096170 : 2008.22
1409732766.381163914 : 1876.56
1409732766.881099823 : 2068.66
1409732766.981138010 : 1321.36
1409732767.484973602 : 1940.18
1409732767.937593460 : 2702.78
1409732768.437532598 : 2090.99
1409732768.537500705 : 2081.13
1409732768.637629877 : 2008.22
1409732768.737579486 : 2008.22
1409732768.837568214 : 1940.18
1409732768.937564382 : 1930.06
1409732769.037624244 : 1930.06
1409732769.137520573 : 1856.37
1409732769.237626650 : 1930.06
1409732769.337623734 : 1867.39
1409732769.437630052 : 1917.9
1409732769.537590121 : 1917.9
1409732769.637609682 : 1930.06
1409732769.737555489 : 1917.9
1409732769.837558840 : 1930.06
1409732769.937559735 : 1930.06
1409732770.037459686 : 1867.39
1409732770.137607620 : 1930.06
1409732770.237448713 : 1930.06
1409732770.337467893 : 1867.39
1409732770.437474192 : 1930.06
1409732770.537640742 : 1930.06
1409732770.637481150 : 1930.06
1409732770.737649018 : 1930.06
1409732770.837541889 : 1917.9
1409732770.937581498 : 1940.18
1409732771.037590938 : 1997
1409732771.137566767 : 1867.39
1409732771.237553529 : 1058.29
1409732771.739820378 : 1983.54
1409732771.792907880 : 1930.06
1409732774.393107858 : 1808.61
1409732774.493088726 : 1856.37
1409732774.593204896 : 1876.56
1409732774.693119166 : 1867.39
1409732774.793148510 : 1808.61
1409732774.893206972 : 1808.61
1409732774.993209222 : 1760.95
1409732775.093136361 : 1816.94
1409732775.193131348 : 1867.39
1409732775.293143535 : 1816.94
1409732775.393140193 : 1816.94
1409732775.493094714 : 1808.61
1409732775.593135685 : 1816.94
1409732775.692995423 : 1816.94
1409732775.793092306 : 1760.95
1409732775.893085705 : 1808.61
1409732775.993076317 : 1808.61
1409732776.093129813 : 1816.94
1409732776.193030977 : 1753.37
1409732776.293000515 : 1808.61
1409732776.393061214 : 1753.37
1409732776.493068467 : 1808.61
1409732776.593108294 : 1808.61
1409732776.693134979 : 1808.61
1409732776.793098842 : 1816.94
1409732776.893123023 : 1816.94
1409732777.793169160 : 1816.94
1409732778.693158625 : 1701.36
1409732778.893098752 : 1753.37
1409732778.993077361 : 1753.37
1409732779.093115040 : 1808.61
1409732779.293108602 : 1808.61
1409732779.393149210 : 1760.95
1409732779.493187401 : 1816.94
1409732779.593149488 : 1753.37
1409732779.693131623 : 1753.37
1409732779.793122640 : 1816.94
1409732779.893170769 : 1816.94
1409732779.993117386 : 1760.95
1409732780.093106951 : 1816.94
1409732780.193111851 : 1808.61
1409732780.293073449 : 1876.56
1409732780.393106640 : 1867.39
1409732780.493106851 : 1876.56
1409732780.593127836 : 1867.39
1409732780.693139359 : 1876.56
1409732780.793173714 : 1816.94
1409732780.893185722 : 1816.94
1409732780.993121712 : 1876.56
1409732781.093129686 : 1883.78
1409732781.193090139 : 1876.56
1409732781.293039525 : 1883.78
1409732781.393142372 : 1876.56
1409732781.493175109 : 1876.56
1409732781.593001300 : 1940.18
1409732781.693091065 : 1940.18
1409732781.792989761 : 1930.06
1409732781.893094806 : 1940.18
1409732781.993149836 : 1940.18
1409732782.093093531 : 1940.18
1409732782.193156938 : 1876.56
1409732782.293139539 : 1940.18
1409732782.393124790 : 1876.56
1409732782.493110639 : 1940.18
1409732782.593145110 : 1930.06
1409732782.693011543 : 1940.18
1409732782.793087372 : 1876.56
1409732782.893108024 : 1876.56
1409732782.993042319 : 1867.39
1409732783.093102916 : 1876.56
1409732783.193134902 : 1876.56
1409732783.293095633 : 1876.56
1409732783.393085784 : 1816.94
1409732783.493151354 : 1876.56
1409732783.593171087 : 1930.06
1409732783.693137164 : 1876.56
1409732783.793090966 : 1940.18
1409732783.893105041 : 1876.56
1409732793.558224611 : 1753.37
1409732793.658550384 : 1753.37
1409732793.758507053 : 1808.61
1409732793.858642762 : 1816.94
1409732793.958593693 : 1876.56
1409732794.058579519 : 1808.61
1409732794.158645484 : 1816.94
1409732794.258606459 : 1876.56
1409732794.358553877 : 1876.56
1409732794.458466756 : 1876.56
1409732794.558795410 : 1808.61
1409732794.658631280 : 1876.56
1409732794.758513994 : 1876.56
1409732794.858656629 : 1816.94
1409732794.958569615 : 1808.61
1409732795.058594612 : 1816.94
1409732803.252169551 : 1823.49
1409732803.358613337 : 1808.61
1409732803.458612264 : 1808.61
1409732803.558650298 : 1760.95
1409732803.658587027 : 1808.61
1409732803.758543524 : 1808.61
1409732803.858578125 : 1816.94
1409732803.958474735 : 1876.56
1409732804.058611137 : 1753.37
1409732804.158590362 : 1816.94
1409732804.258638577 : 1816.94
1409732804.358648053 : 1876.56
1409732804.458612955 : 1816.94
1409732804.558751902 : 1816.94
1409732804.658603387 : 1823.49
1409732804.758634779 : 1816.94
1409732804.858622031 : 1876.56
1409732804.958588200 : 1816.94
1409732805.058499961 : 1816.94
1409732805.158489106 : 1816.94
1409732805.258513887 : 1867.39
1409732805.358643686 : 1816.94
1409732805.458634385 : 1883.78
1409732805.558640039 : 1940.18
1409732805.658592810 : 1876.56
1409732805.758579070 : 1876.56
1409732805.858605222 : 1940.18
1409732805.958647894 : 1940.18
1409732816.500431447 : 1876.56
1409732816.600822280 : 1876.56
1409732816.700763437 : 1876.56
1409732816.800870999 : 1876.56
1409732816.900709872 : 1876.56
1409732817.100833621 : 1816.94
1409732817.200818106 : 1940.18
1409732817.300808182 : 1940.18
1409732817.400721422 : 1940.18
1409732817.500777285 : 1876.56
1409732817.600845640 : 1876.56
1409732817.700787460 : 1940.18
1409732817.800834881 : 1883.78
1409732817.900917569 : 1940.18
1409732820.600820109 : 1983.54
1409732820.700793796 : 1917.9
1409732820.800852798 : 1856.37
1409732820.900806855 : 1917.9
1409732821.000798018 : 1856.37
1409732821.400768230 : 1856.37
1409732821.500779169 : 1856.37
1409732821.600822368 : 1808.61
1409732821.700856730 : 1744.23
1409732821.800793229 : 1744.23
1409732821.900809649 : 1753.37
1409732822.000830962 : 1753.37
1409732822.100836774 : 1744.23
1409732822.200819537 : 1753.37
1409732822.300920565 : 1760.95
1409732822.400778864 : 1760.95
1409732822.500770828 : 1753.37
1409732822.600739474 : 1760.95
1409732822.700833842 : 1753.37
1409732822.801043710 : 1760.95
1409732822.900837636 : 1816.94
1409732823.000808665 : 1816.94
1409732823.100790944 : 1876.56
1409732823.200798305 : 1876.56
1409732823.300794329 : 1816.94
1409732823.400787815 : 1876.56
1409732823.500815950 : 1876.56
1409732823.600828611 : 1867.39
1409732823.700799774 : 1876.56
1409732823.800848272 : 1876.56
1409732823.900811818 : 1876.56
1409732824.000877106 : 1867.39
1409732824.100847802 : 1940.18
1409732824.200839437 : 1876.56
1409732824.300839403 : 1876.56
1409732824.400777161 : 1876.56
1409732824.500820816 : 1808.61
1409732824.600780391 : 1876.56
1409732824.700845198 : 1816.94
1409732824.800937756 : 1876.56
1409732824.900852061 : 1876.56
1409732825.000824424 : 1867.39
1409732825.100782878 : 1876.56
1409732825.200850269 : 1940.18
1409732825.300765899 : 1876.56
1409732825.400795522 : 1867.39
1409732825.500775799 : 1876.56
1409732825.600805095 : 1940.18
1409732825.700789162 : 1940.18
1409732825.800788583 : 2008.22
1409732825.900843077 : 1876.56
1409732826.000838947 : 1948.17
1409732826.100806276 : 1876.56
1409732826.200870778 : 1940.18
1409732826.300933818 : 1940.18
1409732826.400851170 : 1940.18
1409732826.500847545 : 2008.22
1409732826.600810439 : 1940.18
1409732826.700853331 : 2008.22
1409732826.800858470 : 2008.22
1409732826.900838201 : 1940.18
1409732827.000829842 : 1940.18
1409732827.100808749 : 2008.22
1409732827.200826090 : 1930.06
1409732827.300871956 : 2008.22
1409732827.400851119 : 1940.18
1409732827.500867343 : 2008.22
1409732827.600856732 : 1940.18
1409732827.700836197 : 2008.22
1409732827.800865548 : 1948.17
1409732827.900819746 : 2008.22
1409732828.000815038 : 1940.18
1409732828.100812608 : 1876.56
1409732828.200779840 : 1940.18
1409732828.300785168 : 1940.18
1409732828.400860170 : 2008.22
1409732828.500825563 : 1940.18
1409732828.600835802 : 1940.18
1409732828.700798786 : 1940.18
1409732828.800795619 : 1940.18
1409732828.900829302 : 1940.18
1409732829.000802102 : 1867.39
1409732829.100780244 : 1940.18
1409732829.200798318 : 1930.06
1409732829.300827552 : 1940.18
1409732829.400812439 : 1930.06
1409732829.500851143 : 1876.56
1409732829.600924396 : 1940.18
1409732829.700850768 : 1940.18
1409732829.800831081 : 1876.56
1409732829.900688183 : 1940.18
1409732830.000803999 : 1867.39
1409732830.100860434 : 1876.56
1409732830.200798381 : 1940.18
1409732830.300787129 : 1883.78
1409732830.400822097 : 1883.78
1409732830.500790237 : 1883.78
1409732830.600718169 : 1876.56
1409732830.700807222 : 1876.56
1409732830.800804825 : 1876.56
1409732830.900860975 : 1876.56
1409732831.000827462 : 1876.56
1409732831.100828379 : 1883.78
1409732831.200840927 : 1940.18
1409732831.300916045 : 1940.18
1409732831.400894545 : 1940.18
1409732831.500727467 : 1930.06
1409732831.600888620 : 1876.56
1409732831.700785963 : 1940.18
1409732831.800796756 : 1876.56
1409732831.900854629 : 1940.18
1409732832.000812412 : 1940.18
1409732832.100805256 : 1940.18
1409732832.200736808 : 1876.56
1409732832.300830020 : 1876.56
1409732832.401037258 : 1940.18
1409732832.500709716 : 1940.18
1409732832.600818584 : 1940.18
1409732832.700890623 : 1940.18
1409732832.800848619 : 1940.18
1409732832.900788314 : 1867.39
1409732833.000855894 : 1940.18
1409732833.100785218 : 1930.06
1409732833.200786106 : 1940.18
1409732833.300773096 : 1948.17
1409732833.400825386 : 1940.18
1409732833.500811674 : 1876.56
1409732833.600760731 : 1948.17
1409732833.700809592 : 1940.18
1409732833.800832079 : 1940.18
1409732833.900864524 : 1876.56
1409732834.000871319 : 1940.18
1409732834.100902792 : 1940.18
1409732834.200713820 : 1940.18
1409732834.300957897 : 1940.18
1409732834.400843440 : 1948.17
1409732834.500794738 : 1876.56
1409732834.600833020 : 1948.17
1409732834.700858914 : 1940.18
1409732834.800789482 : 2017.07
1409732834.900832620 : 1948.17
1409732835.000822151 : 1883.78
1409732835.100827434 : 1948.17
1409732835.200968988 : 1876.56
1409732835.300856651 : 1940.18
1409732835.400921073 : 1883.78
1409732835.500793416 : 1948.17
1409732835.600841589 : 1948.17
1409732835.700856207 : 1948.17
1409732835.800883616 : 2017.07
1409732835.900840891 : 2008.22
1409732836.000786074 : 2017.07
1409732836.100891483 : 1948.17
1409732836.200839884 : 1940.18
1409732836.300828673 : 1948.17
1409732836.400799800 : 2017.07
1409732836.500822858 : 2017.07
1409732836.600811376 : 1948.17
1409732836.700896181 : 2023.47
1409732836.800845780 : 1948.17
1409732836.900811911 : 2023.47
1409732837.000804494 : 2017.07
1409732837.100800934 : 1953.93
1409732837.200783301 : 1948.17
1409732837.300802827 : 1953.93
1409732837.400791613 : 1948.17
1409732837.500840452 : 1948.17
1409732837.600839870 : 2008.22
1409732837.700827607 : 1948.17
1409732837.800833573 : 1940.18
1409732837.900811439 : 1948.17
1409732838.000820138 : 1940.18
1409732838.100774923 : 2017.07
1409732838.200852006 : 1948.17
1409732838.300854467 : 2008.22
1409732838.400866619 : 2008.22
1409732838.500869730 : 1948.17
1409732838.600792912 : 2008.22
1409732838.700834907 : 1940.18
1409732838.800788445 : 1940.18
1409732838.900844895 : 1940.18
1409732839.000783012 : 2081.13
1409732839.100786223 : 1997
1409732839.200813116 : 2008.22
1409732839.301004817 : 1940.18
1409732839.400906826 : 1997
1409732839.500809316 : 2017.07
1409732839.600804125 : 2008.22
1409732839.700881157 : 1940.18
1409732839.800844113 : 2017.07
1409732839.900847203 : 2008.22
1409732840.300867773 : 2017.07
1409732840.400822601 : 2017.07
1409732840.500817617 : 2017.07
1409732840.600804806 : 1948.17
1409732840.700807767 : 2017.07
1409732840.800839718 : 2017.07
1409732840.900781245 : 2090.99
1409732841.000875936 : 2017.07
1409732841.100870148 : 1948.17
1409732841.200853517 : 2090.99
1409732844.400876941 : 2159.47
1409732844.500778059 : 2145.55
1409732844.600850687 : 2081.13
1409732844.700775465 : 2008.22
1409732844.800855308 : 2008.22
1409732844.900794687 : 1940.18
1409732845.000773554 : 1883.78
1409732845.100701489 : 1816.94
1409732845.200860783 : 1816.94
1409732845.300815235 : 1816.94
1409732845.400811911 : 1823.49
1409732845.500822797 : 1766.92
1409732845.600874279 : 1823.49
1409732845.700832091 : 1823.49
1409732845.800701206 : 1823.49
1409732845.900771731 : 1816.94
1409732846.000823454 : 1766.92
1409732846.100744207 : 1823.49
1409732846.200900754 : 1823.49
1409732846.300695833 : 1823.49
1409732846.400902050 : 1823.49
1409732846.500816543 : 1823.49
1409732846.600827277 : 1828.22
1409732846.700812614 : 1823.49
1409732846.800821844 : 1828.22
1409732846.900866728 : 1823.49
1409732847.000875555 : 1823.49
1409732847.101209323 : 1823.49
1409732847.200837920 : 1823.49
1409732847.300826804 : 1883.78
1409732847.400786855 : 1828.22
1409732847.500800811 : 1828.22
1409732847.600918352 : 1888.99
1409732847.700856898 : 1893.19
1409732847.800706319 : 1832.02
1409732847.900729381 : 1823.49
1409732848.000781428 : 1828.22
1409732848.100870227 : 1888.99
1409732848.200708029 : 1948.17
1409732848.300854292 : 1888.99
1409732848.400832595 : 1893.19
1409732848.500848939 : 1888.99
1409732848.600814738 : 1883.78
1409732848.700790584 : 1888.99
1409732848.800842007 : 1888.99
1409732848.900827501 : 1876.56
1409732849.000794713 : 1888.99
1409732849.100840048 : 1948.17
1409732851.900810610 : 1888.99
1409732852.000981092 : 1957.41
1409732852.100860711 : 1892.14
1409732852.200693796 : 1957.41
1409732852.300841206 : 1893.19
1409732852.400844033 : 1883.78
1409732852.500841415 : 1823.49
1409732852.600715429 : 1883.78
1409732852.700844464 : 1876.56
1409732852.800915101 : 1816.94
1409732852.900781682 : 1876.56
1409732853.000830657 : 1760.95
1409732853.100854960 : 1760.95
1409732853.200719714 : 1760.95
1409732853.300829328 : 1816.94
1409732853.400851901 : 1760.95
1409732853.500823495 : 1808.61
1409732853.600804479 : 1760.95
1409732853.700877378 : 1760.95
1409732853.800690259 : 1816.94
1409732853.900801830 : 1816.94
1409732854.000724357 : 1753.37
1409732854.100819986 : 1760.95
1409732854.200826106 : 1816.94
1409732854.300826407 : 1816.94
1409732854.400815048 : 1816.94
1409732854.500925882 : 1816.94
1409732854.600854461 : 1816.94
1409732854.700805696 : 1816.94
1409732854.800702458 : 1823.49
1409732854.900949885 : 1816.94
1409732855.000807167 : 1823.49
1409732855.100849905 : 1883.78
1409732855.200831836 : 1816.94
1409732855.300714042 : 1816.94
1409732855.400820680 : 1883.78
1409732855.500801379 : 1876.56
1409732855.600872372 : 1816.94
1409732855.700719048 : 1816.94
1409732855.800889208 : 1816.94
1409732855.900847412 : 1876.56
1409732856.001088694 : 1876.56
1409732856.100778917 : 1816.94
1409732856.200833418 : 1883.78
1409732856.300789055 : 1816.94
1409732856.400819648 : 1816.94
1409732856.500911609 : 1876.56
1409732856.600869547 : 1816.94
1409732856.700874958 : 1876.56
1409732856.800790498 : 1883.78
1409732856.900841446 : 1876.56
1409732857.000916505 : 1876.56
1409732857.100858378 : 1867.39
1409732857.200867669 : 1940.18
1409732857.300708480 : 1876.56
1409732857.400809251 : 1940.18
1409732857.500833787 : 1940.18
1409732857.600861395 : 1876.56
1409732857.700784842 : 1940.18
1409732857.800803359 : 1867.39
1409732857.900708459 : 1876.56
1409732858.000838737 : 1940.18
1409732858.100921384 : 1876.56
1409732858.200791805 : 1876.56
1409732858.300842953 : 1876.56
1409732858.400848927 : 1948.17
1409732858.500709312 : 1876.56
1409732858.600854595 : 1876.56
1409732858.700812839 : 1867.39
1409732858.800796497 : 1876.56
1409732858.900876664 : 1948.17
1409732859.000835375 : 1940.18
1409732859.100818869 : 1876.56
1409732859.200805782 : 1940.18
1409732859.300841698 : 1876.56
1409732859.400828966 : 1883.78
1409732859.500851842 : 1876.56
1409732859.600703214 : 1876.56
1409732859.700774762 : 1883.78
1409732859.800809745 : 1876.56
1409732859.901350144 : 1883.78
1409732860.000827200 : 1876.56
1409732860.100815793 : 1876.56
1409732860.200803436 : 1948.17
1409732860.300849597 : 1883.78
1409732860.400850638 : 1948.17
1409732860.500850631 : 1948.17
1409732860.600815837 : 1948.17
1409732860.700828787 : 1883.78
1409732860.800883226 : 1953.93
1409732860.900841994 : 1888.99
1409732861.000860846 : 1953.93
1409732861.100836629 : 1948.17
1409732861.200834792 : 1948.17
1409732861.300825340 : 1948.17
1409732861.400898948 : 1953.93
1409732861.500886848 : 1888.99
1409732861.600807807 : 1883.78
1409732861.700740761 : 1888.99
1409732861.800806715 : 1828.22
1409732861.900765299 : 1883.78
1409732862.000788577 : 1888.99
1409732862.100786825 : 1883.78
1409732862.200851991 : 1888.99
1409732862.300704336 : 1888.99
1409732862.400813934 : 1953.93
1409732862.500917686 : 1883.78
1409732862.600808643 : 1888.99
1409732862.700800261 : 1888.99
1409732862.800866151 : 1883.78
1409732862.900799999 : 1953.93
1409732863.000804970 : 1948.17
1409732863.100807720 : 1883.78
1409732863.200831000 : 1948.17
1409732863.300812035 : 1948.17
1409732863.400729387 : 1883.78
1409732863.500837509 : 1948.17
1409732863.600856933 : 1940.18
1409732863.701162462 : 1953.93
1409732863.800894828 : 1948.17
1409732863.900863803 : 1948.17
1409732864.000751764 : 1948.17
1409732864.100823400 : 2023.47
1409732864.200863602 : 1948.17
1409732864.300787376 : 1953.93
1409732864.400838154 : 2017.07
1409732864.500809818 : 1948.17
1409732864.600850636 : 1948.17
1409732864.700838469 : 1948.17
1409732864.800794152 : 1883.78
1409732864.900826424 : 1876.56
1409732865.000792903 : 1883.78
1409732865.100814847 : 1883.78
1409732865.200787169 : 1948.17
1409732865.300836354 : 1948.17
1409732865.400814274 : 1948.17
1409732865.500850708 : 1940.18
1409732865.600693190 : 1940.18
1409732865.700783394 : 1948.17
1409732865.800836684 : 1883.78
1409732865.900815865 : 1948.17
1409732866.000783707 : 1940.18
1409732866.100795875 : 1948.17
1409732866.200803456 : 1883.78
1409732866.300809956 : 1948.17
1409732866.400857334 : 1940.18
1409732866.500731451 : 1876.56
1409732866.600696052 : 1940.18
1409732866.700787060 : 1883.78
1409732866.800908087 : 1876.56
1409732866.900818959 : 1940.18
1409732867.000852435 : 1940.18
1409732867.100807295 : 1948.17
1409732867.200818482 : 1876.56
1409732867.300836511 : 1876.56
1409732867.400823441 : 1940.18
1409732867.500801780 : 2008.22
1409732867.600883235 : 1940.18
1409732867.700838838 : 1948.17
1409732867.800766141 : 1940.18
1409732867.900865833 : 1948.17
1409732868.000846953 : 2008.22
1409732868.100806360 : 1948.17
1409732868.200805138 : 1930.06
1409732868.300840113 : 2008.22
1409732868.400874448 : 1940.18
1409732868.500826615 : 1948.17
1409732868.600846027 : 1948.17
1409732868.700934994 : 1940.18
1409732868.800828317 : 1940.18
1409732868.900954347 : 2008.22
1409732869.000816253 : 1940.18
1409732869.100846920 : 1948.17
1409732869.200690892 : 1930.06
1409732869.301057537 : 1948.17
1409732869.400794926 : 1948.17
1409732869.500852541 : 1948.17
1409732869.600807713 : 1876.56
1409732869.700843946 : 1883.78
1409732869.801154159 : 1876.56
1409732869.900845078 : 1876.56
1409732870.000804882 : 1948.17
1409732870.100838114 : 1940.18
1409732870.200859632 : 1883.78
1409732870.300846794 : 1948.17
1409732870.400835215 : 1876.56
1409732870.500794260 : 1940.18
1409732870.600797142 : 1876.56
1409732870.700819390 : 1940.18
1409732870.800689914 : 1948.17
1409732870.900877791 : 1883.78
1409732871.000881322 : 1940.18
1409732871.100802145 : 1948.17
1409732871.200827608 : 1940.18
1409732871.300847037 : 1867.39
1409732871.400838323 : 1940.18
1409732871.500853155 : 1940.18
1409732871.600804350 : 1940.18
1409732871.700824703 : 1940.18
1409732871.800832064 : 1940.18
1409732871.900808128 : 1876.56
1409732872.000811317 : 1940.18
1409732872.100846386 : 1940.18
1409732872.200820432 : 1876.56
1409732872.300852924 : 1948.17
1409732872.400717600 : 1948.17
1409732872.500858617 : 1940.18
1409732872.600829400 : 1948.17
1409732872.700768653 : 1948.17
1409732872.800839547 : 1948.17
1409732872.900768183 : 1948.17
1409732873.000791797 : 1953.93
1409732873.100731175 : 1948.17
1409732873.200792655 : 2017.07
1409732873.301130860 : 1948.17
1409732873.400840532 : 1948.17
1409732875.500819106 : 2145.55
1409732875.600849397 : 2068.66
1409732875.700857895 : 2008.22
1409732875.800807951 : 2008.22
1409732875.900869876 : 1997
1409732876.000787467 : 1876.56
1409732876.100843242 : 1876.56
1409732876.200804508 : 1876.56
1409732876.300819976 : 1808.61
1409732876.400849418 : 1883.78
1409732876.500833752 : 1816.94
1409732876.600678977 : 1876.56
1409732876.700836837 : 1816.94
1409732878.900804745 : 1867.39
1409732879.000833852 : 1876.56
1409732879.100866885 : 1930.06
1409732879.200812236 : 1940.18
1409732879.300832315 : 1940.18
1409732879.400843831 : 1930.06
1409732879.500827670 : 1940.18
1409732879.600851423 : 1930.06
1409732879.700832515 : 1997
1409732885.900724078 : 1808.61
1409732886.000858069 : 1816.94
1409732886.100812351 : 1856.37
1409732886.200793855 : 1867.39
1409732886.300815814 : 1808.61
1409732886.400753658 : 1867.39
1409732886.500819396 : 1876.56
1409732886.600788845 : 1867.39
1409732886.700859444 : 1876.56
1409732886.800828348 : 1867.39
1409732886.900811789 : 1876.56
1409732887.000736077 : 1867.39
1409732887.100731258 : 1867.39
1409732887.200867565 : 1940.18
1409732887.300830507 : 1876.56
1409732887.400814317 : 1876.56
1409732887.500811120 : 1930.06
1409732887.600847344 : 1876.56
1409732887.700833199 : 1940.18
1409732887.800788774 : 1940.18
1409732887.900818754 : 1867.39
1409732888.000802432 : 1940.18
1409732888.100851683 : 1876.56
1409732888.200824305 : 1876.56
1409732888.300849846 : 1930.06
1409732888.400866717 : 1876.56
1409732888.500786647 : 1930.06
1409732888.600953798 : 1867.39
1409732888.700880375 : 1940.18
1409732888.800837189 : 1816.94
1409732888.900895954 : 1867.39
1409732889.000728386 : 1808.61
1409732889.100848191 : 1867.39
1409732889.200846905 : 1876.56
1409732889.300832296 : 1816.94
1409732889.400795906 : 1867.39
1409732889.500890415 : 1867.39
1409732889.600699010 : 1816.94
1409732889.700855897 : 1876.56
1409732889.800847083 : 1867.39
1409732889.900806996 : 1867.39
1409732890.000842989 : 1808.61
1409732894.100851125 : 1997
1409732894.200877101 : 1997
1409732894.300820700 : 1930.06
1409732894.400834880 : 1867.39
1409732894.500858883 : 1930.06
1409732894.600805505 : 1867.39
1409732894.700818240 : 1816.94
1409732894.800802086 : 1808.61
1409732894.900849575 : 1808.61
1409732895.000715183 : 1816.94
1409732895.100854093 : 1753.37
1409732895.200721186 : 1753.37
1409732895.400815206 : 1753.37
1409732895.500825959 : 1753.37
1409732895.600791656 : 1753.37
1409732895.700849841 : 1816.94
1409732895.800858806 : 1876.56
1409732895.900830176 : 1816.94
1409732896.000795943 : 1867.39
1409732896.100784154 : 1867.39
1409732896.200856996 : 1867.39
1409732896.300790483 : 1940.18
1409732896.400847132 : 1876.56
1409732896.500801491 : 1940.18
1409732896.600779911 : 1940.18
1409732896.700817806 : 1940.18
1409732896.800850924 : 1930.06
1409732896.900867268 : 1997
1409732897.800895905 : 1997
1409732899.000813239 : 1940.18
1409732903.400797577 : 1760.95
1409732903.500794900 : 1760.95
1409732903.600798213 : 1760.95
1409732903.700800136 : 1708.29
1409732903.800768570 : 1816.94
1409732903.900742538 : 1816.94
1409732904.000845652 : 1766.92
1409732904.100884305 : 1753.37
1409732904.900826474 : 1760.95
1409732905.000859638 : 1760.95
1409732905.100848184 : 1816.94
1409732905.200810313 : 1760.95
1409732905.300807906 : 1808.61
1409732905.400852306 : 1753.37
1409732905.500690845 : 1816.94
1409732905.600795126 : 1760.95
1409732905.700837834 : 1816.94
1409732905.800972465 : 1816.94
1409732905.900879418 : 1816.94
1409732906.000792683 : 1808.61
1409732906.100837167 : 1883.78
1409732906.200864765 : 1816.94
1409732906.300854151 : 1816.94
1409732906.400818071 : 1816.94
1409732906.500896982 : 1876.56
1409732906.600907449 : 1808.61
1409732906.700819256 : 1816.94
1409732906.800828479 : 1816.94
1409732906.900829859 : 1816.94
1409732907.000791224 : 1808.61
1409732907.100916281 : 1760.95
1409732907.200865606 : 1816.94
1409732907.300869139 : 1816.94
1409732907.400859514 : 1816.94
1409732907.500806789 : 1816.94
1409732907.600865845 : 1883.78
1409732907.700775073 : 1876.56
1409732907.800799397 : 1823.49
1409732907.900815495 : 1876.56
1409732908.000871022 : 1876.56
1409732908.100871901 : 1883.78
1409732908.200859274 : 1876.56
1409732908.300731109 : 1883.78
1409732908.400802315 : 1883.78
1409732908.500724578 : 1883.78
1409732908.600804187 : 1883.78
1409732908.700767180 : 1876.56
1409732908.800699735 : 1883.78
1409732908.900920185 : 1883.78
1409732909.000826298 : 1883.78
1409732909.100787188 : 1876.56
1409732909.200807048 : 1883.78
1409732909.300817421 : 1948.17
1409732909.400833365 : 1883.78
1409732909.500820092 : 1883.78
1409732909.600905416 : 1883.78
1409732909.700994347 : 1883.78
1409732909.800809893 : 1876.56
1409732909.900808939 : 1883.78
1409732910.000762176 : 1823.49
1409732910.100790778 : 1876.56
1409732910.200858778 : 1883.78
1409732910.300929891 : 1816.94
1409732910.400867738 : 1823.49
1409732910.500806324 : 1823.49
1409732910.600835000 : 1823.49
1409732910.700837394 : 1823.49
1409732910.800708032 : 1823.49
1409732910.900838210 : 1816.94
1409732911.000831812 : 1766.92
1409732911.100804302 : 1766.92
1409732911.200822796 : 1823.49
1409732911.300919797 : 1766.92
1409732911.400913419 : 1823.49
1409732911.500857019 : 1771.22
1409732911.600885039 : 1766.92
1409732911.700848811 : 1823.49
1409732911.800787601 : 1766.92
1409732911.900840074 : 1760.95
1409732912.000811622 : 1766.92
1409732912.100829647 : 1816.94
1409732912.200853442 : 1823.49
1409732912.300788373 : 1823.49
1409732912.400832693 : 1766.92
1409732912.500805288 : 1760.95
1409732912.600812047 : 1766.92
1409732912.700735058 : 1823.49
1409732912.800698777 : 1760.95
1409732912.900851053 : 1760.95
1409732913.000840467 : 1828.22
1409732913.100818446 : 1828.22
1409732913.200788907 : 1823.49
1409732913.300831031 : 1883.78
1409732913.400803495 : 1823.49
1409732913.500818494 : 1832.02
1409732913.600848665 : 1883.78
1409732913.700856727 : 1823.49
1409732913.800744589 : 1828.22
1409732913.900790499 : 1823.49
1409732914.000807433 : 1823.49
1409732914.100847427 : 1823.49
1409732914.200806662 : 1828.22
1409732914.300716539 : 1766.92
1409732914.400879283 : 1823.49
1409732914.500807492 : 1766.92
1409732914.600698177 : 1828.22
1409732914.700836330 : 1823.49
1409732914.800850796 : 1766.92
1409732916.400860004 : 1816.94
1409732916.500831009 : 1823.49
1409732916.600861467 : 1823.49
1409732916.700947483 : 1823.49
1409732916.800824924 : 1883.78
1409732916.900877158 : 1823.49
1409732917.000837971 : 1816.94
1409732917.100825995 : 1816.94
1409732917.200804186 : 1823.49
1409732917.300823243 : 1823.49
1409732917.400817743 : 1828.22
1409732917.500798556 : 1766.92
1409732917.600848555 : 1823.49
1409732917.700801179 : 1828.22
1409732917.800845521 : 1828.22
1409732917.900796977 : 1823.49
1409732918.000691345 : 1828.22
1409732918.100821718 : 1828.22
1409732918.200845403 : 1828.22
1409732918.300878241 : 1823.49
1409732918.400810608 : 1766.92
1409732918.500794816 : 1823.49
1409732918.600837769 : 1823.49
1409732918.700794884 : 1823.49
1409732918.800858976 : 1823.49
1409732918.900798746 : 1828.22
1409732919.000715262 : 1823.49
1409732919.100849948 : 1828.22
1409732919.200702768 : 1823.49
1409732919.300808624 : 1883.78
1409732919.400867159 : 1823.49
1409732919.500864069 : 1823.49
1409732919.600730427 : 1828.22
1409732919.700845442 : 1883.78
1409732919.800831731 : 1823.49
1409732919.900784696 : 1823.49
1409732920.000782398 : 1823.49
1409732920.100830352 : 1823.49
1409732920.200831452 : 1888.99
1409732920.300786552 : 1888.99
1409732920.400842888 : 1823.49
1409732920.500786165 : 1883.78
1409732920.600882604 : 1823.49
1409732920.700859907 : 1876.56
1409732920.800834062 : 1816.94
1409732920.900805504 : 1888.99
1409732921.000826905 : 1883.78
1409732921.100788019 : 1948.17
1409732921.200818657 : 1883.78
1409732921.300791250 : 1948.17
1409732921.400807475 : 1953.93
1409732921.500856294 : 1883.78
1409732921.600803804 : 1948.17
1409732921.700863316 : 1883.78
1409732921.800874206 : 1948.17
1409732921.900796302 : 1948.17
1409732922.000813113 : 1948.17
1409732922.100878117 : 1948.17
1409732922.200840366 : 1948.17
1409732922.300792614 : 1948.17
1409732922.400814201 : 1883.78
1409732922.500842071 : 1883.78
1409732922.600938400 : 1948.17
1409732922.700886849 : 1940.18
1409732922.800868743 : 1940.18
1409732922.900817409 : 1948.17
1409732923.000880120 : 1876.56
1409732923.100874504 : 1883.78
1409732923.200830125 : 1948.17
1409732923.300696818 : 1948.17
1409732923.400821019 : 1948.17
1409732923.500788115 : 1876.56
1409732923.600815815 : 1940.18
1409732923.700814364 : 1940.18
1409732923.800783628 : 1883.78
1409732923.900816366 : 1883.78
1409732924.000774927 : 1876.56
1409732924.100865756 : 1883.78
1409732924.200780888 : 1876.56
1409732924.300931001 : 1876.56
1409732924.400967721 : 1876.56
1409732924.500910400 : 1940.18
1409732924.601203483 : 1883.78
1409732924.700836593 : 1940.18
1409732924.800854033 : 1823.49
1409732924.900808720 : 1883.78
1409732925.000790882 : 1883.78
1409732925.100869956 : 1883.78
1409732925.200790416 : 1876.56
1409732925.300815570 : 1940.18
1409732925.400853950 : 1883.78
1409732925.500937565 : 1948.17
1409732925.600805122 : 1883.78
1409732925.701265350 : 1948.17
1409732925.800726745 : 1948.17
1409732925.900868876 : 1883.78
1409732926.000721346 : 1883.78
1409732926.100790035 : 1948.17
1409732926.200832759 : 1948.17
1409732926.300778695 : 1948.17
1409732926.400838715 : 1948.17
1409732926.500712587 : 1948.17
1409732926.600837242 : 1953.93
1409732926.700852213 : 1948.17
1409732926.800913700 : 1948.17
1409732926.900781246 : 1948.17
1409732927.000825520 : 2017.07
1409732927.100879056 : 2017.07
1409732927.200802311 : 2017.07
1409732927.300821543 : 1948.17
1409732927.400837189 : 2017.07
1409732927.500834380 : 2023.47
1409732927.600825829 : 2017.07
1409732927.700724201 : 1953.93
1409732927.801071623 : 2023.47
1409732927.900733377 : 1948.17
1409732928.000780595 : 2017.07
1409732928.100754624 : 1948.17
1409732928.200955450 : 2017.07
1409732933.900911000 : 1940.18
1409732934.000832085 : 1876.56
1409732934.100801389 : 1883.78
1409732934.200826610 : 1876.56
1409732934.300700631 : 1883.78
1409732934.400856896 : 1883.78
1409732934.500717532 : 1883.78
1409732934.600847646 : 1816.94
1409732934.700901943 : 1816.94
1409732934.800692088 : 1823.49
1409732934.900918121 : 1816.94
1409732935.000934218 : 1823.49
1409732935.100830069 : 1823.49
1409732935.200845086 : 1823.49
1409732935.300847992 : 1766.92
1409732935.400788479 : 1823.49
1409732935.500781170 : 1823.49
1409732935.600775318 : 1823.49
1409732935.700770735 : 1883.78
1409732935.800827579 : 1823.49
1409732935.900936895 : 1823.49
1409732936.000832735 : 1883.78
1409732936.100800868 : 1876.56
1409732936.200788133 : 1823.49
1409732936.300819258 : 1823.49
1409732936.400800048 : 1883.78
1409732936.500885039 : 1823.49
1409732936.600783054 : 1816.94
1409732936.700838722 : 1823.49
1409732936.800920578 : 1883.78
1409732936.900851874 : 1823.49
1409732937.000815600 : 1823.49
1409732937.100798347 : 1823.49
1409732937.200779723 : 1823.49
1409732937.300856107 : 1823.49
1409732937.400738318 : 1823.49
1409732937.500693732 : 1816.94
1409732937.600887679 : 1876.56
1409732937.700693362 : 1823.49
1409732937.800820327 : 1888.99
1409732937.900845066 : 1823.49
1409732938.000819106 : 1823.49
1409732938.100813201 : 1816.94
1409732938.200793304 : 1876.56
1409732938.300871246 : 1883.78
1409732938.400817823 : 1883.78
1409732938.500855157 : 1816.94
1409732938.600821094 : 1883.78
1409732938.700779486 : 1876.56
1409732938.800820721 : 1823.49
1409732938.900755484 : 1823.49
1409732939.000834915 : 1823.49
1409732939.100793891 : 1883.78
1409732939.200775674 : 1823.49
1409732939.300832128 : 1823.49
1409732939.400930288 : 1823.49
1409732939.500832812 : 1823.49
1409732939.600881121 : 1883.78
1409732939.701630025 : 1883.78
1409732939.800855046 : 1883.78
1409732939.900937657 : 1883.78
1409732940.000865218 : 1883.78
1409732940.100917854 : 1883.78
1409732940.200836276 : 1876.56
1409732940.300743218 : 1876.56
1409732940.400776319 : 1876.56
1409732940.500836904 : 1876.56
1409732940.600840283 : 1876.56
1409732940.700797163 : 1940.18
1409732940.800784508 : 1948.17
1409732940.900808679 : 1876.56
1409732941.000804053 : 1876.56
1409732941.100853577 : 1883.78
1409732941.200855901 : 1816.94
1409732941.300814731 : 1883.78
1409732941.400839304 : 1876.56
1409732941.500890188 : 1883.78
1409732941.600774877 : 1883.78
1409732941.700843836 : 1883.78
1409732941.800822862 : 1876.56
1409732941.900787967 : 1883.78
1409732942.000792710 : 1816.94
1409732942.100797027 : 1883.78
1409732942.200893127 : 1883.78
1409732942.300750349 : 1883.78
1409732942.400823943 : 1823.49
1409732942.500999939 : 1888.99
1409732942.600885397 : 1888.99
1409732942.700881566 : 1948.17
1409732942.800886577 : 1883.78
1409732942.900811779 : 1888.99
1409732943.000796062 : 1888.99
1409732943.100785739 : 1953.93
1409732943.200822145 : 1883.78
1409732943.300809470 : 1828.22
1409732943.400818505 : 1883.78
1409732943.500907379 : 1883.78
1409732943.600845925 : 1883.78
1409732943.700854277 : 1823.49
1409732943.800750499 : 1883.78
1409732943.900894364 : 1828.22
1409732944.000865016 : 1832.02
1409732944.100826275 : 1888.99
1409732944.200861748 : 1888.99
1409732944.300834991 : 1953.93
1409732944.400720862 : 1892.14
1409732944.500824387 : 1888.99
1409732944.600785215 : 1893.19
1409732944.700795359 : 1888.99
1409732944.800867388 : 1888.99
1409732944.900798812 : 1888.99
1409732945.000846325 : 1892.14
1409732945.100687741 : 1953.93
1409732945.200778889 : 1948.17
1409732945.300901585 : 1883.78
1409732945.400707961 : 1883.78
1409732945.500806350 : 1883.78
1409732945.600794442 : 1883.78
1409732945.700865409 : 1823.49
1409732945.800872379 : 1828.22
1409732945.900801858 : 1883.78
1409732946.000737442 : 1828.22
1409732946.100833707 : 1828.22
1409732946.200828005 : 1828.22
1409732946.300828243 : 1888.99
1409732946.400820126 : 1828.22
1409732946.500993874 : 1828.22
1409732946.600884031 : 1888.99
1409732946.700856917 : 1828.22
1409732946.800818198 : 1883.78
1409732946.900814610 : 1888.99
1409732947.000830175 : 1883.78
1409732947.100791959 : 1828.22
1409732947.200832583 : 1888.99
1409732947.300916701 : 1823.49
1409732947.400848114 : 1823.49
1409732947.500806657 : 1828.22
1409732947.600814481 : 1823.49
1409732947.700703642 : 1816.94
1409732947.800837301 : 1883.78
1409732947.900858151 : 1823.49
1409732948.000719819 : 1823.49
1409732948.100834957 : 1823.49
1409732948.200896608 : 1823.49
1409732948.301224264 : 1823.49
1409732948.400799801 : 1823.49
1409732948.500814102 : 1766.92
1409732948.600942125 : 1823.49
1409732948.700824791 : 1760.95
1409732948.800801825 : 1823.49
1409732948.900786504 : 1823.49
1409732949.000716913 : 1823.49
1409732949.100802644 : 1823.49
1409732949.200721027 : 1823.49
1409732949.300732569 : 1816.94
1409732949.400789084 : 1823.49
1409732949.500812666 : 1816.94
1409732949.600817807 : 1876.56
1409732949.700823133 : 1883.78
1409732949.800824991 : 1883.78
1409732949.900858275 : 1883.78
1409732950.000869252 : 1883.78
1409732950.100790688 : 1948.17
1409732950.200821719 : 1883.78
1409732950.300884473 : 1948.17
1409732950.400874455 : 1876.56
1409732950.500870791 : 1948.17
1409732950.600838238 : 2017.07
1409732950.700821812 : 1948.17
1409732950.800833562 : 1948.17
1409732950.900785591 : 1948.17
1409732951.000921376 : 1948.17
1409732951.100841739 : 1948.17
1409732951.200824385 : 1883.78
1409732951.300960956 : 1940.18
1409732951.400837684 : 1948.17
1409732951.500929130 : 1940.18
1409732951.600883005 : 1948.17
1409732951.700807984 : 1883.78
1409732951.800880579 : 1948.17
1409732951.900701904 : 1948.17
1409732952.000728496 : 1876.56
1409732952.100775985 : 1888.99
1409732952.200841962 : 1948.17
1409732952.300804942 : 2017.07
1409732952.400811020 : 1948.17
1409732952.500842878 : 1948.17
1409732952.600794496 : 1948.17
1409732952.700834083 : 1953.93
1409732952.800867179 : 1953.93
1409732952.900889002 : 1953.93
1409732953.000784045 : 1948.17
1409732953.100780205 : 1948.17
1409732953.200815700 : 1953.93
1409732953.300812265 : 2017.07
1409732953.400851300 : 1953.93
1409732953.500831844 : 1953.93
1409732953.600878353 : 1948.17
1409732953.700810291 : 1948.17
1409732953.800851131 : 1948.17
1409732953.900827100 : 1948.17
1409732954.000819535 : 1953.93
1409732954.100793725 : 1948.17
1409732954.200819136 : 1948.17
