1409752720.429764018 : 1606.62
1409752720.530243539 : 1606.62
1409752720.630289391 : 1606.62
1409752720.730325616 : 1625.63
1409752720.830288440 : 1606.62
1409752720.930237739 : 1606.62
1409752721.030170769 : 1648.81
1409752721.130262558 : 1669.39
1409752721.230251339 : 1715.3
1409752721.330244657 : 1648.81
1409752721.430296242 : 1648.81
1409752721.530359685 : 1669.39
1409752721.630278967 : 1648.81
1409752721.730242312 : 1669.39
1409752721.830569879 : 1648.81
1409752721.930293199 : 1715.3
1409752722.030153177 : 1715.3
1409752722.130305126 : 1689.25
1409752722.230164059 : 1669.39
1409752722.330292606 : 1715.3
1409752722.430169733 : 1689.25
1409752722.530244371 : 1648.81
1409752722.630324160 : 1669.39
1409752722.730391589 : 1669.39
1409752722.830249388 : 1648.81
1409752722.930362334 : 1669.39
1409752723.030279592 : 1669.39
1409752723.130235905 : 1669.39
1409752723.230144341 : 1669.39
1409752723.330351455 : 1669.39
1409752723.430266438 : 1646.73
1409752723.530299571 : 1663.64
1409752723.630313602 : 1660.07
1409752723.730161594 : 1638.47
1409752723.830302934 : 1667.22
1409752723.930288536 : 1678.13
1409752724.030319401 : 1689.25
1409752724.130354670 : 1715.3
1409752724.230233990 : 1726.38
1409752724.330300083 : 1721.6
1409752724.430271441 : 1693.01
1409752724.530260439 : 1771.22
1409752724.630184062 : 1766.92
1409752724.730257403 : 1766.92
1409752724.830395412 : 1708.29
1409752724.930258402 : 1753.37
1409752725.030299875 : 1753.37
1409752725.130240422 : 1753.37
1409752725.230315046 : 1753.37
1409752725.330310006 : 1753.37
1409752725.430253259 : 1808.61
1409752725.530287342 : 1744.23
1409752725.630325879 : 1744.23
1409752725.730254700 : 1753.37
1409752725.830323365 : 1753.37
1409752725.930827240 : 1744.23
1409752726.030275550 : 1798.59
1409752726.130287616 : 1808.61
1409752726.230273156 : 1808.61
1409752726.330302658 : 1867.39
1409752726.430347853 : 1867.39
1409752726.530297658 : 1808.61
1409752726.630362767 : 1867.39
1409752726.730283424 : 1930.06
1409752726.830292399 : 1867.39
1409752726.930235540 : 1930.06
1409752727.030296797 : 1930.06
1409752727.130367909 : 1940.18
1409752727.230267039 : 1997
1409752727.330406828 : 1930.06
1409752727.430338312 : 1930.06
1409752727.530424578 : 1867.39
1409752727.630311397 : 1930.06
1409752727.730256416 : 1930.06
1409752727.830140747 : 1930.06
1409752727.930281340 : 1930.06
1409752728.030287064 : 1867.39
1409752728.130262489 : 1930.06
1409752728.230279997 : 1867.39
1409752728.330266842 : 1930.06
1409752728.430302654 : 1856.37
1409752728.530286605 : 1867.39
1409752728.630248514 : 1856.37
1409752728.730285631 : 1808.61
1409752728.830353293 : 1867.39
1409752728.930262290 : 1856.37
1409752729.030285865 : 1867.39
1409752729.130288408 : 1867.39
1409752729.230294541 : 1843.59
1409752729.330231642 : 1856.37
1409752729.430290420 : 1856.37
1409752729.530258422 : 1856.37
1409752729.630407078 : 1867.39
1409752729.730235607 : 1856.37
1409752729.830286987 : 1867.39
1409752729.930259439 : 1843.59
1409752730.030162460 : 1867.39
1409752730.130319025 : 1856.37
1409752730.230165937 : 1917.9
1409752730.330288887 : 1903.82
1409752730.430232788 : 1983.54
1409752730.530287425 : 1917.9
1409752730.630295392 : 1903.82
1409752730.730411248 : 1903.82
1409752730.830299579 : 1903.82
1409752730.930258541 : 1967.97
1409752731.030298524 : 1983.54
1409752731.130306917 : 1967.97
1409752731.230324129 : 1983.54
1409752731.330170918 : 1983.54
1409752731.430289633 : 1967.97
1409752731.530269094 : 1967.97
1409752731.630312615 : 1967.97
1409752731.730237154 : 1967.97
1409752731.830275075 : 1967.97
1409752731.930408645 : 1950.46
1409752732.030309517 : 1950.46
1409752732.130273309 : 1931.17
1409752732.230300228 : 1950.46
1409752732.330276791 : 1910.28
1409752732.430310272 : 1972.72
1409752732.530309602 : 1948.17
1409752732.630238783 : 1910.28
1409752732.730243009 : 1887.95
1409752732.830299014 : 1864.37
1409752732.930299692 : 1922.29
1409752733.030157210 : 1838.74
1409752733.130300324 : 1878.61
1409752733.230287411 : 1893.19
1409752733.330250976 : 1910.28
1409752733.430226095 : 1998.23
1409752733.530336260 : 1969.16
1409752733.630294429 : 1982.33
1409752733.730313401 : 1983.54
1409752733.830167485 : 2039.08
1409752733.930141527 : 2053.71
1409752734.030261456 : 2081.13
1409752734.130299876 : 2170.49
1409752734.230298919 : 2178.47
1409752734.330316976 : 2090.99
1409752734.430232239 : 2170.49
1409752734.530243071 : 2081.13
1409752734.630271406 : 2145.55
1409752734.730229950 : 2081.13
1409752734.830317827 : 2068.66
1409752734.930359920 : 2068.66
1409752735.030252644 : 2145.55
1409752735.130345987 : 2081.13
1409752735.230287121 : 2243.85
1409752735.330286356 : 2145.55
1409752735.430279834 : 2243.85
1409752735.530327234 : 2228.24
1409752735.630287973 : 2243.85
1409752735.730288174 : 2243.85
1409752735.830338553 : 2317.42
1409752735.930340919 : 2334.99
1409752736.030305666 : 2334.99
1409752736.130294800 : 2334.99
1409752736.230314881 : 2334.99
1409752736.330285355 : 2433.72
1409752736.430264900 : 2334.99
1409752736.530325727 : 2413.84
1409752736.630253736 : 2433.72
1409752736.730311555 : 2433.72
1409752736.830266932 : 2317.42
1409752736.930449542 : 2433.72
1409752737.030220211 : 2390.2
1409752737.130273486 : 2390.2
1409752737.230176750 : 2491.61
1409752737.330266776 : 2390.2
1409752737.430251476 : 2296.47
1409752737.530331799 : 2272.43
1409752737.630335281 : 2390.2
1409752737.730231030 : 2390.2
1409752737.830162119 : 2296.47
1409752737.930313376 : 2272.43
1409752738.030265616 : 2296.47
1409752738.130349698 : 1672.29
1409752738.230231841 : 2188.16
1409752738.330231334 : 2209.6
1409752738.430246721 : 2272.43
1409752738.630254596 : 1635.74
1409752738.730259601 : 2036.45
1409752738.830301240 : 2188.16
1409752738.930308790 : 1635.74
1409752739.030224365 : 2209.6
1409752739.130255653 : 2164.17
1409752739.230281167 : 2272.43
1409752739.330227926 : 1672.29
1409752739.430182395 : 2296.47
1409752739.530302394 : 2164.17
1409752739.630269532 : 1614.4
1409752739.730292898 : 2245.61
1409752739.830251857 : 1635.74
1409752739.930238412 : 2164.17
1409752740.030371668 : 1660.07
1409752740.130307638 : 2164.17
1409752740.230298788 : 1602.12
1409752740.330314753 : 1646.73
1409752740.430254289 : 2245.61
1409752740.530267589 : 1588.87
1409752740.630279395 : 2216.32
1409752740.730177133 : 2216.32
1409752740.830245266 : 2109.68
1409752740.930303430 : 2109.68
1409752741.030225892 : 2109.68
1409752741.130295644 : 2109.68
1409752741.230273340 : 2048.35
1409752741.330337889 : 2012
1409752741.430281223 : 2039.08
1409752741.630252423 : 2012
1409752741.730338693 : 1948.17
1409752741.830345877 : 1864.37
1409752741.930304821 : 1864.37
1409752742.030259838 : 1910.28
1409752742.130297144 : 1851.42
1409752742.230278041 : 1870.43
1409752742.330244306 : 1795.89
1409752742.430242004 : 1870.43
1409752742.530297599 : 1851.42
1409752742.630434721 : 1809.53
1409752742.730235363 : 1763.5
1409752742.830254403 : 1739.31
1409752742.930157007 : 1760.95
1409752743.030258421 : 1720.02
1409752743.130316083 : 1808.61
1409752744.830292125 : 1683.29
1409752744.930287110 : 1683.29
1409752745.030398547 : 1733.62
1409752745.130296525 : 1843.59
1409752745.230292837 : 1843.59
1409752745.330212967 : 1843.59
1409752745.430233958 : 1903.82
1409752745.530260875 : 1983.54
1409752745.630333353 : 2017.07
1409752745.730233556 : 2008.22
1409752745.830284893 : 2008.22
1409752745.930316561 : 2008.22
1409752746.030242044 : 2008.22
1409752746.130290027 : 2008.22
1409752746.230251894 : 2008.22
1409752746.330302507 : 2008.22
1409752746.430241167 : 2008.22
1409752746.530333466 : 2008.22
1409752746.630270840 : 2008.22
1409752746.730231713 : 2008.22
1409752746.830306214 : 2081.13
1409752746.930303898 : 2081.13
1409752747.030269131 : 2090.99
1409752747.130270199 : 2081.13
1409752747.230270076 : 2090.99
1409752747.330263312 : 2090.99
1409752747.430280930 : 2090.99
1409752747.530488035 : 2090.99
1409752747.630282326 : 2081.13
1409752747.730252003 : 2090.99
1409752747.830336024 : 2081.13
1409752747.930328253 : 2159.47
1409752748.030247237 : 2159.47
1409752748.130322431 : 2170.49
1409752748.230256759 : 2145.55
1409752748.330246842 : 2081.13
1409752748.430249191 : 2159.47
1409752748.530267936 : 2145.55
1409752748.630297744 : 2081.13
1409752748.730281912 : 2081.13
1409752748.830295954 : 2068.66
1409752748.930229182 : 2053.71
1409752749.030272552 : 1327.5
1409752749.530596832 : 2053.71
1409752749.580821398 : 2053.71
1409752749.680947370 : 1302.74
1409752750.181239450 : 2128.88
1409752750.231447649 : 2036.45
1409752750.331544876 : 2053.71
1409752750.431517138 : 2036.45
1409752750.531619486 : 2053.71
1409752750.631649487 : 2053.71
1409752750.731659246 : 2128.88
1409752750.831498060 : 2053.71
1409752750.931642339 : 2053.71
1409752751.031662129 : 2053.71
1409752751.131623680 : 2053.71
1409752751.231663048 : 1983.54
1409752751.331612440 : 1967.97
1409752751.431596828 : 2053.71
1409752751.531673391 : 2053.71
1409752751.631645360 : 2053.71
1409752751.731527158 : 2036.45
1409752751.831633474 : 2017.07
1409752751.931624862 : 2117.01
1409752752.031593754 : 1982.33
1409752752.131585594 : 2006.96
1409752752.231571070 : 2068.66
1409752752.331513282 : 1319.57
1409752752.831990483 : 2088.16
1409752752.882144184 : 2017.07
1409752752.982275984 : 2068.66
1409752753.082431688 : 2090.99
1409752753.182309230 : 2102.44
1409752753.282280383 : 2090.99
1409752753.382324288 : 2145.55
1409752753.482259402 : 2159.47
1409752753.582290463 : 2081.13
1409752753.682310745 : 2081.13
1409752753.782313310 : 2068.66
1409752753.882208645 : 2159.47
1409752753.982337549 : 2145.55
1409752754.082257060 : 2068.66
1409752754.182451643 : 2081.13
1409752754.282317702 : 2081.13
1409752754.382317119 : 2081.13
1409752754.482305980 : 2228.24
1409752754.582302346 : 2068.66
1409752754.682275405 : 2068.66
1409752754.782289124 : 2145.55
1409752754.882296360 : 2145.55
1409752754.982272865 : 2068.66
1409752755.082268275 : 2068.66
1409752755.182327409 : 2068.66
1409752755.282318955 : 2068.66
1409752755.382277591 : 2068.66
1409752755.482300981 : 2068.66
1409752755.582203907 : 2068.66
1409752755.682356912 : 2068.66
1409752755.782273843 : 2068.66
1409752755.882330751 : 2068.66
1409752755.982266201 : 2068.66
1409752756.082316349 : 2053.71
1409752756.182412095 : 2128.88
1409752756.282280313 : 2053.71
1409752756.382184547 : 2036.45
1409752756.482321186 : 2109.68
1409752756.582283285 : 2036.45
1409752756.682387753 : 2109.68
1409752756.782324646 : 2109.68
1409752756.882253462 : 2109.68
1409752756.982324475 : 2036.45
1409752757.082326537 : 2109.68
1409752757.182299391 : 2036.45
1409752757.282257995 : 2109.68
1409752757.382321951 : 2088.16
1409752757.482336404 : 2088.16
1409752757.582277902 : 2036.45
1409752757.682314875 : 2036.45
1409752757.782186580 : 2017.07
1409752757.882345294 : 2017.07
1409752757.982297512 : 2064.55
1409752758.082313719 : 2088.16
1409752758.182318198 : 1995.76
1409752758.282289587 : 1995.76
1409752758.382278231 : 2064.55
1409752758.482305221 : 2039.08
1409752758.582174922 : 2064.55
1409752758.682273336 : 2039.08
1409752758.782268638 : 2109.68
1409752758.882178160 : 2079.74
1409752758.982264301 : 2012
1409752759.082315867 : 2039.08
1409752759.182348118 : 2012
1409752759.282254977 : 2079.74
1409752759.382286806 : 2109.68
1409752759.482365585 : 2039.08
1409752759.582347220 : 2012
1409752759.682280353 : 2079.74
1409752759.782325371 : 2048.35
1409752759.882321291 : 2048.35
1409752759.982318260 : 2048.35
1409752760.082347699 : 2048.35
1409752760.182341257 : 1983.54
1409752760.282190584 : 2048.35
1409752760.382180173 : 2048.35
1409752760.482329087 : 2117.01
1409752760.582267272 : 2079.74
1409752760.682214011 : 2117.01
1409752760.782289053 : 2048.35
1409752760.882343314 : 2117.01
1409752760.982348047 : 2117.01
1409752761.082308248 : 2117.01
1409752761.182283494 : 2081.13
1409752761.282377319 : 2048.35
1409752761.382335496 : 2081.13
1409752761.482277329 : 2081.13
1409752761.582344183 : 2117.01
1409752761.682323437 : 2117.01
1409752761.782169594 : 2117.01
1409752761.882313823 : 2189.78
1409752761.982358211 : 2117.01
1409752762.082193560 : 2081.13
1409752762.182181557 : 2117.01
1409752762.282245816 : 2068.66
1409752762.382217392 : 2088.16
1409752762.482325784 : 2111.14
1409752762.582320717 : 2111.14
1409752762.682185729 : 2088.16
1409752762.782310357 : 2081.13
1409752762.882302159 : 2079.74
1409752762.982341653 : 2079.74
1409752763.082206851 : 1995.76
1409752763.182300377 : 1997
1409752763.282324849 : 1940.18
1409752763.382325107 : 1948.17
1409752763.482205813 : 1953.93
1409752763.582302084 : 1940.18
1409752763.682301409 : 1930.06
1409752763.782192946 : 1358.78
1409752764.282675965 : 1917.9
1409752764.332836992 : 1297.61
1409752764.833088505 : 1829.17
1409752764.883481483 : 1887.95
1409752764.983548149 : 1887.95
1409752765.083577500 : 1829.17
1409752765.183466400 : 1829.17
1409752765.283529414 : 1829.17
1409752765.383528468 : 1829.17
1409752765.483530321 : 1813.22
1409752765.583551860 : 1813.22
1409752765.683415307 : 1829.17
1409752765.783622211 : 1759.26
1409752765.883432278 : 1759.26
1409752765.983555708 : 1759.26
1409752766.083518620 : 1759.26
1409752766.183427893 : 1708.29
1409752766.283600449 : 1773.81
1409752766.383564041 : 1693.76
1409752766.483532019 : 1743.41
1409752766.583423546 : 1708.29
1409752766.683547464 : 1660.07
1409752766.783507749 : 1708.29
1409752766.883590830 : 1708.29
1409752766.983545995 : 1660.07
1409752767.083566082 : 1708.29
1409752767.183511145 : 1660.07
1409752767.283549650 : 1660.07
1409752767.383420790 : 1660.07
1409752767.483539520 : 1614.4
1409752767.583530767 : 1646.73
1409752767.683519284 : 1614.4
1409752767.783565266 : 1614.4
1409752767.883501090 : 1646.73
1409752767.983575301 : 1602.12
1409752768.083561785 : 1614.4
1409752768.183520621 : 1547.53
1409752768.283509530 : 1571.1
1409752768.383600812 : 1559.77
1409752768.483556214 : 1588.87
1409752768.583614916 : 1547.53
1409752768.683492442 : 1602.12
1409752768.783498935 : 1559.77
1409752768.883551613 : 1602.12
1409752768.983416962 : 1547.53
1409752769.083546008 : 1547.53
1409752769.183516653 : 1547.53
1409752769.283569220 : 1508.19
1409752769.383571313 : 1508.19
1409752769.483558771 : 1508.19
1409752769.583750238 : 1508.19
1409752769.683502990 : 1508.19
1409752769.783506809 : 1508.19
1409752769.883559232 : 1434.96
1409752770.383825472 : 1470.7
1409752770.433923482 : 1508.19
1409752770.484046116 : 1470.7
1409752770.584236864 : 1547.53
1409752770.684244127 : 1534.45
1409752770.784245436 : 1588.87
1409752770.884223580 : 1508.19
1409752770.984221242 : 1559.77
1409752771.084224405 : 1602.12
1409752771.184170288 : 1635.74
1409752771.284204330 : 1590.75
1409752771.384116155 : 1590.75
1409752771.484099810 : 1635.74
1409752771.584252810 : 1548.11
1409752771.684191120 : 1625.63
1409752771.784202549 : 1632.35
1409752771.884250612 : 1632.35
1409752771.984121144 : 1600.85
1409752772.084206773 : 1670.11
1409752772.184193380 : 1678.13
1409752772.284256633 : 1660.07
1409752772.384172175 : 1708.29
1409752772.484219011 : 1690
1409752772.584233547 : 1678.13
1409752772.684181946 : 1715.3
1409752772.784262103 : 1736.86
1409752772.884236255 : 1743.41
1409752772.984207019 : 1733.62
1409752773.084070467 : 1760.95
1409752773.184089691 : 1713.73
1409752773.284242413 : 1720.02
1409752773.384230104 : 1713.73
1409752773.484193295 : 1658.65
1409752773.584241903 : 1644.65
1409752773.684173008 : 1693.01
1409752773.784153683 : 1683.29
1409752773.884235583 : 1683.29
1409752773.984191501 : 1672.29
1409752774.084252480 : 1672.29
1409752774.184141151 : 1721.6
1409752774.284197865 : 1672.29
1409752774.384289230 : 1708.29
1409752774.484186646 : 1721.6
1409752774.584206586 : 1708.29
1409752774.684255897 : 1271.24
1409752775.184601875 : 1721.6
1409752775.234798404 : 1721.6
1409752775.334976241 : 1759.26
1409752775.434912126 : 1721.6
1409752775.534900738 : 1721.6
1409752775.634973275 : 1307.23
1409752776.135338999 : 1786.96
1409752776.185463170 : 1391.53
1409752776.685903519 : 1773.81
1409752776.736181408 : 1786.96
1409752776.836336307 : 1786.96
1409752776.936364210 : 1843.59
1409752777.036299109 : 1786.96
1409752777.236284413 : 1786.96
1409752777.336334497 : 1733.62
1409752777.436262356 : 1798.59
1409752777.536412106 : 1786.96
1409752777.636317052 : 1786.96
1409752777.736387346 : 1798.59
1409752777.836275354 : 1856.37
1409752777.936356654 : 1829.17
1409752778.036301164 : 1843.59
1409752778.136305596 : 1843.59
1409752778.236276846 : 1843.59
1409752778.336304306 : 1391.53
1409752778.836797334 : 1843.59
1409752778.886990390 : 1843.59
1409752778.987141429 : 1786.96
1409752779.087192814 : 1786.96
1409752779.187120456 : 1786.96
1409752779.287194741 : 1721.6
1409752779.387115521 : 1721.6
1409752779.487275567 : 1721.6
1409752779.587175477 : 1733.62
1409752779.687107573 : 1773.81
1409752779.787110995 : 1773.81
1409752779.887125031 : 1759.26
1409752779.987176019 : 1759.26
1409752780.087122039 : 1759.26
1409752780.187127344 : 1759.26
1409752780.287111856 : 1759.26
1409752780.387128732 : 1813.22
1409752780.487098348 : 1813.22
1409752780.587108059 : 1795.89
1409752780.687166561 : 1726.38
1409752780.787157363 : 1757.57
1409752780.887245676 : 1757.57
1409752780.987115549 : 1708.29
1409752781.087133806 : 1708.29
1409752781.187149490 : 1708.29
1409752781.287194993 : 1777.29
1409752781.387112274 : 1708.29
1409752781.487149543 : 1708.29
1409752781.587119686 : 1777.29
1409752781.687122202 : 1757.57
1409752781.787167293 : 1777.29
1409752781.987118702 : 1759.26
1409752782.087180087 : 1753.37
1409752782.187153394 : 1701.36
1409752782.287165539 : 1713.73
1409752782.387175931 : 1766.92
1409752782.487154376 : 1713.73
1409752782.588243236 : 1652.31
1409752782.687148409 : 1635.74
1409752782.787113816 : 1672.29
1409752782.887106282 : 1632.35
1409752782.987165546 : 1648.81
1409752783.087119232 : 1637.78
1409752783.187144696 : 1660.07
1409752783.287168874 : 1638.47
1409752783.387153258 : 1227.56
1409752783.887528749 : 1614.4
1409752783.937696172 : 1625.63
1409752784.037920469 : 1644.65
1409752784.137896794 : 1611.8
1409752784.237926180 : 1605.97
1409752784.338022292 : 1611.8
1409752784.437795161 : 1605.97
1409752784.537872614 : 1539.53
1409752784.637920886 : 1614.4
1409752784.737897903 : 1547.53
1409752784.837934869 : 1534.45
1409752784.937878513 : 1510.86
1409752785.037920484 : 1561.54
1409752785.137878376 : 1550.42
1409752785.237862060 : 1566.9
1409752785.337900497 : 1566.9
1409752785.438390835 : 1542.95
1409752785.537886470 : 1533.89
1409752785.637882019 : 1574.73
1409752785.738011212 : 1525.55
1409752785.837881625 : 1605.97
1409752785.937902401 : 1047.92
1409752786.438219942 : 1605.97
1409752786.488480242 : 1583.91
1409752786.588515218 : 1598.94
1409752786.688524694 : 1594.51
1409752786.788516899 : 1635.74
1409752786.888670484 : 1638.47
1409752786.988502889 : 1635.74
1409752787.088531429 : 1630.33
1409752787.188626190 : 1637.78
1409752787.288598322 : 1663.64
1409752787.388499373 : 1646.73
1409752787.488646879 : 1714.51
1409752787.588663242 : 1670.11
1409752787.688659038 : 1678.13
1409752787.788609669 : 1708.29
1409752787.888779489 : 1683.29
1409752787.988709586 : 1693.01
1409752788.088659869 : 1667.22
1409752788.188605940 : 1717.65
1409752788.288657897 : 1708.29
1409752788.388642574 : 1644.65
1409752788.488610936 : 1660.07
1409752788.588600112 : 1632.35
1409752788.688741705 : 1643.96
1409752788.788627238 : 1669.39
1409752788.888534585 : 1670.11
1409752788.988671526 : 1637.78
1409752789.088653022 : 1594.51
1409752789.188644251 : 1638.47
1409752789.288716623 : 1600.85
1409752789.388624832 : 1559.77
1409752789.488630076 : 1598.94
1409752789.588680324 : 1583.91
1409752789.688678896 : 1583.91
1409752789.788671397 : 1566.9
1409752789.888626224 : 1566.3
1409752789.988514044 : 1574.73
1409752790.088595192 : 1559.77
1409752790.188638156 : 1555.66
1409752790.288635994 : 1525.55
1409752790.388628574 : 1525.55
1409752790.488602381 : 1532.21
1409752790.589714556 : 1533.89
1409752790.688617295 : 1567.5
1409752790.788655551 : 1525.55
1409752790.888654108 : 1529.42
1409752791.088530441 : 1489.35
1409752791.188510865 : 1470.7
1409752791.288654278 : 1496.07
1409752791.388644720 : 1440.97
1409752791.889205762 : 1477.68
1409752791.939191628 : 1471.2
1409752791.989128221 : 1490.89
1409752792.039139488 : 1510.33
1409752792.089285422 : 1475.18
1409752792.289479309 : 1490.89
1409752792.389425182 : 1534.45
1409752792.489422501 : 1481.2
1409752792.589336927 : 1438.65
1409752793.089882425 : 1548.11
1409752793.140128742 : 1548.11
1409752793.240352782 : 1499.73
1409752793.340348339 : 1548.11
1409752793.540226539 : 1548.11
1409752793.640314461 : 1548.11
1409752793.740249074 : 1507.66
1409752793.840360372 : 1507.66
1409752793.940337838 : 1507.66
1409752794.040240381 : 1514.63
1409752794.140312412 : 1514.63
1409752794.240412669 : 1514.63
1409752794.340240710 : 1514.63
1409752794.440338949 : 1555.66
1409752794.540241273 : 1562.14
1409752794.640355208 : 1525.55
1409752794.740253809 : 1525.55
1409752794.840199871 : 1525.55
1409752794.940312391 : 1529.42
1409752797.040246167 : 1555.66
1409752797.140402949 : 1555.66
1409752797.240319271 : 1555.66
1409752797.340204177 : 1598.94
1409752797.440366123 : 1548.11
1409752797.540304968 : 1548.11
1409752797.640355693 : 1590.75
1409752797.740352763 : 1581.44
1409752797.840739610 : 1581.44
1409752797.940370485 : 1571.1
1409752798.040312346 : 1571.1
1409752798.140345825 : 1571.1
1409752798.240370836 : 1571.1
1409752798.340385328 : 1529.98
1409752798.440330552 : 1519.51
1409752798.540423699 : 1529.98
1409752798.640342685 : 1571.1
1409752798.740299618 : 1529.98
1409752798.840303338 : 1559.77
1409752798.940340917 : 1519.51
1409752799.040340181 : 1571.1
1409752799.140296204 : 1559.77
1409752799.240365988 : 1602.12
1409752799.340350681 : 1559.77
1409752799.440370262 : 1559.77
1409752799.540311552 : 1602.12
1409752799.640349088 : 1602.12
1409752799.740206280 : 1602.12
1409752799.840214293 : 1602.12
1409752799.940314012 : 1588.87
1409752800.040358651 : 1648.81
1409752800.140354767 : 1583.91
1409752800.240317213 : 1598.94
1409752800.340389621 : 1630.33
1409752800.440302595 : 1604.69
1409752800.540298876 : 1667.22
1409752800.640234349 : 1598.94
1409752800.740348321 : 1605.97
1409752800.840305631 : 1600.85
1409752800.940305565 : 1632.35
1409752801.040351518 : 1625.63
1409752801.140354325 : 1605.97
1409752801.240301740 : 1667.22
1409752801.340317698 : 1663.64
1409752801.440353470 : 1611.8
1409752801.540325685 : 1635.74
1409752801.640378419 : 1625.63
1409752801.740302400 : 1625.63
1409752801.840362058 : 1547.53
1409752801.940305923 : 1602.12
1409752802.040318647 : 1547.53
1409752802.140290543 : 1547.53
1409752802.240279635 : 1508.19
1409752802.340320723 : 1559.77
1409752802.440273856 : 1559.77
1409752805.140245173 : 1547.53
1409752805.240317933 : 1588.87
1409752805.340347453 : 1559.77
1409752805.440299777 : 1547.53
1409752805.540338696 : 1559.77
1409752805.640339479 : 1559.77
1409752805.740453480 : 1588.87
1409752805.840319384 : 1547.53
1409752805.940398193 : 1588.87
1409752806.040323515 : 1588.87
1409752806.140397583 : 1588.87
1409752806.240212241 : 1588.87
1409752807.440197621 : 1617.03
1409752807.540347898 : 1600.85
1409752807.640334592 : 1661.49
1409752807.740338834 : 1617.03
1409752807.840365787 : 1617.03
1409752807.940317740 : 1617.03
1409752808.040312811 : 1617.03
1409752808.140373616 : 1600.85
1409752808.240379324 : 1600.85
1409752808.340487761 : 1643.96
1409752808.440291773 : 1625.63
1409752808.540196933 : 1643.96
1409752808.640198648 : 1669.39
1409752808.740361924 : 1669.39
1409752808.840300488 : 1669.39
1409752808.940331662 : 1669.39
1409752809.040323534 : 1693.01
1409752809.140304627 : 1693.01
1409752809.240304221 : 1693.01
1409752809.340344118 : 1714.51
1409752809.540381850 : 1739.31
1409752809.640367401 : 1714.51
1409752809.740475245 : 1627.64
1409752809.840354971 : 1670.11
1409752809.940354220 : 1714.51
1409752810.040317672 : 1689.25
1409752810.140356017 : 1714.51
1409752810.240222607 : 1714.51
1409752810.340319090 : 1646.73
1409752810.440365942 : 1646.73
1409752810.540357595 : 1689.25
1409752810.640299319 : 1646.73
1409752810.740365802 : 1760.95
1409752810.840334006 : 1733.62
1409752810.940319867 : 1689.25
1409752811.040300442 : 1689.25
1409752811.140302373 : 1663.64
1409752814.140417328 : 1519.51
1409752814.240311093 : 1559.77
1409752814.340320639 : 1519.51
1409752814.440319197 : 1529.98
1409752814.540344373 : 1529.98
1409752814.640340590 : 1539.53
1409752814.740382420 : 1539.53
1409752814.840340926 : 1539.53
1409752814.940416282 : 1581.44
1409752815.040280020 : 1529.98
1409752815.140325004 : 1529.98
1409752815.240302910 : 1581.44
1409752815.340323017 : 1571.1
1409752815.440324308 : 1590.75
1409752815.540411033 : 1590.75
1409752815.640209543 : 1539.53
1409752815.740301117 : 1590.75
1409752815.840299473 : 1581.44
1409752815.940356325 : 1581.44
1409752816.040291130 : 1635.74
1409752816.140356809 : 1644.65
1409752816.340351688 : 1598.94
1409752816.440328519 : 1672.29
1409752816.540307319 : 1683.29
1409752816.640348630 : 1683.29
1409752816.740383947 : 1693.01
1409752816.840290046 : 1672.29
1409752816.940459078 : 1683.29
1409752817.040357012 : 1683.29
1409752817.140321993 : 1683.29
1409752817.240298834 : 1744.23
1409752817.340345048 : 1786.96
1409752817.440215467 : 1721.6
1409752817.540323269 : 1733.62
1409752817.640313185 : 1733.62
1409752817.740480245 : 1721.6
1409752817.840196211 : 1733.62
1409752817.940376965 : 1672.29
1409752818.040478347 : 1672.29
1409752818.140292963 : 1708.29
1409752818.240321475 : 1660.07
1409752818.340334960 : 1660.07
1409752818.440374573 : 1693.76
1409752818.540373406 : 1708.29
1409752818.640384906 : 1693.76
1409752818.740287140 : 1646.73
1409752818.840296406 : 1693.76
1409752818.940397756 : 1726.38
1409752819.040368496 : 1661.49
1409752819.140321137 : 1632.35
1409752819.240302781 : 1678.13
1409752819.340417437 : 1678.13
1409752819.440335048 : 1678.13
1409752819.540326680 : 1743.41
1409752819.640313328 : 1726.38
1409752819.740341647 : 1678.13
1409752819.840374326 : 1726.38
1409752819.940317487 : 1777.29
1409752820.040343541 : 1795.89
1409752820.140412635 : 1795.89
1409752820.240390478 : 1743.41
1409752820.340385082 : 1795.89
1409752820.440392302 : 1777.29
1409752820.540289023 : 1743.41
1409752820.640285640 : 1743.41
1409752820.740349587 : 1795.89
1409752820.840304217 : 1795.89
1409752820.940347626 : 1786.96
1409752821.040334182 : 1763.5
1409752821.140382347 : 1760.95
1409752821.240311513 : 1795.89
1409752821.340285596 : 1739.31
1409752821.440352758 : 1705.2
1409752821.540445136 : 1808.61
1409752821.640362816 : 1779.91
1409752821.740280932 : 1739.31
1409752821.840319306 : 1809.53
1409752821.940379385 : 1759.26
1409752822.040314809 : 1786.96
1409752822.140337750 : 1744.23
1409752822.240325380 : 1766.92
1409752822.340343725 : 1774.68
1409752822.440210394 : 1773.81
1409752822.540301683 : 1766.92
1409752822.640451828 : 1753.37
1409752822.740231019 : 1744.23
1409752822.840382186 : 1733.62
1409752822.940355625 : 1683.29
1409752823.040317984 : 1744.23
1409752823.140394791 : 1672.29
1409752823.240194024 : 1744.23
1409752823.340364206 : 1733.62
1409752823.440312107 : 1733.62
1409752823.540379114 : 1798.59
1409752823.640257459 : 1753.37
1409752823.740360841 : 1808.61
1409752823.840202320 : 1798.59
1409752823.940274546 : 1744.23
1409752824.040379501 : 1744.23
1409752824.140329777 : 1753.37
1409752824.240288153 : 1798.59
1409752824.340320519 : 1798.59
1409752824.440280223 : 1733.62
1409752824.540298581 : 1744.23
1409752824.640419932 : 1733.62
1409752824.740298963 : 1798.59
1409752824.840301430 : 1798.59
1409752824.940362415 : 1733.62
1409752825.040343328 : 1753.37
1409752825.140349254 : 1744.23
1409752825.240363111 : 1744.23
1409752825.340333128 : 1753.37
1409752825.440409983 : 1733.62
1409752825.540229494 : 1744.23
1409752825.640477260 : 1798.59
1409752825.740224490 : 1753.37
1409752825.840275727 : 1798.59
1409752825.940351325 : 1744.23
1409752826.040360335 : 1744.23
1409752826.140393479 : 1744.23
1409752826.240365730 : 1693.01
1409752826.340381609 : 1683.29
1409752826.440357213 : 1733.62
1409752826.540388933 : 1733.62
1409752826.640210931 : 1733.62
1409752826.740321257 : 1625.63
1409752826.840319056 : 1635.74
1409752826.940309173 : 1683.29
1409752827.040326252 : 1625.63
1409752827.140378430 : 1625.63
1409752827.340313309 : 1614.4
1409752827.440302391 : 1193.6
1409752827.940579404 : 1660.07
1409752827.990786936 : 1632.35
1409752828.090868157 : 1632.35
1409752828.190851827 : 1299.99
1409752828.691291241 : 1726.38
1409752828.741492288 : 1743.41
1409752828.841677597 : 1726.38
1409752828.941612183 : 1777.29
1409752829.041547294 : 1795.89
1409752829.141521302 : 1726.38
1409752829.241503893 : 1708.29
1409752832.341592265 : 1646.73
1409752832.441752783 : 1669.39
1409752832.541638036 : 1678.13
1409752832.641610723 : 1632.35
1409752832.741761191 : 1644.65
1409752832.841625623 : 1616.37
1409752832.941519731 : 1619.66
1409752833.041609536 : 1667.22
1409752833.141608265 : 1154.08
1409752833.641906693 : 1648.81
1409752833.692162712 : 1627.64
1409752833.792258982 : 1622.97
1409752833.892341748 : 1650.21
1409752833.992378760 : 1622.31
1409752834.392317030 : 1646.73
1409752834.492305900 : 1648.81
1409752834.592323002 : 1625.63
1409752834.692281386 : 1617.03
1409752834.792262365 : 1632.35
1409752834.892391701 : 1574.73
1409752834.992291289 : 1583.91
1409752835.092331632 : 1646.73
1409752835.192372686 : 1611.8
1409752835.292287451 : 1667.22
1409752835.392306485 : 1635.74
1409752835.492240247 : 1638.47
1409752835.592346225 : 1635.74
1409752835.692270927 : 1622.31
1409752835.792294083 : 1678.13
1409752835.892322958 : 1663.64
1409752835.992401129 : 1622.97
1409752836.092273856 : 1663.64
1409752836.192273995 : 1622.97
1409752836.292187389 : 1689.25
1409752836.392270745 : 1663.64
1409752836.492293777 : 1663.64
1409752836.592323774 : 1663.64
1409752836.692276474 : 1663.64
1409752836.792278400 : 1637.78
1409752836.892274485 : 1637.78
1409752836.992318351 : 1705.97
1409752837.092191564 : 1098.93
1409752837.592605767 : 1091.56
1409752837.642597096 : 1646.73
1409752837.692787198 : 1689.25
1409752837.793003223 : 1670.11
1409752837.892901709 : 1648.81
1409752837.992993821 : 1648.81
1409752838.092909809 : 1606.62
1409752838.192882916 : 1583.91
1409752838.292956989 : 1559.77
1409752838.392934861 : 1600.85
1409752838.492908694 : 1559.77
1409752838.592962699 : 1574.73
1409752838.692958259 : 1588.87
1409752838.792961207 : 1588.87
1409752838.892972590 : 1588.87
1409752838.992940092 : 1534.45
1409752839.092960658 : 1602.12
1409752839.192987674 : 1614.4
1409752839.292840318 : 1588.87
1409752839.392931255 : 1646.73
1409752839.492912812 : 1547.53
1409752839.592956015 : 1559.77
1409752839.692890093 : 1559.77
1409752839.792960743 : 1547.53
1409752839.892852206 : 1519.51
1409752839.992910703 : 1547.53
1409752840.092907985 : 1508.19
1409752840.192953075 : 1508.19
1409752840.292905206 : 1470.7
1409752840.392920706 : 1470.7
1409752840.492961243 : 1459.46
1409752840.592897263 : 1470.7
1409752840.692927329 : 1470.7
1409752840.792934091 : 1459.46
1409752840.892923621 : 1470.7
1409752840.992847096 : 1470.7
1409752841.092969641 : 1459.46
1409752841.192950626 : 1459.46
1409752841.292934320 : 1496.07
1409752841.392997753 : 1508.19
1409752841.492913915 : 1547.53
1409752841.592902484 : 1470.7
1409752841.692884979 : 1470.7
1409752841.792893872 : 1519.51
1409752841.892923696 : 1519.51
1409752841.992939920 : 1481.2
1409752842.092845740 : 1470.7
1409752842.192917985 : 1470.7
1409752842.292925340 : 1434.96
1409752842.793283767 : 1359.17
1409752842.843360313 : 1368.24
1409752842.893439692 : 1359.17
1409752842.943445399 : 1328.59
1409752842.993385322 : 1319.57
1409752843.043394776 : 1299.31
1409752843.093277452 : 1328.59
1409752843.143436694 : 1328.59
1409752843.193377553 : 1359.17
1409752843.243420613 : 1400.84
1409752843.293392087 : 1424.51
1409752843.343426690 : 1459.46
1409752843.393368312 : 1459.46
1409752843.443357726 : 1459.46
1409752843.493395096 : 1508.19
1409752843.643751991 : 990.117
1409752844.144065409 : 1699.07
1409752844.194405945 : 1705.2
1409752844.294464870 : 1667.22
1409752844.394577808 : 1690
1409752844.494553623 : 1689.25
1409752844.594553646 : 1715.3
1409752844.694531383 : 1661.49
1409752844.794523386 : 1693.76
1409752844.894569348 : 1721.6
1409752844.994610185 : 1071.27
1409752845.495033693 : 1708.29
1409752845.545267331 : 1660.07
1409752845.645855494 : 1678.13
1409752845.745358600 : 1678.13
1409752845.845248421 : 1708.29
1409752845.945401436 : 1661.49
1409752846.045457090 : 1661.49
1409752846.145381399 : 1661.49
1409752846.245381324 : 1661.49
1409752846.345402069 : 1643.96
1409752846.445408626 : 1708.29
1409752846.545436253 : 1661.49
1409752846.645341117 : 1708.29
1409752846.745363495 : 1708.29
1409752846.845405693 : 1661.49
1409752846.945326707 : 1661.49
1409752847.045352977 : 1708.29
1409752847.145364723 : 1661.49
1409752847.245503345 : 1708.29
1409752847.345418383 : 1661.49
1409752847.445402056 : 1678.13
1409752847.545577389 : 1661.49
1409752847.645383224 : 1617.03
1409752847.745411077 : 1617.03
1409752847.845323889 : 1617.03
1409752847.945460150 : 1617.03
1409752848.045404856 : 1617.03
1409752848.145407424 : 1617.03
1409752848.245478692 : 1617.03
1409752848.345288606 : 1617.03
1409752848.445387541 : 1600.85
1409752848.545419848 : 1661.49
1409752848.645465023 : 1617.03
1409752848.745404340 : 1661.49
1409752848.845447336 : 1617.03
1409752848.945577842 : 1617.03
1409752849.045380568 : 1617.03
1409752849.145416086 : 1617.03
1409752849.245339323 : 1617.03
1409752849.345432580 : 1617.03
1409752849.445401062 : 1643.96
1409752849.545393906 : 1600.85
1409752849.645401460 : 1600.85
1409752849.745341802 : 1600.85
1409752849.845355569 : 1643.96
1409752849.945477670 : 1600.85
1409752850.045410388 : 1600.85
1409752850.145391210 : 1600.85
1409752850.245371196 : 1600.85
1409752850.345385227 : 1583.91
1409752850.445365394 : 1625.63
1409752850.545571540 : 1583.91
1409752850.645404899 : 1583.91
1409752850.745386952 : 1600.85
1409752850.845271321 : 1600.85
1409752850.945387794 : 1583.91
1409752851.045363539 : 1583.91
1409752851.145347806 : 1544.09
1409752851.245493901 : 1566.3
1409752851.345406027 : 1548.11
1409752851.445438822 : 1566.3
1409752851.545407375 : 1566.3
1409752851.645452373 : 1548.11
1409752851.745352239 : 1510.86
1409752851.845341038 : 1548.11
1409752851.945426258 : 1587.01
1409752852.045374307 : 1548.11
1409752852.145294334 : 1587.01
1409752852.245355852 : 1587.01
1409752852.345434265 : 1548.11
1409752852.445395369 : 1587.01
1409752852.545255721 : 1548.11
1409752852.645357542 : 1587.01
1409752852.745386123 : 1627.64
1409752852.845370339 : 1606.62
1409752852.945385593 : 1606.62
1409752853.045362330 : 1606.62
1409752853.145346692 : 1548.11
1409752853.245348534 : 1566.3
1409752853.345406081 : 1566.3
1409752853.445274093 : 1510.86
1409752853.545509154 : 1548.11
1409752853.645353205 : 1566.3
1409752853.745371528 : 1493.48
1409752853.845369106 : 1548.11
1409752853.945285516 : 1510.86
1409752854.045355254 : 1548.11
1409752854.145394329 : 1510.86
1409752854.245375831 : 1510.86
1409752854.345382272 : 1493.48
1409752854.445385328 : 1493.48
1409752854.545416789 : 1510.86
1409752854.645359306 : 1493.48
1409752854.745456128 : 1493.48
1409752854.845396116 : 1493.48
1409752854.945353008 : 1475.67
1409752855.045350299 : 1457.53
1409752855.145265513 : 1440.5
1409752855.645793328 : 1470.7
1409752855.695825766 : 1461.88
1409752855.745753676 : 1471.2
1409752858.796127225 : 1506.06
1409752858.896175678 : 1520.6
1409752858.996209649 : 1506.06
1409752859.096140544 : 1520.6
1409752859.196179743 : 1506.06
1409752860.496164103 : 1483.23
1409752860.596030737 : 1520.6
1409752860.696170621 : 1483.23
1409752860.796105770 : 1520.6
1409752860.896018434 : 1520.6
1409752860.996047344 : 1483.23
1409752861.096362691 : 1483.23
1409752861.196108054 : 1520.6
1409752861.296117375 : 1534.45
1409752861.396099498 : 1496.07
1409752861.496121401 : 1483.23
1409752861.596118278 : 1534.45
1409752861.696184091 : 1534.45
1409752861.796318851 : 1534.45
1409752861.896175856 : 1534.45
1409752861.996184551 : 1496.07
1409752862.096136544 : 1496.07
1409752862.196099375 : 1459.46
1409752862.296190598 : 1459.46
1409752862.396101148 : 1447.53
1409752862.896516000 : 1424.51
1409752862.946547697 : 1424.51
1409752862.996530535 : 1459.46
1409752863.046522696 : 1424.51
1409752863.096536492 : 1459.46
1409752863.146584975 : 1459.46
1409752863.196630621 : 1496.07
1409752863.246437301 : 1496.07
1409752863.296549661 : 1496.07
1409752863.346538324 : 1496.07
1409752863.396524532 : 1547.53
1409752863.446718183 : 1588.87
1409752863.546889505 : 1660.07
1409752863.646901169 : 1708.29
1409752863.746787353 : 1759.26
1409752863.846846534 : 1743.41
1409752863.946865088 : 1813.22
1409752864.046853128 : 1870.43
1409752864.147011808 : 1813.22
1409752864.246878359 : 1831.07
1409752864.346770190 : 1831.07
1409752864.446828653 : 1864.37
1409752864.546796182 : 1887.95
1409752864.646920390 : 1831.07
1409752864.746831837 : 1867.39
1409752864.846871549 : 1860.35
1409752864.946855125 : 1828.22
1409752865.046952647 : 1863.36
1409752865.146858771 : 1903.82
1409752865.246911559 : 1893.19
1409752865.346923219 : 1948.17
1409752865.446877160 : 1953.93
1409752865.546759726 : 1948.17
1409752865.646872277 : 1931.17
1409752865.746847577 : 1983.54
1409752865.846897349 : 2008.22
1409752865.946834645 : 2090.99
1409752866.046841433 : 2027.34
1409752866.146863232 : 2090.99
1409752866.246827028 : 2008.22
1409752866.346870097 : 2068.66
1409752866.446873997 : 2068.66
1409752866.546923575 : 2053.71
1409752866.646889498 : 2128.88
1409752866.746883091 : 2053.71
1409752866.846842209 : 2128.88
1409752866.946899158 : 2128.88
1409752867.046863156 : 2109.68
1409752867.146842265 : 2128.88
1409752867.246863245 : 2109.68
1409752867.346825537 : 2109.68
1409752867.446778105 : 2109.68
1409752867.546857459 : 2128.88
1409752867.646883827 : 2128.88
1409752867.746865483 : 2128.88
1409752867.846834987 : 2109.68
1409752867.946837290 : 2128.88
1409752868.046895246 : 2109.68
1409752868.146851025 : 2128.88
1409752868.246745664 : 2053.71
1409752868.346886256 : 2109.68
1409752868.446876288 : 2128.88
1409752868.546939185 : 2145.55
1409752868.646839233 : 2053.71
1409752868.746857901 : 2053.71
1409752868.846970389 : 2053.71
1409752868.946881958 : 2036.45
1409752869.046833460 : 2017.07
1409752869.146769497 : 2036.45
1409752869.246900620 : 2036.45
1409752869.346851392 : 2017.07
1409752869.446847925 : 2064.55
1409752869.546978030 : 2064.55
1409752869.646823981 : 2109.68
1409752869.746911083 : 2088.16
1409752869.846892832 : 2017.07
1409752869.946840891 : 1995.76
1409752870.046868959 : 2017.07
1409752870.146899505 : 2017.07
1409752870.246847409 : 2017.07
1409752870.346843687 : 2088.16
1409752870.446881068 : 2064.55
1409752870.546882205 : 2088.16
1409752870.646879957 : 2064.55
1409752870.746850142 : 2088.16
1409752870.846866753 : 1995.76
1409752870.946867945 : 2017.07
1409752871.046901815 : 2017.07
1409752871.146865575 : 2017.07
1409752871.246887555 : 2017.07
1409752871.347010808 : 2017.07
1409752871.446817689 : 1995.76
1409752871.546812116 : 2039.08
1409752871.646890909 : 1972.72
1409752871.746949201 : 1972.72
1409752871.846886845 : 2039.08
1409752871.946892230 : 1972.72
1409752872.046843801 : 1972.72
1409752872.146843975 : 1972.72
1409752872.246868945 : 1948.17
1409752872.346860282 : 1972.72
1409752872.446899508 : 1948.17
1409752872.546998039 : 2039.08
1409752872.646831058 : 1972.72
1409752872.746833879 : 1910.28
1409752872.846907604 : 1887.95
1409752872.946835064 : 1948.17
1409752873.046884689 : 1408.16
1409752873.547359570 : 1864.37
1409752873.597527510 : 1922.29
1409752873.697652263 : 1948.17
1409752873.797691681 : 1895.3
1409752873.897713683 : 1410.34
1409752874.398069373 : 1995.76
1409752874.448283509 : 1972.72
1409752874.548462769 : 1887.95
1409752874.648458550 : 1983.54
1409752874.748439128 : 1923.39
1409752874.848445834 : 1913.53
1409752874.948400926 : 1998.23
1409752875.048449029 : 2059.11
1409752875.148436357 : 1944.73
1409752875.248469419 : 1420.48
1409752875.748821336 : 1997
1409752875.799100437 : 2008.22
1409752875.899225108 : 2090.99
1409752875.999121393 : 1269
1409752876.499622777 : 2017.07
1409752876.549839084 : 2109.68
1409752876.650043050 : 2109.68
1409752876.750109478 : 2109.68
1409752876.850305765 : 2088.16
1409752876.950082247 : 2017.07
1409752877.049932049 : 2017.07
1409752877.150059497 : 2164.17
1409752877.250085076 : 2088.16
1409752877.349979410 : 2188.16
1409752877.450103406 : 2164.17
1409752877.550159666 : 2109.68
1409752877.649936517 : 2272.43
1409752877.750131539 : 2164.17
1409752877.850022034 : 2188.16
1409752877.950056255 : 2128.88
1409752878.050086513 : 2228.24
1409752878.150065908 : 2128.88
1409752878.249958597 : 2145.55
1409752878.350085501 : 2145.55
1409752878.449931117 : 2145.55
1409752878.550084566 : 2228.24
1409752878.650078259 : 2243.85
1409752878.750050046 : 2128.88
1409752878.850015489 : 2228.24
1409752878.950077235 : 2145.55
1409752879.050100937 : 1337.07
1409752879.550388226 : 2145.55
1409752879.600655341 : 2053.71
1409752879.700874380 : 2068.66
1409752879.800829825 : 2053.71
1409752879.900863772 : 2228.24
1409752880.000847531 : 2053.71
1409752880.100704369 : 2053.71
1409752880.200841657 : 2068.66
1409752880.300837082 : 2128.88
1409752880.501151036 : 1997
1409752880.600889529 : 2068.66
1409752880.700904082 : 2068.66
1409752880.800690484 : 2053.71
1409752880.900786910 : 2145.55
1409752881.000868197 : 2128.88
1409752881.100822408 : 2145.55
1409752881.200724333 : 2128.88
1409752881.300810829 : 2145.55
1409752881.400833647 : 2145.55
1409752881.500794168 : 2145.55
1409752881.600821223 : 2145.55
1409752881.700739491 : 2145.55
1409752881.800799068 : 2145.55
1409752881.900838694 : 2145.55
1409752882.000847105 : 2068.66
1409752882.100707605 : 2081.13
1409752882.200858916 : 2068.66
1409752882.300862251 : 2068.66
1409752882.400918137 : 1997
1409752882.500812330 : 1997
1409752882.600870315 : 2068.66
1409752882.700685129 : 1997
1409752882.800886474 : 1997
1409752882.900860293 : 2008.22
1409752883.000858426 : 1997
1409752883.100823498 : 1997
1409752883.200830698 : 1983.54
1409752883.300833346 : 1997
1409752883.400789529 : 1997
1409752883.500867469 : 2053.71
1409752883.600874063 : 2088.16
1409752883.700886541 : 2064.55
1409752883.800741292 : 2048.35
1409752883.900793360 : 2081.13
1409752884.000835642 : 2088.16
1409752884.100852310 : 2102.44
1409752884.200777178 : 2059.11
1409752884.300773781 : 2088.16
1409752884.400698119 : 2068.66
1409752884.500774982 : 2117.01
1409752884.600813897 : 2109.68
1409752884.700838924 : 2188.16
1409752884.800782219 : 2053.71
1409752884.900787584 : 2159.47
1409752885.000803997 : 2170.49
1409752885.100807594 : 2090.99
1409752885.200748620 : 2098.12
1409752885.300788986 : 2081.13
1409752885.400806741 : 2068.66
1409752885.500739619 : 2053.71
1409752885.600824756 : 2053.71
1409752885.700802185 : 2068.66
1409752885.800836955 : 2068.66
1409752885.900805235 : 2068.66
1409752886.000792344 : 2068.66
1409752886.100803911 : 2068.66
1409752886.200825483 : 2145.55
1409752886.300862682 : 2053.71
1409752886.400791285 : 2145.55
1409752886.500798748 : 2145.55
1409752886.600797402 : 2068.66
1409752886.700868329 : 2145.55
1409752886.800845397 : 2068.66
1409752886.900804793 : 2128.88
1409752887.000830997 : 2145.55
1409752887.100697008 : 2053.71
1409752887.200692808 : 2145.55
1409752887.300897199 : 2128.88
1409752887.400792612 : 2145.55
1409752887.500788399 : 2128.88
1409752887.600854495 : 2128.88
1409752887.700922497 : 2145.55
1409752887.800863270 : 2128.88
1409752887.901108464 : 2128.88
1409752888.000867082 : 2128.88
1409752888.100844073 : 2128.88
1409752888.200835335 : 2036.45
1409752888.300886244 : 2053.71
1409752888.400832794 : 2017.07
1409752888.500868743 : 2017.07
1409752888.600707980 : 2036.45
1409752888.700800550 : 2017.07
1409752888.800808919 : 2017.07
1409752888.900950181 : 1950.46
1409752889.000714310 : 1967.97
1409752889.100817120 : 1950.46
1409752889.200789509 : 1950.46
1409752889.300835801 : 1950.46
1409752889.400804579 : 1950.46
1409752889.500854210 : 2017.07
1409752889.600792367 : 2017.07
1409752889.700853734 : 2017.07
1409752889.800726051 : 1995.76
1409752889.900836960 : 2064.55
1409752890.000799710 : 1972.72
1409752890.100788678 : 1972.72
1409752890.200827204 : 2039.08
1409752890.300871215 : 2039.08
1409752890.400862339 : 2109.68
1409752890.500817753 : 2109.68
1409752890.600867996 : 2079.74
1409752890.700807292 : 2184.91
1409752890.800919490 : 2109.68
1409752890.901029003 : 2184.91
1409752891.000848038 : 2184.91
1409752891.101015565 : 2079.74
1409752891.200792586 : 2109.68
1409752891.300849138 : 2079.74
1409752891.400855232 : 2151.7
1409752891.500794938 : 2184.91
1409752891.600835294 : 2109.68
1409752891.700788078 : 2079.74
1409752891.800796848 : 2079.74
1409752891.900764441 : 2109.68
1409752892.000857666 : 2079.74
1409752892.100792826 : 2109.68
1409752892.200923169 : 2151.7
1409752892.300823118 : 2079.74
1409752892.400844544 : 2079.74
1409752892.500825837 : 2151.7
1409752892.600816437 : 2151.7
1409752892.700850242 : 2151.7
1409752892.800837142 : 2151.7
1409752892.900808353 : 2151.7
1409752893.000876200 : 2109.68
1409752893.100881845 : 2064.55
1409752893.200713301 : 2064.55
1409752893.300806235 : 2137.92
1409752893.400771709 : 2109.68
1409752893.500794428 : 2137.92
1409752893.600852382 : 2184.91
1409752893.700787051 : 2151.7
1409752893.800801616 : 2178.47
1409752893.900854822 : 2133.39
1409752894.000853770 : 2164.17
1409752894.100799419 : 2111.14
1409752894.200797035 : 2088.16
1409752894.300804834 : 2178.47
1409752894.400836322 : 2189.78
1409752894.500906411 : 2184.91
1409752894.600796924 : 2164.17
1409752894.700809471 : 2128.88
1409752896.800820940 : 2017.07
1409752896.900881576 : 1995.76
1409752897.000707352 : 1995.76
1409752897.100812666 : 2017.07
1409752897.200798136 : 2036.45
1409752897.300814025 : 2036.45
1409752897.400694277 : 2036.45
1409752897.500826554 : 1967.97
1409752897.600765458 : 2036.45
1409752897.700852325 : 2036.45
1409752897.800902800 : 1950.46
1409752897.900867622 : 1903.82
1409752898.000816060 : 1950.46
1409752898.100794634 : 1967.97
1409752898.200816651 : 1967.97
1409752898.300817669 : 1903.82
1409752898.400706062 : 1950.46
1409752898.500824767 : 1887.95
1409752898.600865421 : 1967.97
