1407767087.412137880 : 306 31
1407767087.522633858 : 314 79
1407767087.550582496 : 315 91
1407767087.602209855 : 317 103
1407767087.632747343 : 318 113
1407767087.659681238 : 320 122
1407767087.691349462 : 322 130
1407767087.724356859 : 323 136
1407767087.750838561 : 324 141
1407767087.781294350 : 325 146
1407767087.809225056 : 325 148
1407767087.854286245 : 326 150
1407767087.886178286 : 326 151
1407767087.915901798 : 326 152
1407767087.948674341 : 326 153
1407767087.984099362 : 326 154
1407767088.018180013 : 325 155
1407767088.050049658 : 325 156
1407767088.085383847 : 325 157
1407767088.115458003 : 325 158
1407767088.149500672 : 325 158
1407767088.178602236 : 325 159
1407767088.211979439 : 325 160
1407767088.247101579 : 325 161
1407767088.283783016 : 326 162
1407767088.320288852 : 325 163
1407767088.355788255 : 325 164
1407767088.387028690 : 325 166
1407767088.420210810 : 325 167
1407767088.452716646 : 325 168
1407767088.488938687 : 325 169
1407767088.528047882 : 325 171
1407767088.563693520 : 325 172
1407767088.594417784 : 326 173
1407767088.621557074 : 326 174
1407767088.655059270 : 326 174
1407767088.686432702 : 326 175
1407767088.719177212 : 327 177
1407767088.750529761 : 327 178
1407767088.782171888 : 326 179
1407767088.815505828 : 326 179
1407767088.847175107 : 325 180
1407767088.885975003 : 325 180
1407767088.918257408 : 324 181
1407767088.948174980 : 323 183
1407767088.997324502 : 323 183
1407767089.027433439 : 323 184
1407767089.061037188 : 322 185
1407767089.087109413 : 323 186
1407767089.118899549 : 322 187
1407767089.147291089 : 323 187
1407767089.173131758 : 322 187
1407767089.204114441 : 322 188
1407767089.259356998 : 322 188
1407767089.290563551 : 321 189
1407767089.326888647 : 321 190
1407767089.357989226 : 320 191
1407767089.387152618 : 320 192
1407767089.418383259 : 320 194
1407767089.452172629 : 319 194
1407767089.487188948 : 318 195
1407767089.525277716 : 317 196
1407767089.554557412 : 317 197
1407767089.585327199 : 316 197
1407767089.621730122 : 315 198
1407767089.650229354 : 314 199
1407767089.681478786 : 313 199
1407767089.721023515 : 312 200
1407767089.752407889 : 311 201
1407767089.784178878 : 310 202
1407767089.815170045 : 309 202
1407767089.855142668 : 308 202
1407767089.888460782 : 307 202
1407767089.929710708 : 307 202
1407767089.961855501 : 306 202
1407767089.995862602 : 305 203
1407767090.048650159 : 304 203
1407767090.075960263 : 304 203
1407767090.110751870 : 305 204
1407767090.139426569 : 305 205
1407767090.176728552 : 305 205
1407767090.214282981 : 305 205
1407767090.244690789 : 306 206
1407767090.286234972 : 306 206
1407767090.317661156 : 306 206
1407767090.349688841 : 306 206
1407767090.382605297 : 306 207
1407767090.432983806 : 306 207
1407767090.466379610 : 306 207
1407767090.499228419 : 307 208
1407767090.546541620 : 307 208
1407767090.577457495 : 307 208
1407767090.606058222 : 308 207
1407767090.638020083 : 308 207
1407767090.667841021 : 309 206
1407767090.699067609 : 309 205
1407767090.731413995 : 310 205
1407767090.764180780 : 310 205
1407767090.799896548 : 310 205
1407767090.840060021 : 310 206
1407767090.871336874 : 310 206
1407767090.905438415 : 310 207
1407767090.935513035 : 311 207
1407767090.965920213 : 312 207
1407767091.001513030 : 312 207
1407767091.030456718 : 313 206
1407767091.057498766 : 314 207
1407767091.083669901 : 316 206
1407767091.116822587 : 317 206
1407767091.152250445 : 319 206
1407767091.187690472 : 320 206
1407767091.225229593 : 320 206
1407767091.259448152 : 321 205
1407767091.292843674 : 322 205
1407767091.330011266 : 322 204
1407767091.372006280 : 324 203
1407767091.404282512 : 325 203
1407767091.441577463 : 326 203
1407767091.478381606 : 326 203
1407767091.516584625 : 327 204
1407767091.543328002 : 328 204
1407767091.570903137 : 328 205
1407767091.600138288 : 329 205
1407767091.640746091 : 328 206
1407767091.679151930 : 328 207
1407767091.719747989 : 329 207
1407767091.750073464 : 329 208
1407767091.786606261 : 329 208
1407767091.824291514 : 329 208
1407767091.853890120 : 329 209
1407767091.887351481 : 330 209
1407767091.919374925 : 331 210
1407767091.961348579 : 331 211
1407767092.000236685 : 332 212
1407767092.040860440 : 331 213
1407767092.074404947 : 332 214
1407767092.104112586 : 332 215
1407767092.139401674 : 332 216
1407767092.183607012 : 332 216
1407767092.223367085 : 332 216
1407767092.259428541 : 332 217
1407767092.290895447 : 332 218
1407767092.330228074 : 332 218
1407767092.361019673 : 332 218
1407767092.405085501 : 331 219
1407767092.438569109 : 331 219
1407767092.479059513 : 331 220
1407767092.508937987 : 330 221
1407767092.542406411 : 330 221
1407767092.572995116 : 329 221
1407767092.627834767 : 329 220
1407767092.659087859 : 329 221
1407767092.690813167 : 328 221
1407767092.726389075 : 327 222
1407767092.762777038 : 326 222
1407767092.795065363 : 326 223
1407767092.828296344 : 325 223
1407767092.862729299 : 325 224
1407767092.902424823 : 325 225
1407767092.934790087 : 324 225
1407767092.982783990 : 323 225
1407767093.012886049 : 322 225
1407767093.050801767 : 322 226
1407767093.084162748 : 321 226
1407767093.117204283 : 319 227
1407767093.157582332 : 319 227
1407767093.188795842 : 318 226
1407767093.220203007 : 318 227
1407767093.251284501 : 316 227
1407767093.290693941 : 316 226
1407767093.328599859 : 314 225
1407767093.360039829 : 314 225
1407767093.403652350 : 313 225
1407767093.437345931 : 312 226
1407767093.468530205 : 312 226
1407767093.502752826 : 311 226
1407767093.547330921 : 311 226
1407767093.587105145 : 310 226
1407767093.618934262 : 309 227
1407767093.648755901 : 309 227
1407767093.681544870 : 309 227
1407767093.712179650 : 309 228
1407767093.745093026 : 309 229
1407767093.797348091 : 309 230
1407767093.832767175 : 309 230
1407767093.867715359 : 308 230
1407767093.904059894 : 308 231
1407767093.937340612 : 307 230
1407767093.970384375 : 306 229
1407767094.031017817 : 305 228
1407767094.061291852 : 305 227
1407767094.090870341 : 302 227
1407767094.131076152 : 301 227
1407767094.161402900 : 300 228
1407767094.196658331 : 299 228
1407767094.236018703 : 297 228
1407767094.267956217 : 296 228
1407767094.313729314 : 294 228
1407767094.343979318 : 293 228
1407767094.388060840 : 291 228
1407767094.424119914 : 290 228
1407767094.458476739 : 288 229
1407767094.488908776 : 286 229
1407767094.521800482 : 284 230
1407767094.547001447 : 283 232
1407767094.575268645 : 281 232
1407767094.604138233 : 279 233
1407767094.635915712 : 277 233
1407767094.671056379 : 275 233
1407767094.701124687 : 274 233
1407767094.731071496 : 272 233
1407767094.762699658 : 270 233
1407767094.798690792 : 269 233
1407767094.829741419 : 267 233
1407767094.863994642 : 266 232
1407767094.892926681 : 265 232
1407767094.935204408 : 263 232
1407767094.961728467 : 262 232
1407767094.987704873 : 261 232
1407767095.019227498 : 260 233
1407767095.049281625 : 258 234
1407767095.084170174 : 257 234
1407767095.117017300 : 255 235
1407767095.147436567 : 252 235
1407767095.195778041 : 250 236
1407767095.238760928 : 248 237
1407767095.272079328 : 245 238
1407767095.304323517 : 243 238
1407767095.334171475 : 241 239
1407767095.363889874 : 239 239
1407767095.399351296 : 237 239
1407767095.430235595 : 235 240
1407767095.468051802 : 233 240
1407767095.500642119 : 231 241
1407767095.526605213 : 229 241
1407767095.555901109 : 227 242
1407767095.589213018 : 225 242
1407767095.618416952 : 224 242
1407767095.649562890 : 222 243
1407767095.680344573 : 221 243
1407767095.714677924 : 219 243
1407767095.750497287 : 217 243
1407767095.783123076 : 215 243
1407767095.813936232 : 213 244
1407767095.846195152 : 210 244
1407767095.882154978 : 206 244
1407767095.911970178 : 203 245
1407767095.947784537 : 201 245
1407767095.975719804 : 197 246
1407767096.002426251 : 196 246
1407767096.030216517 : 194 247
1407767096.056449132 : 193 247
1407767096.094324073 : 191 248
1407767096.122137807 : 190 249
1407767096.157439829 : 189 249
1407767096.207974484 : 187 249
1407767096.242027154 : 186 249
1407767096.272412859 : 184 250
1407767096.305175951 : 182 251
1407767096.338263219 : 180 251
1407767096.371315921 : 177 252
1407767096.405039517 : 175 253
1407767096.442111237 : 173 254
1407767096.472199826 : 170 254
1407767096.501216043 : 168 255
1407767096.537408738 : 165 255
1407767096.572054777 : 163 257
1407767096.601648639 : 161 258
1407767096.629739637 : 159 259
1407767096.663053349 : 156 260
1407767096.695541589 : 153 261
1407767096.727767240 : 150 262
1407767096.758577973 : 148 262
1407767096.791873474 : 146 263
1407767096.823059678 : 144 265
1407767096.856484169 : 142 266
1407767096.886173075 : 140 268
1407767096.929012402 : 138 269
1407767096.955789814 : 136 270
1407767096.983354470 : 133 272
1407767097.016823571 : 132 273
1407767097.045271383 : 129 274
1407767097.079074281 : 128 275
1407767097.114867650 : 126 276
1407767097.146373259 : 123 277
1407767097.173841999 : 121 278
1407767097.201571501 : 119 279
1407767097.233726336 : 116 280
1407767097.278989976 : 114 281
1407767097.306388163 : 112 282
1407767097.335305207 : 109 284
1407767097.369602345 : 107 285
1407767097.409554365 : 104 286
1407767097.449754523 : 103 288
1407767097.477911323 : 101 289
1407767097.508607210 : 100 290
1407767097.535495299 : 99 291
1407767097.564598099 : 97 292
1407767097.591492489 : 96 293
1407767097.622446072 : 94 294
1407767097.653670559 : 92 295
1407767097.691895279 : 91 296
1407767097.719806566 : 90 297
1407767097.764961424 : 89 299
1407767097.794328317 : 88 300
1407767097.829520520 : 88 301
1407767097.861709385 : 87 302
1407767097.904773256 : 86 303
1407767097.927504133 : 85 303
1407767097.951578967 : 84 304
1407767097.986730374 : 82 305
1407767098.009931378 : 82 305
1407767098.041946079 : 81 306
1407767098.074689261 : 81 307
1407767098.117205064 : 80 308
1407767098.155917968 : 80 309
1407767098.185291238 : 79 311
1407767098.211052706 : 79 314
1407767098.255135691 : 79 316
1407767098.285865856 : 78 318
1407767098.322231757 : 77 320
1407767098.348774347 : 77 322
1407767098.383454137 : 76 325
1407767098.407472896 : 75 326
1407767098.433582294 : 75 328
1407767098.464973322 : 74 330
1407767098.501439667 : 74 332
1407767098.547775990 : 73 334
1407767098.580395971 : 73 335
1407767098.605319812 : 73 337
1407767098.632676689 : 73 338
