1407767087.414583064 : 0.229448 0.0215589 -0.872995
1407767087.524942914 : 0.295909 0.0175788 -1.66364
1407767087.552882541 : 0.286948 0.0161206 -1.83107
1407767087.605439372 : 0.239574 0.00933407 -1.76692
1407767087.635097354 : 0.206865 0.00617508 -1.75337
1407767087.661744824 : 0.179077 0 -1.75337
1407767087.694333678 : 0.158352 -0.00633406 -1.79859
1407767087.727422066 : 0.135145 -0.00921443 -1.74423
1407767087.752951466 : 0.123514 -0.0126681 -1.79859
1407767087.783411444 : 0.106984 -0.0157329 -1.78696
1407767087.811522626 : 0.0999512 -0.0156174 -1.77381
1407767087.856357906 : 0.0937043 -0.0187409 -1.77381
1407767087.889016147 : 0.094138 -0.0194768 -1.84359
1407767087.918152653 : 0.0874573 -0.0187409 -1.77381
1407767087.950770729 : 0.0876457 -0.0194768 -1.84359
1407767087.986295155 : 0.0812104 -0.0187409 -1.77381
1407767088.020687466 : 0.0780869 -0.0156174 -1.77381
1407767088.053837372 : 0.075518 -0.0157329 -1.78696
1407767088.087655036 : 0.0718399 -0.0156174 -1.77381
1407767088.118135881 : 0.0687165 -0.0156174 -1.77381
1407767088.151815423 : 0.0687165 -0.0156174 -1.77381
1407767088.181485611 : 0.065593 -0.0156174 -1.77381
1407767088.214336384 : 0.0624695 -0.0156174 -1.77381
1407767088.249844897 : 0.059346 -0.0156174 -1.77381
1407767088.286390588 : 0.0562226 -0.0187409 -1.77381
1407767088.322462222 : 0.0530991 -0.0156174 -1.77381
1407767088.357871245 : 0.0499756 -0.0156174 -1.77381
1407767088.389073992 : 0.0440522 -0.0157329 -1.78696
1407767088.422230983 : 0.0409056 -0.0157329 -1.78696
1407767088.454820159 : 0.037759 -0.0157329 -1.78696
1407767088.491084783 : 0.0354286 -0.0161039 -1.82917
1407767088.530250185 : 0.0292152 -0.0162307 -1.84359
1407767088.565850781 : 0.0259691 -0.0162307 -1.84359
1407767088.596515442 : 0.0220261 -0.0188795 -1.78696
1407767088.624518817 : 0.0194768 -0.0194768 -1.84359
1407767088.657365144 : 0.0188795 -0.0188795 -1.78696
1407767088.689611036 : 0.0157329 -0.0188795 -1.78696
1407767088.722058549 : 0.00943975 -0.0220261 -1.78696
1407767088.753854869 : 0.00629317 -0.0220261 -1.78696
1407767088.784427143 : 0.00324614 -0.0194768 -1.84359
1407767088.817873209 : 0.00314658 -0.0188795 -1.78696
1407767088.850326124 : 0 -0.0162307 -1.84359
1407767088.888098565 : 0 -0.0157329 -1.78696
1407767088.920770122 : -0.00324614 -0.0129845 -1.84359
1407767088.950488190 : -0.00973841 -0.00973841 -1.84359
1407767088.999509741 : -0.00943975 -0.00943975 -1.78696
1407767089.029561567 : -0.0124939 -0.00937043 -1.77381
1407767089.063206855 : -0.0162307 -0.00649227 -1.84359
1407767089.089560956 : -0.0187409 -0.00937043 -1.77381
1407767089.121357189 : -0.0218643 -0.00624695 -1.77381
1407767089.149559939 : -0.0218643 -0.00937043 -1.77381
1407767089.175406086 : -0.0225455 -0.00644157 -1.82917
1407767089.207447284 : -0.0259691 -0.00649227 -1.84359
1407767089.261916541 : -0.0251727 -0.00629317 -1.78696
1407767089.292636221 : -0.0281113 -0.00312348 -1.77381
1407767089.329770534 : -0.0324614 -0.00324614 -1.84359
1407767089.360059867 : -0.0346124 0 -1.78696
1407767089.389392512 : -0.037759 0 -1.78696
1407767089.420880505 : -0.0440522 0 -1.78696
1407767089.454687771 : -0.0440522 0.00314658 -1.78696
1407767089.489223408 : -0.0483117 0.00644157 -1.82917
1407767089.527778553 : -0.0499756 0.00937043 -1.77381
1407767089.556685388 : -0.0534919 0.00943975 -1.78696
1407767089.587655991 : -0.0530991 0.0124939 -1.77381
1407767089.624087568 : -0.0562226 0.0156174 -1.77381
1407767089.652484647 : -0.059346 0.0187409 -1.77381
1407767089.684597309 : -0.059346 0.0218643 -1.77381
1407767089.723174787 : -0.0624695 0.0249878 -1.77381
1407767089.754623474 : -0.065593 0.0281113 -1.77381
1407767089.786292746 : -0.0687165 0.0312348 -1.77381
1407767089.817407707 : -0.0687165 0.0343582 -1.77381
1407767089.857236620 : -0.0687165 0.0374817 -1.77381
1407767089.891540105 : -0.0687165 0.0406052 -1.77381
1407767089.932184497 : -0.0687165 0.0406052 -1.77381
1407767089.964808799 : -0.0687165 0.0437287 -1.77381
1407767089.998417758 : -0.0718399 0.0468521 -1.77381
1407767090.050822007 : -0.0718399 0.0499756 -1.77381
1407767090.077998640 : -0.0723714 0.0503453 -1.78696
1407767090.112931509 : -0.0749634 0.0468521 -1.77381
1407767090.141585930 : -0.0780869 0.0468521 -1.77381
1407767090.178829969 : -0.0774473 0.0464684 -1.75926
1407767090.216372087 : -0.0786646 0.0471988 -1.78696
1407767090.247903602 : -0.0812104 0.0437287 -1.77381
1407767090.288404870 : -0.0812104 0.0437287 -1.77381
1407767090.319888304 : -0.0812104 0.0437287 -1.77381
1407767090.352338851 : -0.0812104 0.0437287 -1.77381
1407767090.384646252 : -0.0843338 0.0437287 -1.77381
1407767090.435142836 : -0.0843338 0.0437287 -1.77381
1407767090.468523511 : -0.0843338 0.0437287 -1.77381
1407767090.501454547 : -0.0867409 0.0402726 -1.75926
1407767090.549659133 : -0.0848875 0.039412 -1.7216
1407767090.579554551 : -0.0874573 0.0406052 -1.77381
1407767090.608492574 : -0.0843338 0.0374817 -1.77381
1407767090.640190624 : -0.0843338 0.0374817 -1.77381
1407767090.669947973 : -0.0788241 0.0333486 -1.7216
1407767090.701130776 : -0.0780869 0.0343582 -1.77381
1407767090.733552243 : -0.0757924 0.030317 -1.7216
1407767090.766381970 : -0.0780869 0.0312348 -1.77381
1407767090.802065082 : -0.0780869 0.0312348 -1.77381
1407767090.842194803 : -0.0812104 0.0312348 -1.77381
1407767090.873707921 : -0.0812104 0.0312348 -1.77381
1407767090.907798714 : -0.0812237 0.0300828 -1.70829
1407767090.937616656 : -0.0843338 0.0281113 -1.77381
1407767090.968007052 : -0.0836431 0.0247831 -1.75926
1407767091.004726411 : -0.0812237 0.0240663 -1.70829
1407767091.033516658 : -0.0812104 0.0218643 -1.77381
1407767091.059632533 : -0.0818558 0.0181902 -1.7216
1407767091.085826254 : -0.0812104 0.0124939 -1.77381
1407767091.119032505 : -0.0812104 0.00937043 -1.77381
1407767091.154503413 : -0.0782154 0.00300828 -1.70829
1407767091.189953796 : -0.0782154 0 -1.70829
1407767091.227526424 : -0.0782154 0 -1.70829
1407767091.261623880 : -0.0780869 -0.00312348 -1.77381
1407767091.295162834 : -0.0752071 -0.00601657 -1.70829
1407767091.332390595 : -0.0727607 -0.00606339 -1.7216
1407767091.374378942 : -0.069729 -0.0121268 -1.7216
1407767091.406657682 : -0.069729 -0.0151585 -1.7216
1407767091.444210378 : -0.0691905 -0.0180497 -1.70829
1407767091.480592313 : -0.069729 -0.0181902 -1.7216
1407767091.518709541 : -0.0749634 -0.0218643 -1.77381
1407767091.545653385 : -0.0749634 -0.0249878 -1.77381
1407767091.573013460 : -0.0757924 -0.0242536 -1.7216
1407767091.602593996 : -0.0752071 -0.0270746 -1.70829
1407767091.643866128 : -0.0788241 -0.0242536 -1.7216
1407767091.682152066 : -0.0818558 -0.0242536 -1.7216
1407767091.722390824 : -0.0812237 -0.0270746 -1.70829
1407767091.752208399 : -0.0848875 -0.0272853 -1.7216
1407767091.789694268 : -0.084232 -0.0270746 -1.70829
1407767091.827022262 : -0.0848875 -0.0272853 -1.7216
1407767091.855927032 : -0.0905808 -0.0281113 -1.77381
1407767091.889528721 : -0.0879192 -0.030317 -1.7216
1407767091.922556290 : -0.0902485 -0.0330911 -1.70829
1407767091.963638610 : -0.0932568 -0.0330911 -1.70829
1407767092.003344268 : -0.0962651 -0.0360994 -1.70829
1407767092.043008817 : -0.100046 -0.0333486 -1.7216
1407767092.076575557 : -0.103078 -0.0363803 -1.7216
1407767092.107313947 : -0.106109 -0.0363803 -1.7216
1407767092.141570236 : -0.112445 -0.0374817 -1.77381
1407767092.185694396 : -0.112445 -0.0374817 -1.77381
1407767092.225866072 : -0.109141 -0.0363803 -1.7216
1407767092.261740781 : -0.112954 -0.0366338 -1.73362
1407767092.294025717 : -0.115204 -0.0363803 -1.7216
1407767092.332328364 : -0.115204 -0.0363803 -1.7216
1407767092.364240260 : -0.115204 -0.0363803 -1.7216
1407767092.407334210 : -0.121816 -0.0343582 -1.77381
1407767092.441351625 : -0.118236 -0.0333486 -1.7216
1407767092.481417248 : -0.121268 -0.0333486 -1.7216
1407767092.511633491 : -0.128062 -0.0312348 -1.77381
1407767092.544531842 : -0.1243 -0.030317 -1.7216
1407767092.576121639 : -0.1243 -0.0272853 -1.7216
1407767092.629945457 : -0.121268 -0.0272853 -1.7216
1407767092.661184303 : -0.1243 -0.0272853 -1.7216
1407767092.692968834 : -0.1243 -0.0242536 -1.7216
1407767092.728515560 : -0.127331 -0.0212219 -1.7216
1407767092.764923642 : -0.127331 -0.0181902 -1.7216
1407767092.797170892 : -0.130363 -0.0181902 -1.7216
1407767092.830423141 : -0.135303 -0.0157329 -1.78696
1407767092.865118327 : -0.137433 -0.0156174 -1.77381
1407767092.904652726 : -0.136426 -0.0151585 -1.7216
1407767092.938156076 : -0.136426 -0.0121268 -1.7216
1407767092.985874097 : -0.136426 -0.00909509 -1.7216
1407767093.016218436 : -0.140556 -0.00624695 -1.77381
1407767093.053035795 : -0.139458 -0.00606339 -1.7216
1407767093.086495674 : -0.139458 -0.0030317 -1.7216
1407767093.119873784 : -0.14249 0.0030317 -1.7216
1407767093.159699738 : -0.14249 0.0030317 -1.7216
1407767093.190877441 : -0.139458 0.00606339 -1.7216
1407767093.222520869 : -0.14249 0.00606339 -1.7216
1407767093.254258220 : -0.14249 0.0121268 -1.7216
1407767093.293950682 : -0.139458 0.0121268 -1.7216
1407767093.330810769 : -0.135373 0.0180497 -1.70829
1407767093.362116961 : -0.135373 0.0180497 -1.70829
1407767093.405903549 : -0.136426 0.0212219 -1.7216
1407767093.439732187 : -0.14368 0.0249878 -1.77381
1407767093.470750083 : -0.139458 0.0242536 -1.7216
1407767093.505296168 : -0.14368 0.0281113 -1.77381
1407767093.550422718 : -0.138381 0.0270746 -1.70829
1407767093.589695019 : -0.14368 0.0312348 -1.77381
1407767093.621181644 : -0.14249 0.0333486 -1.7216
1407767093.650888318 : -0.146803 0.0343582 -1.77381
1407767093.684129498 : -0.146803 0.0343582 -1.77381
1407767093.714717972 : -0.149927 0.0343582 -1.77381
1407767093.747305609 : -0.154183 0.0346124 -1.78696
1407767093.799648905 : -0.156174 0.0343582 -1.77381
1407767093.834878004 : -0.151585 0.0333486 -1.7216
1407767093.870949268 : -0.156174 0.0374817 -1.77381
1407767093.906515243 : -0.154616 0.0363803 -1.7216
1407767093.939833843 : -0.156174 0.0406052 -1.77381
1407767093.972641304 : -0.154183 0.0440522 -1.78696
1407767094.033112949 : -0.149927 0.0468521 -1.77381
1407767094.063558283 : -0.14249 0.0454754 -1.7216
1407767094.094088357 : -0.146803 0.0562226 -1.77381
1407767094.133160348 : -0.146803 0.059346 -1.77381
1407767094.163449466 : -0.149927 0.0624695 -1.77381
1407767094.199746509 : -0.145521 0.0636656 -1.7216
1407767094.238128896 : -0.149927 0.0718399 -1.77381
1407767094.270973472 : -0.149927 0.0749634 -1.77381
1407767094.315901765 : -0.146535 0.0793731 -1.73362
1407767094.346543518 : -0.146535 0.0824259 -1.73362
1407767094.390279233 : -0.151036 0.0912509 -1.78696
1407767094.426536010 : -0.145521 0.0909509 -1.7216
1407767094.461922987 : -0.15305 0.0999512 -1.77381
1407767094.491601502 : -0.15305 0.106198 -1.77381
1407767094.523829029 : -0.156174 0.112445 -1.77381
1407767094.549084498 : -0.157648 0.112173 -1.7216
1407767094.577537563 : -0.163622 0.122717 -1.78696
1407767094.607307656 : -0.165544 0.128062 -1.77381
1407767094.638062124 : -0.166769 0.135303 -1.78696
1407767094.673355996 : -0.166769 0.141596 -1.78696
1407767094.703369157 : -0.16068 0.139458 -1.7216
1407767094.733344819 : -0.161799 0.146535 -1.73362
1407767094.765007711 : -0.166769 0.157329 -1.78696
1407767094.801042373 : -0.16068 0.154616 -1.7216
1407767094.831850115 : -0.165544 0.165544 -1.77381
1407767094.866059605 : -0.162421 0.168668 -1.77381
1407767094.895146083 : -0.16109 0.170384 -1.75926
1407767094.937384989 : -0.162421 0.178038 -1.77381
1407767094.964140595 : -0.163622 0.182502 -1.78696
1407767094.989873026 : -0.162421 0.184285 -1.77381
1407767095.021918123 : -0.166769 0.188795 -1.78696
1407767095.052073407 : -0.168668 0.193655 -1.77381
1407767095.087088753 : -0.163712 0.190997 -1.7216
1407767095.119389645 : -0.171791 0.203026 -1.77381
1407767095.149751844 : -0.171791 0.212396 -1.77381
1407767095.198170817 : -0.174915 0.218643 -1.77381
1407767095.241866534 : -0.179355 0.226554 -1.78696
1407767095.274372035 : -0.182502 0.235994 -1.78696
1407767095.306451103 : -0.181162 0.240508 -1.77381
1407767095.336401975 : -0.184285 0.246755 -1.77381
1407767095.366126965 : -0.180116 0.247278 -1.73362
1407767095.401482724 : -0.184285 0.259248 -1.77381
1407767095.433386600 : -0.183169 0.259489 -1.73362
1407767095.470919127 : -0.188795 0.273753 -1.78696
1407767095.503100746 : -0.191942 0.280046 -1.78696
1407767095.528692384 : -0.191942 0.286339 -1.78696
1407767095.558001787 : -0.195088 0.292632 -1.78696
1407767095.591368950 : -0.195088 0.298925 -1.78696
1407767095.620617821 : -0.193655 0.299854 -1.77381
1407767095.651667011 : -0.192327 0.299176 -1.73362
1407767095.682629558 : -0.198235 0.311512 -1.78696
1407767095.716781145 : -0.198235 0.317805 -1.78696
1407767095.753658967 : -0.190997 0.312265 -1.7216
1407767095.785239778 : -0.196779 0.327965 -1.77381
1407767095.816147086 : -0.201381 0.336684 -1.78696
1407767095.849302435 : -0.201381 0.346124 -1.78696
1407767095.884975504 : -0.201381 0.358711 -1.78696
1407767095.914777749 : -0.198433 0.357179 -1.73362
1407767095.949903518 : -0.204528 0.374443 -1.78696
1407767095.977883474 : -0.207675 0.38703 -1.78696
1407767096.004602413 : -0.207675 0.390176 -1.78696
1407767096.032563398 : -0.210821 0.39647 -1.78696
1407767096.058730921 : -0.210821 0.399616 -1.78696
1407767096.096729774 : -0.213968 0.405909 -1.78696
1407767096.124371830 : -0.210644 0.396866 -1.73362
1407767096.159764304 : -0.217114 0.412202 -1.78696
1407767096.210250357 : -0.223983 0.431736 -1.84359
1407767096.244284296 : -0.218525 0.424382 -1.79859
1407767096.274437356 : -0.220261 0.427935 -1.78696
1407767096.307438221 : -0.21525 0.418374 -1.7216
1407767096.340497553 : -0.224859 0.443384 -1.79859
1407767096.373466255 : -0.22489 0.446657 -1.77381
1407767096.408137208 : -0.229701 0.456255 -1.78696
1407767096.444426363 : -0.232847 0.462548 -1.78696
1407767096.474841687 : -0.240214 0.486921 -1.84359
1407767096.503419870 : -0.235994 0.478281 -1.78696
1407767096.539633032 : -0.245145 0.506633 -1.85637
1407767096.575190612 : -0.242287 0.494014 -1.78696
1407767096.603836083 : -0.245434 0.500307 -1.78696
1407767096.632057751 : -0.24858 0.5066 -1.78696
1407767096.665307945 : -0.253363 0.519393 -1.79859
1407767096.697946200 : -0.262937 0.542105 -1.84359
1407767096.730251826 : -0.251861 0.522151 -1.74423
1407767096.761160931 : -0.259697 0.544729 -1.79859
1407767096.794589999 : -0.271294 0.568737 -1.85637
1407767096.825867465 : -0.275922 0.57132 -1.84359
1407767096.858716106 : -0.279168 0.577812 -1.84359
1407767096.888374072 : -0.28566 0.584305 -1.84359
1407767096.931259312 : -0.280046 0.572678 -1.78696
1407767096.957999291 : -0.283193 0.578971 -1.78696
1407767096.985919110 : -0.298645 0.607028 -1.84359
1407767097.019364820 : -0.292632 0.591558 -1.78696
1407767097.047460073 : -0.305137 0.620012 -1.84359
1407767097.081909299 : -0.298925 0.604144 -1.78696
1407767097.117103335 : -0.302072 0.610437 -1.78696
1407767097.149026900 : -0.314875 0.639489 -1.84359
1407767097.176459498 : -0.308365 0.62617 -1.78696
1407767097.204271175 : -0.311512 0.632463 -1.78696
1407767097.235900327 : -0.324614 0.662212 -1.84359
1407767097.281088844 : -0.32786 0.668704 -1.84359
1407767097.309403045 : -0.320952 0.654489 -1.78696
1407767097.338434013 : -0.337598 0.684935 -1.84359
1407767097.372745097 : -0.340844 0.691427 -1.84359
1407767097.412738182 : -0.346472 0.706018 -1.85637
1407767097.452424921 : -0.350583 0.704412 -1.84359
1407767097.480060152 : -0.345206 0.69358 -1.79859
1407767097.510693541 : -0.354286 0.708572 -1.82917
1407767097.538482018 : -0.357507 0.711793 -1.82917
1407767097.567316311 : -0.363567 0.723889 -1.84359
1407767097.594078608 : -0.355564 0.704835 -1.78696
1407767097.625270463 : -0.358711 0.711128 -1.78696
1407767097.656229410 : -0.361857 0.717421 -1.78696
1407767097.693990735 : -0.365004 0.720568 -1.78696
1407767097.722083170 : -0.365447 0.718399 -1.77381
1407767097.767079070 : -0.374443 0.726861 -1.78696
1407767097.796651677 : -0.37759 0.730007 -1.78696
1407767097.832023845 : -0.377941 0.724646 -1.77381
1407767097.863831589 : -0.381064 0.72777 -1.77381
1407767097.906859970 : -0.38703 0.736301 -1.78696
1407767097.929910706 : -0.38703 0.739447 -1.78696
1407767097.954166786 : -0.390176 0.742594 -1.78696
1407767097.988955909 : -0.405767 0.772581 -1.84359
1407767098.012264985 : -0.395879 0.753754 -1.79859
1407767098.044523072 : -0.409013 0.775827 -1.84359
1407767098.077281030 : -0.399616 0.752034 -1.78696
1407767098.119584994 : -0.415506 0.779073 -1.84359
1407767098.158073579 : -0.408547 0.760088 -1.79859
1407767098.187679443 : -0.428187 0.787733 -1.85637
1407767098.213251302 : -0.434982 0.782319 -1.84359
1407767098.257689865 : -0.427935 0.758327 -1.78696
1407767098.288874249 : -0.43705 0.766422 -1.79859
1407767098.324511466 : -0.457604 0.79427 -1.85637
1407767098.351928875 : -0.446815 0.76462 -1.78696
1407767098.385565753 : -0.456255 0.767766 -1.78696
1407767098.410056413 : -0.462387 0.775923 -1.79859
1407767098.435724481 : -0.480428 0.795304 -1.84359
1407767098.467159790 : -0.49029 0.804076 -1.85637
1407767098.504410300 : -0.481389 0.77909 -1.79859
1407767098.551003922 : -0.503365 0.807345 -1.85637
1407767098.582510819 : -0.506633 0.807345 -1.85637
1407767098.607953972 : -0.497224 0.782257 -1.79859
1407767098.635121749 : -0.516439 0.807345 -1.85637
