1 - 1409579910.717948151
0 - 1409579910.718050220
1 - 1409579910.780961667
1 - 1409579910.881057160
1 - 1409579910.981066715
1 - 1409579911.081047480
1 - 1409579911.181062192
1 - 1409579911.280948156
1 - 1409579911.380934289
1 - 1409579911.480975714
1 - 1409579911.581020645
1 - 1409579911.681024634
1 - 1409579911.780979110
1 - 1409579911.881046227
1 - 1409579911.980949056
1 - 1409579912.080986820
1 - 1409579912.180940135
1 - 1409579912.281030972
1 - 1409579912.381024375
0 - 1409579912.480964422
1 - 1409579912.581123850
1 - 1409579912.681223450
0 - 1409579912.780947547
1 - 1409579912.881164648
1 - 1409579912.981062106
1 - 1409579913.080976287
1 - 1409579913.181051081
1 - 1409579913.281059092
1 - 1409579913.381052479
1 - 1409579913.480997947
1 - 1409579913.581033256
1 - 1409579913.680954323
1 - 1409579913.780943990
1 - 1409579913.880936003
1 - 1409579913.980950639
1 - 1409579914.080960012
1 - 1409579914.180947368
1 - 1409579914.280953145
1 - 1409579914.380939382
1 - 1409579914.480943156
1 - 1409579914.580968754
1 - 1409579914.681065634
1 - 1409579914.780967742
1 - 1409579914.881002864
1 - 1409579914.981034154
1 - 1409579915.081039208
1 - 1409579915.180947064
1 - 1409579915.281051332
1 - 1409579915.381060263
1 - 1409579915.481009559
1 - 1409579915.581573371
1 - 1409579915.681022804
1 - 1409579915.780954489
1 - 1409579915.881030439
1 - 1409579915.981052828
1 - 1409579916.080957827
1 - 1409579916.181020435
1 - 1409579916.280941635
1 - 1409579916.380996313
1 - 1409579916.480926905
1 - 1409579916.581136936
1 - 1409579916.681001676
1 - 1409579916.780985029
1 - 1409579916.881050664
1 - 1409579916.980938120
1 - 1409579917.080908932
1 - 1409579917.181029436
1 - 1409579917.280951333
1 - 1409579917.380929722
0 - 1409579917.480897339
1 - 1409579917.580935287
1 - 1409579917.680977337
1 - 1409579917.781059861
1 - 1409579917.881024797
1 - 1409579917.981311805
1 - 1409579918.081051021
1 - 1409579918.181016789
1 - 1409579918.280973367
1 - 1409579918.381048794
1 - 1409579918.480971457
1 - 1409579918.581095423
1 - 1409579918.680941686
1 - 1409579918.780956131
1 - 1409579918.880951363
1 - 1409579918.981054042
0 - 1409579919.081060466
1 - 1409579919.181021536
1 - 1409579919.280957264
1 - 1409579919.381089531
1 - 1409579919.481019577
1 - 1409579919.581089376
1 - 1409579919.680974896
1 - 1409579919.780935685
1 - 1409579919.881003513
1 - 1409579919.980924162
1 - 1409579920.081007507
1 - 1409579920.180952071
1 - 1409579920.280951666
1 - 1409579920.381009099
1 - 1409579920.480951564
1 - 1409579920.580987790
1 - 1409579920.681050428
1 - 1409579920.780998289
1 - 1409579920.880947432
1 - 1409579920.980997817
1 - 1409579921.080976795
1 - 1409579921.181083968
1 - 1409579921.281024923
1 - 1409579921.381028559
1 - 1409579921.480950130
1 - 1409579921.581017141
1 - 1409579921.680939726
1 - 1409579921.780950308
1 - 1409579921.881034618
1 - 1409579921.981114807
1 - 1409579922.081087409
1 - 1409579922.180964095
1 - 1409579922.280962991
1 - 1409579922.380961135
1 - 1409579922.481029726
1 - 1409579922.580961772
1 - 1409579922.681019394
1 - 1409579922.780936154
1 - 1409579922.880933723
1 - 1409579922.981016463
1 - 1409579923.080981719
1 - 1409579923.180973172
1 - 1409579923.280963731
1 - 1409579923.381035497
1 - 1409579923.480940472
1 - 1409579923.581011911
1 - 1409579923.681133938
1 - 1409579923.781031423
1 - 1409579923.881053014
1 - 1409579923.980962381
1 - 1409579924.080957539
1 - 1409579924.180965291
1 - 1409579924.280959916
1 - 1409579924.381003926
1 - 1409579924.480930536
1 - 1409579924.581036077
1 - 1409579924.680894683
1 - 1409579924.780931959
1 - 1409579924.881034655
1 - 1409579924.980980534
1 - 1409579925.080959808
1 - 1409579925.181045280
1 - 1409579925.281019887
1 - 1409579925.380978559
1 - 1409579925.481258626
1 - 1409579925.580965635
1 - 1409579925.681080471
1 - 1409579925.780941131
1 - 1409579925.880992912
1 - 1409579925.980935561
1 - 1409579926.080958840
1 - 1409579926.180971534
1 - 1409579926.280960270
1 - 1409579926.380988943
1 - 1409579926.480953234
1 - 1409579926.581038902
1 - 1409579926.681002201
1 - 1409579926.780976502
1 - 1409579926.880943324
1 - 1409579926.980944113
1 - 1409579927.081014211
1 - 1409579927.180990229
1 - 1409579927.281042474
1 - 1409579927.381122677
1 - 1409579927.480991315
1 - 1409579927.580971751
1 - 1409579927.680998063
1 - 1409579927.780990943
1 - 1409579927.880945700
1 - 1409579927.980945355
1 - 1409579928.080986757
1 - 1409579928.181037423
1 - 1409579928.280969163
1 - 1409579928.380912337
1 - 1409579928.480975273
1 - 1409579928.580998417
1 - 1409579928.680962496
1 - 1409579928.781296260
1 - 1409579928.880984934
1 - 1409579928.980971588
1 - 1409579929.080960281
1 - 1409579929.180956604
1 - 1409579929.281019863
1 - 1409579929.380933671
1 - 1409579929.480987839
1 - 1409579929.581000359
1 - 1409579929.681005964
1 - 1409579929.781097023
1 - 1409579929.880964103
1 - 1409579929.980953691
1 - 1409579930.080959077
1 - 1409579930.180934011
1 - 1409579930.280952779
1 - 1409579930.380938816
1 - 1409579930.480927244
1 - 1409579930.581003586
1 - 1409579930.680930633
1 - 1409579930.781055932
1 - 1409579930.880978186
1 - 1409579930.981005496
1 - 1409579931.080999124
1 - 1409579931.180973625
1 - 1409579931.281009102
1 - 1409579931.381029950
1 - 1409579931.480948589
1 - 1409579931.580975422
1 - 1409579931.680942454
1 - 1409579931.780941337
1 - 1409579931.880980615
1 - 1409579931.981060681
1 - 1409579932.080953705
1 - 1409579932.180977730
1 - 1409579932.281023003
1 - 1409579932.381132252
1 - 1409579932.481099208
1 - 1409579932.580968433
1 - 1409579932.681011204
1 - 1409579932.781129108
1 - 1409579932.881275257
1 - 1409579932.980990066
1 - 1409579933.080992501
1 - 1409579933.180976870
1 - 1409579933.280927036
1 - 1409579933.380957577
1 - 1409579933.480961239
1 - 1409579933.580951837
1 - 1409579933.680978846
1 - 1409579933.781094686
1 - 1409579933.881413315
1 - 1409579933.981096298
1 - 1409579934.081053520
1 - 1409579934.181005047
1 - 1409579934.280988882
1 - 1409579934.381007831
1 - 1409579934.480940125
1 - 1409579934.580976197
1 - 1409579934.680991492
1 - 1409579934.780961745
1 - 1409579934.881059591
1 - 1409579934.980960622
1 - 1409579935.080957313
1 - 1409579935.180984974
1 - 1409579935.280934641
1 - 1409579935.380961940
1 - 1409579935.481080146
1 - 1409579935.581055177
1 - 1409579935.680957455
1 - 1409579935.780998062
1 - 1409579935.880928099
1 - 1409579935.981155957
1 - 1409579936.081096508
1 - 1409579936.180990176
1 - 1409579936.281077200
1 - 1409579936.381228724
1 - 1409579936.481093133
1 - 1409579936.581082972
1 - 1409579936.680966014
1 - 1409579936.780944740
1 - 1409579936.881204342
1 - 1409579936.981022163
1 - 1409579937.080939169
1 - 1409579937.181008701
1 - 1409579937.281115722
1 - 1409579937.381126937
1 - 1409579937.480964237
1 - 1409579937.580962276
1 - 1409579937.680958337
1 - 1409579937.780964362
1 - 1409579937.880994527
1 - 1409579937.981025081
1 - 1409579938.080960481
1 - 1409579938.181031517
1 - 1409579938.280967277
1 - 1409579938.380969754
1 - 1409579938.480956369
1 - 1409579938.581034537
1 - 1409579938.681038949
1 - 1409579938.780958540
1 - 1409579938.880991210
1 - 1409579938.981038991
1 - 1409579939.080943622
1 - 1409579939.180956201
1 - 1409579939.280954962
1 - 1409579939.380961950
1 - 1409579939.480931850
1 - 1409579939.581088845
1 - 1409579939.680982132
1 - 1409579939.781031742
1 - 1409579939.881018795
1 - 1409579939.980923718
1 - 1409579940.080948587
1 - 1409579940.181012014
1 - 1409579940.280964192
1 - 1409579940.380935865
1 - 1409579940.480965815
1 - 1409579940.581054422
1 - 1409579940.680944786
1 - 1409579940.780959707
1 - 1409579940.881007229
1 - 1409579940.981027562
1 - 1409579941.081018741
1 - 1409579941.180957514
1 - 1409579941.281020357
1 - 1409579941.381012838
1 - 1409579941.481660572
1 - 1409579941.580999955
1 - 1409579941.681181860
1 - 1409579941.781026060
1 - 1409579941.880931883
1 - 1409579941.980951632
1 - 1409579942.080921484
1 - 1409579942.180974037
1 - 1409579942.281109174
1 - 1409579942.380988366
1 - 1409579942.480987929
1 - 1409579942.581464908
1 - 1409579942.681118982
1 - 1409579942.781135902
1 - 1409579942.881042037
1 - 1409579942.980935227
1 - 1409579943.080959563
1 - 1409579943.180974411
1 - 1409579943.280963015
1 - 1409579943.381020220
1 - 1409579943.481090718
1 - 1409579943.580980177
1 - 1409579943.680931657
1 - 1409579943.781040421
1 - 1409579943.880968988
1 - 1409579943.980950944
1 - 1409579944.080934854
1 - 1409579944.180974486
1 - 1409579944.280940581
1 - 1409579944.380951700
1 - 1409579944.480961486
1 - 1409579944.581003614
1 - 1409579944.681089868
1 - 1409579944.781028283
1 - 1409579944.880961931
1 - 1409579944.980955872
1 - 1409579945.080939718
1 - 1409579945.180953365
1 - 1409579945.281051718
1 - 1409579945.380945974
1 - 1409579945.481008936
1 - 1409579945.580964296
1 - 1409579945.680922544
1 - 1409579945.780953601
1 - 1409579945.881065293
1 - 1409579945.981091254
1 - 1409579946.080981280
1 - 1409579946.181000478
1 - 1409579946.281756542
1 - 1409579946.380971755
1 - 1409579946.480969388
1 - 1409579946.580992321
1 - 1409579946.680960943
1 - 1409579946.781050681
1 - 1409579946.880980195
1 - 1409579946.980991156
1 - 1409579947.081082913
1 - 1409579947.180953848
1 - 1409579947.280947438
1 - 1409579947.381019029
1 - 1409579947.481037208
1 - 1409579947.580983426
1 - 1409579947.681002168
1 - 1409579947.780982368
1 - 1409579947.880944841
1 - 1409579947.980987035
1 - 1409579948.081006566
1 - 1409579948.180927457
1 - 1409579948.281001092
1 - 1409579948.380993659
1 - 1409579948.480933649
1 - 1409579948.580935066
1 - 1409579948.680982908
1 - 1409579948.780952556
1 - 1409579948.880972896
1 - 1409579948.981060424
1 - 1409579949.081018844
1 - 1409579949.180962567
1 - 1409579949.281292914
1 - 1409579949.380987064
1 - 1409579949.481007726
1 - 1409579949.581020500
1 - 1409579949.680958720
1 - 1409579949.780936009
1 - 1409579949.880936503
1 - 1409579949.980963022
1 - 1409579950.080945136
1 - 1409579950.180961093
1 - 1409579950.281360494
1 - 1409579950.381018436
1 - 1409579950.480964682
1 - 1409579950.581087184
1 - 1409579950.680974048
1 - 1409579950.780930333
1 - 1409579950.880951390
1 - 1409579950.980978023
1 - 1409579951.080942567
1 - 1409579951.180965438
1 - 1409579951.280985466
1 - 1409579951.381045879
1 - 1409579951.480955502
1 - 1409579951.580980455
1 - 1409579951.680969650
1 - 1409579951.780945088
1 - 1409579951.880889773
1 - 1409579951.981097625
1 - 1409579952.081001494
1 - 1409579952.180935924
1 - 1409579952.280945994
1 - 1409579952.380962653
1 - 1409579952.481017182
1 - 1409579952.581083776
1 - 1409579952.680988318
1 - 1409579952.780994662
1 - 1409579952.881139427
1 - 1409579952.981157235
1 - 1409579953.080977469
1 - 1409579953.180960573
1 - 1409579953.280981682
1 - 1409579953.381083202
1 - 1409579953.480950337
1 - 1409579953.580938721
1 - 1409579953.680933909
1 - 1409579953.781027096
1 - 1409579953.880949096
1 - 1409579953.980961653
1 - 1409579954.080988790
1 - 1409579954.180938522
1 - 1409579954.281013303
1 - 1409579954.380960877
1 - 1409579954.480946192
1 - 1409579954.580990909
1 - 1409579954.681010643
1 - 1409579954.780980927
1 - 1409579954.880936538
1 - 1409579954.980945856
1 - 1409579955.081048904
1 - 1409579955.181053116
1 - 1409579955.280980727
1 - 1409579955.380956891
1 - 1409579955.480928331
1 - 1409579955.580993930
1 - 1409579955.681069408
1 - 1409579955.780994040
1 - 1409579955.880960069
1 - 1409579955.981007037
1 - 1409579956.081019900
1 - 1409579956.181031315
1 - 1409579956.281054544
1 - 1409579956.380943145
1 - 1409579956.480948968
1 - 1409579956.580937158
1 - 1409579956.680964923
1 - 1409579956.781330949
1 - 1409579956.880918420
1 - 1409579956.981089377
1 - 1409579957.081005144
1 - 1409579957.181014893
1 - 1409579957.280997813
1 - 1409579957.380937475
1 - 1409579957.480984589
1 - 1409579957.580971798
1 - 1409579957.680958403
1 - 1409579957.781055635
1 - 1409579957.880921748
1 - 1409579957.981036990
1 - 1409579958.080976423
1 - 1409579958.180989942
1 - 1409579958.280933780
1 - 1409579958.380990415
1 - 1409579958.481000440
1 - 1409579958.580958661
1 - 1409579958.681045570
1 - 1409579958.780991736
1 - 1409579958.881022178
1 - 1409579958.980937156
1 - 1409579959.080943560
1 - 1409579959.180944629
1 - 1409579959.280936837
1 - 1409579959.381075627
1 - 1409579959.481062005
1 - 1409579959.581067986
1 - 1409579959.681011734
1 - 1409579959.781028634
1 - 1409579959.880960843
1 - 1409579959.980916072
1 - 1409579960.080960318
1 - 1409579960.180952184
1 - 1409579960.281032255
1 - 1409579960.381026689
1 - 1409579960.480946683
1 - 1409579960.581115711
1 - 1409579960.680969117
1 - 1409579960.780990970
1 - 1409579960.880946288
1 - 1409579960.980927251
1 - 1409579961.080940949
1 - 1409579961.181054153
1 - 1409579961.281031633
1 - 1409579961.380955116
1 - 1409579961.481135201
1 - 1409579961.580925866
1 - 1409579961.680946763
1 - 1409579961.781027180
1 - 1409579961.880986295
1 - 1409579961.981044768
1 - 1409579962.080945598
1 - 1409579962.181079134
1 - 1409579962.280939131
1 - 1409579962.380927301
1 - 1409579962.480992858
1 - 1409579962.580945428
1 - 1409579962.680967369
1 - 1409579962.781071161
1 - 1409579962.881023329
1 - 1409579962.981008644
1 - 1409579963.080958904
1 - 1409579963.180983037
1 - 1409579963.280995623
1 - 1409579963.380974586
1 - 1409579963.481040224
1 - 1409579963.580970783
1 - 1409579963.681035997
1 - 1409579963.780974763
1 - 1409579963.881150524
1 - 1409579963.980990691
1 - 1409579964.080980788
1 - 1409579964.180958286
1 - 1409579964.280982823
1 - 1409579964.380956483
1 - 1409579964.481011690
1 - 1409579964.580957824
1 - 1409579964.681058201
1 - 1409579964.780912311
1 - 1409579964.881030677
1 - 1409579964.980998714
1 - 1409579965.080969200
1 - 1409579965.180926604
1 - 1409579965.280946696
1 - 1409579965.380985357
1 - 1409579965.481047539
1 - 1409579965.581014328
1 - 1409579965.681008060
1 - 1409579965.780958989
1 - 1409579965.881233278
1 - 1409579965.980987687
1 - 1409579966.080973014
1 - 1409579966.181046200
1 - 1409579966.280998461
1 - 1409579966.380977089
1 - 1409579966.480941554
1 - 1409579966.580963662
1 - 1409579966.681020216
1 - 1409579966.780974782
1 - 1409579966.881011586
1 - 1409579966.980960554
1 - 1409579967.080968123
1 - 1409579967.181053018
1 - 1409579967.280990917
