1 - 1409670473.810574407
1 - 1409670474.819226077
0 - 1409670474.819345274
1 - 1409670474.919646121
1 - 1409670475.019545836
1 - 1409670475.119583446
1 - 1409670475.219569835
1 - 1409670475.319633572
1 - 1409670475.419728898
1 - 1409670475.519757072
1 - 1409670475.619581309
0 - 1409670475.719474545
0 - 1409670475.819539104
0 - 1409670475.919524181
0 - 1409670476.019473269
0 - 1409670476.119533849
0 - 1409670476.219457163
0 - 1409670476.319606669
0 - 1409670476.419538026
0 - 1409670476.519492837
0 - 1409670476.619457260
0 - 1409670476.719559084
0 - 1409670476.819448419
0 - 1409670476.919529461
0 - 1409670477.019726798
0 - 1409670477.119470170
0 - 1409670477.219473101
0 - 1409670477.319537335
0 - 1409670477.419516296
0 - 1409670477.519478870
0 - 1409670477.619490133
0 - 1409670477.719624595
0 - 1409670477.819527308
0 - 1409670477.919444286
0 - 1409670478.019522439
0 - 1409670478.119523145
0 - 1409670478.219544164
0 - 1409670478.319465784
0 - 1409670478.419529569
0 - 1409670478.519499745
0 - 1409670478.619492310
0 - 1409670478.719547094
0 - 1409670478.819556321
0 - 1409670478.919520416
0 - 1409670479.019564246
0 - 1409670479.119517104
0 - 1409670479.219526777
0 - 1409670479.319468854
0 - 1409670479.419521453
0 - 1409670479.519470643
0 - 1409670479.619471674
0 - 1409670479.719521638
0 - 1409670479.819538132
0 - 1409670479.919469253
0 - 1409670480.019519977
0 - 1409670480.119495935
0 - 1409670480.219562850
0 - 1409670480.319564546
0 - 1409670480.419565640
0 - 1409670480.519563263
0 - 1409670480.619478147
0 - 1409670480.719530895
0 - 1409670480.819465944
0 - 1409670480.919527937
0 - 1409670481.019472230
0 - 1409670481.119459751
0 - 1409670481.219538533
0 - 1409670481.319520463
0 - 1409670481.419477109
0 - 1409670481.519483695
0 - 1409670481.619511382
0 - 1409670481.719518959
0 - 1409670481.819645706
0 - 1409670481.919529751
0 - 1409670482.019467806
0 - 1409670482.119596968
0 - 1409670482.219461242
0 - 1409670482.319469063
0 - 1409670482.419478119
0 - 1409670482.519459809
0 - 1409670482.619554725
0 - 1409670482.719463068
0 - 1409670482.819533412
0 - 1409670482.919478301
0 - 1409670483.019472394
0 - 1409670483.119592417
0 - 1409670483.219504122
0 - 1409670483.319496134
0 - 1409670483.419553097
0 - 1409670483.519535753
0 - 1409670483.619537141
1 - 1409670484.069859912
0 - 1409670484.069887046
1 - 1409670484.170220656
1 - 1409670484.270172154
1 - 1409670484.370134673
1 - 1409670484.470159384
1 - 1409670484.570150552
1 - 1409670484.670457892
1 - 1409670484.770205116
1 - 1409670484.870274809
1 - 1409670484.970160779
1 - 1409670485.070185966
1 - 1409670485.170155503
1 - 1409670485.270239576
1 - 1409670485.370352344
1 - 1409670485.470220509
1 - 1409670485.570213521
1 - 1409670485.670200672
1 - 1409670485.770162028
1 - 1409670485.870241533
1 - 1409670485.970240889
1 - 1409670486.070295951
1 - 1409670486.170214406
1 - 1409670486.270265301
1 - 1409670486.370136691
1 - 1409670486.470320000
1 - 1409670486.570173143
0 - 1409670486.670100752
0 - 1409670486.770177142
0 - 1409670486.870164325
0 - 1409670486.970091995
0 - 1409670487.070092957
0 - 1409670487.170100978
0 - 1409670487.270148246
0 - 1409670487.370131980
0 - 1409670487.470143688
0 - 1409670487.570111947
0 - 1409670487.670079743
0 - 1409670487.770052974
0 - 1409670487.870042279
0 - 1409670487.970089660
0 - 1409670488.070069621
0 - 1409670488.170076761
0 - 1409670488.270128225
0 - 1409670488.370186238
0 - 1409670488.470127627
0 - 1409670488.570172118
0 - 1409670488.670131437
0 - 1409670488.770129629
0 - 1409670488.870153318
0 - 1409670488.970131018
0 - 1409670489.070069683
0 - 1409670489.170100453
0 - 1409670489.270130931
0 - 1409670489.370170277
0 - 1409670489.536454386
0 - 1409670489.570088318
0 - 1409670489.670777022
0 - 1409670489.770142653
0 - 1409670489.870098910
0 - 1409670489.970158722
0 - 1409670490.070161631
0 - 1409670490.170141814
0 - 1409670490.270562461
0 - 1409670490.370091770
0 - 1409670490.470092246
0 - 1409670490.570177309
0 - 1409670490.670122254
0 - 1409670490.770148237
0 - 1409670490.870113029
0 - 1409670490.970188592
0 - 1409670491.070146542
0 - 1409670491.170192040
0 - 1409670491.270180542
0 - 1409670491.370154039
0 - 1409670491.470108743
0 - 1409670491.570183530
0 - 1409670491.670120821
0 - 1409670491.770084104
0 - 1409670491.870194033
0 - 1409670491.970159730
0 - 1409670492.070107403
0 - 1409670492.170177689
0 - 1409670492.270127074
0 - 1409670492.370129360
0 - 1409670492.470171116
0 - 1409670492.570123138
1 - 1409670492.670176855
1 - 1409670492.770362021
1 - 1409670492.870282349
1 - 1409670492.970272167
1 - 1409670493.070199088
1 - 1409670493.170198970
1 - 1409670493.270193766
1 - 1409670493.370212282
1 - 1409670493.470194225
0 - 1409670493.570031174
0 - 1409670493.670025925
0 - 1409670493.770028689
0 - 1409670493.870026723
0 - 1409670493.969971216
0 - 1409670494.070027509
0 - 1409670494.169996202
1 - 1409670494.270252150
1 - 1409670494.370163425
0 - 1409670494.470006049
0 - 1409670494.570075154
0 - 1409670494.669996080
0 - 1409670494.769995829
0 - 1409670494.869950403
0 - 1409670494.970025036
0 - 1409670495.070037091
0 - 1409670495.170139411
0 - 1409670495.270151486
0 - 1409670495.370019094
0 - 1409670495.470148319
1 - 1409670495.570241631
1 - 1409670495.670242362
1 - 1409670495.770378048
1 - 1409670495.870172476
1 - 1409670495.970194627
1 - 1409670496.070210455
1 - 1409670496.170207259
1 - 1409670496.270211717
1 - 1409670496.370146576
1 - 1409670496.470186983
1 - 1409670496.570224300
1 - 1409670496.670208207
1 - 1409670496.770228997
1 - 1409670496.870173137
1 - 1409670496.970235792
1 - 1409670497.070154277
1 - 1409670497.170146479
1 - 1409670497.270169720
1 - 1409670497.370300925
1 - 1409670497.470372220
1 - 1409670497.570224381
1 - 1409670497.670431348
1 - 1409670497.770245272
1 - 1409670497.870256683
1 - 1409670497.970167095
1 - 1409670498.070370360
1 - 1409670498.170163638
1 - 1409670498.270267206
1 - 1409670498.370187343
1 - 1409670498.470171950
1 - 1409670498.570221557
1 - 1409670498.670163203
1 - 1409670498.770499627
1 - 1409670498.870275618
1 - 1409670498.970257522
1 - 1409670499.070329820
1 - 1409670499.170275172
1 - 1409670499.270203759
1 - 1409670499.370269174
1 - 1409670499.470186920
1 - 1409670499.570180608
1 - 1409670499.670277911
1 - 1409670499.770312566
1 - 1409670499.870161196
1 - 1409670499.970164028
1 - 1409670500.070257220
1 - 1409670500.170236661
1 - 1409670500.270250114
1 - 1409670500.370138971
1 - 1409670500.470268275
1 - 1409670500.570234958
1 - 1409670500.670837008
1 - 1409670500.770245986
0 - 1409670500.870146638
0 - 1409670500.970168328
0 - 1409670501.070102342
0 - 1409670501.170138344
0 - 1409670501.270111639
0 - 1409670501.370114426
0 - 1409670501.470126226
0 - 1409670501.570152998
0 - 1409670501.670104028
0 - 1409670501.770158402
0 - 1409670501.870134124
0 - 1409670501.970133237
0 - 1409670502.070078151
0 - 1409670502.170138822
0 - 1409670502.270146685
0 - 1409670502.370106920
0 - 1409670502.470140392
0 - 1409670502.570153223
0 - 1409670502.670160648
0 - 1409670502.770159559
0 - 1409670502.870077139
0 - 1409670502.970158234
0 - 1409670503.070098274
0 - 1409670503.170077777
0 - 1409670503.270091991
0 - 1409670503.370087340
0 - 1409670503.470095752
0 - 1409670503.570185254
0 - 1409670503.670167105
0 - 1409670503.770139528
0 - 1409670503.870148165
0 - 1409670503.970144779
0 - 1409670504.070101751
0 - 1409670504.170081333
0 - 1409670504.270106785
0 - 1409670504.370152936
0 - 1409670504.470084161
0 - 1409670504.570103070
0 - 1409670504.670094186
0 - 1409670504.770145522
0 - 1409670504.870281454
0 - 1409670504.970129771
0 - 1409670505.070125662
0 - 1409670505.170092435
0 - 1409670505.270144787
0 - 1409670505.370089304
0 - 1409670505.470092639
0 - 1409670505.570152769
0 - 1409670505.670079868
0 - 1409670505.770159205
0 - 1409670505.870079789
0 - 1409670505.970059273
0 - 1409670506.070121524
0 - 1409670506.170141614
0 - 1409670506.270144282
0 - 1409670506.370111927
0 - 1409670506.470105278
0 - 1409670506.570226138
0 - 1409670506.670121294
0 - 1409670506.770095315
0 - 1409670506.870078224
0 - 1409670506.970205941
0 - 1409670507.070081959
0 - 1409670507.170145946
0 - 1409670507.270105482
0 - 1409670507.370136772
0 - 1409670507.470084421
0 - 1409670507.570143579
0 - 1409670507.670110941
0 - 1409670507.770260245
0 - 1409670507.870169585
0 - 1409670507.970075623
0 - 1409670508.070077831
0 - 1409670508.170150039
0 - 1409670508.270086594
0 - 1409670508.370196590
0 - 1409670508.470094623
0 - 1409670508.570178171
0 - 1409670508.670110087
0 - 1409670508.770071063
1 - 1409670511.063454927
0 - 1409670511.063514233
1 - 1409670511.163773282
1 - 1409670511.263736195
1 - 1409670511.363848285
1 - 1409670511.463754443
1 - 1409670511.563879545
1 - 1409670511.663839447
1 - 1409670511.763848320
1 - 1409670511.863871402
1 - 1409670511.963849151
1 - 1409670512.063778379
1 - 1409670512.163899591
1 - 1409670512.263863483
1 - 1409670512.363768362
1 - 1409670512.463847070
1 - 1409670512.563775971
1 - 1409670512.663828776
1 - 1409670512.763807383
1 - 1409670512.863824631
0 - 1409670512.963943996
0 - 1409670513.063765903
0 - 1409670513.163862148
0 - 1409670513.263715355
0 - 1409670513.363755426
0 - 1409670513.463704104
0 - 1409670513.563697293
0 - 1409670513.663771386
0 - 1409670513.763849561
0 - 1409670513.863806703
0 - 1409670513.963728626
0 - 1409670514.063696625
0 - 1409670514.163788000
0 - 1409670514.263714823
0 - 1409670514.363743095
0 - 1409670514.463770467
0 - 1409670514.563710389
0 - 1409670514.663772710
0 - 1409670514.763763106
0 - 1409670514.863746395
0 - 1409670514.963727064
0 - 1409670515.063714996
0 - 1409670515.163718939
0 - 1409670515.263762939
0 - 1409670515.363712458
0 - 1409670515.463813530
0 - 1409670515.563731707
0 - 1409670515.663854996
0 - 1409670515.763757656
0 - 1409670515.863704060
0 - 1409670515.963755041
0 - 1409670516.063797836
0 - 1409670516.163703185
0 - 1409670516.263717880
0 - 1409670516.363689424
0 - 1409670516.463678121
0 - 1409670516.563785489
0 - 1409670516.663698589
0 - 1409670516.763845314
0 - 1409670516.863833566
0 - 1409670516.963692693
0 - 1409670517.063771130
0 - 1409670517.163756417
0 - 1409670517.263743387
0 - 1409670517.363707151
0 - 1409670517.463735759
0 - 1409670517.563799672
0 - 1409670517.663716298
0 - 1409670517.763728311
0 - 1409670517.863790998
0 - 1409670517.963743109
0 - 1409670518.063844798
0 - 1409670518.163719987
0 - 1409670518.263738111
0 - 1409670518.363802309
0 - 1409670518.463694192
0 - 1409670518.563720268
0 - 1409670518.663738406
0 - 1409670518.764068232
0 - 1409670518.863719095
0 - 1409670518.963764532
0 - 1409670519.063713510
0 - 1409670519.163709047
0 - 1409670519.263802241
0 - 1409670519.363749435
0 - 1409670519.463759039
0 - 1409670519.563758220
0 - 1409670519.663731060
0 - 1409670519.763762572
0 - 1409670519.863808267
0 - 1409670519.963762471
0 - 1409670520.063755384
0 - 1409670520.163774103
0 - 1409670520.263821043
0 - 1409670520.363740222
1 - 1409670520.463869998
1 - 1409670520.563954074
1 - 1409670520.663875244
1 - 1409670520.763767984
1 - 1409670520.863771928
1 - 1409670520.963926148
1 - 1409670521.063782161
1 - 1409670521.163790465
1 - 1409670521.263969614
1 - 1409670521.363953578
1 - 1409670521.463825054
1 - 1409670521.624577442
1 - 1409670521.663809369
1 - 1409670521.764120635
1 - 1409670521.863809861
1 - 1409670521.963883058
1 - 1409670522.063800587
1 - 1409670522.163867265
1 - 1409670522.263836315
1 - 1409670522.363833633
1 - 1409670522.463766712
1 - 1409670522.563782493
1 - 1409670522.663864525
1 - 1409670522.763848920
1 - 1409670522.863798199
1 - 1409670522.963859640
1 - 1409670523.063792323
1 - 1409670523.163811686
1 - 1409670523.263786851
1 - 1409670523.363830122
1 - 1409670523.463831875
1 - 1409670523.563877359
1 - 1409670523.663807355
1 - 1409670523.763779312
1 - 1409670523.863862178
1 - 1409670523.963866042
1 - 1409670524.063836986
1 - 1409670524.163909014
1 - 1409670524.264339730
1 - 1409670524.363785445
1 - 1409670524.463792174
1 - 1409670524.563864227
1 - 1409670524.663799489
1 - 1409670524.763831187
0 - 1409670524.863770297
0 - 1409670524.963696820
0 - 1409670525.063704054
0 - 1409670525.163799394
0 - 1409670525.263726379
0 - 1409670525.363757272
0 - 1409670525.463767829
0 - 1409670525.563694086
0 - 1409670525.663788851
0 - 1409670525.764137624
0 - 1409670525.863717032
0 - 1409670525.963763160
0 - 1409670526.063888177
0 - 1409670526.163753589
0 - 1409670526.263795057
0 - 1409670526.363751919
0 - 1409670526.463703897
0 - 1409670526.563736397
0 - 1409670526.663743633
0 - 1409670526.763707977
0 - 1409670526.863700390
0 - 1409670526.963786171
0 - 1409670527.063795218
0 - 1409670527.163808471
0 - 1409670527.263766861
0 - 1409670527.363774422
0 - 1409670527.463709060
0 - 1409670527.563830129
0 - 1409670527.663842346
0 - 1409670527.763775283
0 - 1409670527.863698652
0 - 1409670527.963731824
0 - 1409670528.063732973
0 - 1409670528.163694058
0 - 1409670528.263754229
0 - 1409670528.363708636
0 - 1409670528.463703550
0 - 1409670528.563707259
0 - 1409670528.663801462
0 - 1409670528.763726613
0 - 1409670528.863702811
0 - 1409670528.963758937
0 - 1409670529.063821069
0 - 1409670529.163725590
0 - 1409670529.263823499
0 - 1409670529.363701756
0 - 1409670529.463772332
0 - 1409670529.563776652
0 - 1409670529.663747791
0 - 1409670529.763749871
0 - 1409670529.863761578
0 - 1409670529.963772164
0 - 1409670530.063760683
0 - 1409670530.163751083
1 - 1409670530.263872743
1 - 1409670530.363775377
1 - 1409670530.463821311
1 - 1409670530.563987462
1 - 1409670530.663875613
1 - 1409670530.763806790
1 - 1409670530.863798471
1 - 1409670530.963795784
1 - 1409670531.063822795
1 - 1409670531.163893590
1 - 1409670531.263820085
1 - 1409670531.363862981
1 - 1409670531.463789349
1 - 1409670531.563845860
1 - 1409670531.663778451
1 - 1409670531.763842033
1 - 1409670531.863854410
1 - 1409670531.963848735
1 - 1409670532.063874322
1 - 1409670532.163849172
1 - 1409670532.263796692
1 - 1409670532.363784636
1 - 1409670532.463803123
1 - 1409670532.563865581
1 - 1409670532.663868411
1 - 1409670532.763755458
1 - 1409670532.863810942
0 - 1409670532.963699263
0 - 1409670533.063710355
0 - 1409670533.163709294
0 - 1409670533.263758000
0 - 1409670533.363708011
0 - 1409670533.463738625
0 - 1409670533.563829017
0 - 1409670533.663861105
0 - 1409670533.763780739
0 - 1409670533.863746371
0 - 1409670533.963742794
0 - 1409670534.063803820
0 - 1409670534.163750300
0 - 1409670534.263705155
0 - 1409670534.363718660
0 - 1409670534.463828348
0 - 1409670534.563747541
0 - 1409670534.663761585
0 - 1409670534.763746840
0 - 1409670534.863785732
0 - 1409670534.963710268
0 - 1409670535.063680035
0 - 1409670535.163759282
0 - 1409670535.263816653
0 - 1409670535.363766261
0 - 1409670535.463780727
0 - 1409670535.563680330
0 - 1409670535.663760792
0 - 1409670535.763688539
0 - 1409670535.863758849
0 - 1409670535.963701584
0 - 1409670536.063786823
0 - 1409670536.163762363
0 - 1409670536.263758244
0 - 1409670536.363787992
0 - 1409670536.463706746
0 - 1409670536.563728119
0 - 1409670536.663714354
0 - 1409670536.763763612
0 - 1409670536.863763676
0 - 1409670536.963754667
0 - 1409670537.063874615
1 - 1409670537.163826794
1 - 1409670537.263858262
1 - 1409670537.363811793
1 - 1409670537.463859710
1 - 1409670537.563821393
1 - 1409670537.663843834
1 - 1409670537.763702991
1 - 1409670537.863812223
1 - 1409670537.963974213
1 - 1409670538.063788681
0 - 1409670538.163755972
0 - 1409670538.263942389
0 - 1409670538.363779680
0 - 1409670538.463773678
0 - 1409670538.563859573
0 - 1409670538.663709351
0 - 1409670538.763703914
0 - 1409670538.863698815
0 - 1409670538.963749148
0 - 1409670539.063708458
0 - 1409670539.163784660
0 - 1409670539.263740707
0 - 1409670539.363795624
0 - 1409670539.463785247
0 - 1409670539.563757615
0 - 1409670539.663754355
0 - 1409670539.763819612
0 - 1409670539.864021221
0 - 1409670539.963697998
0 - 1409670540.063762892
0 - 1409670540.163740446
0 - 1409670540.263756626
0 - 1409670540.363741258
0 - 1409670540.463764890
0 - 1409670540.563787701
0 - 1409670540.663720224
0 - 1409670540.763794976
1 - 1409670540.863813421
1 - 1409670540.964126154
1 - 1409670541.063832143
1 - 1409670541.163978605
1 - 1409670541.264119181
1 - 1409670541.363858540
1 - 1409670541.463784314
1 - 1409670541.563978008
1 - 1409670541.663850356
1 - 1409670541.763783305
1 - 1409670541.863771112
1 - 1409670541.963867769
1 - 1409670542.063811271
1 - 1409670542.163859009
1 - 1409670542.263920309
1 - 1409670542.363829537
1 - 1409670542.463821120
1 - 1409670542.563781035
1 - 1409670542.663861289
1 - 1409670542.763877382
1 - 1409670542.863866879
1 - 1409670542.963804754
1 - 1409670543.063771736
0 - 1409670543.163753480
0 - 1409670543.263688705
0 - 1409670543.363703631
0 - 1409670543.463741856
0 - 1409670543.563964308
0 - 1409670543.663708848
0 - 1409670543.763870070
0 - 1409670543.863702099
0 - 1409670543.963755271
0 - 1409670544.063750605
0 - 1409670544.163880130
0 - 1409670544.263745510
0 - 1409670544.363711554
0 - 1409670544.463695630
0 - 1409670544.563689119
1 - 1409670544.663896213
1 - 1409670544.763780093
1 - 1409670544.863859688
1 - 1409670544.963857513
1 - 1409670545.063769416
1 - 1409670545.163821827
1 - 1409670545.263791048
1 - 1409670545.363837243
1 - 1409670545.463779635
1 - 1409670545.563959770
1 - 1409670545.664251462
1 - 1409670545.763880098
1 - 1409670545.863959707
1 - 1409670545.963791859
1 - 1409670546.063804084
1 - 1409670546.163774852
1 - 1409670546.263781222
1 - 1409670546.363787917
1 - 1409670546.463846413
1 - 1409670546.563863489
1 - 1409670546.663782867
1 - 1409670546.763941987
1 - 1409670546.863877451
1 - 1409670546.964017664
1 - 1409670547.063806368
1 - 1409670547.163792933
1 - 1409670547.264144163
1 - 1409670547.363780656
1 - 1409670547.463834269
1 - 1409670547.563915152
1 - 1409670547.663787094
1 - 1409670547.763811452
1 - 1409670547.863884096
1 - 1409670547.963785981
1 - 1409670548.063784007
1 - 1409670548.163783982
1 - 1409670548.263991174
1 - 1409670548.363802228
1 - 1409670548.463790819
1 - 1409670548.563797968
1 - 1409670548.663827858
1 - 1409670548.763804604
1 - 1409670548.863930025
1 - 1409670548.963811790
1 - 1409670549.063928167
1 - 1409670549.163868225
1 - 1409670549.263781569
1 - 1409670549.363947016
1 - 1409670549.463847343
1 - 1409670549.563775666
1 - 1409670549.663817052
1 - 1409670549.763804473
1 - 1409670549.863916577
1 - 1409670549.963774180
1 - 1409670550.064055860
1 - 1409670550.163833878
1 - 1409670550.263772069
1 - 1409670550.363787457
1 - 1409670550.463770367
1 - 1409670550.563782431
1 - 1409670550.663717896
1 - 1409670550.763768243
1 - 1409670550.863861455
1 - 1409670550.963803867
1 - 1409670551.063763331
0 - 1409670551.163770175
0 - 1409670551.263708224
0 - 1409670551.363758457
0 - 1409670551.463818230
0 - 1409670551.563817728
0 - 1409670551.663737859
0 - 1409670551.763708819
0 - 1409670551.863758886
0 - 1409670551.963695639
0 - 1409670552.063734681
0 - 1409670552.163751255
0 - 1409670552.263725800
0 - 1409670552.363808247
0 - 1409670552.463738482
0 - 1409670552.563718914
0 - 1409670552.663693665
0 - 1409670552.763763365
0 - 1409670552.863699756
0 - 1409670552.963729651
0 - 1409670553.063739709
0 - 1409670553.163736883
0 - 1409670553.263742774
0 - 1409670553.363697546
0 - 1409670553.463834101
0 - 1409670553.563718650
0 - 1409670553.663703770
0 - 1409670553.763727351
0 - 1409670553.863709227
0 - 1409670553.963717522
0 - 1409670554.063746766
0 - 1409670554.163718610
0 - 1409670554.263735531
0 - 1409670554.363750564
0 - 1409670554.463752603
0 - 1409670554.563708765
0 - 1409670554.663776069
0 - 1409670554.763805371
0 - 1409670554.863798729
0 - 1409670554.963756674
0 - 1409670555.063751090
0 - 1409670555.163761520
0 - 1409670555.263718027
0 - 1409670555.363707449
1 - 1409670555.463853719
1 - 1409670555.563773662
1 - 1409670555.663779334
1 - 1409670555.763841747
1 - 1409670555.864080681
1 - 1409670555.963766897
1 - 1409670556.063794070
1 - 1409670556.163896904
1 - 1409670556.263788876
1 - 1409670556.363864656
1 - 1409670556.463753350
1 - 1409670556.563811640
1 - 1409670556.663752743
1 - 1409670556.763873968
1 - 1409670556.863794565
1 - 1409670556.963897821
1 - 1409670557.063770537
1 - 1409670557.163891761
1 - 1409670557.263836342
1 - 1409670557.363960392
1 - 1409670557.463775675
1 - 1409670557.563775506
1 - 1409670557.663828474
1 - 1409670557.763787908
1 - 1409670557.863813352
1 - 1409670557.963787498
1 - 1409670558.063859013
1 - 1409670558.163800432
1 - 1409670558.263755758
1 - 1409670558.363821702
1 - 1409670558.463854607
1 - 1409670558.563871686
1 - 1409670558.663907863
1 - 1409670558.763814524
1 - 1409670558.863785301
1 - 1409670558.963786532
1 - 1409670559.063778190
1 - 1409670559.163803002
1 - 1409670559.263952111
1 - 1409670559.363846277
1 - 1409670559.463862026
1 - 1409670559.563815614
1 - 1409670559.663871923
1 - 1409670559.763795567
1 - 1409670559.863791702
1 - 1409670559.963782709
1 - 1409670560.063827112
1 - 1409670560.163785145
1 - 1409670560.263943880
1 - 1409670560.363804154
1 - 1409670560.463789904
1 - 1409670560.563795330
1 - 1409670560.663867740
1 - 1409670560.763784139
1 - 1409670560.863833938
1 - 1409670560.963765247
1 - 1409670561.063902802
1 - 1409670561.163801345
1 - 1409670561.263778318
1 - 1409670561.363862762
1 - 1409670561.463857965
1 - 1409670561.563752093
1 - 1409670561.663954720
1 - 1409670561.763869367
1 - 1409670561.863860291
1 - 1409670561.963702831
1 - 1409670562.063767584
1 - 1409670562.163858828
1 - 1409670562.263833985
1 - 1409670562.363885689
1 - 1409670562.463794331
1 - 1409670562.563820078
1 - 1409670562.663878924
1 - 1409670562.763771672
1 - 1409670562.863850406
1 - 1409670562.963824847
1 - 1409670563.063767695
0 - 1409670563.163762698
0 - 1409670563.263832254
0 - 1409670563.363758412
0 - 1409670563.463770166
0 - 1409670563.563762307
0 - 1409670563.663697046
0 - 1409670563.763705718
0 - 1409670563.863759165
0 - 1409670563.963760222
0 - 1409670564.063706843
0 - 1409670564.163781005
0 - 1409670564.263713251
0 - 1409670564.363779543
0 - 1409670564.463733553
0 - 1409670564.563704669
0 - 1409670564.663735310
0 - 1409670564.763765803
0 - 1409670564.863743976
0 - 1409670564.963736700
0 - 1409670565.063702660
0 - 1409670565.163767287
0 - 1409670565.263783701
0 - 1409670565.363694736
0 - 1409670565.463793968
0 - 1409670565.563756011
0 - 1409670565.663721429
0 - 1409670565.763779015
0 - 1409670565.863834910
0 - 1409670565.963732789
0 - 1409670566.063710142
0 - 1409670566.163821956
0 - 1409670566.263761682
0 - 1409670566.363761131
0 - 1409670566.463701776
0 - 1409670566.563841444
0 - 1409670566.663715209
0 - 1409670566.763759106
0 - 1409670566.863812486
0 - 1409670566.963756452
0 - 1409670567.063782780
0 - 1409670567.163733827
0 - 1409670567.263708464
0 - 1409670567.363761702
0 - 1409670567.463691698
0 - 1409670567.563690211
0 - 1409670567.664132307
0 - 1409670567.763816509
0 - 1409670567.863727423
0 - 1409670567.963764268
0 - 1409670568.063873791
0 - 1409670568.163762171
0 - 1409670568.263763359
1 - 1409670568.363861367
1 - 1409670568.463887961
1 - 1409670568.563772632
1 - 1409670568.663840546
1 - 1409670568.763880429
1 - 1409670568.863806550
1 - 1409670568.963788501
1 - 1409670569.063769073
1 - 1409670569.163834966
1 - 1409670569.263802150
1 - 1409670569.363845561
1 - 1409670569.463821275
1 - 1409670569.563828443
1 - 1409670569.663773032
1 - 1409670569.763799441
1 - 1409670569.863819709
1 - 1409670569.963781877
1 - 1409670570.063821339
1 - 1409670570.163789681
1 - 1409670570.263785085
1 - 1409670570.363877170
1 - 1409670570.463803202
1 - 1409670570.563840920
1 - 1409670570.663758855
1 - 1409670570.763809928
1 - 1409670570.863773193
1 - 1409670570.963852269
1 - 1409670571.064205565
1 - 1409670571.163785460
1 - 1409670571.263805976
1 - 1409670571.363869323
1 - 1409670571.463836733
1 - 1409670571.563873592
1 - 1409670571.663910626
1 - 1409670571.763819459
1 - 1409670571.863781886
1 - 1409670571.963862280
1 - 1409670572.063775283
1 - 1409670572.163788744
1 - 1409670572.263783134
1 - 1409670572.363808457
1 - 1409670572.463773959
1 - 1409670572.563896338
1 - 1409670572.663853510
1 - 1409670572.763891489
1 - 1409670572.863890278
0 - 1409670572.963865505
0 - 1409670573.063746558
0 - 1409670573.163757298
0 - 1409670573.263700288
0 - 1409670573.363697529
0 - 1409670573.463747990
0 - 1409670573.563761861
0 - 1409670573.663731064
0 - 1409670573.763793212
0 - 1409670573.863731293
0 - 1409670573.963757155
0 - 1409670574.063703308
0 - 1409670574.163768746
0 - 1409670574.263790355
0 - 1409670574.363699114
0 - 1409670574.463727964
0 - 1409670574.563789345
0 - 1409670574.663773589
0 - 1409670574.763697282
0 - 1409670574.863706748
0 - 1409670574.963692125
0 - 1409670575.063789009
0 - 1409670575.163765446
0 - 1409670575.263701434
0 - 1409670575.363751243
0 - 1409670575.463743886
0 - 1409670575.563802158
0 - 1409670575.663725256
0 - 1409670575.763758907
0 - 1409670575.863704466
0 - 1409670575.963698906
0 - 1409670576.063768312
0 - 1409670576.163792931
0 - 1409670576.263716742
0 - 1409670576.363755511
0 - 1409670576.463836941
0 - 1409670576.563753698
0 - 1409670576.663730002
0 - 1409670576.763735661
0 - 1409670576.863695349
0 - 1409670576.963752965
0 - 1409670577.063766829
0 - 1409670577.163719351
0 - 1409670577.263797737
0 - 1409670577.363716279
0 - 1409670577.463686350
0 - 1409670577.563744004
0 - 1409670577.663694961
1 - 1409670577.763780720
1 - 1409670577.863958147
1 - 1409670577.963826494
1 - 1409670578.063804009
1 - 1409670578.163781231
1 - 1409670578.263853621
1 - 1409670578.363797962
1 - 1409670578.463916645
1 - 1409670578.563980315
1 - 1409670578.663801289
1 - 1409670578.763853362
1 - 1409670578.863758569
1 - 1409670578.963758858
1 - 1409670579.063770862
1 - 1409670579.163858591
1 - 1409670579.263823923
1 - 1409670579.363854867
1 - 1409670579.463795663
1 - 1409670579.563804275
1 - 1409670579.663890682
1 - 1409670579.763862070
1 - 1409670579.863880483
0 - 1409670579.963769845
0 - 1409670580.063825774
0 - 1409670580.163757672
0 - 1409670580.263771152
0 - 1409670580.363740164
0 - 1409670580.463680665
0 - 1409670580.563766613
0 - 1409670580.663669038
0 - 1409670580.763670011
0 - 1409670580.863750825
0 - 1409670580.963697931
0 - 1409670581.063796648
0 - 1409670581.163771047
0 - 1409670581.263788322
0 - 1409670581.363752369
0 - 1409670581.463758131
0 - 1409670581.563846799
0 - 1409670581.663710739
0 - 1409670581.763791004
0 - 1409670581.863745183
0 - 1409670581.963698103
0 - 1409670582.063700862
0 - 1409670582.163796109
0 - 1409670582.263833327
0 - 1409670582.363699816
0 - 1409670582.463702109
0 - 1409670582.563711736
0 - 1409670582.663723473
0 - 1409670582.763771822
0 - 1409670582.863740715
0 - 1409670582.963789538
0 - 1409670583.063732379
0 - 1409670583.163724833
0 - 1409670583.263715754
0 - 1409670583.363780534
0 - 1409670583.463702455
0 - 1409670583.563702048
0 - 1409670583.663736891
0 - 1409670583.763826230
0 - 1409670583.863749119
0 - 1409670583.963730654
0 - 1409670584.063761609
0 - 1409670584.163934080
0 - 1409670584.263726659
0 - 1409670584.363763554
0 - 1409670584.463750795
0 - 1409670584.563719636
0 - 1409670584.663766566
0 - 1409670584.763710597
0 - 1409670584.863698807
0 - 1409670584.963683962
0 - 1409670585.063742214
1 - 1409670585.163849781
1 - 1409670585.263790311
1 - 1409670585.363771752
1 - 1409670585.463836610
1 - 1409670585.563793627
1 - 1409670585.663832195
1 - 1409670585.763828334
0 - 1409670585.863775194
0 - 1409670585.963709021
0 - 1409670586.063734160
0 - 1409670586.163769073
0 - 1409670586.263723373
0 - 1409670586.363759408
0 - 1409670586.463695752
0 - 1409670586.563755316
0 - 1409670586.663742560
0 - 1409670586.763691369
0 - 1409670586.863794839
0 - 1409670586.963846666
0 - 1409670587.063747827
0 - 1409670587.163774724
0 - 1409670587.263719241
0 - 1409670587.363718859
0 - 1409670587.463724460
1 - 1409670587.563767443
1 - 1409670587.663772974
1 - 1409670587.763919553
1 - 1409670587.863951742
1 - 1409670587.963903962
1 - 1409670588.063746315
1 - 1409670588.163729191
1 - 1409670588.263818826
1 - 1409670588.363849296
1 - 1409670588.464088411
1 - 1409670588.563778884
1 - 1409670588.663836623
1 - 1409670588.763778247
1 - 1409670588.863762617
1 - 1409670588.963932004
1 - 1409670589.063861082
1 - 1409670589.163841079
1 - 1409670589.263792017
1 - 1409670589.363810519
1 - 1409670589.463818152
1 - 1409670589.563871113
1 - 1409670589.663794706
1 - 1409670589.763813807
1 - 1409670589.863851085
1 - 1409670589.963824724
1 - 1409670590.063730959
1 - 1409670590.163860018
1 - 1409670590.263763836
1 - 1409670590.363864651
1 - 1409670590.464047992
1 - 1409670590.563761124
1 - 1409670590.663777813
1 - 1409670590.763846493
1 - 1409670590.863870081
1 - 1409670590.963763469
1 - 1409670591.063828169
1 - 1409670591.163823240
1 - 1409670591.263801235
1 - 1409670591.363848646
1 - 1409670591.463820543
1 - 1409670591.563922303
1 - 1409670591.663745763
1 - 1409670591.763924105
1 - 1409670591.863803464
1 - 1409670591.963851597
1 - 1409670592.063850506
1 - 1409670592.163947156
1 - 1409670592.263842999
1 - 1409670592.363804058
1 - 1409670592.463816950
1 - 1409670592.563789912
1 - 1409670592.663886781
1 - 1409670592.763837165
1 - 1409670592.863865512
1 - 1409670592.963826718
1 - 1409670593.063848625
1 - 1409670593.163933559
1 - 1409670593.263819177
1 - 1409670593.363788649
1 - 1409670593.463802172
1 - 1409670593.563828492
1 - 1409670593.663799879
1 - 1409670593.763797290
1 - 1409670593.863780081
1 - 1409670593.963766489
1 - 1409670594.063865520
1 - 1409670594.163893183
1 - 1409670594.264167737
1 - 1409670594.363799116
1 - 1409670594.463888041
0 - 1409670594.563781467
0 - 1409670594.663762252
0 - 1409670594.763821846
0 - 1409670594.863695085
0 - 1409670594.963696772
0 - 1409670595.063781728
0 - 1409670595.163667568
0 - 1409670595.263761774
0 - 1409670595.363774058
0 - 1409670595.463793014
0 - 1409670595.563739006
0 - 1409670595.663810681
0 - 1409670595.763767402
0 - 1409670595.863702766
0 - 1409670595.963687918
0 - 1409670596.063754400
0 - 1409670596.163746772
0 - 1409670596.263689727
0 - 1409670596.363747477
0 - 1409670596.463704711
0 - 1409670596.563791832
0 - 1409670596.663717967
0 - 1409670596.763705807
0 - 1409670596.863762679
0 - 1409670596.963728318
0 - 1409670597.063743297
0 - 1409670597.163725808
0 - 1409670597.263772917
0 - 1409670597.363719280
0 - 1409670597.463687297
0 - 1409670597.563721174
0 - 1409670597.663766166
0 - 1409670597.763794326
0 - 1409670597.863694512
0 - 1409670597.963699415
0 - 1409670598.063760344
0 - 1409670598.163702280
0 - 1409670598.263784669
0 - 1409670598.363717490
0 - 1409670598.463727933
0 - 1409670598.563774488
0 - 1409670598.663855435
0 - 1409670598.763723840
0 - 1409670598.863793401
0 - 1409670598.963677872
1 - 1409670599.063757711
1 - 1409670599.163970088
1 - 1409670599.263897241
1 - 1409670599.363774548
1 - 1409670599.463854148
1 - 1409670599.563786259
1 - 1409670599.663804426
1 - 1409670599.763829242
1 - 1409670599.863899774
1 - 1409670599.963763839
1 - 1409670600.063788756
1 - 1409670600.163818002
1 - 1409670600.263784096
1 - 1409670600.364151055
1 - 1409670600.463813232
1 - 1409670600.563875694
1 - 1409670600.663768652
1 - 1409670600.763967907
1 - 1409670600.863778722
1 - 1409670600.963826710
1 - 1409670601.063862187
1 - 1409670601.163785909
1 - 1409670601.263773068
1 - 1409670601.363859329
1 - 1409670601.463791899
1 - 1409670601.563948371
1 - 1409670601.663865273
1 - 1409670601.763837795
1 - 1409670601.863881298
1 - 1409670601.963890357
1 - 1409670602.063888835
1 - 1409670602.163983824
1 - 1409670602.263842863
1 - 1409670602.363778146
1 - 1409670602.463824102
1 - 1409670602.563829787
1 - 1409670602.663876742
1 - 1409670602.763789020
1 - 1409670602.863852569
1 - 1409670602.963782052
1 - 1409670603.063854329
1 - 1409670603.163806303
1 - 1409670603.263819308
1 - 1409670603.363959872
1 - 1409670603.463782690
1 - 1409670603.563857059
1 - 1409670603.663811766
1 - 1409670603.763846717
1 - 1409670603.863752377
1 - 1409670603.963766680
1 - 1409670604.063767372
1 - 1409670604.163782966
1 - 1409670604.263826627
1 - 1409670604.363760957
1 - 1409670604.463769203
1 - 1409670604.563863241
1 - 1409670604.664144310
1 - 1409670604.763851321
1 - 1409670604.863772982
1 - 1409670604.963880702
1 - 1409670605.063870136
1 - 1409670605.163837881
1 - 1409670605.263791548
1 - 1409670605.363854667
1 - 1409670605.463755501
1 - 1409670605.563833974
1 - 1409670605.663777568
1 - 1409670605.763778620
1 - 1409670605.863770398
1 - 1409670605.963814486
1 - 1409670606.063966553
1 - 1409670606.163784750
1 - 1409670606.263782620
1 - 1409670606.363869238
1 - 1409670606.463809875
1 - 1409670606.563829045
1 - 1409670606.663765758
1 - 1409670606.763895413
1 - 1409670606.863761368
1 - 1409670606.963848338
1 - 1409670607.063825992
1 - 1409670607.163841964
1 - 1409670607.263822454
1 - 1409670607.363893747
0 - 1409670607.463719635
0 - 1409670607.563771680
0 - 1409670607.663698149
0 - 1409670607.763780815
0 - 1409670607.863742771
0 - 1409670607.963756040
0 - 1409670608.063688847
0 - 1409670608.163790888
0 - 1409670608.263788040
0 - 1409670608.363814654
0 - 1409670608.463715143
0 - 1409670608.563725551
0 - 1409670608.663695778
0 - 1409670608.763727162
0 - 1409670608.863676634
0 - 1409670608.963759839
0 - 1409670609.063776298
0 - 1409670609.163714843
0 - 1409670609.263689172
0 - 1409670609.363867545
0 - 1409670609.463727741
0 - 1409670609.563731751
0 - 1409670609.663756773
0 - 1409670609.763721356
0 - 1409670609.863700064
0 - 1409670609.963700157
0 - 1409670610.063761108
0 - 1409670610.163718989
0 - 1409670610.263774416
0 - 1409670610.363782634
0 - 1409670610.463775787
0 - 1409670610.563704810
0 - 1409670610.663716323
0 - 1409670610.763932948
0 - 1409670610.863763189
0 - 1409670610.963771721
0 - 1409670611.063724154
0 - 1409670611.163862324
0 - 1409670611.263699322
0 - 1409670611.363669110
0 - 1409670611.463688325
0 - 1409670611.563714015
0 - 1409670611.663708674
0 - 1409670611.763747081
0 - 1409670611.863758784
0 - 1409670611.963754823
0 - 1409670612.063851067
0 - 1409670612.163764567
0 - 1409670612.263758745
0 - 1409670612.363761651
0 - 1409670612.463742520
0 - 1409670612.563690953
0 - 1409670612.663838459
0 - 1409670612.763774758
0 - 1409670612.863698722
0 - 1409670612.963691510
0 - 1409670613.063698053
0 - 1409670613.163759747
0 - 1409670613.263702107
0 - 1409670613.363808103
0 - 1409670613.463647468
0 - 1409670613.563645514
0 - 1409670613.663641619
0 - 1409670613.763641004
0 - 1409670613.863653625
0 - 1409670613.963636103
0 - 1409670614.063636146
0 - 1409670614.163708058
0 - 1409670614.263766622
0 - 1409670614.363600642
0 - 1409670614.463617386
0 - 1409670614.563637348
0 - 1409670614.663634804
0 - 1409670614.763610321
0 - 1409670614.863635100
0 - 1409670614.963634690
0 - 1409670615.063625519
0 - 1409670615.163719337
0 - 1409670615.263737690
0 - 1409670615.363712940
1 - 1409670616.628552291
0 - 1409670616.628583021
1 - 1409670616.728876183
1 - 1409670616.828904741
1 - 1409670616.928843483
1 - 1409670617.028847496
1 - 1409670617.128978914
1 - 1409670617.228903621
1 - 1409670617.329066685
1 - 1409670617.428942555
1 - 1409670617.528919499
1 - 1409670617.628877105
1 - 1409670617.728903572
1 - 1409670617.828892871
1 - 1409670617.928990229
1 - 1409670618.028933266
1 - 1409670618.128945377
1 - 1409670618.228856420
0 - 1409670618.328851535
0 - 1409670618.428867529
0 - 1409670618.528920449
0 - 1409670618.628781916
0 - 1409670618.728797517
0 - 1409670618.828766070
0 - 1409670618.928766672
0 - 1409670619.028833048
0 - 1409670619.128782361
0 - 1409670619.228845958
0 - 1409670619.328806655
0 - 1409670619.428788046
0 - 1409670619.528906147
0 - 1409670619.628825240
0 - 1409670619.728791271
0 - 1409670619.828791999
0 - 1409670619.928792113
0 - 1409670620.028795415
0 - 1409670620.128775863
0 - 1409670620.228773269
0 - 1409670620.328798781
0 - 1409670620.428829774
0 - 1409670620.528821320
0 - 1409670620.628846221
0 - 1409670620.728783753
0 - 1409670620.828801063
0 - 1409670620.928890422
0 - 1409670621.028831543
0 - 1409670621.128830109
0 - 1409670621.228835078
0 - 1409670621.328854975
1 - 1409670621.428921288
1 - 1409670621.528858027
1 - 1409670621.628888307
1 - 1409670621.728920207
1 - 1409670621.828850874
1 - 1409670621.928947860
1 - 1409670622.028926769
1 - 1409670622.128897253
1 - 1409670622.228958025
1 - 1409670622.328856976
1 - 1409670622.428959489
1 - 1409670622.528895634
1 - 1409670622.628966805
1 - 1409670622.728867590
1 - 1409670622.829083378
0 - 1409670622.928787083
0 - 1409670623.028820751
0 - 1409670623.128812538
0 - 1409670623.228966571
0 - 1409670623.328797464
0 - 1409670623.428781443
0 - 1409670623.528782821
0 - 1409670623.628801690
0 - 1409670623.728838948
0 - 1409670623.828835075
0 - 1409670623.928781437
0 - 1409670624.028859663
0 - 1409670624.128837037
0 - 1409670624.228824114
0 - 1409670624.328908704
0 - 1409670624.428839556
0 - 1409670624.528815663
0 - 1409670624.628796435
0 - 1409670624.728855090
0 - 1409670624.828785605
0 - 1409670624.928827487
0 - 1409670625.028827382
0 - 1409670625.128776773
0 - 1409670625.228779232
0 - 1409670625.328838202
0 - 1409670625.428825613
0 - 1409670625.528837671
0 - 1409670625.628838520
0 - 1409670625.728782667
0 - 1409670625.828884341
0 - 1409670625.928819159
0 - 1409670626.028843862
0 - 1409670626.128803884
0 - 1409670626.228832248
0 - 1409670626.328796961
0 - 1409670626.428789946
0 - 1409670626.528821620
0 - 1409670626.628859455
0 - 1409670626.728779402
0 - 1409670626.828799875
0 - 1409670626.928773756
0 - 1409670627.028853227
0 - 1409670627.128794217
0 - 1409670627.228801184
0 - 1409670627.328864127
0 - 1409670627.428919703
0 - 1409670627.528906708
0 - 1409670627.628770204
0 - 1409670627.728819396
0 - 1409670627.828752047
0 - 1409670627.928812371
0 - 1409670628.028815311
1 - 1409670628.128875383
1 - 1409670628.228875064
1 - 1409670628.328927285
1 - 1409670628.428910193
1 - 1409670628.528867192
1 - 1409670628.628870133
1 - 1409670628.728907952
1 - 1409670628.828968582
1 - 1409670628.928948128
1 - 1409670629.028901876
1 - 1409670629.128903932
1 - 1409670629.228851298
1 - 1409670629.328986862
1 - 1409670629.428873947
1 - 1409670629.528978346
1 - 1409670629.628925012
1 - 1409670629.728985859
1 - 1409670629.828884009
1 - 1409670629.928900596
1 - 1409670630.028908113
1 - 1409670630.128927321
1 - 1409670630.228980732
1 - 1409670630.328902552
1 - 1409670630.428933041
1 - 1409670630.528956973
1 - 1409670630.628986643
1 - 1409670630.728876318
1 - 1409670630.828859655
1 - 1409670630.928936324
1 - 1409670631.028868994
1 - 1409670631.128936022
1 - 1409670631.228914810
1 - 1409670631.328922323
1 - 1409670631.428876662
1 - 1409670631.528909830
1 - 1409670631.628911302
1 - 1409670631.728986346
1 - 1409670631.828923400
0 - 1409670631.928863021
0 - 1409670632.028807763
0 - 1409670632.128830438
0 - 1409670632.228806028
0 - 1409670632.328828040
0 - 1409670632.428819948
0 - 1409670632.528779574
0 - 1409670632.628836612
0 - 1409670632.728917742
0 - 1409670632.828790240
0 - 1409670632.928819551
0 - 1409670633.028862575
0 - 1409670633.128848692
0 - 1409670633.228840192
0 - 1409670633.328842732
0 - 1409670633.428861655
0 - 1409670633.528814833
0 - 1409670633.628792410
0 - 1409670633.728769696
0 - 1409670633.828794880
0 - 1409670633.928797957
0 - 1409670634.028812369
0 - 1409670634.128781967
0 - 1409670634.228805108
0 - 1409670634.328856814
0 - 1409670634.428804274
0 - 1409670634.528793661
0 - 1409670634.628851819
0 - 1409670634.728830007
0 - 1409670634.828834012
0 - 1409670634.928843627
0 - 1409670635.028852246
0 - 1409670635.128835663
0 - 1409670635.228809472
0 - 1409670635.328787358
0 - 1409670635.428847576
0 - 1409670635.528816256
0 - 1409670635.628845279
0 - 1409670635.728854737
0 - 1409670635.828890116
0 - 1409670635.928798535
0 - 1409670636.028850231
0 - 1409670636.128873090
0 - 1409670636.228850781
0 - 1409670636.328774895
0 - 1409670636.428845984
0 - 1409670636.528778380
0 - 1409670636.628811607
0 - 1409670636.728818079
0 - 1409670636.828784881
0 - 1409670636.928782091
0 - 1409670637.028874834
0 - 1409670637.128865844
0 - 1409670637.228822503
0 - 1409670637.328859328
0 - 1409670637.428837698
0 - 1409670637.528829182
0 - 1409670637.628792713
0 - 1409670637.728823524
0 - 1409670637.828857228
0 - 1409670637.928908019
0 - 1409670638.028775423
0 - 1409670638.128844343
0 - 1409670638.228790373
0 - 1409670638.328864151
0 - 1409670638.428841666
0 - 1409670638.528869971
0 - 1409670638.628886162
0 - 1409670638.728838663
0 - 1409670638.828852661
0 - 1409670638.928778752
1 - 1409670639.028919770
1 - 1409670639.129872387
1 - 1409670639.228952186
1 - 1409670639.329057071
1 - 1409670639.429045684
1 - 1409670639.528941677
1 - 1409670639.628847846
1 - 1409670639.728844094
1 - 1409670639.828965054
1 - 1409670639.928941291
1 - 1409670640.028874108
1 - 1409670640.128923559
1 - 1409670640.228854232
1 - 1409670640.328931204
1 - 1409670640.428883894
1 - 1409670640.528976046
1 - 1409670640.628881176
1 - 1409670640.728944020
1 - 1409670640.829018439
1 - 1409670640.928880577
1 - 1409670641.028906767
1 - 1409670641.128984804
1 - 1409670641.228872708
1 - 1409670641.328906803
1 - 1409670641.428929890
1 - 1409670641.528865918
1 - 1409670641.628879584
1 - 1409670641.729138718
1 - 1409670641.828887709
1 - 1409670641.928969125
1 - 1409670642.028953451
1 - 1409670642.128927080
1 - 1409670642.228972982
1 - 1409670642.328915800
1 - 1409670642.428965156
1 - 1409670642.528902289
1 - 1409670642.628975879
0 - 1409670642.728775558
0 - 1409670642.828829191
0 - 1409670642.928784998
0 - 1409670643.028844059
0 - 1409670643.128808225
0 - 1409670643.228827680
0 - 1409670643.328844740
0 - 1409670643.428819341
0 - 1409670643.528891714
0 - 1409670643.628833122
0 - 1409670643.728841752
0 - 1409670643.828846532
0 - 1409670643.928785145
0 - 1409670644.028800605
0 - 1409670644.128816523
0 - 1409670644.228852514
0 - 1409670644.328763840
0 - 1409670644.428765606
0 - 1409670644.528910750
0 - 1409670644.628870931
0 - 1409670644.728812410
0 - 1409670644.828854092
0 - 1409670644.929179614
0 - 1409670645.028856451
0 - 1409670645.128795100
0 - 1409670645.228807251
0 - 1409670645.328846110
0 - 1409670645.428798280
0 - 1409670645.528773364
0 - 1409670645.628779439
0 - 1409670645.728777698
0 - 1409670645.828830902
0 - 1409670645.928841274
0 - 1409670646.028832398
0 - 1409670646.128859420
0 - 1409670646.228855402
0 - 1409670646.328845949
0 - 1409670646.428835531
0 - 1409670646.528783724
0 - 1409670646.628991354
0 - 1409670646.728798636
0 - 1409670646.828852942
0 - 1409670646.928835854
0 - 1409670647.028788906
0 - 1409670647.128857480
0 - 1409670647.228849895
0 - 1409670647.328762796
0 - 1409670647.428839042
0 - 1409670647.528819953
0 - 1409670647.628835992
0 - 1409670647.728841846
1 - 1409670647.828989932
1 - 1409670647.928897681
1 - 1409670648.028900689
1 - 1409670648.128842978
1 - 1409670648.228926946
1 - 1409670648.328877389
1 - 1409670648.429008502
1 - 1409670648.528865409
1 - 1409670648.628929339
1 - 1409670648.728882814
1 - 1409670648.828830455
1 - 1409670648.928850889
1 - 1409670649.028954878
1 - 1409670649.128881643
1 - 1409670649.228870155
1 - 1409670649.328855136
1 - 1409670649.428887957
1 - 1409670649.528953013
1 - 1409670649.629005851
1 - 1409670649.728905108
1 - 1409670649.829170339
1 - 1409670649.928948359
1 - 1409670650.028888849
1 - 1409670650.128845407
1 - 1409670650.228950683
1 - 1409670650.328851930
1 - 1409670650.428860131
1 - 1409670650.528899439
1 - 1409670650.628853687
1 - 1409670650.729041244
1 - 1409670650.828969820
1 - 1409670650.929056093
1 - 1409670651.028961377
0 - 1409670651.128795835
0 - 1409670651.228921369
0 - 1409670651.328930706
0 - 1409670651.429068864
0 - 1409670651.528801725
0 - 1409670651.628925407
0 - 1409670651.728825178
0 - 1409670651.828836175
0 - 1409670651.928780149
0 - 1409670652.028789457
0 - 1409670652.128754536
0 - 1409670652.228786971
0 - 1409670652.328896066
0 - 1409670652.428868980
0 - 1409670652.528789769
0 - 1409670652.628948358
0 - 1409670652.728874342
0 - 1409670652.828831365
0 - 1409670652.928795172
0 - 1409670653.028925425
0 - 1409670653.128839019
0 - 1409670653.228872694
0 - 1409670653.328796326
0 - 1409670653.428841560
0 - 1409670653.528920154
0 - 1409670653.628781839
0 - 1409670653.728833070
0 - 1409670653.828849037
0 - 1409670653.928781638
0 - 1409670654.028960135
0 - 1409670654.128784743
0 - 1409670654.228870886
0 - 1409670654.328852193
0 - 1409670654.428893102
0 - 1409670654.528784589
0 - 1409670654.628838584
0 - 1409670654.728792918
0 - 1409670654.828843513
0 - 1409670654.928783099
0 - 1409670655.028752888
0 - 1409670655.128943297
0 - 1409670655.228846576
0 - 1409670655.329042745
0 - 1409670655.428797558
0 - 1409670655.528863646
0 - 1409670655.628811346
0 - 1409670655.728853984
0 - 1409670655.829127001
0 - 1409670655.928846140
0 - 1409670656.029021205
0 - 1409670656.128850506
0 - 1409670656.228812400
0 - 1409670656.328825574
0 - 1409670656.428793212
0 - 1409670656.528784327
0 - 1409670656.628814924
0 - 1409670656.728917097
0 - 1409670656.828937988
0 - 1409670656.928854081
0 - 1409670657.028816429
0 - 1409670657.128750690
0 - 1409670657.228889671
0 - 1409670657.328785027
0 - 1409670657.428856462
1 - 1409670657.528907734
1 - 1409670657.628866233
1 - 1409670657.728867677
1 - 1409670657.828880668
1 - 1409670657.928885379
1 - 1409670658.028921096
1 - 1409670658.128854184
1 - 1409670658.228933245
1 - 1409670658.328961357
1 - 1409670658.428859608
1 - 1409670658.528942831
1 - 1409670658.628952452
1 - 1409670658.728905186
1 - 1409670658.828969242
1 - 1409670658.928908766
1 - 1409670659.028958483
1 - 1409670659.128947019
1 - 1409670659.228922671
1 - 1409670659.328912475
1 - 1409670659.428847314
1 - 1409670659.528938739
1 - 1409670659.628940866
1 - 1409670659.728959148
1 - 1409670659.828951993
1 - 1409670659.928862272
1 - 1409670660.028901865
1 - 1409670660.128904333
1 - 1409670660.228992374
1 - 1409670660.329042159
1 - 1409670660.428986750
1 - 1409670660.528860682
1 - 1409670660.628967563
0 - 1409670660.728815529
0 - 1409670660.828831784
0 - 1409670660.928807796
0 - 1409670661.028825394
0 - 1409670661.128789664
0 - 1409670661.228849667
0 - 1409670661.328765872
0 - 1409670661.428812861
0 - 1409670661.528802814
0 - 1409670661.628915824
0 - 1409670661.728846925
0 - 1409670661.828899518
0 - 1409670661.928814077
0 - 1409670662.028843356
0 - 1409670662.128799525
0 - 1409670662.228841375
0 - 1409670662.328761873
0 - 1409670662.428753265
0 - 1409670662.528839186
0 - 1409670662.628792515
0 - 1409670662.728852899
0 - 1409670662.828846191
0 - 1409670662.928916936
0 - 1409670663.028841124
0 - 1409670663.128779819
0 - 1409670663.228856583
0 - 1409670663.328778118
0 - 1409670663.428816122
0 - 1409670663.528876877
0 - 1409670663.628838692
0 - 1409670663.728783758
0 - 1409670663.828780015
0 - 1409670663.928844024
0 - 1409670664.028824821
0 - 1409670664.128875261
0 - 1409670664.228891049
0 - 1409670664.328840565
0 - 1409670664.428780040
0 - 1409670664.528873333
0 - 1409670664.628930258
0 - 1409670664.728780899
0 - 1409670664.828856965
0 - 1409670664.928839374
0 - 1409670665.028854575
0 - 1409670665.128782904
0 - 1409670665.228756358
0 - 1409670665.328870155
0 - 1409670665.428782718
0 - 1409670665.528912793
0 - 1409670665.628812536
0 - 1409670665.728773332
0 - 1409670665.828845167
0 - 1409670665.928915131
0 - 1409670666.028987828
0 - 1409670666.128782806
0 - 1409670666.228817634
0 - 1409670666.328777396
0 - 1409670666.428807007
0 - 1409670666.528787647
0 - 1409670666.628953588
0 - 1409670666.728836183
0 - 1409670666.828799456
0 - 1409670666.928781278
0 - 1409670667.028779934
0 - 1409670667.128820943
0 - 1409670667.228841515
0 - 1409670667.328843657
0 - 1409670667.428842855
0 - 1409670667.528858118
0 - 1409670667.628815142
0 - 1409670667.728844758
0 - 1409670667.828783442
0 - 1409670667.928858123
0 - 1409670668.028826659
0 - 1409670668.128780134
0 - 1409670668.228795827
0 - 1409670668.328797167
0 - 1409670668.428841820
0 - 1409670668.528798588
0 - 1409670668.628774005
1 - 1409670669.871361173
0 - 1409670669.871403015
1 - 1409670669.971794548
1 - 1409670670.071737765
1 - 1409670670.171781835
1 - 1409670670.271722904
1 - 1409670670.371695281
1 - 1409670670.471870533
1 - 1409670670.571648345
1 - 1409670670.671690284
1 - 1409670670.771739794
1 - 1409670670.871698865
1 - 1409670670.971686952
1 - 1409670671.071673496
1 - 1409670671.171732974
1 - 1409670671.271918379
1 - 1409670671.371734627
1 - 1409670671.472034750
1 - 1409670671.571702840
1 - 1409670671.671862425
1 - 1409670671.771733638
1 - 1409670671.871748177
1 - 1409670671.971766331
1 - 1409670672.071761601
1 - 1409670672.171784853
1 - 1409670672.271718513
1 - 1409670672.371864419
1 - 1409670672.471679467
1 - 1409670672.571831036
1 - 1409670672.671681415
1 - 1409670672.771683293
1 - 1409670672.871822642
1 - 1409670672.971674011
1 - 1409670673.071673406
1 - 1409670673.171663426
1 - 1409670673.271677806
1 - 1409670673.371772877
1 - 1409670673.471685078
1 - 1409670673.571781309
1 - 1409670673.671815085
1 - 1409670673.771716894
1 - 1409670673.871675535
1 - 1409670673.971682806
1 - 1409670674.071668684
1 - 1409670674.171686911
1 - 1409670674.271686502
1 - 1409670674.371667048
1 - 1409670674.471666756
1 - 1409670674.571716001
1 - 1409670674.671682591
1 - 1409670674.771685764
1 - 1409670674.871704633
1 - 1409670674.971778228
1 - 1409670675.071666600
1 - 1409670675.171679745
1 - 1409670675.271834867
1 - 1409670675.371788136
1 - 1409670675.471680759
1 - 1409670675.571825262
1 - 1409670675.671765962
1 - 1409670675.771744886
1 - 1409670675.871714888
1 - 1409670675.971711940
1 - 1409670676.071729940
1 - 1409670676.171660439
1 - 1409670676.271813298
1 - 1409670676.371656560
1 - 1409670676.471707063
1 - 1409670676.571761707
1 - 1409670676.671663524
1 - 1409670676.771755242
1 - 1409670676.871672570
1 - 1409670676.971752547
1 - 1409670677.071672250
1 - 1409670677.171663780
1 - 1409670677.271731520
1 - 1409670677.371726801
1 - 1409670677.471680630
1 - 1409670677.571759420
1 - 1409670677.671703250
1 - 1409670677.771779126
1 - 1409670677.871768185
1 - 1409670677.971876985
1 - 1409670678.071728903
1 - 1409670678.171748593
1 - 1409670678.271760908
1 - 1409670678.371776647
1 - 1409670678.471685315
1 - 1409670678.571775295
1 - 1409670678.671746816
1 - 1409670678.771702377
1 - 1409670678.871713388
1 - 1409670678.971656965
1 - 1409670679.071732209
1 - 1409670679.171741984
1 - 1409670679.271779246
1 - 1409670679.371749310
1 - 1409670679.471692447
1 - 1409670679.571685463
1 - 1409670679.671760614
1 - 1409670679.771739567
1 - 1409670679.871725756
1 - 1409670679.971671521
1 - 1409670680.071740985
1 - 1409670680.171725062
1 - 1409670680.271710638
1 - 1409670680.371728143
1 - 1409670680.471739510
1 - 1409670680.571753070
1 - 1409670680.671664590
1 - 1409670680.771780224
1 - 1409670680.871759470
1 - 1409670680.971694363
1 - 1409670681.071696985
1 - 1409670681.171660624
1 - 1409670681.271686552
1 - 1409670681.371659588
1 - 1409670681.471712226
1 - 1409670681.571662783
1 - 1409670681.671674193
1 - 1409670681.771688314
1 - 1409670681.871832337
1 - 1409670681.971728885
1 - 1409670682.071755733
1 - 1409670682.171807051
1 - 1409670682.271662125
1 - 1409670682.371723548
1 - 1409670682.471748754
1 - 1409670682.571688167
1 - 1409670682.671724564
1 - 1409670682.771660082
1 - 1409670682.871664194
1 - 1409670682.971676766
1 - 1409670683.071759791
1 - 1409670683.171719213
1 - 1409670683.271707307
1 - 1409670683.371743271
1 - 1409670683.471838608
1 - 1409670683.571651168
1 - 1409670683.671652315
1 - 1409670683.771656941
1 - 1409670683.871654680
1 - 1409670683.971730986
1 - 1409670684.071690633
1 - 1409670684.171725370
1 - 1409670684.271718730
1 - 1409670684.371691466
1 - 1409670684.471684415
1 - 1409670684.571681111
1 - 1409670684.671678386
1 - 1409670684.771689003
1 - 1409670684.871687833
1 - 1409670684.971674310
1 - 1409670685.071640662
1 - 1409670685.171866493
1 - 1409670685.271662631
1 - 1409670685.371765773
1 - 1409670685.471709953
1 - 1409670685.571745507
1 - 1409670685.671673363
1 - 1409670685.771810765
1 - 1409670685.871759970
1 - 1409670685.971669684
1 - 1409670686.071824877
1 - 1409670686.171750276
1 - 1409670686.271675855
1 - 1409670686.371729430
1 - 1409670686.471968655
1 - 1409670686.571734485
1 - 1409670686.671748568
1 - 1409670686.771712266
1 - 1409670686.871716828
1 - 1409670686.972135781
1 - 1409670687.071675754
1 - 1409670687.171854713
0 - 1409670687.271630651
0 - 1409670687.371691411
0 - 1409670687.471664546
0 - 1409670687.571663151
0 - 1409670687.671607318
0 - 1409670687.771640110
0 - 1409670687.871646509
0 - 1409670687.971689170
1 - 1409670688.071766805
1 - 1409670688.171695826
1 - 1409670688.271786798
1 - 1409670688.371806439
1 - 1409670688.471775273
1 - 1409670688.571661612
0 - 1409670688.671592313
0 - 1409670688.771649606
0 - 1409670688.871642455
0 - 1409670688.971666017
0 - 1409670689.071679039
0 - 1409670689.171668961
0 - 1409670689.272105403
0 - 1409670689.371727641
0 - 1409670689.471718980
0 - 1409670689.571679045
0 - 1409670689.671735759
0 - 1409670689.771653798
0 - 1409670689.871587401
0 - 1409670689.971650603
1 - 1409670690.071673807
1 - 1409670690.171787019
1 - 1409670690.271792104
1 - 1409670690.371663203
1 - 1409670690.471861835
1 - 1409670690.571723977
1 - 1409670690.671856645
1 - 1409670690.771665651
1 - 1409670690.871743420
1 - 1409670690.971812833
1 - 1409670691.071674418
1 - 1409670691.171716166
1 - 1409670691.271676093
1 - 1409670691.371761207
1 - 1409670691.471707223
1 - 1409670691.571723453
1 - 1409670691.671675821
1 - 1409670691.771802222
1 - 1409670691.871676748
1 - 1409670691.971670053
1 - 1409670692.071762356
1 - 1409670692.171790596
1 - 1409670692.271722416
1 - 1409670692.371727497
1 - 1409670692.471660495
1 - 1409670692.571802354
1 - 1409670692.671707063
1 - 1409670692.771692223
1 - 1409670692.871769476
1 - 1409670692.971705009
1 - 1409670693.071635705
1 - 1409670693.171655868
1 - 1409670693.271722785
1 - 1409670693.371662650
1 - 1409670693.471697358
1 - 1409670693.571700678
1 - 1409670693.671726725
1 - 1409670693.771711154
1 - 1409670693.871776766
1 - 1409670693.971877198
1 - 1409670694.071714705
1 - 1409670694.171811706
1 - 1409670694.271687037
1 - 1409670694.371780866
1 - 1409670694.471678146
1 - 1409670694.571696673
1 - 1409670694.671786480
1 - 1409670694.771719320
1 - 1409670694.871754440
1 - 1409670694.971660864
1 - 1409670695.071710275
1 - 1409670695.171737079
1 - 1409670695.271715762
1 - 1409670695.371680205
1 - 1409670695.471664214
1 - 1409670695.571846808
1 - 1409670695.671727971
1 - 1409670695.771786233
1 - 1409670695.871685186
1 - 1409670695.971654071
1 - 1409670696.071694216
1 - 1409670696.171799865
1 - 1409670696.271807611
1 - 1409670696.371664797
1 - 1409670696.471696886
1 - 1409670696.571825146
1 - 1409670696.671898867
1 - 1409670696.771742656
1 - 1409670696.871743752
1 - 1409670696.971915510
1 - 1409670697.071926648
1 - 1409670697.171829749
1 - 1409670697.271663918
0 - 1409670697.371653068
0 - 1409670697.471614846
0 - 1409670697.571673788
0 - 1409670697.671599183
0 - 1409670697.771760666
0 - 1409670697.871701455
0 - 1409670697.971644788
0 - 1409670698.071672212
0 - 1409670698.171658797
0 - 1409670698.271669828
0 - 1409670698.371668587
0 - 1409670698.471632715
0 - 1409670698.571660642
0 - 1409670698.671586476
0 - 1409670698.771628913
0 - 1409670698.871645026
0 - 1409670698.971641396
0 - 1409670699.071599287
0 - 1409670699.171665464
0 - 1409670699.271604159
0 - 1409670699.371575512
0 - 1409670699.471607918
0 - 1409670699.571724193
0 - 1409670699.671591009
0 - 1409670699.771593836
0 - 1409670699.871603000
0 - 1409670699.971685007
0 - 1409670700.071874655
0 - 1409670700.171647567
0 - 1409670700.271640630
0 - 1409670700.371612883
0 - 1409670700.471639147
0 - 1409670700.571586843
0 - 1409670700.671587410
0 - 1409670700.771667724
0 - 1409670700.871659429
0 - 1409670700.971564481
0 - 1409670701.071746338
0 - 1409670701.171661825
0 - 1409670701.271598106
0 - 1409670701.371624855
0 - 1409670701.471638298
0 - 1409670701.571648412
0 - 1409670701.671596363
1 - 1409670701.771770997
1 - 1409670701.871735686
1 - 1409670701.971697036
1 - 1409670702.071662641
1 - 1409670702.171672358
1 - 1409670702.271726353
1 - 1409670702.371736952
1 - 1409670702.471649847
1 - 1409670702.571766683
1 - 1409670702.671696674
1 - 1409670702.771787936
1 - 1409670702.871700325
1 - 1409670702.971722969
1 - 1409670703.071755331
1 - 1409670703.171885469
1 - 1409670703.271714136
1 - 1409670703.371684661
1 - 1409670703.471682043
1 - 1409670703.571722518
1 - 1409670703.671696710
1 - 1409670703.771825341
1 - 1409670703.871692461
1 - 1409670703.971720544
1 - 1409670704.071765467
1 - 1409670704.171781836
1 - 1409670704.271749811
1 - 1409670704.371755704
1 - 1409670704.471688521
1 - 1409670704.571751851
1 - 1409670704.671665375
1 - 1409670704.771649013
1 - 1409670704.871661342
1 - 1409670704.971758671
1 - 1409670705.071655071
1 - 1409670705.171758109
1 - 1409670705.271737668
1 - 1409670705.371807701
1 - 1409670705.472227261
1 - 1409670705.571736847
1 - 1409670705.671766795
1 - 1409670705.771711543
1 - 1409670705.871719554
1 - 1409670705.971682361
1 - 1409670706.071651971
1 - 1409670706.171825296
1 - 1409670706.271680265
1 - 1409670706.371746903
1 - 1409670706.471740936
1 - 1409670706.571715344
1 - 1409670706.671661835
1 - 1409670706.772176727
1 - 1409670706.871733368
1 - 1409670706.971730085
1 - 1409670707.071776623
1 - 1409670707.171723657
1 - 1409670707.271759026
1 - 1409670707.372090128
1 - 1409670707.471781460
1 - 1409670707.571755599
1 - 1409670707.671702182
1 - 1409670707.771751863
1 - 1409670707.871650763
1 - 1409670707.971689883
1 - 1409670708.071664269
1 - 1409670708.171845618
1 - 1409670708.271698306
1 - 1409670708.371758397
1 - 1409670708.471761050
1 - 1409670708.571811578
1 - 1409670708.671860920
1 - 1409670708.771709269
1 - 1409670708.871690647
1 - 1409670708.971659509
1 - 1409670709.071698880
1 - 1409670709.171787794
1 - 1409670709.271707956
1 - 1409670709.371723720
1 - 1409670709.471711182
1 - 1409670709.571663103
1 - 1409670709.671650195
1 - 1409670709.771716875
1 - 1409670709.871710348
1 - 1409670709.971734250
1 - 1409670710.071705734
1 - 1409670710.171695920
1 - 1409670710.271703964
1 - 1409670710.371819052
1 - 1409670710.471765677
1 - 1409670710.571688363
1 - 1409670710.671673110
1 - 1409670710.771667793
1 - 1409670710.871732166
1 - 1409670710.971659527
1 - 1409670711.071715936
1 - 1409670711.171703412
1 - 1409670711.271719638
1 - 1409670711.371724874
1 - 1409670711.471685964
1 - 1409670711.571739703
1 - 1409670711.671753475
1 - 1409670711.772251013
1 - 1409670711.871803819
1 - 1409670711.972000011
1 - 1409670712.071736294
1 - 1409670712.171737453
1 - 1409670712.271643295
1 - 1409670712.371768324
1 - 1409670712.471662847
1 - 1409670712.571699792
1 - 1409670712.671954938
1 - 1409670712.771758812
1 - 1409670712.871681162
1 - 1409670712.971700014
1 - 1409670713.071735470
1 - 1409670713.171669728
1 - 1409670713.271698508
1 - 1409670713.371711849
1 - 1409670713.471683793
1 - 1409670713.571665864
1 - 1409670713.671677266
1 - 1409670713.771794983
1 - 1409670713.871718159
1 - 1409670713.971655969
1 - 1409670714.071621157
1 - 1409670714.171668491
1 - 1409670714.271681605
1 - 1409670714.371666556
1 - 1409670714.471796350
1 - 1409670714.571790695
1 - 1409670714.671879101
1 - 1409670714.771735857
1 - 1409670714.871736443
1 - 1409670714.971687247
1 - 1409670715.071708639
1 - 1409670715.171773846
1 - 1409670715.271682231
1 - 1409670715.371848946
1 - 1409670715.471923990
1 - 1409670715.571704413
1 - 1409670715.671672351
1 - 1409670715.771728220
1 - 1409670715.871669036
1 - 1409670715.971675076
1 - 1409670716.071683886
1 - 1409670716.171675376
1 - 1409670716.271735677
1 - 1409670716.371824458
1 - 1409670716.471650717
1 - 1409670716.571650629
1 - 1409670716.671704175
1 - 1409670716.771803758
1 - 1409670716.871667752
0 - 1409670716.971703561
0 - 1409670717.071618764
0 - 1409670717.171623692
0 - 1409670717.271637168
1 - 1409670717.371676696
1 - 1409670717.471671074
1 - 1409670717.571797996
1 - 1409670717.671781223
1 - 1409670717.771757590
1 - 1409670717.871776010
1 - 1409670717.971715542
0 - 1409670718.071591960
0 - 1409670718.171647242
0 - 1409670718.271592386
0 - 1409670718.371658603
0 - 1409670718.471652216
0 - 1409670718.571654318
0 - 1409670718.671589646
0 - 1409670718.771653723
0 - 1409670718.871650159
0 - 1409670718.971677343
0 - 1409670719.071626699
0 - 1409670719.171696427
0 - 1409670719.271588824
0 - 1409670719.371680287
0 - 1409670719.471580083
0 - 1409670719.571645230
0 - 1409670719.671638186
0 - 1409670719.771650422
0 - 1409670719.871629530
0 - 1409670719.971640639
0 - 1409670720.071608833
0 - 1409670720.171738698
0 - 1409670720.271674491
0 - 1409670720.371656315
0 - 1409670720.471626523
0 - 1409670720.571643478
0 - 1409670720.671678401
0 - 1409670720.771670611
0 - 1409670720.871593097
0 - 1409670720.971659367
0 - 1409670721.071580351
0 - 1409670721.171646587
0 - 1409670721.271669988
0 - 1409670721.371671367
0 - 1409670721.471652291
0 - 1409670721.571665205
0 - 1409670721.671589043
0 - 1409670721.771627544
0 - 1409670721.871648464
0 - 1409670721.971648675
0 - 1409670722.071663084
0 - 1409670722.171699615
0 - 1409670722.271658951
0 - 1409670722.371692286
0 - 1409670722.471666618
0 - 1409670722.571703827
0 - 1409670722.671638969
0 - 1409670722.771629556
0 - 1409670722.871608110
1 - 1409670722.971714466
1 - 1409670723.071692906
1 - 1409670723.171712211
1 - 1409670723.271700141
1 - 1409670723.371662550
1 - 1409670723.471787957
1 - 1409670723.571762146
1 - 1409670723.671693815
1 - 1409670723.771692933
1 - 1409670723.871708937
1 - 1409670723.971713619
1 - 1409670724.071764739
1 - 1409670724.171760965
1 - 1409670724.271700941
1 - 1409670724.371671086
1 - 1409670724.471650495
1 - 1409670724.571645496
1 - 1409670724.671753646
1 - 1409670724.771811086
1 - 1409670724.871730366
1 - 1409670724.971722785
1 - 1409670725.071715470
1 - 1409670725.171749285
1 - 1409670725.271740610
1 - 1409670725.371675168
1 - 1409670725.471634118
1 - 1409670725.571642614
1 - 1409670725.671773749
1 - 1409670725.771743410
1 - 1409670725.871716551
1 - 1409670725.971723790
1 - 1409670726.071681359
1 - 1409670726.171756926
1 - 1409670726.271810327
1 - 1409670726.371773495
1 - 1409670726.471761240
1 - 1409670726.571755820
1 - 1409670726.671970119
1 - 1409670726.771734938
1 - 1409670726.871664353
1 - 1409670726.971795742
1 - 1409670727.071677044
1 - 1409670727.171722720
1 - 1409670727.271710353
1 - 1409670727.371814128
1 - 1409670727.471650707
1 - 1409670727.571680662
1 - 1409670727.671876199
1 - 1409670727.771713438
1 - 1409670727.871846501
1 - 1409670727.971721036
1 - 1409670728.071707170
1 - 1409670728.171685359
1 - 1409670728.271670665
1 - 1409670728.371778102
1 - 1409670728.471663335
1 - 1409670728.571737290
1 - 1409670728.671669548
1 - 1409670728.771973089
1 - 1409670728.871725906
1 - 1409670728.971720815
1 - 1409670729.071782125
1 - 1409670729.171760289
1 - 1409670729.271750112
1 - 1409670729.371738923
1 - 1409670729.471780081
1 - 1409670729.571715646
1 - 1409670729.671687290
1 - 1409670729.771732531
1 - 1409670729.871726236
1 - 1409670729.971744761
1 - 1409670730.071736723
1 - 1409670730.171745504
0 - 1409670730.271610362
0 - 1409670730.371655432
0 - 1409670730.471594821
0 - 1409670730.571580859
0 - 1409670730.671576615
0 - 1409670730.771662669
0 - 1409670730.871672765
0 - 1409670730.971611688
0 - 1409670731.071657984
0 - 1409670731.171674786
0 - 1409670731.271621379
0 - 1409670731.371656821
0 - 1409670731.471673756
0 - 1409670731.571656310
0 - 1409670731.671622400
0 - 1409670731.771684940
0 - 1409670731.871643211
0 - 1409670731.971616180
0 - 1409670732.071595329
0 - 1409670732.171657280
0 - 1409670732.271658055
0 - 1409670732.371660910
0 - 1409670732.471603666
0 - 1409670732.571668514
0 - 1409670732.671603932
0 - 1409670732.771706953
0 - 1409670732.871651912
0 - 1409670732.971705200
0 - 1409670733.071699233
1 - 1409670733.171754723
1 - 1409670733.271767844
1 - 1409670733.371753919
1 - 1409670733.471717579
0 - 1409670733.571549383
0 - 1409670733.671541214
0 - 1409670733.771537805
0 - 1409670733.871535562
0 - 1409670733.971547319
0 - 1409670734.071552045
0 - 1409670734.171537227
1 - 1409670734.271699555
1 - 1409670734.371675770
0 - 1409670734.471541796
0 - 1409670734.571479390
0 - 1409670734.671544319
0 - 1409670734.771545538
0 - 1409670734.871532091
0 - 1409670734.971532444
0 - 1409670735.071507761
1 - 1409670735.171705057
0 - 1409670735.271516420
1 - 1409670735.371696398
1 - 1409670735.471656038
1 - 1409670735.571752921
1 - 1409670735.671785911
1 - 1409670735.771647632
1 - 1409670735.871696643
1 - 1409670735.971663734
1 - 1409670736.071645676
1 - 1409670736.171660026
1 - 1409670736.271659606
1 - 1409670736.371785707
1 - 1409670736.471730268
1 - 1409670736.571731067
1 - 1409670736.671758169
1 - 1409670736.771923288
1 - 1409670736.871710999
1 - 1409670736.971685897
1 - 1409670737.071742216
1 - 1409670737.171933857
1 - 1409670737.271717809
1 - 1409670737.371831902
1 - 1409670737.471814684
1 - 1409670737.571931884
1 - 1409670737.671726923
0 - 1409670737.771589967
0 - 1409670737.871593466
0 - 1409670737.971652373
0 - 1409670738.071610598
0 - 1409670738.171694556
0 - 1409670738.271645954
0 - 1409670738.371631588
0 - 1409670738.471674554
0 - 1409670738.571665994
0 - 1409670738.671657040
0 - 1409670738.771655907
0 - 1409670738.871577301
0 - 1409670738.971620464
0 - 1409670739.071661789
0 - 1409670739.171664529
0 - 1409670739.271650304
0 - 1409670739.371591017
0 - 1409670739.471701806
0 - 1409670739.571588494
0 - 1409670739.671635157
0 - 1409670739.771677405
0 - 1409670739.871646556
0 - 1409670739.971657175
0 - 1409670740.071657869
0 - 1409670740.171610470
0 - 1409670740.271662383
0 - 1409670740.371575640
0 - 1409670740.471621151
0 - 1409670740.571641872
0 - 1409670740.671650831
0 - 1409670740.771592196
0 - 1409670740.871647682
0 - 1409670740.971661462
0 - 1409670741.071642149
0 - 1409670741.171647961
0 - 1409670741.271928469
0 - 1409670741.371734527
0 - 1409670741.471635842
0 - 1409670741.571661549
0 - 1409670741.671604521
0 - 1409670741.771686615
1 - 1409670741.871834517
1 - 1409670741.971665825
1 - 1409670742.071673175
1 - 1409670742.171781925
1 - 1409670742.271666948
1 - 1409670742.371690905
1 - 1409670742.471713680
1 - 1409670742.571818267
1 - 1409670742.671668297
1 - 1409670742.771725843
1 - 1409670742.871679141
1 - 1409670742.971831276
1 - 1409670743.071683168
1 - 1409670743.171783268
1 - 1409670743.271755017
1 - 1409670743.371662562
1 - 1409670743.471722189
1 - 1409670743.571665827
1 - 1409670743.671735486
1 - 1409670743.771665756
1 - 1409670743.871703136
1 - 1409670743.971758540
1 - 1409670744.071724511
1 - 1409670744.171721656
1 - 1409670744.271746580
1 - 1409670744.371652753
1 - 1409670744.471729081
1 - 1409670744.571710847
1 - 1409670744.671640440
1 - 1409670744.771742162
1 - 1409670744.871824650
1 - 1409670744.971772817
1 - 1409670745.071660958
1 - 1409670745.171653987
1 - 1409670745.271688458
1 - 1409670745.371658031
1 - 1409670745.471830794
1 - 1409670745.571680241
1 - 1409670745.671735887
1 - 1409670745.771737511
1 - 1409670745.871771242
1 - 1409670745.971732764
1 - 1409670746.071667257
0 - 1409670746.171598689
0 - 1409670746.271656646
0 - 1409670746.371665211
0 - 1409670746.471583880
0 - 1409670746.571593548
1 - 1409670746.671690933
1 - 1409670746.771756323
1 - 1409670746.871673063
1 - 1409670746.971706644
1 - 1409670747.071693137
1 - 1409670747.171809202
1 - 1409670747.271756929
1 - 1409670747.371672733
1 - 1409670747.471632898
1 - 1409670747.571663971
1 - 1409670747.671757668
1 - 1409670747.771761917
1 - 1409670747.871665303
1 - 1409670747.971669219
1 - 1409670748.071795241
1 - 1409670748.171760012
1 - 1409670748.271666096
1 - 1409670748.371768172
1 - 1409670748.471720436
1 - 1409670748.571740872
1 - 1409670748.671797918
1 - 1409670748.771679216
1 - 1409670748.871663896
1 - 1409670748.971693551
1 - 1409670749.071774039
1 - 1409670749.171652261
1 - 1409670749.271678444
1 - 1409670749.371750078
1 - 1409670749.471691605
1 - 1409670749.571700443
1 - 1409670749.671655141
1 - 1409670749.771689542
1 - 1409670749.871665782
1 - 1409670749.971666588
1 - 1409670750.071695376
1 - 1409670750.171818046
1 - 1409670750.271720547
1 - 1409670750.371726536
1 - 1409670750.471745799
1 - 1409670750.571849426
1 - 1409670750.671732882
1 - 1409670750.772075265
1 - 1409670750.871662871
1 - 1409670750.971740395
1 - 1409670751.071677428
1 - 1409670751.171779758
1 - 1409670751.271769054
1 - 1409670751.371664308
1 - 1409670751.471681158
1 - 1409670751.571729967
1 - 1409670751.671674862
1 - 1409670751.771688271
1 - 1409670751.871666191
1 - 1409670751.971655922
1 - 1409670752.071673050
1 - 1409670752.171750546
1 - 1409670752.271784974
1 - 1409670752.371734417
1 - 1409670752.471808423
1 - 1409670752.571795660
1 - 1409670752.671743642
1 - 1409670752.771689604
1 - 1409670752.871785371
1 - 1409670752.971713166
1 - 1409670753.071672465
1 - 1409670753.171735801
1 - 1409670753.271965502
1 - 1409670753.371835682
1 - 1409670753.471718021
1 - 1409670753.571741357
1 - 1409670753.672618454
1 - 1409670753.771755604
1 - 1409670753.871679693
1 - 1409670753.971755967
1 - 1409670754.071714685
1 - 1409670754.171843978
1 - 1409670754.271732094
1 - 1409670754.371684265
1 - 1409670754.471734025
1 - 1409670754.571757780
1 - 1409670754.671722575
1 - 1409670754.771672897
1 - 1409670754.871717054
1 - 1409670754.971826608
1 - 1409670755.071692989
1 - 1409670755.171665285
1 - 1409670755.271746107
1 - 1409670755.371752040
1 - 1409670755.471662129
1 - 1409670755.571843585
1 - 1409670755.671679856
1 - 1409670755.771707678
1 - 1409670755.871651606
1 - 1409670755.971750765
1 - 1409670756.071668269
1 - 1409670756.171799846
1 - 1409670756.271749384
1 - 1409670756.371779588
1 - 1409670756.471668229
1 - 1409670756.571743898
1 - 1409670756.671702606
1 - 1409670756.771775464
1 - 1409670756.871744212
1 - 1409670756.971772153
1 - 1409670757.071716688
1 - 1409670757.171858145
1 - 1409670757.271691979
1 - 1409670757.371791592
1 - 1409670757.471663749
0 - 1409670757.571654976
0 - 1409670757.671863911
0 - 1409670757.771661694
0 - 1409670757.871592500
0 - 1409670757.971640594
0 - 1409670758.071559233
0 - 1409670758.171620495
0 - 1409670758.271688496
0 - 1409670758.371596685
0 - 1409670758.471608113
0 - 1409670758.571696647
0 - 1409670758.671650626
0 - 1409670758.771646780
0 - 1409670758.871654164
0 - 1409670758.971649687
0 - 1409670759.071588677
0 - 1409670759.171683789
0 - 1409670759.271745301
0 - 1409670759.371670952
0 - 1409670759.471691099
0 - 1409670759.571649644
0 - 1409670759.671648456
0 - 1409670759.771634354
0 - 1409670759.871655252
0 - 1409670759.971654706
0 - 1409670760.071596419
0 - 1409670760.171651425
0 - 1409670760.271642869
0 - 1409670760.371646546
0 - 1409670760.471648567
0 - 1409670760.571635486
1 - 1409670760.671774155
1 - 1409670760.771727041
1 - 1409670760.871703443
1 - 1409670760.971750000
1 - 1409670761.071709877
1 - 1409670761.171739172
1 - 1409670761.271654987
1 - 1409670761.371709466
1 - 1409670761.471726889
1 - 1409670761.571700557
1 - 1409670761.671714265
1 - 1409670761.771694385
1 - 1409670761.871789869
1 - 1409670761.971735037
1 - 1409670762.071695109
1 - 1409670762.171736257
1 - 1409670762.271765687
1 - 1409670762.371713144
1 - 1409670762.471706533
1 - 1409670762.571755725
1 - 1409670762.671688596
1 - 1409670762.771769708
1 - 1409670762.871779784
1 - 1409670762.971674828
1 - 1409670763.071664273
1 - 1409670763.171716961
1 - 1409670763.271752699
0 - 1409670763.371596541
0 - 1409670763.471597836
0 - 1409670763.571653791
0 - 1409670763.671670489
0 - 1409670763.771592229
0 - 1409670763.871668832
0 - 1409670763.971635943
0 - 1409670764.071634582
0 - 1409670764.171599940
0 - 1409670764.271585159
0 - 1409670764.371587908
0 - 1409670764.471584887
0 - 1409670764.571596126
0 - 1409670764.671591871
0 - 1409670764.771645933
0 - 1409670764.871618475
0 - 1409670764.971793506
0 - 1409670765.071597145
0 - 1409670765.171640489
0 - 1409670765.271621354
0 - 1409670765.371745583
0 - 1409670765.471609091
0 - 1409670765.571682473
0 - 1409670765.671696908
0 - 1409670765.771748176
0 - 1409670765.871631460
0 - 1409670765.971594296
0 - 1409670766.071657913
0 - 1409670766.171671056
0 - 1409670766.271631374
0 - 1409670766.371679679
0 - 1409670766.471659296
0 - 1409670766.571595491
0 - 1409670766.671696651
0 - 1409670766.771731822
0 - 1409670766.871668721
0 - 1409670766.971592047
0 - 1409670767.071628707
0 - 1409670767.171590525
0 - 1409670767.271593185
0 - 1409670767.371606520
0 - 1409670767.471632914
0 - 1409670767.571648223
0 - 1409670767.671849845
0 - 1409670767.771655350
0 - 1409670767.871623569
