1409578173.939249034 : 0
1409578174.939760312 : 0
1409578175.940054717 : 0
1409578176.940305274 : 0
1409578177.940507435 : 389
1409578178.940724906 : 579
1409578179.940984520 : 635
1409578180.941258532 : 842
1409578181.941697441 : 1244
1409578182.442057148 : 1280
1409578182.492173723 : 1306
1409578182.542137945 : 1312
1409578182.592362563 : 1316
1409578182.692455832 : 1355
1409578182.792484157 : 1375
1409578182.892495065 : 1410
1409578182.992481334 : 1425
1409578183.092632354 : 1462
1409578183.192479802 : 1449
1409578183.292485736 : 1386
1409578183.392527381 : 1294
1409578183.492535437 : 1264
1409578183.592663073 : 1178
1409578183.692504971 : 1062
1409578183.792814275 : 956
1409578183.892511800 : 879
1409578183.992706827 : 868
1409578184.092477091 : 849
1409578184.192463495 : 829
1409578184.292588665 : 828
1409578184.392492334 : 848
1409578184.492462429 : 846
1409578184.592483722 : 865
1409578184.692454148 : 870
1409578184.792456385 : 877
1409578184.892472005 : 891
1409578184.992504921 : 908
1409578185.092464982 : 911
1409578185.192476798 : 915
1409578185.292457843 : 913
1409578185.392457050 : 909
1409578185.492551720 : 900
1409578185.592539751 : 900
1409578185.692480960 : 901
1409578185.792447915 : 903
1409578185.892475996 : 901
1409578185.992478808 : 898
1409578186.092484598 : 892
1409578186.192466407 : 881
1409578186.292467376 : 864
1409578186.392453742 : 829
1409578186.492478444 : 808
1409578186.592704713 : 779
1409578186.692499647 : 750
1409578186.792473704 : 780
1409578186.892457900 : 783
1409578186.992498700 : 797
1409578187.092469882 : 804
1409578187.192477293 : 798
1409578187.292497867 : 793
1409578187.392455688 : 790
1409578187.492456854 : 785
1409578187.592467163 : 788
1409578187.692492338 : 787
1409578187.792470437 : 778
1409578187.892550246 : 778
1409578187.992508163 : 769
1409578188.092501471 : 773
1409578188.192460004 : 770
1409578188.292469700 : 772
1409578188.392464581 : 768
1409578188.492476661 : 760
1409578188.592468225 : 747
1409578188.692475585 : 727
1409578188.792472114 : 711
1409578188.892497390 : 705
1409578188.992457574 : 699
1409578189.092459519 : 695
1409578189.192471858 : 688
1409578189.292475903 : 679
1409578189.392575292 : 668
1409578189.492472691 : 672
1409578189.592518779 : 675
1409578189.692461807 : 675
1409578189.792466050 : 670
1409578189.892487810 : 660
1409578189.992651587 : 649
1409578190.092460440 : 640
1409578190.192444836 : 640
1409578190.292469129 : 634
1409578190.392503785 : 629
1409578190.492439503 : 633
1409578190.592485793 : 641
1409578190.692450360 : 637
1409578190.792483729 : 628
1409578190.892534077 : 621
1409578190.992483869 : 619
1409578191.092462000 : 620
1409578191.192627463 : 615
1409578191.292481309 : 616
1409578191.392475282 : 620
1409578191.492459621 : 627
1409578191.592476202 : 636
1409578191.692558595 : 646
1409578191.792491424 : 657
1409578191.892441692 : 642
1409578191.992437737 : 648
1409578192.092453437 : 655
1409578192.192443689 : 660
1409578192.292530078 : 650
1409578192.392470649 : 649
1409578192.492480470 : 655
1409578192.592459132 : 662
1409578192.692466061 : 672
1409578192.792471616 : 667
1409578192.892443962 : 678
1409578192.992456774 : 689
1409578193.092495855 : 700
1409578193.192492297 : 738
1409578193.292518582 : 748
1409578193.392566233 : 757
1409578193.492456749 : 760
1409578193.592605535 : 762
1409578193.692456413 : 762
1409578193.792456086 : 750
1409578193.892489914 : 745
1409578193.992463432 : 759
1409578194.092457920 : 759
1409578194.192549857 : 756
1409578194.292455295 : 754
1409578194.392495401 : 779
1409578194.492468011 : 784
1409578194.592453877 : 766
1409578194.692461890 : 757
1409578194.792454169 : 746
1409578194.892482246 : 756
1409578194.992452626 : 764
1409578195.092453416 : 780
1409578195.192470777 : 799
1409578195.292457456 : 804
1409578195.392509781 : 785
1409578195.492513536 : 768
1409578195.592514796 : 789
1409578195.692491455 : 792
1409578195.792586659 : 760
1409578195.892485789 : 753
1409578195.992473874 : 775
1409578196.092673828 : 784
1409578196.192505664 : 791
1409578196.292456296 : 791
1409578196.392499901 : 790
1409578196.492609182 : 801
1409578196.592578805 : 796
1409578196.692512417 : 806
1409578196.792456085 : 800
1409578196.892491211 : 790
1409578196.992453761 : 780
1409578197.092453403 : 776
1409578197.192492768 : 767
1409578197.292477174 : 764
1409578197.392463837 : 763
1409578197.492532391 : 734
1409578197.592463557 : 693
1409578197.692478426 : 694
1409578197.792475612 : 708
1409578197.892474605 : 712
1409578197.992462576 : 723
1409578198.092554572 : 723
1409578198.192476760 : 734
1409578198.292462194 : 760
1409578198.392459499 : 767
1409578198.492474329 : 770
1409578198.592447742 : 764
1409578198.692478239 : 761
1409578198.792462222 : 761
1409578198.892462485 : 736
1409578198.992549604 : 718
1409578199.092465540 : 707
1409578199.192564167 : 712
1409578199.292480440 : 714
1409578199.392496657 : 708
1409578199.492485147 : 713
1409578199.592587964 : 718
1409578199.692529190 : 723
1409578199.792449581 : 751
1409578199.892474465 : 760
1409578199.992460162 : 799
1409578200.092488961 : 810
1409578200.192501649 : 815
1409578200.292468404 : 811
1409578200.392471193 : 804
1409578200.492603511 : 805
1409578200.592477111 : 811
1409578200.692441846 : 761
1409578200.792560612 : 744
1409578200.892496503 : 733
1409578200.992468810 : 758
1409578201.092500852 : 771
1409578201.192496223 : 791
1409578201.292494750 : 788
1409578201.392481780 : 798
1409578201.492455864 : 800
1409578201.592491239 : 793
1409578201.692463824 : 795
1409578201.792497065 : 797
1409578201.892495280 : 792
1409578201.992494238 : 803
1409578202.092464989 : 807
1409578202.192473810 : 806
1409578202.292461200 : 800
1409578202.392486112 : 797
1409578202.492483230 : 791
1409578202.592605979 : 814
1409578202.692486337 : 814
1409578202.792475628 : 817
1409578202.892459261 : 812
1409578202.992476608 : 822
1409578203.092457249 : 826
1409578203.192493979 : 822
1409578203.292509929 : 816
1409578203.392562102 : 802
1409578203.492607302 : 796
1409578203.592496081 : 793
1409578203.692443572 : 790
1409578203.792479894 : 801
1409578203.892469123 : 800
1409578203.992476384 : 798
1409578204.092457967 : 803
1409578204.192479346 : 804
1409578204.292456474 : 799
1409578204.392506989 : 797
1409578204.492483887 : 795
1409578204.592472269 : 777
1409578204.692473996 : 768
1409578204.792519282 : 756
1409578204.892510442 : 743
1409578204.992446042 : 731
1409578205.092457310 : 722
1409578205.192469100 : 720
1409578205.292501608 : 715
1409578205.392457640 : 716
1409578205.492499395 : 722
1409578205.592452254 : 721
1409578205.692452067 : 720
1409578205.792454045 : 720
1409578205.892475644 : 724
1409578205.992526209 : 720
1409578206.092489299 : 721
1409578206.192460084 : 719
1409578206.292469207 : 782
1409578206.392471125 : 791
1409578206.492470183 : 787
1409578206.592453455 : 789
1409578206.692476431 : 790
1409578206.792485243 : 784
1409578206.892450372 : 789
1409578206.992486149 : 787
1409578207.092480210 : 784
1409578207.192629942 : 781
1409578207.292500431 : 783
1409578207.392565129 : 786
1409578207.492477044 : 789
1409578207.592501196 : 791
1409578207.692605004 : 786
1409578207.792476407 : 781
1409578207.892495514 : 795
1409578207.992467818 : 783
1409578208.092492464 : 772
1409578208.192478852 : 767
1409578208.292477739 : 764
1409578208.392467868 : 770
1409578208.492590599 : 772
1409578208.592491921 : 765
1409578208.692482994 : 766
1409578208.792490865 : 766
1409578208.892471298 : 776
1409578208.992493766 : 763
1409578209.092479557 : 756
1409578209.192521880 : 752
1409578209.292602593 : 751
1409578209.392491450 : 760
1409578209.492478954 : 759
1409578209.592497724 : 759
1409578209.692485116 : 753
1409578209.792494638 : 748
1409578209.892486252 : 750
1409578209.992474235 : 764
1409578210.092501858 : 763
1409578210.192496474 : 758
1409578210.292479156 : 751
1409578210.392478963 : 751
1409578210.492483944 : 743
1409578210.592486174 : 747
1409578210.692498353 : 764
1409578210.792530876 : 758
1409578210.892503559 : 755
1409578210.992511789 : 749
1409578211.092499317 : 732
1409578211.192517795 : 728
1409578211.292511521 : 718
1409578211.392505753 : 718
1409578211.492469165 : 725
1409578211.592521502 : 730
1409578211.692503523 : 730
1409578211.792541292 : 719
1409578211.892510091 : 713
1409578211.992498284 : 720
1409578212.092504771 : 723
1409578212.192474929 : 721
1409578212.292491083 : 722
1409578212.392485752 : 723
1409578212.492490532 : 732
1409578212.592512556 : 728
1409578212.692488002 : 725
1409578212.792515083 : 724
1409578212.892503085 : 724
1409578212.992453058 : 711
1409578213.092493000 : 719
1409578213.192517090 : 722
1409578213.292503958 : 724
1409578213.392493272 : 728
1409578213.492473176 : 740
1409578213.592490886 : 742
1409578213.692505117 : 744
1409578213.792505216 : 738
1409578213.892491960 : 735
1409578213.992504659 : 733
1409578214.092518288 : 733
1409578214.192464779 : 732
1409578214.292497913 : 733
1409578214.392485095 : 732
1409578214.492502988 : 732
1409578214.592467955 : 733
1409578214.692509311 : 744
1409578214.792506959 : 745
1409578214.892439434 : 736
1409578214.992503273 : 740
1409578215.092507319 : 718
1409578215.192457823 : 720
1409578215.292595979 : 715
1409578215.392486222 : 710
1409578215.492485924 : 715
1409578215.592504187 : 716
1409578215.692498211 : 733
1409578215.792472551 : 736
1409578215.892480680 : 729
1409578215.992493094 : 729
1409578216.092492586 : 735
1409578216.192460941 : 728
1409578216.292594005 : 731
1409578216.392488125 : 733
1409578216.492442643 : 734
1409578216.592489161 : 739
1409578216.692472688 : 742
1409578216.792496506 : 747
1409578216.892483655 : 756
1409578216.992477268 : 773
1409578217.092502400 : 786
1409578217.192490482 : 801
1409578217.292455706 : 817
1409578217.392494064 : 830
1409578217.492478797 : 853
1409578217.592624812 : 867
1409578217.692497698 : 886
1409578217.792482302 : 901
1409578217.892480567 : 910
1409578217.992502199 : 926
1409578218.092485969 : 943
1409578218.192536216 : 956
1409578218.292519859 : 913
1409578218.392494899 : 913
1409578218.492467025 : 916
1409578218.592477825 : 921
1409578218.692466531 : 921
1409578218.792490139 : 916
1409578218.892487015 : 917
1409578218.992519465 : 919
1409578219.092529199 : 926
1409578219.192494200 : 897
1409578219.292475088 : 897
1409578219.392551475 : 901
1409578219.492462063 : 903
1409578219.592482997 : 910
1409578219.692457226 : 912
1409578219.792474934 : 915
1409578219.892459401 : 898
1409578219.992455209 : 868
1409578220.092468104 : 866
1409578220.192505256 : 861
1409578220.292492981 : 868
1409578220.392478133 : 870
1409578220.492593499 : 869
1409578220.592550204 : 868
1409578220.692481013 : 911
1409578220.792606403 : 924
1409578220.892563798 : 935
1409578220.992623046 : 944
1409578221.092446169 : 952
1409578221.192461884 : 964
1409578221.292608044 : 973
1409578221.392529988 : 979
1409578221.492562388 : 994
1409578221.592462886 : 1014
1409578221.692490927 : 1026
1409578221.792458670 : 1045
1409578221.892448923 : 1057
1409578221.992489136 : 1102
1409578222.092472627 : 1125
1409578222.192472690 : 1119
1409578222.292450847 : 1120
1409578222.392470408 : 1123
1409578222.492480325 : 1122
1409578222.592585592 : 1125
1409578222.692488867 : 1120
1409578222.792465478 : 1110
1409578222.892437628 : 1107
1409578222.992488471 : 1105
1409578223.092531024 : 1108
1409578223.192488688 : 1110
1409578223.292479040 : 1109
1409578223.392501358 : 1108
1409578223.492459828 : 1148
1409578223.592486408 : 1157
1409578223.692476637 : 1173
1409578223.792471875 : 1179
1409578223.892473596 : 1170
1409578223.992619579 : 1170
1409578224.092455203 : 1146
1409578224.192460062 : 1118
1409578224.292458306 : 1125
1409578224.392475674 : 1133
1409578224.492502977 : 1144
1409578224.592465888 : 1146
1409578224.692495301 : 1148
1409578224.792456108 : 1137
1409578224.892489244 : 1136
1409578224.992467924 : 1134
1409578225.092460293 : 1130
1409578225.192484313 : 1128
1409578225.292475204 : 1178
1409578225.392496709 : 1183
1409578225.492471676 : 1215
1409578225.592470151 : 1235
1409578225.692474699 : 1249
1409578225.792473711 : 1256
1409578225.892439561 : 1268
1409578225.992440183 : 1277
1409578226.092476235 : 1278
1409578226.192457689 : 1285
1409578226.292558752 : 1323
1409578226.392458847 : 1300
1409578226.492479176 : 1284
1409578226.592472741 : 1261
1409578226.692483825 : 1255
1409578226.792469214 : 1255
1409578226.892460665 : 1247
1409578226.992447103 : 1230
1409578227.092489415 : 1202
1409578227.192457283 : 1183
1409578227.292454982 : 1173
1409578227.392498121 : 1163
1409578227.492472601 : 1125
1409578227.592510084 : 1130
1409578227.692484714 : 1132
1409578227.792481128 : 1122
1409578227.892443239 : 1112
1409578227.992443495 : 1122
1409578228.092458240 : 1129
1409578228.192502271 : 1138
1409578228.292459725 : 1137
1409578228.392457928 : 1116
1409578228.492487059 : 1096
1409578228.592476434 : 1092
1409578228.692496093 : 1117
1409578228.792634262 : 1135
1409578228.892570175 : 1145
1409578228.992571968 : 1155
1409578229.092553129 : 1160
1409578229.192651767 : 1166
1409578229.292513772 : 1163
1409578229.392462764 : 1156
1409578229.492457899 : 1112
1409578229.592480058 : 1108
1409578229.692496694 : 1101
1409578229.792478142 : 1093
1409578229.892496913 : 1085
1409578229.992496372 : 1088
1409578230.092463807 : 1087
1409578230.192492484 : 1085
1409578230.292491022 : 1078
1409578230.392462772 : 1067
1409578230.492555859 : 1073
1409578230.592462599 : 1075
1409578230.692453966 : 1082
1409578230.792454949 : 1086
1409578230.892451269 : 1091
1409578230.992579980 : 1097
1409578231.092499730 : 1104
1409578231.192563188 : 1110
1409578231.292484896 : 1137
1409578231.392491718 : 1144
1409578231.492514001 : 1145
1409578231.592447315 : 1144
1409578231.692482940 : 1133
1409578231.792485632 : 1124
1409578231.892559127 : 1112
1409578231.992547742 : 1101
1409578232.092446387 : 1123
1409578232.192438827 : 1087
1409578232.292488458 : 1067
1409578232.392472002 : 1071
