1407766993.403885528 : 346 166
1407766993.428144802 : 348 173
1407766993.456425627 : 348 178
1407766993.484243120 : 348 182
1407766993.514151746 : 349 186
1407766993.569257769 : 349 190
1407766993.601139701 : 349 194
1407766993.633481889 : 350 198
1407766993.665405449 : 351 203
1407766993.696301114 : 352 207
1407766993.732502871 : 352 211
1407766993.760237704 : 353 216
1407766993.789072191 : 353 219
1407766993.823522427 : 354 223
1407766993.866212117 : 355 227
1407766993.895500536 : 356 230
1407766993.936238445 : 357 233
1407766993.965035848 : 357 236
1407766993.999282214 : 357 239
1407766994.033703199 : 357 243
1407766994.074210849 : 357 246
1407766994.107468172 : 358 249
1407766994.137379583 : 358 252
1407766994.169963110 : 359 255
1407766994.198531542 : 360 259
1407766994.227410248 : 360 262
1407766994.264400022 : 360 265
1407766994.297594649 : 360 268
1407766994.336440756 : 360 271
1407766994.367526939 : 360 274
1407766994.393090725 : 360 277
1407766994.423444745 : 360 281
1407766994.455772826 : 360 284
1407766994.489546932 : 361 287
1407766994.517409365 : 361 291
1407766994.545936765 : 361 295
1407766994.574235851 : 361 299
1407766994.603731434 : 361 301
1407766994.633246804 : 361 303
1407766994.661965571 : 361 306
1407766994.706645679 : 361 308
1407766994.744150784 : 362 310
1407766994.775520700 : 362 312
1407766994.806563817 : 363 315
1407766994.859865206 : 363 317
1407766994.884693073 : 362 322
1407766994.934557499 : 363 325
1407766994.973384043 : 363 328
1407766995.000900485 : 363 332
1407766995.029759311 : 364 335
1407766995.057982839 : 364 339
1407767001.601418022 : 384 335
1407767001.633133319 : 377 329
1407767001.666300040 : 371 324
1407767001.702366204 : 367 321
1407767001.727023052 : 363 318
1407767001.764937246 : 360 317
1407767001.796017823 : 358 315
1407767001.836147342 : 358 315
1407767001.864018216 : 358 314
1407767001.893157102 : 358 315
1407767001.920627631 : 359 316
1407767001.948648318 : 360 318
1407767001.976763643 : 360 318
1407767002.013562504 : 361 320
1407767002.050658496 : 362 322
1407767002.080914191 : 363 323
1407767002.110185042 : 365 325
1407767002.139539272 : 366 327
1407767002.182294859 : 368 329
1407767002.211416470 : 369 331
1407767002.238032136 : 370 332
1407767002.270195788 : 371 334
1407767002.300433609 : 372 335
1407767002.325692880 : 374 336
1407767005.322878792 : 400 327
1407767005.531600488 : 390 263
1407767005.562003288 : 388 254
1407767005.586049370 : 386 246
1407767005.629311662 : 385 237
1407767005.669455392 : 383 227
1407767005.701316386 : 381 219
1407767005.727828319 : 380 212
1407767005.755555585 : 378 204
1407767005.782098017 : 376 197
1407767005.821340069 : 372 190
1407767005.855829796 : 369 185
1407767005.888933219 : 366 179
1407767005.919515141 : 362 173
1407767005.945598788 : 359 167
1407767005.969914256 : 356 160
1407767006.031443095 : 353 154
1407767006.059805514 : 351 147
1407767006.085329460 : 348 140
1407767006.109528196 : 346 135
1407767006.160265368 : 343 130
1407767006.195568173 : 341 125
1407767006.224918404 : 339 122
1407767006.258679166 : 336 118
1407767006.293392478 : 334 114
1407767006.370674780 : 333 110
1407767006.396506215 : 331 107
1407767006.428819247 : 331 103
1407767006.453923848 : 328 96
1407767006.480140490 : 328 94
1407767006.512791921 : 327 91
1407767006.540433599 : 326 89
1407767006.570051648 : 325 87
1407767006.611587341 : 325 85
1407767006.635516176 : 324 84
1407767006.659783940 : 324 83
1407767006.688168299 : 325 83
1407767006.727047664 : 324 83
1407767006.767051098 : 324 82
1407767006.800872837 : 323 81
1407767006.840382241 : 321 80
1407767006.870037289 : 319 79
1407767006.897030085 : 316 79
1407767006.928889020 : 314 78
1407767006.961595725 : 311 77
1407767006.989532786 : 309 76
1407767007.035497199 : 306 76
1407767007.063984993 : 303 76
1407767007.100683823 : 301 76
1407767007.141636994 : 298 76
1407767007.178209896 : 296 75
1407767007.211697783 : 293 74
1407767007.239682330 : 290 73
1407767007.265894976 : 288 72
1407767007.295486707 : 285 71
1407767007.332195818 : 282 71
1407767007.362068945 : 279 70
1407767007.392876604 : 276 71
1407767007.423309401 : 273 71
1407767007.448003825 : 271 72
1407767007.490056330 : 268 73
1407767007.517667644 : 266 73
1407767007.546345563 : 263 74
1407767007.579168702 : 261 76
1407767007.628799437 : 258 77
1407767007.661863653 : 255 78
1407767007.686381065 : 253 79
1407767007.712279637 : 251 80
1407767007.736857870 : 249 81
1407767007.773344512 : 247 82
1407767007.809691936 : 246 83
1407767007.836050126 : 245 84
1407767007.915042246 : 245 85
1407767007.942120343 : 245 87
1407767007.972072906 : 246 88
1407767008.015989826 : 246 89
1407767008.051471947 : 246 90
1407767008.080653518 : 247 92
1407767008.119366134 : 248 93
1407767008.145671169 : 249 96
1407767008.172526141 : 249 97
1407767008.202280102 : 249 99
1407767008.231019193 : 249 101
1407767008.258343018 : 249 103
1407767008.299963930 : 247 105
1407767008.375176736 : 247 107
1407767008.405911418 : 246 108
1407767008.436165017 : 244 111
1407767008.463575823 : 243 113
1407767008.504627782 : 243 115
1407767008.568801253 : 243 116
1407767008.643628646 : 243 117
1407767008.665436017 : 244 118
1407767008.699490389 : 243 122
1407767008.728077335 : 243 123
1407767008.757449704 : 242 125
1407767008.791796274 : 241 127
1407767008.817979801 : 240 129
1407767008.844665517 : 239 131
1407767008.875739211 : 238 132
1407767008.925532188 : 238 135
1407767008.952447914 : 237 136
1407767008.979798588 : 237 138
1407767009.021243815 : 237 141
1407767009.054383309 : 237 144
1407767009.084975745 : 237 146
1407767009.120239108 : 236 148
1407767009.152636226 : 236 151
1407767009.177847504 : 236 155
1407767009.203147384 : 236 158
1407767009.238885045 : 236 162
1407767009.271435657 : 236 165
1407767009.303231885 : 236 167
1407767009.331615075 : 236 171
1407767009.356565816 : 236 173
1407767009.407561103 : 235 176
1407767009.442489838 : 235 178
1407767009.469168199 : 235 181
1407767009.501795465 : 235 183
1407767009.529707216 : 235 186
1407767009.574500071 : 236 188
1407767009.600991296 : 236 191
1407767009.629699883 : 237 194
1407767009.664847675 : 237 197
1407767009.700766178 : 237 200
1407767009.743963801 : 238 202
1407767009.775782136 : 239 205
1407767009.805991976 : 239 207
1407767009.835384228 : 239 210
1407767009.865862262 : 239 213
1407767009.892253847 : 239 216
1407767009.918490768 : 240 220
1407767009.944140186 : 240 223
1407767010.004276854 : 240 226
1407767010.044478909 : 241 230
1407767010.074155980 : 242 233
1407767010.106760616 : 242 237
1407767010.130260738 : 242 241
1407767010.158420390 : 243 244
1407767010.184186827 : 243 249
1407767010.226035155 : 244 252
1407767010.256894823 : 244 256
1407767010.281492023 : 245 259
1407767010.310044733 : 245 263
1407767010.335309528 : 245 266
1407767010.392046513 : 245 270
1407767010.421601277 : 245 274
1407767010.448902316 : 246 277
1407767010.479736531 : 246 281
1407767010.510904517 : 247 284
1407767010.568980194 : 247 288
1407767010.594166723 : 248 292
1407767010.633745693 : 248 296
1407767010.665167412 : 249 300
1407767010.691357490 : 249 305
1407767010.726028751 : 249 309
1407767010.757464134 : 249 314
1407767010.785761838 : 249 318
1407767010.815017707 : 248 323
1407767010.848888468 : 248 327
1407767010.878876030 : 247 330
1407767010.906640072 : 247 334
1407767010.943411483 : 246 338
1407767014.454393946 : 302 328
1407767014.648774825 : 298 253
1407767014.710349836 : 299 241
1407767014.792690867 : 301 214
1407767014.840701484 : 304 197
1407767014.878645608 : 306 190
1407767014.953036758 : 309 172
1407767014.987284769 : 310 163
1407767015.034526689 : 310 155
1407767015.064236499 : 310 146
1407767015.095777012 : 310 138
1407767015.121894543 : 310 130
1407767015.147239809 : 309 124
1407767015.179326032 : 309 116
1407767015.211666260 : 308 109
1407767015.246250562 : 308 103
1407767015.274902814 : 307 97
1407767015.311365814 : 305 90
1407767015.344524951 : 303 84
1407767015.372706594 : 299 78
1407767015.397546126 : 296 72
1407767015.427831401 : 293 66
1407767015.463552428 : 289 61
1407767015.513462997 : 284 55
1407767015.541489845 : 280 50
1407767015.574626851 : 275 45
1407767015.606116931 : 271 40
1407767015.629596062 : 266 35
1407767015.668441102 : 261 31
1407767015.707404873 : 257 28
1407767015.733584092 : 252 25
1407767015.761837922 : 247 22
1407767015.788203401 : 242 20
1407767018.556420583 : 20 98
1407767018.598886607 : 25 102
1407767018.655249799 : 29 106
1407767018.681992077 : 33 110
1407767018.709496498 : 36 115
1407767018.743328534 : 40 119
1407767018.777976810 : 44 124
1407767018.806295659 : 48 128
1407767018.834845074 : 53 132
1407767018.862827361 : 57 136
1407767018.901603657 : 61 140
1407767018.935054692 : 65 144
1407767018.967528084 : 70 148
1407767018.992549301 : 73 153
1407767019.023517978 : 77 158
1407767019.051864481 : 81 163
1407767019.094955829 : 84 167
1407767019.122200024 : 87 172
1407767019.166338692 : 90 176
1407767019.192625441 : 93 180
1407767019.222507966 : 96 184
1407767019.258935625 : 98 188
1407767019.295411946 : 101 192
1407767019.326643885 : 103 196
1407767019.356335385 : 106 200
1407767019.386837747 : 109 205
1407767019.421630799 : 111 209
1407767019.451611158 : 113 214
1407767019.478814671 : 115 218
1407767019.514034853 : 117 222
1407767019.547248271 : 119 227
1407767019.635958262 : 121 231
1407767019.669029912 : 125 240
1407767019.701490341 : 126 244
1407767019.737860495 : 128 249
1407767019.768726579 : 130 254
1407767019.797152004 : 132 258
1407767019.828512370 : 133 263
1407767019.859401119 : 134 269
1407767019.894950082 : 135 274
1407767019.919597738 : 135 280
1407767019.951362655 : 137 286
1407767019.985045966 : 138 293
1407767020.021541123 : 139 299
1407767020.058419895 : 140 306
1407767020.084405130 : 141 311
1407767020.115559010 : 142 318
1407767020.145026652 : 143 323
1407767020.172751177 : 144 329
1407767020.201957435 : 146 335
