1409577809.969137001 : 1345.32
1409577810.469463109 : 1432.67
1409577810.519696108 : 1461.88
1409577810.569745221 : 1539.53
1409577810.619868677 : 1490.89
1409577810.719986484 : 1483.23
1409577811.019945084 : 1678.13
1409577811.120015774 : 1678.13
1409577811.219998996 : 1643.96
1409577811.320008399 : 1678.13
1409577811.419989106 : 1726.38
1409577811.520035059 : 1726.38
1409577811.619980366 : 1795.89
1409577811.720008700 : 1726.38
1409577811.820012339 : 1759.26
1409577811.919890422 : 1701.36
1409577812.019981065 : 1701.36
1409577812.120069161 : 1693.01
1409577812.220091812 : 1760.95
1409577812.320070295 : 1708.29
1409577812.419891479 : 1708.29
1409577812.520052482 : 1766.92
1409577812.620027001 : 1760.95
1409577812.719972334 : 1708.29
1409577812.820013468 : 1753.37
1409577812.920031533 : 1683.29
1409577813.020008034 : 1701.36
1409577813.120016824 : 1733.62
1409577813.219932256 : 1683.29
1409577813.319969655 : 1672.29
1409577813.420039533 : 1660.07
1409577813.520071524 : 1672.29
1409577813.620031233 : 1660.07
1409577813.720013757 : 1683.29
1409577813.820039753 : 1683.29
1409577813.920019808 : 1733.62
1409577814.019995512 : 1660.07
1409577814.120026851 : 1786.96
1409577814.219900159 : 1773.81
1409577814.320011717 : 1759.26
1409577814.419967692 : 1759.26
1409577814.519973101 : 1721.6
1409577814.619959795 : 1721.6
1409577814.720003899 : 1721.6
1409577814.820068058 : 1708.29
1409577814.920023589 : 1773.81
1409577815.019894829 : 1773.81
1409577815.120034430 : 1708.29
1409577815.220029427 : 1721.6
1409577815.319972568 : 1759.26
1409577815.420068632 : 1683.29
1409577815.520019899 : 1721.6
1409577815.620052952 : 1708.29
1409577815.720032765 : 1708.29
1409577815.820072264 : 1672.29
1409577815.920016053 : 1660.07
1409577816.020029135 : 1708.29
1409577816.119878120 : 1721.6
1409577816.219874862 : 1708.29
1409577816.320009731 : 1708.29
1409577816.419974453 : 1693.76
1409577816.520034009 : 1672.29
1409577816.619994411 : 1693.76
1409577816.720011952 : 1646.73
1409577816.820027655 : 1660.07
1409577816.919976316 : 1646.73
1409577817.020046874 : 1693.76
1409577817.119978888 : 1660.07
1409577817.220039250 : 1693.76
1409577817.319991422 : 1660.07
1409577817.419914487 : 1660.07
1409577817.520032407 : 1646.73
1409577817.620032583 : 1660.07
1409577817.719946141 : 1646.73
1409577817.819862014 : 1660.07
1409577817.920139242 : 1660.07
1409577818.020075349 : 1646.73
1409577818.120059639 : 1660.07
1409577818.219977385 : 1646.73
1409577818.320079726 : 1693.76
1409577818.420004337 : 1632.35
1409577818.519980753 : 1646.73
1409577818.620022920 : 1693.76
1409577818.719982566 : 1660.07
1409577819.020010053 : 1602.12
1409577819.119993204 : 1660.07
1409577819.219967652 : 1635.74
1409577819.320069107 : 1625.63
1409577819.419981748 : 1672.29
1409577819.520049216 : 1625.63
1409577819.620003671 : 1683.29
1409577819.720067593 : 1672.29
1409577820.620031018 : 1672.29
1409577821.519989863 : 1660.07
1409577821.720150374 : 1672.29
1409577821.819982388 : 1614.4
1409577821.919963389 : 1660.07
1409577822.020039784 : 1693.76
1409577822.119889471 : 1693.76
1409577822.219868899 : 1660.07
1409577822.320030397 : 1672.29
1409577822.419975413 : 1693.76
1409577822.520044947 : 1632.35
1409577822.620049690 : 1672.29
1409577822.720010694 : 1683.29
1409577822.820029140 : 1644.65
1409577822.919994931 : 1644.65
1409577823.019999975 : 1683.29
1409577823.120013450 : 1652.31
1409577823.220005934 : 1683.29
1409577823.320002675 : 1672.29
1409577823.419973144 : 1672.29
1409577823.520014884 : 1614.4
1409577823.620008304 : 1646.73
1409577823.720058444 : 1693.76
1409577823.820066469 : 1646.73
1409577823.919956987 : 1678.13
1409577824.020033509 : 1693.76
1409577824.120036011 : 1646.73
1409577824.219977545 : 1660.07
1409577824.319882200 : 1660.07
1409577824.420036209 : 1646.73
1409577824.520316231 : 1646.73
1409577824.620074660 : 1646.73
1409577824.720028836 : 1693.76
1409577824.820009548 : 1646.73
1409577824.919922625 : 1646.73
1409577825.020128988 : 1614.4
1409577825.120014917 : 1646.73
1409577825.220060612 : 1660.07
1409577825.320030908 : 1646.73
1409577825.419904243 : 1660.07
1409577825.520038801 : 1646.73
1409577825.620122145 : 1646.73
1409577825.719993864 : 1646.73
1409577825.819949828 : 1646.73
1409577825.920000502 : 1646.73
1409577826.020047389 : 1646.73
1409577826.119987267 : 1602.12
1409577826.219960447 : 1602.12
1409577826.320000378 : 1660.07
1409577826.420056441 : 1646.73
1409577826.520232679 : 1660.07
1409577826.619998897 : 1646.73
1409577826.719948862 : 1602.12
1409577826.819989667 : 1646.73
1409577826.920065431 : 1660.07
1409577827.020013837 : 1614.4
1409577827.120116985 : 1660.07
1409577827.220176339 : 1614.4
1409577827.320008441 : 1660.07
1409577827.419974336 : 1614.4
1409577827.520034436 : 1660.07
1409577827.619897164 : 1660.07
1409577827.720034779 : 1660.07
1409577827.819989248 : 1614.4
1409577827.919976971 : 1660.07
1409577828.020041147 : 1672.29
1409577828.120089839 : 1660.07
1409577828.219983326 : 1660.07
1409577828.320033836 : 1660.07
1409577828.420003280 : 1672.29
1409577828.519991386 : 1625.63
1409577828.620086676 : 1625.63
1409577828.720070869 : 1625.63
1409577828.819937804 : 1625.63
1409577828.919913054 : 1614.4
1409577829.020034693 : 1625.63
1409577829.120001205 : 1625.63
1409577829.220072540 : 1625.63
1409577829.320024468 : 1660.07
1409577829.419997995 : 1614.4
1409577829.519910385 : 1672.29
1409577829.620120162 : 1614.4
1409577829.720026485 : 1625.63
1409577829.820009185 : 1614.4
1409577829.919963630 : 1672.29
1409577830.020064228 : 1660.07
1409577830.119982135 : 1672.29
1409577830.219988056 : 1614.4
1409577830.320122868 : 1614.4
1409577830.420038331 : 1625.63
1409577830.520035618 : 1672.29
1409577830.620032180 : 1672.29
1409577830.719998749 : 1625.63
1409577830.820038640 : 1672.29
1409577830.919983469 : 1625.63
1409577831.019874249 : 1635.74
1409577831.120032978 : 1635.74
1409577831.220038266 : 1635.74
1409577831.320115018 : 1635.74
1409577831.420041509 : 1625.63
1409577831.520036651 : 1635.74
1409577831.620287640 : 1625.63
1409577831.720020355 : 1625.63
1409577831.820047730 : 1625.63
1409577831.920056002 : 1635.74
1409577832.019997252 : 1625.63
1409577832.119989748 : 1625.63
1409577832.220182159 : 1635.74
1409577832.320006486 : 1635.74
1409577832.420046284 : 1625.63
1409577832.519993862 : 1683.29
1409577832.619966942 : 1625.63
1409577832.720026024 : 1625.63
1409577832.820016676 : 1625.63
1409577832.920004065 : 1625.63
1409577833.020031572 : 1625.63
1409577833.119999866 : 1625.63
1409577833.220058849 : 1625.63
1409577833.320007779 : 1625.63
1409577833.420064402 : 1625.63
1409577833.520111576 : 1625.63
1409577833.620082134 : 1672.29
1409577833.719970520 : 1635.74
1409577833.819979930 : 1635.74
1409577833.919927353 : 1635.74
1409577834.019990023 : 1635.74
1409577834.120001594 : 1635.74
1409577834.220031786 : 1590.75
1409577834.320036254 : 1635.74
1409577834.420252089 : 1590.75
1409577834.519996834 : 1635.74
1409577834.620057289 : 1625.63
1409577834.719999605 : 1635.74
1409577834.820025090 : 1635.74
1409577834.919925758 : 1635.74
1409577835.020039548 : 1625.63
1409577835.120083469 : 1683.29
1409577835.220104873 : 1635.74
1409577835.320019853 : 1635.74
1409577835.420043568 : 1635.74
1409577835.519994714 : 1635.74
1409577835.620020976 : 1635.74
1409577835.719995464 : 1625.63
1409577835.819985050 : 1590.75
1409577835.920002335 : 1635.74
1409577836.020305931 : 1635.74
1409577836.120050055 : 1635.74
1409577836.219979507 : 1635.74
1409577836.319893154 : 1635.74
1409577836.420010564 : 1683.29
1409577836.520014129 : 1635.74
1409577836.620002864 : 1635.74
1409577836.720018341 : 1590.75
1409577836.820060458 : 1635.74
1409577836.920082070 : 1635.74
1409577837.020019191 : 1635.74
1409577837.119988786 : 1644.65
1409577837.219986845 : 1635.74
1409577837.320008325 : 1635.74
1409577837.419997120 : 1635.74
1409577837.520017914 : 1644.65
1409577837.620080329 : 1635.74
1409577837.720100194 : 1581.44
1409577837.820035448 : 1635.74
1409577837.920008041 : 1625.63
1409577838.020035373 : 1635.74
1409577838.120009569 : 1625.63
1409577838.220008724 : 1635.74
1409577838.319994426 : 1635.74
1409577838.419913011 : 1635.74
1409577838.520896777 : 1644.65
1409577838.620018350 : 1635.74
1409577838.720049145 : 1635.74
1409577838.820045961 : 1635.74
1409577838.919976707 : 1635.74
1409577839.020040515 : 1683.29
1409577839.119988681 : 1635.74
1409577839.220007942 : 1683.29
1409577839.319893928 : 1635.74
1409577839.420028753 : 1635.74
1409577839.519979780 : 1635.74
1409577839.620008374 : 1635.74
1409577839.720106767 : 1635.74
1409577839.819999197 : 1635.74
1409577839.920039214 : 1644.65
1409577840.020057460 : 1625.63
1409577840.119978547 : 1635.74
1409577840.220038192 : 1635.74
1409577840.320018287 : 1635.74
1409577840.420024254 : 1635.74
1409577840.520203829 : 1635.74
1409577840.619980372 : 1635.74
1409577840.719977776 : 1635.74
1409577840.820006713 : 1644.65
1409577840.920037349 : 1635.74
1409577841.020043189 : 1635.74
1409577841.120004154 : 1635.74
1409577841.219971375 : 1635.74
1409577841.319982075 : 1635.74
1409577841.420069130 : 1635.74
1409577841.520079339 : 1635.74
1409577841.619997895 : 1683.29
1409577841.720102418 : 1635.74
1409577841.820030629 : 1683.29
1409577841.919985739 : 1635.74
1409577842.019985101 : 1644.65
1409577842.120018064 : 1635.74
1409577842.220012698 : 1644.65
1409577842.320009737 : 1644.65
1409577842.420053958 : 1644.65
1409577842.520034422 : 1635.74
1409577842.619966198 : 1598.94
1409577842.720058957 : 1644.65
1409577842.820031067 : 1635.74
1409577842.920052506 : 1635.74
1409577843.019899409 : 1644.65
1409577843.119881137 : 1644.65
1409577843.219995938 : 1635.74
1409577843.320027818 : 1635.74
1409577843.420092164 : 1598.94
1409577843.520054954 : 1635.74
1409577843.620010438 : 1635.74
1409577843.720064349 : 1644.65
1409577843.820045578 : 1635.74
1409577843.920052458 : 1644.65
1409577844.020058327 : 1644.65
1409577844.120194639 : 1635.74
1409577844.220002907 : 1644.65
1409577844.319999596 : 1635.74
1409577844.420048485 : 1635.74
1409577844.519967163 : 1644.65
1409577844.620027340 : 1635.74
1409577844.719986940 : 1644.65
1409577844.820005192 : 1590.75
1409577844.920152587 : 1644.65
1409577845.020038664 : 1644.65
1409577845.120013798 : 1644.65
1409577845.220076345 : 1635.74
1409577845.319989987 : 1635.74
1409577845.419996560 : 1644.65
1409577845.521478552 : 1635.74
1409577845.620113013 : 1635.74
1409577845.720011612 : 1598.94
1409577845.820020215 : 1635.74
1409577845.919988364 : 1644.65
1409577846.020091529 : 1644.65
1409577846.120071875 : 1644.65
1409577846.219885504 : 1644.65
1409577846.319880650 : 1693.01
1409577846.420095125 : 1635.74
1409577846.520031396 : 1644.65
1409577846.619998606 : 1644.65
1409577846.719990975 : 1635.74
1409577846.820058816 : 1644.65
1409577846.920006554 : 1644.65
1409577847.019980849 : 1644.65
1409577847.120030079 : 1590.75
1409577847.220035324 : 1644.65
1409577847.319999051 : 1683.29
1409577847.420031722 : 1644.65
1409577847.520018230 : 1635.74
1409577847.619999282 : 1635.74
1409577847.720054705 : 1590.75
1409577847.820036219 : 1635.74
1409577847.919993953 : 1644.65
1409577848.020030639 : 1635.74
1409577848.119966008 : 1635.74
1409577848.220031181 : 1635.74
1409577848.320083643 : 1644.65
1409577848.419977757 : 1644.65
1409577848.519865652 : 1625.63
1409577848.620012849 : 1635.74
1409577848.719983596 : 1635.74
1409577848.819964452 : 1635.74
1409577848.919983917 : 1683.29
1409577849.020042176 : 1635.74
1409577849.120007698 : 1644.65
1409577849.219984190 : 1625.63
1409577849.320020969 : 1644.65
1409577849.419999064 : 1625.63
1409577849.520000701 : 1635.74
1409577849.620204689 : 1635.74
1409577849.720000366 : 1635.74
1409577849.819943603 : 1635.74
1409577849.920011704 : 1635.74
1409577850.020106507 : 1683.29
1409577850.120025088 : 1635.74
1409577850.220069567 : 1683.29
1409577850.320027196 : 1635.74
1409577850.419889398 : 1635.74
1409577850.519995127 : 1635.74
1409577850.620020623 : 1635.74
1409577850.720054300 : 1635.74
1409577850.819999483 : 1635.74
1409577850.920021806 : 1635.74
1409577851.019993895 : 1635.74
1409577851.120046653 : 1635.74
1409577851.220096283 : 1635.74
1409577851.320001835 : 1683.29
1409577851.420012308 : 1625.63
1409577851.520028069 : 1635.74
1409577851.620076520 : 1635.74
1409577851.720037733 : 1683.29
1409577851.819975584 : 1635.74
1409577851.920030808 : 1635.74
1409577852.020071978 : 1635.74
1409577852.120003540 : 1635.74
1409577852.219884799 : 1683.29
1409577852.320016472 : 1635.74
1409577852.419992031 : 1635.74
1409577852.519977890 : 1635.74
1409577852.620012994 : 1635.74
1409577852.720070083 : 1644.65
1409577852.820034642 : 1644.65
1409577852.919924581 : 1635.74
1409577853.019971200 : 1644.65
1409577853.120019491 : 1635.74
1409577853.220019670 : 1683.29
1409577853.320033333 : 1644.65
1409577853.419969080 : 1635.74
1409577853.519979327 : 1635.74
1409577853.619965462 : 1590.75
1409577853.720067383 : 1644.65
1409577853.820003515 : 1635.74
1409577853.920100954 : 1635.74
1409577854.020045321 : 1635.74
1409577854.120110540 : 1693.01
1409577854.220040931 : 1635.74
1409577854.320009493 : 1635.74
1409577854.420066677 : 1644.65
1409577854.519884279 : 1635.74
1409577854.620041352 : 1644.65
1409577854.719945197 : 1644.65
1409577854.820018038 : 1590.75
1409577854.919887970 : 1644.65
1409577855.019919978 : 1644.65
1409577855.120076641 : 1683.29
1409577855.220025669 : 1635.74
1409577855.319988022 : 1683.29
1409577855.419981986 : 1644.65
1409577855.520011852 : 1644.65
1409577855.620010973 : 1644.65
1409577855.720056260 : 1635.74
1409577855.819983562 : 1635.74
1409577855.920038561 : 1635.74
1409577856.020044887 : 1635.74
1409577856.120026180 : 1635.74
1409577856.220014879 : 1683.29
1409577856.319885367 : 1562.14
1409577856.419955902 : 1635.74
1409577856.520071747 : 1693.01
1409577856.620042101 : 1598.94
1409577856.720146272 : 1652.31
1409577856.819987506 : 1713.73
1409577856.920039695 : 1663.64
1409577857.020023923 : 1717.65
1409577857.120023722 : 1658.65
1409577857.320018379 : 1658.65
1409577857.419988457 : 1658.65
1409577857.520000502 : 1733.62
1409577857.620036078 : 1672.29
1409577857.720010876 : 1672.29
1409577857.820010926 : 1708.29
1409577857.920016607 : 1759.26
1409577858.019968450 : 1672.29
1409577858.119948350 : 1733.62
1409577858.219969932 : 1798.59
1409577858.319978480 : 1693.01
1409577858.419980313 : 1708.29
1409577858.520027048 : 1708.29
1409577858.619908609 : 1717.65
1409577858.720057703 : 1713.73
1409577858.820040456 : 1717.65
1409577858.919887079 : 1717.65
1409577859.020005562 : 1720.81
1409577859.120019454 : 1708.29
