1409671871.535626147 : 1421.82
1409671872.039183916 : 1757.57
1409671872.092661628 : 1786.96
1409671872.192815290 : 1864.37
1409671872.292855927 : 1864.37
1409671872.392769503 : 1887.95
1409671872.492818447 : 1864.37
1409671872.592825621 : 1809.53
1409671872.692887342 : 1864.37
1409671872.792764920 : 1864.37
1409671872.892791120 : 1839.71
1409671872.992668003 : 1839.71
1409671873.092754578 : 1809.53
1409671873.192803919 : 1786.96
1409671873.292829088 : 1786.96
1409671873.392919167 : 1809.53
1409671873.492737719 : 1839.71
1409671873.592831627 : 1809.53
1409671873.692822389 : 1786.96
1409671873.792751124 : 1763.5
1409671873.892691296 : 1736.86
1409671873.992845492 : 1786.96
1409671874.092781286 : 1736.86
1409671880.692806164 : 1759.26
1409671880.792782841 : 1813.22
1409671880.892779598 : 1759.26
1409671880.992832390 : 1759.26
1409671881.092809957 : 1773.81
1409671881.192773287 : 1759.26
1409671881.292792230 : 1759.26
1409671881.392769701 : 1786.96
1409671881.492811438 : 1773.81
1409671881.592788382 : 1786.96
1409671881.692790666 : 1733.62
1409671881.792887451 : 1798.59
1409671881.892790787 : 1733.62
1409671881.992853802 : 1786.96
1409671882.092863679 : 1798.59
1409671882.192815191 : 1733.62
1409671882.292817206 : 1744.23
1409671882.392830484 : 1744.23
1409671882.492786432 : 1786.96
1409671882.592792604 : 1798.59
1409671882.692784107 : 1744.23
1409671882.792787603 : 1744.23
1409671882.892829951 : 1798.59
1409671882.992671996 : 1786.96
1409671883.092893364 : 1744.23
1409671883.192776522 : 1798.59
1409671883.292781366 : 1744.23
1409671883.392831583 : 1808.61
1409671883.492798821 : 1808.61
1409671883.592786558 : 1744.23
1409671883.692779921 : 1744.23
1409671883.792830803 : 1744.23
1409671883.892683542 : 1744.23
1409671883.992790508 : 1808.61
1409671884.092780935 : 1798.59
1409671884.192785961 : 1753.37
1409671884.292838120 : 1753.37
1409671884.392851125 : 1753.37
1409671884.492792147 : 1808.61
1409671884.592765850 : 1753.37
1409671884.692820685 : 1808.61
1409671884.792789650 : 1753.37
1409671884.892807137 : 1753.37
1409671884.992718816 : 1808.61
1409671885.092708726 : 1760.95
1409671885.192786951 : 1753.37
1409671885.292891028 : 1760.95
1409671885.392939906 : 1753.37
1409671885.492798785 : 1760.95
1409671885.592840482 : 1808.61
1409671885.692835375 : 1816.94
1409671885.792854969 : 1753.37
1409671885.892796197 : 1808.61
1409671885.992684981 : 1760.95
1409671886.092805882 : 1808.61
1409671886.192845582 : 1823.49
1409671886.292787934 : 1808.61
1409671886.392795967 : 1823.49
1409671886.492795741 : 1823.49
1409671886.592795859 : 1766.92
1409671886.692802699 : 1876.56
1409671886.792783594 : 1823.49
1409671886.892802736 : 1760.95
1409671886.992843736 : 1823.49
1409671887.092898008 : 1823.49
1409671887.192783178 : 1823.49
1409671887.292812854 : 1823.49
1409671887.392790551 : 1766.92
1409671887.492825309 : 1823.49
1409671887.592832143 : 1823.49
1409671887.692756950 : 1823.49
1409671887.792779895 : 1823.49
1409671887.892852815 : 1823.49
1409671887.992774622 : 1823.49
1409671888.092772984 : 1766.92
1409671888.192880292 : 1816.94
1409671888.293069707 : 1760.95
1409671888.392776371 : 1766.92
1409671888.492774102 : 1883.78
1409671888.592839485 : 1771.22
1409671888.692798803 : 1823.49
1409671888.792811339 : 1816.94
1409671888.892686999 : 1823.49
1409671888.992795434 : 1760.95
1409671889.092794694 : 1823.49
1409671889.192786976 : 1816.94
1409671889.292829907 : 1823.49
1409671889.392694915 : 1816.94
1409671889.492696468 : 1766.92
1409671889.592871863 : 1823.49
1409671896.092783666 : 1771.22
1409671896.192830815 : 1713.73
1409671896.292772471 : 1713.73
1409671896.392765969 : 1708.29
1409671896.492835272 : 1713.73
1409671896.592677436 : 1708.29
1409671896.692743142 : 1708.29
1409671896.792769566 : 1753.37
1409671896.892791378 : 1701.36
1409671896.992799122 : 1701.36
1409671897.092781724 : 1652.31
1409671897.192840546 : 1658.65
1409671897.292688726 : 1708.29
1409671897.392838122 : 1658.65
1409671897.492812695 : 1708.29
1409671897.592781302 : 1701.36
1409671903.492765336 : 1713.73
1409671903.592813897 : 1708.29
1409671903.692803924 : 1760.95
1409671903.792780346 : 1708.29
1409671903.892782102 : 1760.95
1409671903.992705187 : 1708.29
1409671904.092785613 : 1760.95
1409671904.192776100 : 1701.36
1409671904.292821350 : 1701.36
1409671904.392834688 : 1808.61
1409671904.492714707 : 1701.36
1409671904.592764704 : 1753.37
1409671904.692978104 : 1744.23
1409671904.792749888 : 1753.37
1409671904.892781043 : 1753.37
1409671904.992802910 : 1753.37
1409671905.092809131 : 1753.37
1409671905.192803953 : 1693.01
1409671905.292766189 : 1753.37
1409671905.392765707 : 1753.37
1409671905.492762061 : 1693.01
1409671905.592786966 : 1701.36
1409671905.692758530 : 1701.36
1409671905.792757191 : 1693.01
1409671905.892747905 : 1693.01
1409671905.992843779 : 1744.23
1409671906.092769742 : 1693.01
1409671906.192778337 : 1644.65
1409671906.292820846 : 1652.31
1409671906.393000615 : 1701.36
1409671906.492875108 : 1644.65
1409671906.592811920 : 1652.31
1409671906.692685443 : 1644.65
1409671906.792781691 : 1652.31
1409671906.892679664 : 1652.31
1409671906.992781498 : 1652.31
1409671907.092854886 : 1652.31
1409671907.192690458 : 1644.65
1409671907.292912871 : 1605.97
1409671907.392826426 : 1652.31
1409671907.492835311 : 1652.31
1409671907.592838736 : 1701.36
1409671907.692844864 : 1652.31
1409671914.592797508 : 1683.29
1409671914.692769271 : 1652.31
1409671914.792810673 : 1667.22
1409671914.892789435 : 1667.22
1409671914.992823543 : 1667.22
1409671915.092824682 : 1663.64
1409671915.192815771 : 1663.64
1409671915.292903448 : 1663.64
1409671915.392760578 : 1667.22
1409671915.492729347 : 1667.22
1409671915.592682678 : 1667.22
1409671915.692783091 : 1667.22
1409671915.792780684 : 1713.73
1409671915.892765781 : 1667.22
1409671915.992776386 : 1663.64
1409671916.092939916 : 1667.22
1409671916.192906394 : 1667.22
1409671916.292835183 : 1663.64
1409671916.392823735 : 1667.22
1409671916.492802908 : 1667.22
1409671916.592763757 : 1713.73
1409671916.692894667 : 1663.64
1409671916.792690533 : 1619.66
1409671916.892791995 : 1616.37
1409671916.992870476 : 1619.66
1409671917.092783518 : 1616.37
1409671917.192844070 : 1619.66
1409671917.292714587 : 1663.64
1409671917.392818447 : 1616.37
1409671923.492765617 : 1713.73
1409671923.592852525 : 1667.22
1409671923.692792644 : 1713.73
1409671923.792832065 : 1713.73
1409671923.892854075 : 1658.65
1409671923.992838273 : 1616.37
1409671924.092795976 : 1720.02
1409671924.392808914 : 1667.22
1409671924.492822287 : 1667.22
1409671924.592831760 : 1717.65
1409671924.692773671 : 1717.65
1409671924.792808572 : 1766.92
1409671924.892864206 : 1713.73
1409671924.992765991 : 1713.73
1409671925.092840300 : 1713.73
1409671925.192680239 : 1713.73
1409671925.292787045 : 1713.73
1409671925.392805441 : 1713.73
1409671925.492826894 : 1667.22
1409671925.592905005 : 1619.66
1409671925.692803945 : 1619.66
1409671925.792774102 : 1663.64
1409671925.892968140 : 1713.73
1409671925.992788979 : 1663.64
1409671926.092847560 : 1663.64
1409671926.192757377 : 1667.22
1409671926.292821122 : 1663.64
1409671926.392930889 : 1616.37
1409671926.492813252 : 1669.39
1409671926.592898197 : 1720.02
1409671926.692835049 : 1667.22
1409671926.792828778 : 1773.81
1409671926.892800516 : 1663.64
1409671926.993060105 : 1773.81
1409671927.092851354 : 1773.81
1409671927.192699171 : 1720.02
1409671927.292709190 : 1771.22
1409671927.392977601 : 1773.81
1409671927.492858995 : 1831.07
1409671927.592766128 : 1892.14
1409671934.492787529 : 1667.22
1409671934.592674650 : 1663.64
1409671934.692781079 : 1667.22
1409671934.792754692 : 1667.22
1409671934.892793471 : 1663.64
1409671934.992834000 : 1616.37
1409671935.092829303 : 1616.37
1409671935.192768939 : 1616.37
1409671935.292856339 : 1667.22
1409671935.392830133 : 1667.22
1409671935.492832134 : 1616.37
1409671935.592825256 : 1619.66
1409671941.392788172 : 1717.65
1409671941.492799467 : 959.921
1409671941.995527713 : 1720.02
1409671942.049205585 : 1773.81
1409671942.149380120 : 1720.02
1409671942.249343327 : 1766.92
1409671942.349325277 : 1717.65
1409671942.449412950 : 1720.02
1409671942.549354864 : 1717.65
1409671942.649380407 : 1717.65
1409671942.749350197 : 1717.65
1409671942.849332995 : 1771.22
1409671942.949326029 : 1766.92
1409671943.049339597 : 1717.65
1409671943.149359317 : 1717.65
1409671943.249219458 : 1717.65
1409671943.349341152 : 1771.22
1409671943.449341883 : 1713.73
1409671943.549329627 : 1771.22
1409671943.649367108 : 1771.22
1409671943.749345903 : 1766.92
1409671943.849346896 : 1828.22
1409671943.949328695 : 1713.73
1409671944.049356490 : 1766.92
1409671944.149337239 : 1766.92
1409671944.249455275 : 1766.92
1409671944.349342568 : 1771.22
1409671944.449429591 : 1766.92
1409671944.549328728 : 1713.73
1409671944.649377812 : 1771.22
1409671944.749375507 : 1717.65
1409671944.849387719 : 1766.92
1409671944.949388129 : 1766.92
1409671945.049368902 : 1713.73
1409671945.149455629 : 1667.22
1409671945.249436007 : 1663.64
1409671945.349442643 : 1667.22
1409671945.449344951 : 1717.65
1409671945.549349812 : 1717.65
1409671945.649443566 : 1663.64
1409671945.749325261 : 1713.73
1409671945.849287011 : 1717.65
1409671945.949232192 : 1713.73
1409671946.049404800 : 1708.29
1409671946.149471112 : 1713.73
1409671946.249277827 : 1713.73
1409671946.349347174 : 1713.73
1409671946.449350260 : 994.842
1409671946.951900735 : 1708.29
1409671955.669200189 : 1044
1409671956.172334392 : 1759.26
1409671956.325771599 : 1667.22
1409671956.425896359 : 1671.56
1409671956.525930385 : 1708.29
1409671956.626385528 : 1744.23
1409671956.725951934 : 1708.29
1409671956.825855371 : 1784.31
1409671956.925902301 : 1705.2
1409671957.025912171 : 1705.2
1409671957.125847480 : 1705.2
1409671957.225854076 : 1705.2
1409671957.325940405 : 1744.23
1409671957.425862143 : 1671.56
1409671957.525926993 : 1739.31
1409671957.625859050 : 1780.79
1409671957.725867625 : 1744.23
1409671957.825762927 : 1705.2
1409671957.925912560 : 1744.23
1409671958.025766186 : 1671.56
1409671958.125877471 : 1744.23
1409671958.225908651 : 1671.56
1409671958.325884295 : 1705.2
1409671958.425862196 : 1708.29
1409671958.525939368 : 1744.23
1409671958.625960941 : 1744.23
1409671958.725885302 : 1744.23
1409671958.825923133 : 1744.23
1409671958.925859992 : 1744.23
1409671959.025934640 : 1705.2
1409671959.125875617 : 1708.29
1409671959.225946179 : 1673.01
1409671959.325876851 : 1744.23
1409671959.425862597 : 1744.23
1409671959.525864376 : 1744.23
1409671959.625882770 : 1780.79
1409671959.725876686 : 1744.23
1409671959.825952571 : 1671.56
1409671959.925929481 : 1705.2
1409671960.025919494 : 1705.2
1409671960.125867940 : 1744.23
1409671960.225894953 : 1705.2
1409671960.325906603 : 1705.2
1409671960.425871023 : 1705.2
1409671960.525856348 : 1780.79
1409671960.625888678 : 1780.79
1409671960.725901204 : 1705.2
1409671960.825884015 : 1671.56
1409671960.925893761 : 1705.2
1409671961.025875134 : 1744.23
1409671961.125931245 : 1744.23
1409671961.226071393 : 1667.22
1409671961.325869259 : 1671.56
1409671961.425843476 : 1705.2
1409671961.525763179 : 1667.22
1409671961.625913098 : 1705.2
1409671961.726117165 : 1705.2
1409671961.825787617 : 1671.56
1409671961.925847723 : 1635.74
1409671962.025881836 : 1600.85
1409671962.125864926 : 1635.74
1409671962.225874458 : 1667.22
1409671962.326149497 : 1635.74
1409671962.425899616 : 1667.22
1409671962.525824012 : 1604.69
1409671962.625808348 : 1635.74
1409671962.725931155 : 1635.74
1409671962.825966290 : 1635.74
1409671962.925898771 : 1635.74
1409671963.025867598 : 1600.85
1409671963.125910423 : 1671.56
1409671963.225914702 : 1600.85
1409671963.325940077 : 1671.56
1409671963.425854841 : 1635.74
1409671963.525905043 : 1604.69
1409671963.625874534 : 1600.85
1409671963.725987338 : 1635.74
1409671963.825867273 : 1571.7
1409671963.925872185 : 1600.85
1409671964.025890112 : 1600.85
1409671964.125907698 : 1600.85
1409671964.225756815 : 1635.74
1409671964.325882136 : 1630.33
1409671964.425878038 : 1600.85
1409671964.525927852 : 1600.85
1409671964.625869615 : 1600.85
1409671964.725824625 : 1630.33
1409671964.825785403 : 1600.85
1409671964.925880053 : 1667.22
1409671965.025882596 : 1635.74
1409671965.125919494 : 1630.33
1409671965.225927057 : 1600.85
1409671965.325915866 : 1630.33
1409671965.425897625 : 1635.74
1409671965.525907377 : 1635.74
1409671965.625872023 : 1667.22
1409671965.725875045 : 1600.85
1409671965.825886942 : 1600.85
1409671965.925861439 : 1630.33
1409671966.025840676 : 1600.85
1409671966.125892861 : 1604.69
1409671966.225923463 : 1635.74
1409671966.325917473 : 1635.74
1409671966.425909480 : 1600.85
1409671966.525851374 : 1667.22
1409671966.625853981 : 1667.22
1409671966.726003654 : 1667.22
1409671966.825894756 : 1667.22
1409671966.925868085 : 1667.22
1409671967.025785824 : 1667.22
1409671967.125880348 : 1667.22
1409671967.225925017 : 1630.33
1409671967.325900600 : 1630.33
1409671967.425897694 : 1630.33
1409671967.525864872 : 1699.07
1409671967.625873562 : 1667.22
1409671967.725877790 : 1705.2
1409671967.825862774 : 1699.07
1409671967.925865810 : 1699.07
1409671968.025974185 : 1699.07
1409671968.125928694 : 1739.31
1409671968.225908113 : 1667.22
1409671968.325879359 : 1699.07
1409671968.425871797 : 1699.07
1409671968.525913973 : 1739.31
1409671968.625885055 : 1699.07
1409671968.725939539 : 1739.31
1409671968.825913235 : 1635.74
1409671968.925833883 : 1699.07
1409671969.025853549 : 1667.22
1409671969.125850650 : 1667.22
1409671969.225917248 : 1635.74
1409671969.325940047 : 1630.33
1409671969.426081102 : 1667.22
1409671969.525965729 : 1667.22
1409671969.625940851 : 1660.07
1409671969.725905336 : 1635.74
1409671969.825883055 : 1667.22
1409671969.925877128 : 1667.22
1409671970.025903018 : 1667.22
1409671970.125894773 : 1667.22
1409671970.225885399 : 1635.74
1409671970.325910772 : 1667.22
1409671970.425915021 : 1667.22
1409671970.525843938 : 1667.22
1409671970.625866644 : 1705.2
1409671970.725914028 : 1667.22
1409671970.825870162 : 1604.69
1409671970.925839171 : 1671.56
1409671971.025827851 : 1667.22
1409671971.125891995 : 1638.47
1409671971.225853630 : 1671.56
1409671971.325917593 : 1671.56
1409671971.425854845 : 1635.74
1409671971.525909907 : 1635.74
1409671971.625875551 : 1600.85
1409671971.725895868 : 1635.74
1409671971.825927050 : 1635.74
1409671971.925875396 : 1671.56
1409671972.025876354 : 1635.74
1409671972.125932168 : 1635.74
1409671972.225938411 : 1635.74
1409671972.325887295 : 1605.97
1409671972.425930704 : 1604.69
1409671972.525850407 : 1635.74
1409671972.625892750 : 1635.74
1409671972.725919834 : 1604.69
1409671972.825943460 : 1705.2
1409671972.925906384 : 1705.2
1409671973.025872635 : 1635.74
1409671973.125916781 : 1705.2
1409671973.225967879 : 1671.56
1409671973.325874840 : 1635.74
1409671973.425899748 : 1667.22
1409671973.525877175 : 1667.22
1409671973.625898661 : 1635.74
1409671973.725871068 : 1667.22
1409671973.825860839 : 1635.74
1409671973.925900784 : 1705.2
1409671974.025903153 : 1667.22
1409671974.125922968 : 1667.22
1409671974.225901408 : 1705.2
1409671974.325906754 : 1671.56
1409671974.425871467 : 1708.29
1409671974.525873871 : 1744.23
1409671974.625892598 : 1671.56
1409671974.725966402 : 1744.23
1409671974.825935598 : 1705.2
1409671974.925905257 : 1784.31
1409671975.025994954 : 1739.31
1409671975.125895823 : 1705.2
1409671975.225840607 : 1708.29
1409671975.325856424 : 1638.47
1409671975.425911091 : 1744.23
1409671975.525860210 : 1667.22
1409671975.625835601 : 1635.74
1409671975.725885970 : 1604.69
1409671975.825902895 : 1600.85
1409671977.925932452 : 1667.22
1409671978.025861864 : 1667.22
1409671978.125893086 : 1667.22
1409671978.225897425 : 1705.2
1409671978.325864159 : 1667.22
1409671978.425940099 : 1667.22
1409671978.525896635 : 1705.2
1409671978.625917386 : 1667.22
1409671978.726325860 : 1630.33
1409671978.825865986 : 1635.74
1409671978.925878109 : 1699.07
1409671979.026014554 : 1600.85
1409671979.125794846 : 1635.74
1409671979.225904353 : 1635.74
1409671979.325904495 : 1635.74
1409671979.425880686 : 1635.74
1409671979.525965993 : 1600.85
1409671979.625961198 : 1635.74
1409671980.925898841 : 1667.22
1409671981.025890496 : 1630.33
1409671981.125785405 : 1635.74
1409671981.225929374 : 1705.2
1409671981.325918935 : 1635.74
1409671981.425878293 : 1635.74
1409671981.525879042 : 1705.2
1409671981.625907632 : 1635.74
1409671981.725863351 : 1635.74
1409671981.825919595 : 1635.74
1409671981.925765496 : 1635.74
1409671982.025855969 : 1635.74
1409671982.125877556 : 1635.74
1409671982.225898950 : 1667.22
1409671982.325916081 : 1635.74
1409671982.425955615 : 1635.74
1409671982.525949437 : 1635.74
1409671982.625859957 : 1667.22
1409671982.725861868 : 1705.2
1409671982.825943126 : 1705.2
1409671982.925906988 : 1705.2
1409671983.025892240 : 1635.74
1409671983.125940827 : 1667.22
1409671983.225898029 : 1635.74
1409671983.325884138 : 1671.56
1409671983.425957349 : 1667.22
1409671983.525862291 : 1705.2
1409671983.625853623 : 1705.2
1409671983.725894076 : 1635.74
1409671983.825890095 : 1671.56
1409671983.925899162 : 1671.56
1409671984.025878527 : 1671.56
1409671984.125779655 : 1635.74
1409671984.225787255 : 1635.74
1409671984.325842799 : 1635.74
1409671984.425798345 : 1635.74
1409671985.325922478 : 1604.69
1409671986.225936669 : 1671.56
1409671986.425971215 : 1705.2
1409671986.525862842 : 1705.2
1409671986.625930023 : 1635.74
1409671986.725931848 : 1671.56
1409671986.825835388 : 1667.22
1409671986.925836183 : 1671.56
1409671987.025977473 : 1604.69
1409671987.125851361 : 1600.85
1409671987.225893941 : 1604.69
1409671987.325887212 : 1635.74
1409671987.425996773 : 1604.69
1409671987.525884044 : 1605.97
1409671987.625862316 : 1635.74
1409671987.725906808 : 1638.47
1409671987.825935969 : 1667.22
1409671987.925906480 : 1671.56
1409671988.025919493 : 1671.56
1409671988.126473537 : 1635.74
1409671988.225878681 : 1635.74
1409671988.325883678 : 1705.2
1409671988.425963899 : 1635.74
1409671988.525947008 : 1671.56
1409671988.625866152 : 1705.2
1409671988.725917028 : 1635.74
1409671988.825923730 : 1635.74
1409671988.925873446 : 1667.22
1409671989.025880564 : 1705.2
1409671989.125897384 : 1705.2
1409671989.225878018 : 1739.31
1409671989.325916884 : 1699.07
1409671989.425883859 : 1699.07
1409671989.525968652 : 1667.22
1409671989.625868646 : 1630.33
1409671989.725908336 : 1660.07
1409671989.825883497 : 1660.07
1409671989.925877439 : 1630.33
1409671990.025864606 : 1630.33
1409671990.125864497 : 1667.22
1409671990.225848333 : 1600.85
1409671990.325880708 : 1667.22
1409671990.425894741 : 1630.33
1409671990.525890290 : 1600.85
1409671990.625839185 : 1600.85
1409671990.725926060 : 1660.07
1409671990.825845825 : 1630.33
1409671990.925928804 : 1660.07
1409671991.025960254 : 1660.07
1409671991.125870147 : 1630.33
1409671991.225871361 : 1600.85
1409671991.325910849 : 1660.07
1409671991.425777612 : 1566.9
1409671991.525796309 : 1630.33
1409671996.525783767 : 1745.88
1409671996.625880202 : 1745.88
1409671996.725899878 : 1705.2
1409671996.825915299 : 1745.88
1409671996.925932118 : 1708.29
1409671997.025910121 : 1671.56
1409671997.125890048 : 1671.56
1409671997.225934222 : 1744.23
1409671997.325865291 : 1708.29
1409671997.425917541 : 1708.29
1409671997.525884928 : 1539.53
1409671997.625953152 : 1638.47
1409671997.725877439 : 1605.97
1409671997.825852592 : 1574.12
1409671997.925854190 : 1542.95
1409671998.025862299 : 1574.12
1409671998.125869551 : 1574.12
1409671998.225925721 : 1514.63
1409671998.325928191 : 1574.12
1409671998.425957646 : 1574.12
1409671998.525867276 : 1571.7
1409671998.625909426 : 1542.95
1409671998.725880086 : 1542.95
1409671998.825916874 : 1539.53
1409671998.925806992 : 1571.7
1409671999.025916405 : 1544.09
1409671999.125774642 : 1604.69
1409671999.225887452 : 1574.12
1409672005.925916672 : 1574.12
1409672006.025943248 : 1544.09
1409672006.125947786 : 1571.7
1409672006.226057460 : 1542.95
1409672006.325926617 : 1571.7
1409672006.426012710 : 1539.53
1409672006.526005878 : 1600.85
1409672006.625939135 : 1566.9
1409672006.725987457 : 1630.33
1409672006.825934849 : 1600.85
1409672006.925868906 : 1630.33
1409672007.025922302 : 1630.33
1409672007.125920219 : 1566.9
1409672007.225949595 : 1600.85
1409672007.325886096 : 1660.07
1409672007.426037768 : 1667.22
1409672007.525936423 : 1630.33
1409672007.625879576 : 1667.22
1409672007.725902032 : 1660.07
1409672007.825827053 : 1667.22
1409672007.925906836 : 1630.33
1409672008.025909743 : 1667.22
1409672008.125915526 : 1699.07
1409672008.225905701 : 1667.22
1409672008.325913660 : 1667.22
1409672008.426008164 : 1705.2
1409672008.525890575 : 1739.31
1409672008.625883274 : 1739.31
1409672008.725872096 : 1773.81
1409672008.825915522 : 1739.31
1409672008.925879817 : 1699.07
1409672009.025883857 : 1731.19
1409672009.125917671 : 1731.19
1409672009.225835469 : 1731.19
1409672009.325837424 : 1773.81
1409672009.425900115 : 1731.19
1409672009.525947881 : 1690
1409672009.625888438 : 1720.02
1409672009.725857454 : 1720.02
1409672009.825847618 : 1690
1409672009.925863806 : 1690
1409672010.025895969 : 1690
1409672010.125866688 : 1690
1409672010.225963916 : 1699.07
1409672015.225873781 : 1594.51
1409672015.325872966 : 1594.51
1409672015.425900872 : 1622.31
1409672015.525902373 : 1622.31
1409672015.625880403 : 1622.31
1409672015.725892778 : 1622.31
1409672015.826089745 : 1622.31
1409672015.925911831 : 1660.07
1409672016.025957003 : 1594.51
1409672016.125977632 : 1660.07
1409672016.225882238 : 1660.07
1409672016.325909541 : 1699.07
1409672016.425865146 : 1690
1409672016.525886610 : 1690
1409672016.625929325 : 1660.07
1409672016.725774450 : 1720.02
1409672016.825788934 : 1763.5
1409672016.925838178 : 1731.19
1409672017.025750776 : 1731.19
1409672017.125840190 : 1690
1409672017.225871728 : 1690
1409672017.325877473 : 1731.19
1409672017.426157786 : 1690
1409672017.525928447 : 1690
1409672017.625883598 : 1690
1409672017.725859547 : 1690
1409672017.825914376 : 1690
1409672017.925899591 : 1690
1409672018.025900641 : 1690
1409672018.125781664 : 1690
1409672018.225755898 : 1731.19
1409672018.325932763 : 1690
1409672018.425854116 : 1690
1409672018.525923981 : 1690
1409672018.625888570 : 1763.5
1409672018.725865908 : 1690
1409672018.825864717 : 1690
1409672018.925857638 : 1690
1409672019.025883301 : 1690
1409672019.125981709 : 1763.5
1409672019.226007807 : 1731.19
1409672019.326043237 : 1731.19
1409672019.425892795 : 1731.19
1409672019.525863602 : 1808.61
1409672019.625912419 : 1808.61
1409672019.725949818 : 1773.81
1409672019.825879456 : 1808.61
1409672019.925861172 : 1763.5
1409672020.025860549 : 1763.5
1409672020.125879639 : 1763.5
1409672020.225901053 : 1731.19
1409672020.325922879 : 1808.61
1409672020.425867376 : 1731.19
1409672020.525929499 : 1731.19
1409672020.625871071 : 1690
1409672020.725867215 : 1731.19
1409672020.825896804 : 1690
1409672020.925903844 : 1731.19
1409672021.025869377 : 1731.19
1409672021.125914081 : 1731.19
1409672021.225913018 : 1690
1409672021.326016044 : 1699.07
1409672021.425883755 : 1690
1409672021.525926201 : 1690
1409672021.625900047 : 1660.07
1409672021.725878522 : 1660.07
1409672021.826155022 : 1660.07
1409672021.925864661 : 1699.07
1409672022.025916204 : 1699.07
1409672022.125915554 : 1630.33
1409672022.226025068 : 1630.33
1409672022.326375587 : 1660.07
1409672022.425903651 : 1630.33
1409672022.525873521 : 1630.33
1409672022.625874811 : 1622.31
1409672022.725771073 : 1660.07
1409672022.825904919 : 1699.07
1409672022.925864110 : 1660.07
1409672023.025869291 : 1731.19
1409672023.125854489 : 1660.07
1409672023.225830238 : 1699.07
1409672028.225922885 : 1622.31
1409672028.325901236 : 1622.31
1409672028.425895479 : 1660.07
1409672028.525890967 : 1690
1409672028.625838376 : 1699.07
1409672028.725789318 : 1660.07
1409672028.825826089 : 1660.07
1409672028.925873076 : 1690
1409672029.025922620 : 1690
1409672029.125880501 : 1690
1409672029.226007212 : 1720.02
1409672029.325894794 : 1690
1409672029.425871111 : 1690
1409672029.525785011 : 1678.13
1409672029.625895038 : 1763.5
1409672029.725872955 : 1678.13
1409672029.825881449 : 1720.02
1409672029.925876532 : 1678.13
1409672030.025933976 : 1678.13
1409672030.125887910 : 1678.13
1409672030.225877620 : 1720.02
1409672030.325870468 : 1705.97
1409672030.425877213 : 1720.02
1409672030.525913903 : 1750.03
1409672030.625921525 : 1720.02
1409672030.725882397 : 1750.03
1409672030.825929049 : 1720.02
1409672030.925886739 : 1763.5
1409672031.025879964 : 1763.5
1409672031.125929546 : 1678.13
1409672031.225847404 : 1763.5
1409672031.325886453 : 1750.03
1409672031.425918248 : 1720.02
1409672031.525861666 : 1763.5
1409672031.625864595 : 1763.5
1409672031.725875700 : 1763.5
1409672031.825835433 : 1731.19
1409672031.925862160 : 1731.19
1409672032.025924886 : 1690
1409672032.125857717 : 1660.07
1409672032.225891330 : 1731.19
1409672032.325916481 : 1731.19
1409672032.425957525 : 1690
1409672032.526179292 : 1731.19
1409672032.625884492 : 1690
1409672032.725902387 : 1622.31
1409672032.825906621 : 1660.07
1409672032.925915865 : 1690
1409672033.025869125 : 1660.07
1409672033.125928404 : 1690
1409672033.225904307 : 1690
1409672033.325849783 : 1690
1409672033.425972118 : 1622.31
1409672033.525887519 : 1660.07
1409672033.625875213 : 1622.31
1409672033.725938965 : 1660.07
1409672033.825887783 : 1622.31
1409672033.925933941 : 1660.07
1409672034.026017940 : 1690
1409672034.125931769 : 1622.31
1409672034.225792859 : 1660.07
1409672034.325968952 : 1585.76
1409672034.425919851 : 1594.51
1409672034.525904219 : 1690
1409672034.625837330 : 1690
1409672034.725866175 : 1690
1409672034.825928794 : 1699.07
1409672034.925916468 : 1731.19
1409672035.025858596 : 1855.38
1409672035.125835118 : 1843.59
1409672035.225847120 : 1843.59
1409672035.325865757 : 1808.61
1409672035.425876419 : 1843.59
1409672035.525882459 : 1828.22
1409672035.626121433 : 1795.89
1409672035.725900475 : 1795.89
1409672035.825856650 : 1843.59
1409672035.925876345 : 1763.5
1409672036.025866250 : 1808.61
1409672036.125870776 : 1763.5
1409672036.225853018 : 1795.89
1409672036.325882050 : 1763.5
1409672036.425892144 : 1731.19
1409672036.525764068 : 1720.02
1409672036.625844003 : 1731.19
1409672036.725914434 : 1690
1409672038.225880918 : 1630.33
1409672038.325898243 : 1699.07
1409672038.425872541 : 1660.07
1409672038.525860403 : 1690
1409672038.625865034 : 1660.07
1409672038.725855371 : 1660.07
1409672038.825909887 : 1660.07
1409672038.925906709 : 1699.07
1409672039.025856128 : 1660.07
1409672039.125871224 : 1667.22
1409672039.225904117 : 1660.07
1409672039.325859837 : 1667.22
1409672039.425868126 : 1594.51
1409672039.525924043 : 1660.07
1409672039.625940333 : 1667.22
1409672039.725929379 : 1660.07
1409672039.825888777 : 1630.33
1409672039.925954750 : 1600.85
1409672040.025916166 : 1630.33
1409672040.125895319 : 1630.33
1409672040.225962863 : 1630.33
1409672040.325902596 : 1630.33
1409672040.425861158 : 1566.9
1409672040.525908727 : 1566.9
1409672040.625928699 : 1594.51
1409672040.725922050 : 1594.51
1409672040.825900970 : 1630.33
1409672040.925979380 : 1594.51
1409672041.025891603 : 1594.51
1409672041.125947984 : 1630.33
1409672041.225790818 : 1594.51
1409672041.325852871 : 1699.07
1409672041.425918249 : 1699.07
1409672041.525788438 : 1660.07
1409672041.625884505 : 1660.07
1409672041.725865675 : 1660.07
1409672041.825900348 : 1731.19
1409672041.926210410 : 1731.19
1409672042.025837073 : 1690
1409672042.125853518 : 1720.02
1409672042.225880562 : 1731.19
1409672042.325859136 : 1763.5
1409672042.425848735 : 1690
1409672042.526047742 : 1699.07
1409672042.625889039 : 1731.19
1409672042.725861110 : 1699.07
1409672042.825904079 : 1739.31
1409672042.925905839 : 1699.07
1409672043.025857512 : 1739.31
1409672043.125792860 : 1773.81
1409672043.225849301 : 1817.87
1409672043.325831156 : 1739.31
1409672043.425753364 : 1699.07
1409672043.525866693 : 1705.2
1409672043.625862955 : 1780.79
1409672048.825777265 : 1635.74
1409672048.925897291 : 1638.47
1409672049.025908881 : 1635.74
1409672049.125907554 : 1667.22
1409672049.225769639 : 1671.56
1409672049.325832378 : 1605.97
1409672049.425915514 : 1604.69
1409672049.525837542 : 1604.69
1409672049.625910787 : 1638.47
1409672049.725881680 : 1604.69
1409672049.825858251 : 1635.74
1409672049.926039449 : 1635.74
1409672050.025982480 : 1671.56
1409672050.125935771 : 1671.56
1409672050.225973424 : 1635.74
1409672050.325892083 : 1604.69
1409672050.425939441 : 1671.56
1409672050.526080905 : 1635.74
1409672050.625932821 : 1605.97
1409672050.725858431 : 1604.69
1409672050.825844296 : 1638.47
1409672050.925878496 : 1705.2
1409672051.025928032 : 1635.74
1409672051.125951010 : 1671.56
1409672051.225926015 : 1635.74
1409672051.325856260 : 1635.74
1409672051.425904609 : 1667.22
1409672051.525888702 : 1671.56
1409672051.625864954 : 1604.69
1409672051.725878099 : 1705.2
1409672051.825951231 : 1671.56
1409672051.925967554 : 1705.2
1409672052.025794328 : 1705.2
1409672052.125890592 : 1667.22
1409672052.225890954 : 1705.2
1409672052.325836069 : 1739.31
1409672052.425772350 : 1667.22
1409672052.525881618 : 1773.81
1409672052.625995165 : 1773.81
1409672052.725911313 : 1739.31
1409672052.825953287 : 1699.07
1409672052.925933374 : 1690
1409672053.025950128 : 1731.19
1409672053.126026291 : 1731.19
1409672053.225870937 : 1731.19
1409672053.325906509 : 1739.31
1409672053.425864386 : 1699.07
1409672053.525919157 : 1699.07
1409672053.625812045 : 1630.33
1409672053.725764164 : 1699.07
1409672053.825895711 : 1667.22
1409672053.925898637 : 1667.22
1409672055.225926485 : 1667.22
1409672055.325924636 : 1600.85
1409672055.425897713 : 1630.33
1409672055.525768966 : 1566.9
1409672055.625853576 : 1571.7
1409672055.725852933 : 1600.85
1409672055.825941946 : 1600.85
1409672055.925958236 : 1630.33
1409672056.025868741 : 1630.33
1409672056.125844899 : 1600.85
1409672056.225968803 : 1635.74
1409672056.325921546 : 1600.85
1409672056.425877888 : 1600.85
1409672056.525991877 : 1630.33
1409672056.625868371 : 1630.33
1409672056.725951271 : 1571.7
1409672056.825814497 : 1630.33
1409672056.925910749 : 1566.9
1409672057.025864924 : 1635.74
1409672057.125842964 : 1600.85
1409672057.225877102 : 1600.85
1409672057.325851577 : 1660.07
1409672057.425868447 : 1660.07
1409672057.525922007 : 1667.22
1409672057.625952293 : 1699.07
1409672057.725891983 : 1731.19
1409672057.825892762 : 1660.07
1409672057.925878744 : 1699.07
1409672058.025892091 : 1731.19
1409672058.125900653 : 1660.07
1409672058.225776877 : 1690
1409672058.325938332 : 1731.19
1409672058.425833656 : 1699.07
1409672058.525904212 : 1731.19
1409672058.625873461 : 1731.19
1409672058.725773444 : 1731.19
1409672058.825850793 : 1731.19
1409672058.925865362 : 1731.19
1409672059.025911204 : 1773.81
1409672059.125883252 : 1731.19
1409672059.225945303 : 1763.5
1409672059.325957981 : 1763.5
1409672059.425893296 : 1690
1409672059.525952803 : 1731.19
1409672059.625864074 : 1690
1409672059.725983504 : 1720.02
1409672059.825921112 : 1731.19
1409672059.925897327 : 1731.19
1409672060.025829385 : 1763.5
1409672060.125933373 : 1720.02
1409672060.225898008 : 1763.5
1409672060.325872622 : 1720.02
1409672060.425865985 : 1720.02
1409672060.525864197 : 1731.19
1409672060.625853014 : 1731.19
1409672060.725879086 : 1731.19
1409672060.825876707 : 1731.19
1409672060.925996158 : 1690
1409672061.025990712 : 1690
1409672061.125882104 : 1731.19
1409672061.225923729 : 1690
1409672061.325774348 : 1731.19
1409672061.425926211 : 1660.07
1409672061.525899861 : 1690
1409672061.625955017 : 1731.19
1409672061.725877793 : 1690
1409672061.825965340 : 1731.19
1409672061.925874865 : 1763.5
1409672062.025776973 : 1720.02
1409672062.125772855 : 1690
1409672062.225872092 : 1720.02
1409672062.325926326 : 1690
1409672062.425914940 : 1690
1409672062.525876296 : 1690
1409672062.625868451 : 1690
1409672062.725858185 : 1731.19
1409672062.825759568 : 1690
1409672062.925867999 : 1690
1409672063.025861946 : 1731.19
1409672063.125870887 : 1690
1409672063.225884031 : 1690
1409672063.325883617 : 1699.07
1409672063.425901765 : 1690
1409672063.525842721 : 1699.07
1409672063.625974774 : 1660.07
1409672063.725876077 : 1699.07
1409672063.825792006 : 1699.07
1409672063.925860174 : 1699.07
1409672064.025883939 : 1731.19
1409672064.125974823 : 1699.07
1409672064.225860552 : 1731.19
1409672064.325896769 : 1731.19
1409672064.425888153 : 1773.81
1409672064.525839703 : 1699.07
1409672064.625801186 : 1731.19
1409672064.725923869 : 1773.81
1409672064.825865029 : 1773.81
1409672064.925906718 : 1817.87
1409672065.025873118 : 1773.81
1409672065.126376209 : 1773.81
1409672065.225915125 : 1763.5
1409672065.325838840 : 1731.19
1409672065.425866904 : 1808.61
1409672065.525896015 : 1817.87
1409672065.625872908 : 1808.61
1409672065.725881495 : 1773.81
1409672065.825864638 : 1808.61
1409672065.925903811 : 1843.59
1409672066.025852046 : 1773.81
1409672066.125865321 : 1855.38
1409672066.225839778 : 1808.61
1409672066.325787598 : 1808.61
1409672066.425868527 : 1808.61
1409672066.525821620 : 1843.59
1409672066.625881994 : 1773.81
1409672066.725877591 : 1773.81
1409672066.825824228 : 1773.81
1409672066.925878887 : 1817.87
1409672067.025892537 : 1773.81
1409672067.125874162 : 1731.19
1409672067.225869612 : 1699.07
1409672067.326109816 : 1731.19
1409672067.425919730 : 1699.07
1409672068.325927816 : 1731.19
1409672069.726138780 : 1699.07
1409672069.825883795 : 1773.81
1409672069.925757210 : 1660.07
1409672070.025861570 : 1773.81
1409672070.125923026 : 1739.31
1409672070.225892145 : 1699.07
1409672070.325781561 : 1699.07
1409672070.425887281 : 1699.07
1409672070.525849862 : 1699.07
1409672070.625962376 : 1705.2
1409672070.725825200 : 1667.22
1409672070.825903995 : 1630.33
1409672070.925934205 : 1635.74
1409672071.025944639 : 1635.74
1409672071.125886413 : 1667.22
1409672071.225868026 : 1705.2
1409672071.325862081 : 1667.22
1409672071.425953634 : 1667.22
1409672071.525938128 : 1739.31
1409672071.625867198 : 1731.19
1409672071.725862808 : 1739.31
1409672071.825918203 : 1739.31
1409672071.925952279 : 1699.07
1409672072.025915700 : 1739.31
1409672072.125882245 : 1739.31
1409672072.225880111 : 1773.81
1409672072.325880272 : 1699.07
1409672072.425998869 : 1699.07
1409672072.525751172 : 1699.07
1409672072.625885783 : 1699.07
1409672072.725919364 : 1699.07
1409672072.825982276 : 1731.19
1409672072.925944179 : 1731.19
1409672073.025772093 : 1690
1409672073.125858665 : 1731.19
1409672073.225841789 : 1763.5
1409672073.325864527 : 1808.61
1409672073.425900203 : 1763.5
1409672073.525807128 : 1731.19
1409672073.625771088 : 1699.07
1409672073.725923572 : 1808.61
1409672073.825863500 : 1817.87
1409672073.925873398 : 1763.5
1409672074.025897761 : 1763.5
1409672074.125833958 : 1763.5
1409672074.225854371 : 1731.19
1409672074.325862539 : 1699.07
1409672074.425936254 : 1731.19
1409672074.525867251 : 1699.07
1409672074.625892698 : 1699.07
1409672074.725941726 : 1699.07
1409672074.825863878 : 1660.07
1409672074.925935151 : 1699.07
1409672075.025910884 : 1705.2
1409672075.125870081 : 1667.22
1409672075.225936452 : 1699.07
1409672075.325875118 : 1667.22
1409672075.426011517 : 1705.2
1409672075.525907371 : 1667.22
1409672075.625884117 : 1667.22
1409672075.725885957 : 1699.07
1409672075.825873709 : 1699.07
1409672075.925907452 : 1705.2
1409672076.025785036 : 1739.31
1409672076.125882998 : 1817.87
1409672076.225881459 : 1773.81
1409672076.325839926 : 1773.81
1409672076.425866707 : 1903.82
1409672076.525754706 : 1893.19
1409672076.625948403 : 1855.38
1409672076.725852283 : 1817.87
1409672076.825882673 : 1855.38
1409672076.925916837 : 1855.38
1409672077.025873560 : 1893.19
1409672077.125856753 : 1878.61
1409672077.225876982 : 1878.61
1409672077.325862376 : 1931.17
1409672077.425756330 : 1843.59
1409672077.525864789 : 1931.17
1409672077.625885462 : 1893.19
1409672077.725868376 : 1931.17
1409672077.825951020 : 1808.61
1409672077.925876133 : 1855.38
1409672078.025873605 : 1808.61
1409672078.125771017 : 1893.19
1409672078.225876786 : 1843.59
1409672078.326084813 : 1808.61
1409672078.425880242 : 1795.89
1409672078.525949729 : 1855.38
1409672078.625870269 : 1843.59
1409672078.725956818 : 1893.19
1409672078.825946294 : 1808.61
1409672078.925880725 : 1931.17
1409672079.025874680 : 1843.59
1409672079.125865101 : 1931.17
1409672079.225770623 : 1931.17
1409672079.325909317 : 1878.61
1409672093.765434916 : 1763.5
1409672093.865876219 : 1750.03
1409672093.965878817 : 1808.61
1409672094.065920840 : 1720.02
1409672094.165957972 : 1731.19
1409672094.265884803 : 1773.81
1409672094.365880787 : 1817.87
1409672094.465846753 : 1773.81
1409672094.565926916 : 1855.38
1409672094.665791017 : 1855.38
1409672094.765960765 : 1893.19
1409672094.865883855 : 1808.61
1409672094.965884327 : 1817.87
1409672095.065867391 : 1763.5
1409672095.165863202 : 1731.19
1409672095.265810225 : 1720.02
1409672095.365879080 : 1808.61
1409672101.266059218 : 1744.23
1409672101.465807214 : 1823.49
1409672101.565931025 : 1744.23
1409672101.666098992 : 1744.23
1409672101.765886645 : 1780.79
1409672101.865911864 : 1744.23
1409672101.965908799 : 1705.2
1409672102.065876961 : 1780.79
1409672102.165894577 : 1739.31
1409672102.265884791 : 1671.56
1409672102.365963365 : 1705.2
1409672102.465884867 : 1671.56
1409672102.565912406 : 1667.22
1409672102.665872413 : 1635.74
1409672102.765888288 : 1667.22
1409672102.865865874 : 1667.22
1409672102.965883692 : 1667.22
1409672103.065902983 : 1667.22
1409672103.165807981 : 1739.31
1409672103.265921562 : 1667.22
1409672103.365878155 : 1705.2
1409672103.465877782 : 1739.31
1409672103.566283551 : 1660.07
1409672103.665793326 : 1699.07
1409672103.765936876 : 1667.22
1409672103.865782171 : 1780.79
1409672103.965870557 : 1773.81
1409672104.065873604 : 1699.07
1409672104.165888241 : 1739.31
1409672104.265916947 : 1773.81
1409672104.365918929 : 1773.81
1409672104.465875396 : 1773.81
1409672104.565905108 : 1817.87
1409672113.149067907 : 1667.22
1409672113.249560451 : 1630.33
1409672113.349438656 : 1566.9
1409672113.449392991 : 1566.9
1409672113.549401269 : 1630.33
1409672113.649510900 : 1660.07
1409672113.749466759 : 1622.31
1409672113.849412130 : 1622.31
1409672113.949396131 : 1630.33
1409672114.049423637 : 1650.21
1409672114.149294511 : 1660.07
1409672114.249492713 : 1720.02
1409672114.349435441 : 1690
1409672114.449316995 : 1650.21
1409672114.549434597 : 1731.19
1409672114.649542298 : 1731.19
1409672120.049451903 : 1739.31
1409672120.149403177 : 1739.31
1409672120.249409198 : 1699.07
1409672120.349429923 : 1699.07
1409672120.449488741 : 1699.07
1409672120.549424450 : 1699.07
1409672120.649487919 : 1731.19
1409672120.749409207 : 1660.07
1409672120.849453557 : 1699.07
1409672120.949307318 : 1739.31
1409672121.049379745 : 1671.56
1409672121.149330255 : 1705.2
1409672121.249439548 : 1731.19
1409672121.349446901 : 1763.5
1409672121.449489100 : 1720.02
1409672121.549427175 : 1720.02
1409672121.649406990 : 1763.5
1409672121.749442167 : 1763.5
1409672121.849457053 : 1763.5
1409672121.949422422 : 1763.5
1409672122.049417031 : 1690
1409672122.149412588 : 1763.5
1409672129.149448793 : 1773.81
1409672129.249458214 : 1795.89
1409672129.349413417 : 1720.02
1409672129.449408560 : 1720.02
1409672129.549432176 : 1763.5
1409672129.649484271 : 1763.5
1409672129.749530919 : 1795.89
1409672129.849358160 : 1690
1409672129.949423679 : 1690
1409672130.049418919 : 1690
1409672130.149406102 : 1699.07
1409672130.249478840 : 1731.19
1409672130.349315848 : 1699.07
1409672130.449335798 : 1731.19
1409672130.549447336 : 1773.81
1409672130.649409607 : 1690
1409672130.749435897 : 1731.19
1409672130.849459968 : 1773.81
1409672130.949435152 : 1731.19
1409672131.049538299 : 1731.19
1409672131.149645988 : 1731.19
1409672131.249545864 : 1739.31
1409672131.349440317 : 1773.81
1409672131.449486678 : 1780.79
1409672131.549472219 : 1817.87
1409672131.649478757 : 1780.79
1409672131.749365573 : 1739.31
1409672131.849401380 : 1739.31
1409672131.949445308 : 1739.31
1409672132.049442786 : 1739.31
1409672132.149403542 : 1739.31
1409672132.249450772 : 1699.07
1409672132.349468753 : 1739.31
1409672132.449422094 : 1739.31
1409672132.549425689 : 1739.31
1409672132.649459640 : 1744.23
1409672132.749574290 : 1744.23
1409672132.849469275 : 1739.31
1409672132.949426755 : 1780.79
1409672133.049353861 : 1739.31
1409672133.149449242 : 1705.2
1409672133.249445004 : 1705.2
1409672133.349424325 : 1671.56
1409672133.449407731 : 1699.07
1409672133.549464888 : 1667.22
1409672133.649435496 : 1635.74
1409672133.749421057 : 1705.2
1409672133.849463153 : 1705.2
1409672133.949420377 : 1671.56
1409672134.049492019 : 1705.2
1409672134.149558752 : 1667.22
1409672134.249433991 : 1667.22
1409672134.349480143 : 1699.07
1409672134.449322443 : 1705.2
1409672134.549366281 : 1705.2
1409672134.649304434 : 1739.31
1409672134.749426470 : 1705.2
1409672134.849489676 : 1667.22
1409672134.949405836 : 1744.23
1409672135.049433667 : 1780.79
1409672144.048597645 : 1739.31
1409672144.149048967 : 1699.07
1409672144.249112149 : 1739.31
1409672144.349067893 : 1667.22
1409672144.449070517 : 1773.81
1409672144.549344791 : 1667.22
1409672144.649015515 : 1705.2
1409672144.749065557 : 1622.31
1409672144.848958636 : 1667.22
1409672144.949036167 : 1630.33
1409672145.048982173 : 1660.07
1409672145.149000308 : 1630.33
1409672145.249034352 : 1660.07
1409672145.348997443 : 1630.33
1409672145.449053637 : 1600.85
1409672145.548928778 : 1630.33
1409672145.649119515 : 1667.22
1409672145.748983891 : 1731.19
1409672145.849091264 : 1817.87
1409672145.949077120 : 1667.22
1409672146.048923278 : 1773.81
1409672146.149043214 : 1808.61
1409672146.249025957 : 1763.5
1409672146.348962120 : 1773.81
1409672146.449043713 : 1731.19
1409672146.549026561 : 1773.81
1409672146.649044205 : 1731.19
1409672146.749061891 : 1773.81
1409672146.849102767 : 1808.61
1409672146.948992467 : 1731.19
1409672147.049017196 : 1808.61
1409672147.149060109 : 1808.61
1409672147.248915000 : 1773.81
1409672147.348993746 : 1773.81
1409672147.449089787 : 1808.61
1409672147.548998608 : 1817.87
1409672147.649025206 : 1773.81
1409672147.748999644 : 1773.81
1409672147.849041709 : 1817.87
1409672147.949093001 : 1817.87
1409672148.049022622 : 1817.87
1409672148.149084177 : 1780.79
1409672148.248992641 : 1739.31
1409672148.348976302 : 1739.31
1409672148.448983158 : 1817.87
1409672148.549016710 : 1739.31
1409672148.649016078 : 1773.81
1409672148.749068706 : 1780.79
1409672148.849054175 : 1855.38
1409672148.949016477 : 1773.81
1409672149.049013957 : 1817.87
1409672149.149133912 : 1739.31
1409672149.249079295 : 1817.87
1409672149.349087122 : 1780.79
1409672149.448983220 : 1817.87
1409672149.548999542 : 1817.87
1409672149.648991306 : 1780.79
1409672149.749050427 : 1780.79
1409672149.849038065 : 1817.87
1409672149.949091751 : 1739.31
1409672150.049028269 : 1739.31
1409672150.149031538 : 1773.81
1409672150.249269221 : 1780.79
1409672150.349055947 : 1780.79
1409672150.448972628 : 1744.23
1409672150.548908830 : 1705.2
1409672150.649012239 : 1739.31
1409672150.748976247 : 1739.31
1409672150.849018649 : 1739.31
1409672150.949093863 : 1739.31
1409672151.048976940 : 1780.79
1409672151.148994899 : 1780.79
1409672151.249029055 : 1780.79
1409672151.348985772 : 1780.79
1409672151.449042070 : 1780.79
1409672151.549012135 : 1744.23
1409672151.648996004 : 1784.31
1409672151.749183407 : 1780.79
1409672151.848902507 : 1745.88
1409672151.948951894 : 1744.23
1409672152.049091070 : 1784.31
1409672152.149118095 : 1745.88
1409672152.248933204 : 1784.31
1409672152.349012222 : 1823.49
1409672152.449047323 : 1708.29
1409672152.548975296 : 1784.31
1409672152.648991731 : 1744.23
1409672152.749051903 : 1673.01
1409672152.848978984 : 1671.56
1409672152.949060082 : 1708.29
1409672153.049055182 : 1708.29
1409672153.149027508 : 1671.56
1409672153.249039585 : 1635.74
1409672153.349045534 : 1638.47
1409672153.449005520 : 1673.01
1409672153.548984928 : 1605.97
1409672153.649201221 : 1673.01
1409672153.748993114 : 1635.74
1409672153.849060819 : 1638.47
1409672153.948999829 : 1671.56
1409672154.049044194 : 1673.01
1409672154.149051291 : 1638.47
1409672154.249051332 : 1638.47
1409672154.348986774 : 1604.69
1409672154.449007005 : 1605.97
1409672154.549034300 : 1605.97
1409672154.648996945 : 1638.47
1409672154.749004406 : 1638.47
1409672154.848996193 : 1638.47
