1407767420.591601875 : 0.516164 -0.0947389 -1.85538
1407767420.645635303 : 0.50963 -0.0947389 -1.85538
1407767420.680737490 : 0.487251 -0.0923548 -1.80861
1407767420.722044706 : 0.480882 -0.0923548 -1.80861
1407767420.754783360 : 0.5 -0.0966667 -1.89319
1407767420.789738596 : 0.486762 -0.0980057 -1.85538
1407767420.818664076 : 0.468143 -0.0955395 -1.80861
1407767420.846996138 : 0.461774 -0.0955395 -1.80861
1407767420.888939991 : 0.464198 -0.0973841 -1.84359
1407767420.918701944 : 0.449035 -0.0955395 -1.80861
1407767420.949183239 : 0.466667 -0.1 -1.89319
1407767420.981405786 : 0.454093 -0.0980057 -1.85538
1407767421.011731601 : 0.447559 -0.0947389 -1.85538
1407767421.042877452 : 0.45 -0.0933333 -1.89319
1407767421.083452277 : 0.443333 -0.0866667 -1.89319
1407767421.114297314 : 0.436667 -0.0833333 -1.89319
1407767421.145509903 : 0.418752 -0.0746612 -1.84359
1407767421.181471969 : 0.401266 -0.0700623 -1.80861
1407767421.213075387 : 0.396029 -0.0649227 -1.84359
1407767421.262577624 : 0.389536 -0.0584305 -1.84359
1407767421.286237316 : 0.378973 -0.054139 -1.80861
1407767421.313071565 : 0.375789 -0.0509544 -1.80861
1407767421.344764446 : 0.372604 -0.0477697 -1.80861
1407767421.372808118 : 0.382222 -0.0490029 -1.85538
1407767421.400355354 : 0.378955 -0.045736 -1.85538
1407767421.466248644 : 0.357115 -0.0403696 -1.7635
1407767421.496515438 : 0.359865 -0.0414004 -1.80861
1407767421.529510582 : 0.369155 -0.0424691 -1.85538
1407767421.562128175 : 0.353496 -0.0414004 -1.80861
1407767421.594508945 : 0.347127 -0.0414004 -1.80861
1407767421.629392966 : 0.340757 -0.0414004 -1.80861
1407767421.671969634 : 0.331088 -0.0406052 -1.77381
1407767421.703130793 : 0.331203 -0.0445851 -1.80861
1407767421.734621268 : 0.334352 -0.0486921 -1.84359
1407767421.764684094 : 0.329953 -0.0490029 -1.85538
1407767421.788462570 : 0.312096 -0.0509544 -1.80861
1407767421.822771893 : 0.305726 -0.054139 -1.80861
1407767421.851628894 : 0.305137 -0.0551843 -1.84359
1407767421.889437777 : 0.303818 -0.0588034 -1.85538
1407767421.922787480 : 0.282587 -0.0558963 -1.7635
1407767421.957519763 : 0.280249 -0.0605083 -1.80861
1407767421.986379028 : 0.27388 -0.063693 -1.80861
1407767422.030728307 : 0.26751 -0.0668776 -1.80861
1407767422.066899463 : 0.251533 -0.0683177 -1.7635
1407767422.100550748 : 0.248403 -0.0764316 -1.80861
1407767422.132525717 : 0.223585 -0.0838445 -1.7635
1407767422.165069681 : 0.214269 -0.0900552 -1.7635
1407767422.196543831 : 0.206149 -0.0937043 -1.77381
1407767422.247456971 : 0.199902 -0.0968277 -1.77381
1407767422.273305247 : 0.197448 -0.105093 -1.80861
1407767422.304693662 : 0.187894 -0.111463 -1.80861
1407767422.342525675 : 0.186211 -0.117607 -1.85538
1407767422.368856840 : 0.167689 -0.121109 -1.7635
1407767422.396537263 : 0.165553 -0.133092 -1.84359
1407767422.438475984 : 0.156048 -0.140125 -1.80861
1407767422.474875866 : 0.143309 -0.149678 -1.80861
1407767422.509173717 : 0.13353 -0.155268 -1.7635
1407767422.540678313 : 0.127386 -0.168786 -1.80861
1407767422.572173360 : 0.115845 -0.170719 -1.73119
1407767422.600508922 : 0.111463 -0.191079 -1.80861
1407767422.640353741 : 0.103075 -0.193655 -1.77381
1407767422.677427810 : 0.0962659 -0.201848 -1.7635
1407767422.708057019 : 0.0923548 -0.216556 -1.80861
1407767422.736845739 : 0.0859855 -0.222925 -1.80861
1407767422.772135581 : 0.0811534 -0.236968 -1.84359
1407767422.796195559 : 0.0700623 -0.238849 -1.80861
1407767422.822665009 : 0.063693 -0.251587 -1.80861
1407767422.851634169 : 0.054139 -0.261141 -1.80861
1407767422.894012029 : 0.0465803 -0.263955 -1.7635
1407767422.931716682 : 0.0396312 -0.268273 -1.73119
1407767422.968453440 : 0.0350311 -0.289803 -1.80861
1407767423.009462242 : 0.0294017 -0.307085 -1.85538
1407767423.037767243 : 0.0218643 -0.302977 -1.77381
1407767423.067801347 : 0.0155268 -0.31364 -1.7635
1407767423.096729045 : 0.0127386 -0.334388 -1.80861
1407767423.127659437 : 0.00318465 -0.343942 -1.80861
1407767423.162868487 : 0 -0.362621 -1.85538
1407767423.194495078 : -0.00624695 -0.356076 -1.77381
1407767423.224563327 : -0.0121942 -0.356681 -1.73119
1407767423.251237385 : -0.0196011 -0.39529 -1.85538
1407767423.277175407 : -0.0248428 -0.388169 -1.7635
1407767423.307639601 : -0.0318465 -0.407635 -1.80861
1407767423.335778880 : -0.0350311 -0.420374 -1.80861
1407767423.372702503 : -0.0406052 -0.421669 -1.77381
1407767423.407953106 : -0.0468521 -0.437287 -1.77381
1407767423.441851883 : -0.054139 -0.461774 -1.80861
1407767423.480476123 : -0.0588034 -0.490029 -1.85538
1407767423.508271576 : -0.0590017 -0.478224 -1.7635
1407767423.540818578 : -0.0668776 -0.506359 -1.80861
1407767423.575242376 : -0.0700623 -0.522282 -1.80861
1407767423.602186403 : -0.0764316 -0.535021 -1.80861
1407767423.646529819 : -0.0812104 -0.537238 -1.77381
1407767423.686348077 : -0.0859855 -0.560498 -1.80861
1407767423.723859417 : -0.0891702 -0.570052 -1.80861
1407767423.753365829 : -0.0923548 -0.576421 -1.80861
1407767423.782440584 : -0.0937043 -0.574719 -1.77381
1407767423.808818790 : -0.101273 -0.610902 -1.85538
1407767423.838686058 : -0.103075 -0.590337 -1.77381
1407767423.873979896 : -0.109322 -0.602831 -1.77381
1407767423.903730443 : -0.114647 -0.624191 -1.80861
1407767423.937929853 : -0.118692 -0.618448 -1.77381
1407767423.975177200 : -0.124836 -0.643385 -1.81787
1407767424.008879598 : -0.133941 -0.666439 -1.85538
1407767424.042926965 : -0.134309 -0.640312 -1.77381
1407767424.076621445 : -0.144041 -0.662591 -1.81787
1407767424.117982771 : -0.153644 -0.668993 -1.81787
1407767424.148370080 : -0.159232 -0.675146 -1.80861
1407767424.177699763 : -0.166448 -0.688198 -1.81787
1407767424.208165227 : -0.17641 -0.715442 -1.85538
1407767424.243849513 : -0.171791 -0.693412 -1.77381
1407767424.268448739 : -0.171791 -0.702782 -1.77381
1407767424.298056448 : -0.171791 -0.712152 -1.77381
1407767424.328981365 : -0.179252 -0.742614 -1.81787
1407767424.369027194 : -0.179252 -0.755418 -1.81787
1407767424.400479832 : -0.174581 -0.735077 -1.73931
1407767424.431797292 : -0.181525 -0.780239 -1.80861
1407767424.462051844 : -0.185653 -0.803431 -1.81787
1407767424.494179177 : -0.184285 -0.79961 -1.77381
1407767424.526806145 : -0.192055 -0.835441 -1.81787
1407767424.558871854 : -0.195256 -0.851445 -1.81787
1407767424.589738721 : -0.189895 -0.830024 -1.73931
1407767424.629504697 : -0.201658 -0.886655 -1.81787
1407767424.658574625 : -0.199902 -0.883943 -1.77381
1407767424.694107135 : -0.197551 -0.903092 -1.78079
1407767424.719800360 : -0.194416 -0.921906 -1.78079
1407767426.176580018 : -0.465398 -0.921425 -1.77381
1407767426.225392784 : -0.48654 -0.941071 -1.81787
1407767426.261978136 : -0.482903 -0.918771 -1.78079
1407767428.594145900 : -0.492942 -0.620979 -1.81787
1407767428.637439492 : -0.480138 -0.614577 -1.81787
1407767428.665826718 : -0.480228 -0.617436 -1.85538
1407767428.693347980 : -0.44978 -0.590337 -1.77381
1407767428.727685462 : -0.442139 -0.59579 -1.78079
1407767428.754294456 : -0.452763 -0.629932 -1.86336
1407767428.782786551 : -0.435325 -0.620979 -1.81787
1407767428.811593189 : -0.435325 -0.630582 -1.81787
1407767428.863354387 : -0.435325 -0.643385 -1.81787
1407767428.892153590 : -0.429596 -0.642826 -1.78079
1407767428.925194670 : -0.452763 -0.688988 -1.86336
1407767428.956590104 : -0.439003 -0.664776 -1.78079
1407767428.987503122 : -0.459325 -0.711954 -1.86336
1407767429.025647945 : -0.437287 -0.690288 -1.77381
1407767429.056397347 : -0.450826 -0.741577 -1.85538
1407767429.086765868 : -0.421669 -0.72777 -1.77381
1407767429.123538758 : -0.433078 -0.784134 -1.86336
1407767429.166797843 : -0.424691 -0.806914 -1.85538
1407767429.190819156 : -0.395103 -0.796477 -1.78079
1407767429.218091030 : -0.406831 -0.859594 -1.86336
1407767429.248851517 : -0.390512 -0.864249 -1.81787
1407767429.288800141 : -0.387312 -0.893057 -1.81787
1407767429.314458098 : -0.367538 -0.882092 -1.73931
1407767431.514128402 : -0.306291 -0.876833 -1.7052
1407767431.544922071 : -0.307148 -0.887656 -1.74423
1407767431.578950737 : -0.307302 -0.896821 -1.78079
1407767431.604799254 : -0.294759 -0.884278 -1.78079
1407767431.641939915 : -0.282576 -0.85387 -1.74423
1407767431.670629189 : -0.276433 -0.838513 -1.74423
1407767431.697848881 : -0.282551 -0.860496 -1.82349
1407767431.727418637 : -0.276129 -0.841231 -1.82349
1407767431.757899832 : -0.269708 -0.821966 -1.82349
1407767431.789195092 : -0.260779 -0.788622 -1.78431
1407767431.829285276 : -0.263286 -0.793069 -1.82349
1407767431.860904467 : -0.260344 -0.784246 -1.82538
1407767431.894036195 : -0.265752 -0.787414 -1.86336
1407767431.924340324 : -0.256074 -0.755418 -1.81787
1407767431.956476113 : -0.271513 -0.777666 -1.90382
1407767431.988353344 : -0.262471 -0.748044 -1.86336
1407767432.019882808 : -0.247723 -0.702405 -1.78079
1407767432.048844066 : -0.250443 -0.712799 -1.82349
1407767432.084559530 : -0.261457 -0.737442 -1.90382
1407767432.112280451 : -0.247487 -0.700679 -1.82538
1407767432.144454105 : -0.240069 -0.697801 -1.81787
1407767432.172146818 : -0.242786 -0.711954 -1.86336
1407767432.200834958 : -0.236224 -0.711954 -1.86336
1407767432.255543116 : -0.224756 -0.696745 -1.82349
1407767432.289374750 : -0.226382 -0.715235 -1.86336
1407767432.326733068 : -0.214462 -0.707404 -1.81787
1407767432.356630470 : -0.216539 -0.731639 -1.86336
1407767432.386089608 : -0.209977 -0.748044 -1.86336
1407767432.418332196 : -0.203415 -0.761167 -1.86336
1407767432.451968862 : -0.193991 -0.775963 -1.86739
1407767432.480813749 : -0.183016 -0.770594 -1.82349
1407767432.518366868 : -0.180449 -0.803819 -1.86336
1407767432.549324099 : -0.170606 -0.816943 -1.86336
1407767432.595517080 : -0.154119 -0.809123 -1.82349
1407767432.632190065 : -0.141261 -0.867748 -1.91028
1407767432.676323583 : -0.131236 -0.849751 -1.86336
1407767432.707252261 : -0.124674 -0.853032 -1.86336
1407767432.744064885 : -0.118112 -0.856313 -1.86336
1407767432.773069859 : -0.108831 -0.838642 -1.81787
1407767432.809554968 : -0.104539 -0.859184 -1.85538
1407767432.844818210 : -0.0963242 -0.850864 -1.82349
1407767432.875809552 : -0.0951459 -0.879279 -1.86336
1407767432.908543782 : -0.0899026 -0.863707 -1.82349
1407767432.998680454 : -0.0864249 -0.86745 -1.81787
1407767433.066811027 : -0.083224 -0.873852 -1.81787
1407767433.105605231 : -0.0783934 -0.890549 -1.78079
1407767433.129911569 : -0.0853032 -0.944897 -1.86336
1407767433.163592808 : -0.0871522 -0.978786 -1.90382
1407767438.228036486 : 0.318121 -0.944626 -1.84359
1407767438.278803537 : 0.359513 -0.945006 -1.94473
1407767438.309868592 : 0.406 -0.953374 -2.05911
1407767438.334324769 : 0.423735 -0.889843 -2.00571
1407767438.366654054 : 0.444921 -0.858063 -2.00571
1407767438.393189432 : 0.466108 -0.829814 -2.00571
1407767438.418658800 : 0.490826 -0.808627 -2.00571
1407767438.480245299 : 0.503448 -0.775862 -1.95858
1407767438.517645495 : 0.524138 -0.765517 -1.95858
1407767438.543643092 : 0.5655 -0.797499 -2.05911
1407767438.575914207 : 0.56215 -0.777817 -2.00822
