1 - 1409733179.694976509
0 - 1409733179.695178675
1 - 1409733179.795338060
1 - 1409733179.895345210
1 - 1409733179.995425620
1 - 1409733180.095353624
1 - 1409733180.195362325
1 - 1409733180.295428610
1 - 1409733180.395431807
1 - 1409733180.495407968
1 - 1409733180.595322303
1 - 1409733180.695441108
1 - 1409733180.795368131
1 - 1409733180.895356051
1 - 1409733180.995401544
1 - 1409733181.095414795
1 - 1409733181.195357630
1 - 1409733181.295342350
1 - 1409733181.395341210
1 - 1409733181.495472541
1 - 1409733181.595413521
1 - 1409733181.695301778
1 - 1409733181.795458575
1 - 1409733181.895435290
1 - 1409733181.995300031
1 - 1409733182.095382364
1 - 1409733182.195402738
1 - 1409733182.295357304
1 - 1409733182.395382164
1 - 1409733182.495430963
1 - 1409733182.595379207
1 - 1409733182.695483188
1 - 1409733182.795410500
1 - 1409733182.895326164
1 - 1409733182.995343219
1 - 1409733183.095335320
1 - 1409733183.195277085
1 - 1409733183.295350804
1 - 1409733183.395370468
1 - 1409733183.495488104
1 - 1409733183.595371613
1 - 1409733183.695413139
1 - 1409733183.795345826
1 - 1409733183.895388834
1 - 1409733183.995581337
1 - 1409733184.095419691
1 - 1409733184.195356458
1 - 1409733184.295338922
1 - 1409733184.395389157
1 - 1409733184.495350882
1 - 1409733184.595384706
1 - 1409733184.695324247
1 - 1409733184.795406164
1 - 1409733184.895668285
1 - 1409733184.995365058
1 - 1409733185.095350900
1 - 1409733185.195407944
1 - 1409733185.295363184
1 - 1409733185.395371071
1 - 1409733185.495331665
1 - 1409733185.595366313
1 - 1409733185.695407484
1 - 1409733185.795384739
1 - 1409733185.895348613
1 - 1409733185.995339127
1 - 1409733186.095397090
1 - 1409733186.195347291
1 - 1409733186.295352423
1 - 1409733186.395378880
1 - 1409733186.495356848
1 - 1409733186.595440055
1 - 1409733186.695365542
1 - 1409733186.795454364
1 - 1409733186.895496477
1 - 1409733186.995470500
1 - 1409733187.095399646
1 - 1409733187.195355334
1 - 1409733187.295315836
1 - 1409733187.395355651
1 - 1409733187.495446511
1 - 1409733187.595501076
1 - 1409733187.695387481
1 - 1409733187.795515193
1 - 1409733187.895354873
1 - 1409733187.995352850
1 - 1409733188.095392690
1 - 1409733188.195345828
1 - 1409733188.295347196
1 - 1409733188.395766097
1 - 1409733188.495339632
1 - 1409733188.595347739
1 - 1409733188.695338630
1 - 1409733188.795412113
1 - 1409733188.895345659
1 - 1409733188.995415486
1 - 1409733189.095434423
1 - 1409733189.195434896
1 - 1409733189.295398851
1 - 1409733189.395325499
1 - 1409733189.495364955
1 - 1409733189.595937587
1 - 1409733189.695588931
1 - 1409733189.795330917
1 - 1409733189.895353791
1 - 1409733189.995403526
1 - 1409733190.095371195
1 - 1409733190.195438194
1 - 1409733190.295404029
1 - 1409733190.395347498
1 - 1409733190.495408091
1 - 1409733190.595332721
1 - 1409733190.695378554
1 - 1409733190.795441195
1 - 1409733190.895325718
1 - 1409733190.995403417
1 - 1409733191.095321905
1 - 1409733191.195375215
1 - 1409733191.295410110
1 - 1409733191.395448904
1 - 1409733191.495353821
1 - 1409733191.595409397
1 - 1409733191.695480211
1 - 1409733191.795405717
1 - 1409733191.895328930
1 - 1409733191.995379623
1 - 1409733192.095353436
1 - 1409733192.195423569
1 - 1409733192.295374289
1 - 1409733192.395329492
1 - 1409733192.495399201
1 - 1409733192.595479429
1 - 1409733192.695359327
1 - 1409733192.795448844
1 - 1409733192.895388298
1 - 1409733192.995291343
1 - 1409733193.095376683
1 - 1409733193.195314916
1 - 1409733193.295329892
1 - 1409733193.395532088
1 - 1409733193.495344687
1 - 1409733193.595392000
1 - 1409733193.695453140
1 - 1409733193.795373788
1 - 1409733193.895407862
1 - 1409733193.995417985
1 - 1409733194.095377309
1 - 1409733194.195500088
1 - 1409733194.295344137
1 - 1409733194.395326237
1 - 1409733194.495351575
1 - 1409733194.595338148
1 - 1409733194.695447943
1 - 1409733194.795349711
1 - 1409733194.895380922
1 - 1409733194.995352279
1 - 1409733195.095357668
1 - 1409733195.195396609
1 - 1409733195.295339933
1 - 1409733195.395315914
1 - 1409733195.495380139
1 - 1409733195.595337134
1 - 1409733195.695376512
1 - 1409733195.795565343
1 - 1409733195.895359794
1 - 1409733195.995399815
1 - 1409733196.095475411
1 - 1409733196.195352957
1 - 1409733196.295296665
1 - 1409733196.395342636
1 - 1409733196.495357281
1 - 1409733196.595323040
1 - 1409733196.695382292
1 - 1409733196.795413830
1 - 1409733196.895400942
1 - 1409733196.995368501
1 - 1409733197.095395961
1 - 1409733197.195356423
1 - 1409733197.295449061
1 - 1409733197.395406860
1 - 1409733197.495476367
1 - 1409733197.595443237
1 - 1409733197.695573123
1 - 1409733197.795322870
1 - 1409733197.895350549
1 - 1409733197.995340527
1 - 1409733198.095327194
1 - 1409733198.195318804
1 - 1409733198.295338679
1 - 1409733198.395463591
1 - 1409733198.495332033
1 - 1409733198.595634339
1 - 1409733198.695426295
1 - 1409733198.795342313
1 - 1409733198.895441699
1 - 1409733198.995356464
1 - 1409733199.095445139
1 - 1409733199.195450217
1 - 1409733199.295364340
1 - 1409733199.395344349
1 - 1409733199.495344257
1 - 1409733199.595351470
1 - 1409733199.695376186
1 - 1409733199.795312566
1 - 1409733199.895424400
1 - 1409733199.995342865
1 - 1409733200.095378463
1 - 1409733200.195515886
1 - 1409733200.295371311
1 - 1409733200.395398754
1 - 1409733200.495466587
1 - 1409733200.595364492
1 - 1409733200.695444595
1 - 1409733200.795381949
1 - 1409733200.895413249
1 - 1409733200.995363873
1 - 1409733201.095373127
1 - 1409733201.195337264
1 - 1409733201.295455055
1 - 1409733201.395450845
1 - 1409733201.495378539
1 - 1409733201.595485431
1 - 1409733201.695369986
1 - 1409733201.795335726
1 - 1409733201.895349553
1 - 1409733201.995324933
1 - 1409733202.095330572
1 - 1409733202.195309699
1 - 1409733202.295323050
1 - 1409733202.395314391
1 - 1409733202.495372135
1 - 1409733202.595328390
1 - 1409733202.695300102
1 - 1409733202.795401211
1 - 1409733202.895387242
1 - 1409733202.995492824
1 - 1409733203.095274994
1 - 1409733203.195376021
1 - 1409733203.295452889
1 - 1409733203.395705651
1 - 1409733203.495499091
1 - 1409733203.595340377
1 - 1409733203.695334566
1 - 1409733203.795346903
1 - 1409733203.895426551
1 - 1409733203.995399734
1 - 1409733204.095410877
1 - 1409733204.195329524
1 - 1409733204.295448533
1 - 1409733204.395354887
1 - 1409733204.495337678
1 - 1409733204.595361724
1 - 1409733204.695433303
1 - 1409733204.795432733
1 - 1409733204.895802874
1 - 1409733204.995327280
1 - 1409733205.095364286
1 - 1409733205.195278413
1 - 1409733205.295422226
1 - 1409733205.395449858
1 - 1409733205.495332411
1 - 1409733205.595373150
1 - 1409733205.695321644
1 - 1409733205.795440931
1 - 1409733205.895424777
1 - 1409733205.995360548
1 - 1409733206.095428600
1 - 1409733206.195340744
1 - 1409733206.295438130
1 - 1409733206.395440230
1 - 1409733206.495441413
1 - 1409733206.595442938
1 - 1409733206.695393812
1 - 1409733206.795334094
1 - 1409733206.895338498
1 - 1409733206.995462106
1 - 1409733207.095363855
1 - 1409733207.195343409
1 - 1409733207.295392190
1 - 1409733207.395372359
1 - 1409733207.495401979
1 - 1409733207.595328417
1 - 1409733207.695471215
1 - 1409733207.795374037
1 - 1409733207.895364487
1 - 1409733207.995368421
1 - 1409733208.095342715
1 - 1409733208.195442676
1 - 1409733208.295405654
1 - 1409733208.395388738
1 - 1409733208.495427982
1 - 1409733208.595322440
1 - 1409733208.695318364
1 - 1409733208.795356894
1 - 1409733208.895592573
1 - 1409733208.995320966
1 - 1409733209.095389176
1 - 1409733209.195348077
1 - 1409733209.295653345
1 - 1409733209.395467137
1 - 1409733209.495443862
1 - 1409733209.595352782
1 - 1409733209.695348295
1 - 1409733209.795407793
1 - 1409733209.895378916
0 - 1409733209.995149273
0 - 1409733210.095194296
0 - 1409733210.195193940
0 - 1409733210.295199590
0 - 1409733210.395173813
0 - 1409733210.495187375
0 - 1409733210.595190898
0 - 1409733210.695325491
1 - 1409733210.795380023
0 - 1409733210.895204171
0 - 1409733210.995197426
0 - 1409733211.095200611
0 - 1409733211.195190490
0 - 1409733211.295188551
0 - 1409733211.395173483
0 - 1409733211.495190086
0 - 1409733211.595165910
0 - 1409733211.695302106
0 - 1409733211.795292971
0 - 1409733211.895314177
0 - 1409733211.995301900
0 - 1409733212.095295326
0 - 1409733212.195371424
1 - 1409733212.295347926
1 - 1409733212.395526471
1 - 1409733212.495390904
1 - 1409733212.595400748
1 - 1409733212.695464038
1 - 1409733212.795390641
1 - 1409733212.895467132
1 - 1409733212.995416521
1 - 1409733213.095430363
1 - 1409733213.195333874
1 - 1409733213.295391486
1 - 1409733213.395354474
1 - 1409733213.495351115
1 - 1409733213.595378119
1 - 1409733213.695377320
1 - 1409733213.795408645
1 - 1409733213.895346573
1 - 1409733213.995321730
1 - 1409733214.095385141
1 - 1409733214.195331468
1 - 1409733214.295345114
1 - 1409733214.395310103
1 - 1409733214.495383123
1 - 1409733214.595335041
1 - 1409733214.695342640
1 - 1409733214.795368032
1 - 1409733214.895432048
1 - 1409733214.995368957
1 - 1409733215.095391219
1 - 1409733215.195448640
1 - 1409733215.295346550
1 - 1409733215.395305028
1 - 1409733215.495397965
1 - 1409733215.595459363
1 - 1409733215.695390908
1 - 1409733215.795430291
1 - 1409733215.895331429
1 - 1409733215.995297871
1 - 1409733216.095368788
1 - 1409733216.195380116
1 - 1409733216.295498918
1 - 1409733216.395502171
1 - 1409733216.495740503
1 - 1409733216.595337969
1 - 1409733216.695797927
1 - 1409733216.795369026
1 - 1409733216.895445830
1 - 1409733216.995392701
1 - 1409733217.095426887
1 - 1409733217.195356745
1 - 1409733217.295369580
1 - 1409733217.395332708
1 - 1409733217.495371735
1 - 1409733217.595377058
1 - 1409733217.695332555
1 - 1409733217.795323228
1 - 1409733217.895364054
1 - 1409733217.995461058
1 - 1409733218.095422555
1 - 1409733218.195325721
1 - 1409733218.295370993
1 - 1409733218.395504428
1 - 1409733218.495467191
1 - 1409733218.595410885
1 - 1409733218.695430670
1 - 1409733218.795292024
1 - 1409733218.895357303
1 - 1409733218.995483359
1 - 1409733219.095360098
1 - 1409733219.195340429
1 - 1409733219.295331571
1 - 1409733219.395377397
1 - 1409733219.495382870
1 - 1409733219.595421150
1 - 1409733219.695400075
1 - 1409733219.795338846
1 - 1409733219.895368870
1 - 1409733219.995444495
1 - 1409733220.095402149
1 - 1409733220.195407221
1 - 1409733220.295363771
1 - 1409733220.395388630
1 - 1409733220.495426662
1 - 1409733220.595320717
1 - 1409733220.695305508
1 - 1409733220.795365786
1 - 1409733220.895375862
1 - 1409733220.995359243
1 - 1409733221.095355235
1 - 1409733221.195334206
1 - 1409733221.295581885
1 - 1409733221.395380088
1 - 1409733221.495401000
1 - 1409733221.595427186
1 - 1409733221.695285333
1 - 1409733221.795471049
1 - 1409733221.895405852
1 - 1409733221.995462184
1 - 1409733222.095429351
1 - 1409733222.195482153
1 - 1409733222.295328424
1 - 1409733222.395349738
1 - 1409733222.495396360
1 - 1409733222.595376448
1 - 1409733222.695530213
1 - 1409733222.795385421
1 - 1409733222.895452237
1 - 1409733222.995461892
1 - 1409733223.095311019
1 - 1409733223.195370047
1 - 1409733223.295466676
1 - 1409733223.395366196
1 - 1409733223.495340731
1 - 1409733223.595485307
1 - 1409733223.695374147
1 - 1409733223.795380380
1 - 1409733223.895369285
1 - 1409733223.995452802
1 - 1409733224.095365125
1 - 1409733224.195316249
1 - 1409733224.295332108
1 - 1409733224.395452213
1 - 1409733224.495359151
1 - 1409733224.595304023
1 - 1409733224.695481409
1 - 1409733224.795307117
1 - 1409733224.895386171
1 - 1409733224.995340247
1 - 1409733225.095336504
1 - 1409733225.195471395
1 - 1409733225.295319469
1 - 1409733225.395349948
1 - 1409733225.495321658
1 - 1409733225.595385836
1 - 1409733225.695396832
1 - 1409733225.795354239
1 - 1409733225.895346280
1 - 1409733225.995282364
1 - 1409733226.095396197
1 - 1409733226.195398936
1 - 1409733226.295366499
1 - 1409733226.395388670
1 - 1409733226.495455808
1 - 1409733226.595401281
1 - 1409733226.695357849
1 - 1409733226.795949750
1 - 1409733226.895310399
1 - 1409733226.995347085
1 - 1409733227.095341388
1 - 1409733227.195342238
1 - 1409733227.295395539
1 - 1409733227.395426749
1 - 1409733227.495321078
1 - 1409733227.595425338
1 - 1409733227.695368719
1 - 1409733227.795341204
1 - 1409733227.895338672
1 - 1409733227.995322370
1 - 1409733228.095427107
1 - 1409733228.195694035
1 - 1409733228.295330633
1 - 1409733228.395375204
1 - 1409733228.495518250
1 - 1409733228.595354957
1 - 1409733228.695340695
1 - 1409733228.795503587
1 - 1409733228.895455395
1 - 1409733228.995494114
1 - 1409733229.095366149
1 - 1409733229.195320187
1 - 1409733229.295357576
1 - 1409733229.395415836
1 - 1409733229.495383462
1 - 1409733229.595468335
1 - 1409733229.695432591
1 - 1409733229.795406391
1 - 1409733229.895377134
1 - 1409733229.995402735
1 - 1409733230.095765412
1 - 1409733230.195369602
1 - 1409733230.295357057
1 - 1409733230.395325530
1 - 1409733230.495443068
1 - 1409733230.595410864
1 - 1409733230.695376374
1 - 1409733230.795396363
1 - 1409733230.895345222
1 - 1409733230.995438737
1 - 1409733231.095384344
1 - 1409733231.195301408
1 - 1409733231.295364293
1 - 1409733231.395379943
1 - 1409733231.495378430
1 - 1409733231.595278423
1 - 1409733231.695446088
1 - 1409733231.795440664
1 - 1409733231.895399908
1 - 1409733231.995387544
1 - 1409733232.095357217
1 - 1409733232.195483304
1 - 1409733232.295343795
1 - 1409733232.395421529
1 - 1409733232.495343536
1 - 1409733232.595536629
1 - 1409733232.695353988
1 - 1409733232.795358529
1 - 1409733232.895498749
1 - 1409733232.995419806
1 - 1409733233.095392925
1 - 1409733233.195474604
1 - 1409733233.295374216
1 - 1409733233.395482729
1 - 1409733233.495462128
1 - 1409733233.595364448
1 - 1409733233.695459710
1 - 1409733233.795362817
1 - 1409733233.895430153
1 - 1409733233.995378596
1 - 1409733234.095357949
1 - 1409733234.195407419
1 - 1409733234.295472257
1 - 1409733234.395368364
1 - 1409733234.495303738
1 - 1409733234.595368991
1 - 1409733234.695351706
1 - 1409733234.795337097
1 - 1409733234.895302220
1 - 1409733234.995331571
1 - 1409733235.095293561
1 - 1409733235.195368422
1 - 1409733235.295376713
1 - 1409733235.395359917
1 - 1409733235.495893067
1 - 1409733235.595448708
1 - 1409733235.695447196
1 - 1409733235.795353982
1 - 1409733235.895425148
1 - 1409733235.995329768
1 - 1409733236.095412718
1 - 1409733236.195437010
1 - 1409733236.295424665
1 - 1409733236.395457365
1 - 1409733236.495452796
1 - 1409733236.595361213
1 - 1409733236.695344552
1 - 1409733236.795390134
1 - 1409733236.895352269
1 - 1409733236.995401076
1 - 1409733237.095402801
1 - 1409733237.195360735
1 - 1409733237.295532780
1 - 1409733237.395366290
1 - 1409733237.495605980
1 - 1409733237.595475977
1 - 1409733237.695442603
1 - 1409733237.795370849
1 - 1409733237.895683987
1 - 1409733237.995387243
1 - 1409733238.096094537
1 - 1409733238.195615289
1 - 1409733238.295448173
1 - 1409733238.395357218
1 - 1409733238.495420953
1 - 1409733238.595768059
1 - 1409733238.695469379
1 - 1409733238.795326649
1 - 1409733238.895508671
1 - 1409733238.995398285
1 - 1409733239.095343647
1 - 1409733239.195372027
1 - 1409733239.295333153
1 - 1409733239.395357015
1 - 1409733239.495310512
1 - 1409733239.595417501
1 - 1409733239.695322022
1 - 1409733239.795424114
1 - 1409733239.895321086
1 - 1409733239.995324997
1 - 1409733240.095369504
1 - 1409733240.195321552
1 - 1409733240.295501689
1 - 1409733240.395328259
1 - 1409733240.495553761
1 - 1409733240.595366553
1 - 1409733240.695429643
1 - 1409733240.795328498
1 - 1409733240.895336947
1 - 1409733240.995365829
1 - 1409733241.095404980
1 - 1409733241.195442365
1 - 1409733241.295413450
1 - 1409733241.395323632
1 - 1409733241.495357133
1 - 1409733241.595447549
1 - 1409733241.695451131
1 - 1409733241.795442524
1 - 1409733241.895404342
1 - 1409733241.995343183
1 - 1409733242.095372390
1 - 1409733242.195427856
1 - 1409733242.295413425
1 - 1409733242.395329528
1 - 1409733242.495346785
1 - 1409733242.595383911
1 - 1409733242.695510588
1 - 1409733242.795387525
1 - 1409733242.895343271
1 - 1409733242.995425155
1 - 1409733243.095390420
1 - 1409733243.195380525
1 - 1409733243.295357883
1 - 1409733243.395381005
1 - 1409733243.495435075
1 - 1409733243.595427535
1 - 1409733243.695371423
1 - 1409733243.795335283
1 - 1409733243.895357233
1 - 1409733243.995450163
1 - 1409733244.095401288
1 - 1409733244.195431572
1 - 1409733244.295384640
1 - 1409733244.395320468
1 - 1409733244.495426460
1 - 1409733244.595371209
1 - 1409733244.695539881
1 - 1409733244.795401499
1 - 1409733244.895385674
1 - 1409733244.996338056
1 - 1409733245.095343998
1 - 1409733245.195488909
1 - 1409733245.295407457
1 - 1409733245.395363620
1 - 1409733245.495309512
1 - 1409733245.595517976
1 - 1409733245.695411477
1 - 1409733245.795436385
1 - 1409733245.895561168
1 - 1409733245.995361614
1 - 1409733246.095349345
1 - 1409733246.195467519
1 - 1409733246.295359794
1 - 1409733246.395391921
1 - 1409733246.495294319
1 - 1409733246.595510401
1 - 1409733246.695357394
1 - 1409733246.795359573
1 - 1409733246.895435613
1 - 1409733246.995355971
1 - 1409733247.095374318
1 - 1409733247.195357647
1 - 1409733247.295332252
1 - 1409733247.395371117
1 - 1409733247.495354764
1 - 1409733247.595372986
1 - 1409733247.695521311
1 - 1409733247.795417237
1 - 1409733247.895335062
1 - 1409733247.995371284
1 - 1409733248.095384840
1 - 1409733248.195485390
1 - 1409733248.295501492
1 - 1409733248.395504730
1 - 1409733248.495505808
1 - 1409733248.595482212
1 - 1409733248.695567770
1 - 1409733248.795599524
1 - 1409733248.895489123
1 - 1409733248.995384148
1 - 1409733249.095376079
1 - 1409733249.195337313
1 - 1409733249.295364708
1 - 1409733249.395360779
1 - 1409733249.495382979
1 - 1409733249.595438784
1 - 1409733249.695321907
1 - 1409733249.795390161
1 - 1409733249.895370835
1 - 1409733249.995432381
1 - 1409733250.095304974
1 - 1409733250.195493665
1 - 1409733250.295358438
1 - 1409733250.395326624
1 - 1409733250.495329108
1 - 1409733250.595384394
1 - 1409733250.695480673
1 - 1409733250.795349417
1 - 1409733250.895423449
1 - 1409733250.995468022
1 - 1409733251.095475022
1 - 1409733251.195427054
1 - 1409733251.295372217
1 - 1409733251.395395995
1 - 1409733251.495326885
1 - 1409733251.595356004
1 - 1409733251.695462235
1 - 1409733251.795313585
1 - 1409733251.895341102
1 - 1409733251.995323570
1 - 1409733252.095370724
1 - 1409733252.195353252
1 - 1409733252.295350157
1 - 1409733252.395368141
1 - 1409733252.495370334
1 - 1409733252.595361797
1 - 1409733252.695390047
1 - 1409733252.795361041
1 - 1409733252.895361052
1 - 1409733252.995398728
1 - 1409733253.095372608
1 - 1409733253.195347387
1 - 1409733253.295348210
1 - 1409733253.395482709
1 - 1409733253.495404664
1 - 1409733253.595420395
1 - 1409733253.695356410
1 - 1409733253.795356733
1 - 1409733253.895460803
1 - 1409733253.995386779
1 - 1409733254.095434157
1 - 1409733254.195347428
1 - 1409733254.295369506
1 - 1409733254.395286385
1 - 1409733254.495346391
1 - 1409733254.595354332
1 - 1409733254.695397867
1 - 1409733254.795392389
1 - 1409733254.895391666
1 - 1409733254.995462132
1 - 1409733255.095362592
1 - 1409733255.195471405
1 - 1409733255.295352086
1 - 1409733255.395388448
1 - 1409733255.495335922
1 - 1409733255.595296509
1 - 1409733255.695419312
1 - 1409733255.795411564
1 - 1409733255.895332444
1 - 1409733255.995359426
1 - 1409733256.095403899
1 - 1409733256.195462375
1 - 1409733256.295344845
1 - 1409733256.395346277
1 - 1409733256.495463427
1 - 1409733256.595472881
1 - 1409733256.695360684
1 - 1409733256.795394841
1 - 1409733256.895331614
1 - 1409733256.995394409
1 - 1409733257.095382951
1 - 1409733257.195648796
1 - 1409733257.295394374
1 - 1409733257.395395101
1 - 1409733257.495388947
1 - 1409733257.595349576
1 - 1409733257.695367781
1 - 1409733257.795405530
1 - 1409733257.895735310
1 - 1409733257.995338437
1 - 1409733258.095340409
1 - 1409733258.195416558
1 - 1409733258.295451771
1 - 1409733258.395503190
1 - 1409733258.495377404
1 - 1409733258.595434938
1 - 1409733258.695390378
1 - 1409733258.795392480
1 - 1409733258.895494604
1 - 1409733258.995419253
1 - 1409733259.095470028
1 - 1409733259.195403081
1 - 1409733259.295356089
1 - 1409733259.395364026
1 - 1409733259.495343431
1 - 1409733259.595467839
1 - 1409733259.695401504
1 - 1409733259.795421539
1 - 1409733259.895354007
1 - 1409733259.995442130
1 - 1409733260.095430611
1 - 1409733260.195433132
1 - 1409733260.295381181
1 - 1409733260.395467403
1 - 1409733260.495420570
1 - 1409733260.595393233
1 - 1409733260.695361739
1 - 1409733260.795320078
1 - 1409733260.895408669
1 - 1409733260.995381270
1 - 1409733261.095343377
1 - 1409733261.195377184
1 - 1409733261.295350278
1 - 1409733261.395362021
1 - 1409733261.495341313
1 - 1409733261.595368719
1 - 1409733261.695431811
1 - 1409733261.795388472
1 - 1409733261.895319844
1 - 1409733261.995326994
1 - 1409733262.095427881
1 - 1409733262.195424365
1 - 1409733262.295404989
1 - 1409733262.395378089
1 - 1409733262.495407971
1 - 1409733262.595379448
1 - 1409733262.695320647
1 - 1409733262.795457869
1 - 1409733262.895387629
1 - 1409733262.995341274
1 - 1409733263.095395527
1 - 1409733263.195507484
1 - 1409733263.295495329
1 - 1409733263.395391687
1 - 1409733263.495423376
1 - 1409733263.595408166
1 - 1409733263.695405836
1 - 1409733263.795409419
1 - 1409733263.895325065
1 - 1409733263.995406108
1 - 1409733264.095429568
1 - 1409733264.195417656
1 - 1409733264.295473418
1 - 1409733264.395430032
1 - 1409733264.495333675
1 - 1409733264.595409299
1 - 1409733264.695391700
1 - 1409733264.795331423
1 - 1409733264.895320085
1 - 1409733264.995413090
1 - 1409733265.095301219
1 - 1409733265.195339499
1 - 1409733265.295329941
1 - 1409733265.395406385
1 - 1409733265.495331210
1 - 1409733265.595406651
1 - 1409733265.695371530
1 - 1409733265.795291911
1 - 1409733265.895449369
1 - 1409733265.995376944
1 - 1409733266.095355938
1 - 1409733266.195419519
1 - 1409733266.295346959
1 - 1409733266.395435723
1 - 1409733266.495331140
1 - 1409733266.595336756
1 - 1409733266.695361492
1 - 1409733266.795364417
1 - 1409733266.895477498
1 - 1409733266.995353610
1 - 1409733267.095463346
1 - 1409733267.195360561
1 - 1409733267.295419764
1 - 1409733267.395410974
1 - 1409733267.495477102
1 - 1409733267.595474092
1 - 1409733267.695406818
1 - 1409733267.795598863
1 - 1409733267.895491838
1 - 1409733267.995460035
1 - 1409733268.095312445
1 - 1409733268.195354380
1 - 1409733268.295346479
1 - 1409733268.395469751
1 - 1409733268.495737620
1 - 1409733268.595554209
1 - 1409733268.695430441
1 - 1409733268.795417985
1 - 1409733268.895430277
1 - 1409733268.995334248
1 - 1409733269.095550976
1 - 1409733269.195574549
1 - 1409733269.295455722
1 - 1409733269.395358809
1 - 1409733269.495387704
1 - 1409733269.595331658
1 - 1409733269.695339712
1 - 1409733269.795390211
1 - 1409733269.895356808
1 - 1409733269.995338017
1 - 1409733270.095341897
1 - 1409733270.195345325
1 - 1409733270.295363319
1 - 1409733270.395400335
1 - 1409733270.495355627
1 - 1409733270.595416212
1 - 1409733270.695428800
1 - 1409733270.795414781
1 - 1409733270.895384368
1 - 1409733270.995439136
1 - 1409733271.095384914
1 - 1409733271.195334045
1 - 1409733271.295379369
1 - 1409733271.395388982
1 - 1409733271.495650171
1 - 1409733271.595362602
1 - 1409733271.695351914
1 - 1409733271.795419754
1 - 1409733271.895500077
1 - 1409733271.995397368
1 - 1409733272.095407357
1 - 1409733272.195417756
1 - 1409733272.295424605
1 - 1409733272.395348403
1 - 1409733272.495324747
1 - 1409733272.595332717
1 - 1409733272.695412007
1 - 1409733272.795345222
1 - 1409733272.895376403
0 - 1409733272.995222265
0 - 1409733273.095200732
0 - 1409733273.195194853
0 - 1409733273.295189094
0 - 1409733273.395148778
0 - 1409733273.495151851
0 - 1409733273.595170491
0 - 1409733273.695295731
1 - 1409733273.795411202
0 - 1409733273.895176859
0 - 1409733273.995174035
0 - 1409733274.095154964
0 - 1409733274.195125775
0 - 1409733274.295192160
0 - 1409733274.395185683
0 - 1409733274.495192284
0 - 1409733274.595294001
0 - 1409733274.695297027
0 - 1409733274.795289600
0 - 1409733274.895292960
0 - 1409733274.995260526
1 - 1409733275.095316681
1 - 1409733275.195454174
1 - 1409733275.295355820
1 - 1409733275.395321839
1 - 1409733275.495348964
1 - 1409733275.595330633
1 - 1409733275.695328204
1 - 1409733275.795380089
1 - 1409733275.895331693
1 - 1409733275.995449374
1 - 1409733276.095499724
1 - 1409733276.195434205
1 - 1409733276.295337201
1 - 1409733276.395419882
1 - 1409733276.495384829
1 - 1409733276.595459596
1 - 1409733276.695457269
1 - 1409733276.795442837
1 - 1409733276.895414846
1 - 1409733276.995330769
1 - 1409733277.095345032
1 - 1409733277.195433175
1 - 1409733277.295381966
1 - 1409733277.395349293
1 - 1409733277.495368821
1 - 1409733277.595330070
1 - 1409733277.695455649
1 - 1409733277.795319434
1 - 1409733277.895417781
1 - 1409733277.995330440
1 - 1409733278.095293856
1 - 1409733278.195337083
1 - 1409733278.295387585
1 - 1409733278.395323765
1 - 1409733278.495358361
1 - 1409733278.595356371
1 - 1409733278.695351026
1 - 1409733278.795390393
1 - 1409733278.895355012
1 - 1409733278.995365224
1 - 1409733279.095417631
1 - 1409733279.195385832
1 - 1409733279.295381888
1 - 1409733279.395339635
1 - 1409733279.495397821
1 - 1409733279.595394087
1 - 1409733279.695588112
1 - 1409733279.795318546
1 - 1409733279.895435354
1 - 1409733279.995381347
1 - 1409733280.095495623
1 - 1409733280.195348327
1 - 1409733280.295400850
1 - 1409733280.395533840
1 - 1409733280.495474626
1 - 1409733280.595353967
1 - 1409733280.695360508
1 - 1409733280.795445473
1 - 1409733280.895345083
1 - 1409733280.995335848
1 - 1409733281.095321390
1 - 1409733281.195451216
1 - 1409733281.295449088
1 - 1409733281.395320445
1 - 1409733281.495381759
1 - 1409733281.595343805
1 - 1409733281.695347501
1 - 1409733281.795357365
1 - 1409733281.895385229
1 - 1409733281.995486968
1 - 1409733282.095441501
1 - 1409733282.195426617
1 - 1409733282.295366685
1 - 1409733282.395352688
1 - 1409733282.495389873
1 - 1409733282.595359946
1 - 1409733282.695361852
1 - 1409733282.795341986
1 - 1409733282.895404612
1 - 1409733282.995509177
1 - 1409733283.095358147
1 - 1409733283.195359189
1 - 1409733283.295428618
1 - 1409733283.395381797
1 - 1409733283.495397561
1 - 1409733283.595448727
1 - 1409733283.695365923
1 - 1409733283.795418529
1 - 1409733283.895382022
1 - 1409733283.995314244
1 - 1409733284.095377937
1 - 1409733284.195358083
1 - 1409733284.295448433
1 - 1409733284.395444458
1 - 1409733284.495790121
1 - 1409733284.595358714
1 - 1409733284.695441592
1 - 1409733284.795403678
1 - 1409733284.895395232
1 - 1409733284.995527128
1 - 1409733285.095386014
1 - 1409733285.195307495
1 - 1409733285.295477060
1 - 1409733285.395328697
1 - 1409733285.495350855
1 - 1409733285.595363723
1 - 1409733285.695298362
1 - 1409733285.795413048
1 - 1409733285.895343395
1 - 1409733285.995366093
1 - 1409733286.095339339
1 - 1409733286.195432824
1 - 1409733286.295369640
1 - 1409733286.395439660
1 - 1409733286.495520693
1 - 1409733286.595409941
1 - 1409733286.695350765
1 - 1409733286.795344837
1 - 1409733286.895343048
1 - 1409733286.995369174
1 - 1409733287.095419074
1 - 1409733287.195453509
1 - 1409733287.295466139
1 - 1409733287.395423114
1 - 1409733287.495352275
1 - 1409733287.595387839
1 - 1409733287.695357932
1 - 1409733287.795426911
1 - 1409733287.895451183
1 - 1409733287.995480409
1 - 1409733288.095529840
1 - 1409733288.195457697
1 - 1409733288.295472673
1 - 1409733288.395373155
1 - 1409733288.495327882
1 - 1409733288.595299403
1 - 1409733288.695368853
1 - 1409733288.795493294
1 - 1409733288.895357704
1 - 1409733288.995422849
1 - 1409733289.095361164
1 - 1409733289.195869680
1 - 1409733289.295369115
1 - 1409733289.395368830
1 - 1409733289.495389492
1 - 1409733289.595374077
1 - 1409733289.695414810
1 - 1409733289.795389548
1 - 1409733289.895437029
1 - 1409733289.995471429
1 - 1409733290.095561316
1 - 1409733290.195454949
1 - 1409733290.295402298
1 - 1409733290.395401055
1 - 1409733290.495395175
1 - 1409733290.595410543
1 - 1409733290.695440853
1 - 1409733290.795451569
1 - 1409733290.895357037
1 - 1409733290.995348165
1 - 1409733291.095357219
1 - 1409733291.195401473
1 - 1409733291.295320383
1 - 1409733291.395383891
1 - 1409733291.495410408
1 - 1409733291.595325391
1 - 1409733291.695413099
1 - 1409733291.795351474
1 - 1409733291.895331538
1 - 1409733291.995374071
1 - 1409733292.095454028
1 - 1409733292.195455849
1 - 1409733292.295356389
1 - 1409733292.395396955
1 - 1409733292.495384002
1 - 1409733292.595442212
1 - 1409733292.695326976
1 - 1409733292.795354867
1 - 1409733292.895495513
1 - 1409733292.995508258
1 - 1409733293.095361402
1 - 1409733293.195493564
1 - 1409733293.295401916
1 - 1409733293.395416091
1 - 1409733293.495346682
1 - 1409733293.595335590
1 - 1409733293.695334650
1 - 1409733293.795464191
1 - 1409733293.895374711
1 - 1409733293.995329908
1 - 1409733294.095485436
1 - 1409733294.195415961
1 - 1409733294.295481816
1 - 1409733294.395358918
1 - 1409733294.495398845
1 - 1409733294.595378834
1 - 1409733294.695520097
1 - 1409733294.795378247
1 - 1409733294.895312863
1 - 1409733294.995333789
1 - 1409733295.095377104
1 - 1409733295.195398812
1 - 1409733295.295332747
1 - 1409733295.395352173
1 - 1409733295.495441963
1 - 1409733295.595369664
1 - 1409733295.695426703
1 - 1409733295.795338880
1 - 1409733295.895382390
1 - 1409733295.995378289
1 - 1409733296.095398437
1 - 1409733296.195334476
1 - 1409733296.295421492
1 - 1409733296.395360738
1 - 1409733296.495414347
1 - 1409733296.595443934
1 - 1409733296.695349630
1 - 1409733296.795344390
1 - 1409733296.895327191
1 - 1409733296.995355426
1 - 1409733297.095443989
1 - 1409733297.195449488
1 - 1409733297.295384064
1 - 1409733297.395463657
1 - 1409733297.495454442
1 - 1409733297.595293021
1 - 1409733297.695366029
1 - 1409733297.795404490
1 - 1409733297.895325739
1 - 1409733297.995426003
1 - 1409733298.095331421
1 - 1409733298.195800280
1 - 1409733298.295399490
1 - 1409733298.395340967
1 - 1409733298.495438556
1 - 1409733298.595324755
1 - 1409733298.695454101
1 - 1409733298.795357740
1 - 1409733298.895440338
1 - 1409733298.995344395
1 - 1409733299.095328526
1 - 1409733299.195353012
1 - 1409733299.295363096
1 - 1409733299.395418114
1 - 1409733299.495431462
1 - 1409733299.595340942
1 - 1409733299.695541055
1 - 1409733299.795414277
1 - 1409733299.895367265
1 - 1409733299.995376951
1 - 1409733300.095378449
1 - 1409733300.195376793
1 - 1409733300.295410842
1 - 1409733300.395494253
1 - 1409733300.495348610
1 - 1409733300.595354623
1 - 1409733300.695427925
1 - 1409733300.795353034
1 - 1409733300.895338819
1 - 1409733300.995435765
1 - 1409733301.095357723
1 - 1409733301.195327589
1 - 1409733301.295479657
1 - 1409733301.395491489
1 - 1409733301.495416736
1 - 1409733301.595338357
1 - 1409733301.695429043
1 - 1409733301.795350098
1 - 1409733301.895409227
1 - 1409733301.995372788
1 - 1409733302.095345089
1 - 1409733302.195429450
1 - 1409733302.295316147
1 - 1409733302.395397869
1 - 1409733302.495343429
1 - 1409733302.595466733
1 - 1409733302.695469193
1 - 1409733302.795489089
1 - 1409733302.895402642
1 - 1409733302.995336229
1 - 1409733303.095347940
1 - 1409733303.195414729
1 - 1409733303.295324690
1 - 1409733303.395342617
1 - 1409733303.495653561
1 - 1409733303.595296845
1 - 1409733303.695529853
1 - 1409733303.795474191
1 - 1409733303.895331963
1 - 1409733303.995396017
1 - 1409733304.095322261
1 - 1409733304.195327847
1 - 1409733304.295349975
1 - 1409733304.395336675
1 - 1409733304.495340712
1 - 1409733304.595344090
1 - 1409733304.695332092
1 - 1409733304.795441021
1 - 1409733304.895385985
1 - 1409733304.995334136
1 - 1409733305.095348209
1 - 1409733305.195416202
1 - 1409733305.295446465
1 - 1409733305.395394527
1 - 1409733305.495458965
1 - 1409733305.595371345
1 - 1409733305.695477583
1 - 1409733305.795369861
1 - 1409733305.895594508
1 - 1409733305.995528593
1 - 1409733306.095514837
1 - 1409733306.195438437
1 - 1409733306.295420249
1 - 1409733306.395330602
1 - 1409733306.495359413
1 - 1409733306.595345053
1 - 1409733306.695382973
1 - 1409733306.795398226
1 - 1409733306.895324705
1 - 1409733306.995394555
1 - 1409733307.095607397
1 - 1409733307.195518406
1 - 1409733307.295445016
1 - 1409733307.395398690
1 - 1409733307.495480253
1 - 1409733307.595328508
1 - 1409733307.695336717
1 - 1409733307.795476762
1 - 1409733307.895344194
1 - 1409733307.995533875
1 - 1409733308.095446063
1 - 1409733308.195358392
1 - 1409733308.295410981
1 - 1409733308.395334212
1 - 1409733308.495416248
1 - 1409733308.595515082
1 - 1409733308.695384000
1 - 1409733308.795416929
1 - 1409733308.895433948
1 - 1409733308.995362130
1 - 1409733309.095360961
1 - 1409733309.195333316
1 - 1409733309.295281755
1 - 1409733309.395346621
1 - 1409733309.495378443
1 - 1409733309.595333228
1 - 1409733309.695475902
1 - 1409733309.795396093
1 - 1409733309.895330450
1 - 1409733309.995404653
1 - 1409733310.095469843
1 - 1409733310.195396037
1 - 1409733310.295398101
1 - 1409733310.395344105
1 - 1409733310.495371481
1 - 1409733310.595382441
1 - 1409733310.695387724
1 - 1409733310.795344007
1 - 1409733310.895350965
1 - 1409733310.995345426
1 - 1409733311.095383416
1 - 1409733311.195340168
1 - 1409733311.295389667
1 - 1409733311.395400152
1 - 1409733311.495375958
1 - 1409733311.595384506
1 - 1409733311.695400206
1 - 1409733311.795520878
1 - 1409733311.895347807
1 - 1409733311.995392482
1 - 1409733312.095500132
1 - 1409733312.195410571
1 - 1409733312.295339452
1 - 1409733312.395403809
1 - 1409733312.495357393
1 - 1409733312.595386022
1 - 1409733312.695456193
1 - 1409733312.795359289
1 - 1409733312.895350254
1 - 1409733312.995397500
1 - 1409733313.095393665
1 - 1409733313.195388198
1 - 1409733313.295457111
1 - 1409733313.395390078
1 - 1409733313.495363603
1 - 1409733313.595379185
1 - 1409733313.695391000
1 - 1409733313.795421342
1 - 1409733313.895378750
1 - 1409733313.995381895
1 - 1409733314.095386211
1 - 1409733314.195379651
1 - 1409733314.295327970
1 - 1409733314.395438162
1 - 1409733314.495463155
1 - 1409733314.595435142
1 - 1409733314.695365331
1 - 1409733314.795370805
1 - 1409733314.895342167
1 - 1409733314.995278224
1 - 1409733315.095370247
1 - 1409733315.195340528
1 - 1409733315.295336168
1 - 1409733315.395435376
1 - 1409733315.495440272
1 - 1409733315.595362513
1 - 1409733315.695446998
1 - 1409733315.795945766
1 - 1409733315.895414239
1 - 1409733315.995316302
1 - 1409733316.095309978
1 - 1409733316.195410193
1 - 1409733316.295386026
1 - 1409733316.395340724
1 - 1409733316.495378457
1 - 1409733316.595453787
1 - 1409733316.695415592
0 - 1409733316.795367760
1 - 1409733316.895427493
1 - 1409733316.996055292
1 - 1409733317.095355053
1 - 1409733317.195450750
1 - 1409733317.295338133
1 - 1409733317.395341388
1 - 1409733317.495353004
1 - 1409733317.595345043
1 - 1409733317.695636538
1 - 1409733317.795434940
1 - 1409733317.895330909
1 - 1409733317.995283351
1 - 1409733318.095333515
1 - 1409733318.195347661
1 - 1409733318.295359148
1 - 1409733318.395557581
1 - 1409733318.495419295
1 - 1409733318.595873148
1 - 1409733318.695438716
1 - 1409733318.795335496
1 - 1409733318.895329048
1 - 1409733318.995379477
1 - 1409733319.095338224
1 - 1409733319.195520693
1 - 1409733319.295351516
1 - 1409733319.395350724
1 - 1409733319.495503653
1 - 1409733319.595355496
1 - 1409733319.695369052
1 - 1409733319.795451462
1 - 1409733319.895376259
1 - 1409733319.995398593
1 - 1409733320.095344812
1 - 1409733320.195444016
1 - 1409733320.295329528
1 - 1409733320.395348709
1 - 1409733320.495325504
1 - 1409733320.595431709
1 - 1409733320.695306314
1 - 1409733320.795352375
1 - 1409733320.895362744
1 - 1409733320.995349387
1 - 1409733321.095303784
1 - 1409733321.195327935
1 - 1409733321.295448181
1 - 1409733321.395330990
1 - 1409733321.495521536
1 - 1409733321.595379281
1 - 1409733321.695392218
1 - 1409733321.795470365
1 - 1409733321.895355620
1 - 1409733321.995479171
1 - 1409733322.095334837
1 - 1409733322.195392084
1 - 1409733322.295436650
1 - 1409733322.395456190
1 - 1409733322.495356410
1 - 1409733322.595393353
1 - 1409733322.695409362
1 - 1409733322.795294647
1 - 1409733322.895348602
1 - 1409733322.995380156
1 - 1409733323.095367494
1 - 1409733323.195431077
1 - 1409733323.295314553
1 - 1409733323.395388943
1 - 1409733323.495407636
1 - 1409733323.595437008
1 - 1409733323.695513108
1 - 1409733323.795379385
1 - 1409733323.895333280
1 - 1409733323.995349328
1 - 1409733324.095469443
1 - 1409733324.195337329
1 - 1409733324.295333159
1 - 1409733324.395443703
1 - 1409733324.495502499
1 - 1409733324.595312609
1 - 1409733324.695399825
1 - 1409733324.795417064
1 - 1409733324.895468087
1 - 1409733324.995405814
1 - 1409733325.095514337
1 - 1409733325.195332598
1 - 1409733325.295437173
1 - 1409733325.395525984
1 - 1409733325.495396118
1 - 1409733325.595374131
1 - 1409733325.695335287
1 - 1409733325.795383998
1 - 1409733325.895347270
1 - 1409733325.995351202
1 - 1409733326.095349964
1 - 1409733326.195328959
1 - 1409733326.295367727
1 - 1409733326.395348625
1 - 1409733326.495535612
1 - 1409733326.595337361
1 - 1409733326.695338374
1 - 1409733326.795332280
1 - 1409733326.895482789
1 - 1409733326.995279528
1 - 1409733327.095297227
1 - 1409733327.195446356
1 - 1409733327.295415043
1 - 1409733327.395345866
1 - 1409733327.495344444
1 - 1409733327.595347997
1 - 1409733327.695441087
1 - 1409733327.795388360
1 - 1409733327.895520921
1 - 1409733327.995374339
1 - 1409733328.095330857
1 - 1409733328.195334253
1 - 1409733328.295375704
1 - 1409733328.395294917
1 - 1409733328.495350965
1 - 1409733328.595373525
1 - 1409733328.695431938
1 - 1409733328.795330846
1 - 1409733328.895374987
1 - 1409733328.995338957
1 - 1409733329.095362322
1 - 1409733329.195453571
1 - 1409733329.295334127
1 - 1409733329.395410416
1 - 1409733329.495347802
1 - 1409733329.595516123
1 - 1409733329.695445614
1 - 1409733329.795376677
1 - 1409733329.895326034
1 - 1409733329.995336992
1 - 1409733330.095383905
1 - 1409733330.195280726
1 - 1409733330.295469147
1 - 1409733330.395319123
1 - 1409733330.495412356
1 - 1409733330.595360949
1 - 1409733330.695383940
1 - 1409733330.795628310
1 - 1409733330.895334068
1 - 1409733330.995386787
1 - 1409733331.095395378
1 - 1409733331.195362100
1 - 1409733331.295424683
1 - 1409733331.395337808
1 - 1409733331.495440657
1 - 1409733331.595434264
1 - 1409733331.695341191
1 - 1409733331.795325357
1 - 1409733331.895359995
1 - 1409733331.995442303
1 - 1409733332.095329133
1 - 1409733332.195565780
1 - 1409733332.295331024
1 - 1409733332.395475404
1 - 1409733332.495459922
1 - 1409733332.595359317
1 - 1409733332.695422966
1 - 1409733332.795387815
1 - 1409733332.895364453
1 - 1409733332.995372623
1 - 1409733333.095330450
1 - 1409733333.195349698
1 - 1409733333.295344894
1 - 1409733333.395414886
1 - 1409733333.495286608
1 - 1409733333.595371920
1 - 1409733333.695407869
1 - 1409733333.795459869
1 - 1409733333.895394641
1 - 1409733333.995470981
1 - 1409733334.095433460
1 - 1409733334.195385961
1 - 1409733334.295327374
1 - 1409733334.395368563
1 - 1409733334.495360512
1 - 1409733334.595328591
1 - 1409733334.695351338
1 - 1409733334.795346400
1 - 1409733334.895319373
1 - 1409733334.995352274
1 - 1409733335.095293333
1 - 1409733335.195340675
1 - 1409733335.295330339
1 - 1409733335.395335546
1 - 1409733335.495382884
1 - 1409733335.595405080
1 - 1409733335.695373793
1 - 1409733335.795350019
1 - 1409733335.895369532
1 - 1409733335.995326540
1 - 1409733336.095408633
1 - 1409733336.195333231
1 - 1409733336.295446931
1 - 1409733336.395383971
1 - 1409733336.495427428
1 - 1409733336.595491325
1 - 1409733336.695417417
1 - 1409733336.795383402
1 - 1409733336.895361376
1 - 1409733336.995385756
1 - 1409733337.095363114
1 - 1409733337.195426469
1 - 1409733337.295348009
1 - 1409733337.395435277
1 - 1409733337.495355752
1 - 1409733337.595297916
1 - 1409733337.695363328
1 - 1409733337.795451365
1 - 1409733337.895333090
1 - 1409733337.995352452
1 - 1409733338.095362838
1 - 1409733338.195397514
1 - 1409733338.295332088
1 - 1409733338.395328931
1 - 1409733338.495381495
1 - 1409733338.595378863
1 - 1409733338.695433264
1 - 1409733338.795406756
1 - 1409733338.895419050
1 - 1409733338.995343311
1 - 1409733339.095341805
1 - 1409733339.195418734
1 - 1409733339.295376809
1 - 1409733339.395401398
1 - 1409733339.495443074
1 - 1409733339.595422902
1 - 1409733339.695351181
1 - 1409733339.795333946
1 - 1409733339.895759573
1 - 1409733339.995401209
1 - 1409733340.095388408
1 - 1409733340.195371278
1 - 1409733340.295334763
1 - 1409733340.395425044
1 - 1409733340.495400241
1 - 1409733340.595497477
1 - 1409733340.695361172
1 - 1409733340.795299919
1 - 1409733340.895531358
1 - 1409733340.995564247
1 - 1409733341.095350626
1 - 1409733341.195471104
1 - 1409733341.295670586
1 - 1409733341.395357630
1 - 1409733341.495428638
1 - 1409733341.595363541
1 - 1409733341.695352545
1 - 1409733341.795378958
1 - 1409733341.895424759
1 - 1409733341.995372354
1 - 1409733342.095393561
1 - 1409733342.195353277
1 - 1409733342.295334932
1 - 1409733342.395407830
1 - 1409733342.495421841
1 - 1409733342.595352834
1 - 1409733342.695352245
1 - 1409733342.795328604
1 - 1409733342.895382424
1 - 1409733342.995321697
1 - 1409733343.095490351
1 - 1409733343.195451144
1 - 1409733343.295407085
1 - 1409733343.395347448
1 - 1409733343.495363517
1 - 1409733343.595368380
1 - 1409733343.695330840
1 - 1409733343.795428622
1 - 1409733343.895351322
1 - 1409733343.995356150
1 - 1409733344.095371686
1 - 1409733344.195377034
1 - 1409733344.295372423
1 - 1409733344.395351056
1 - 1409733344.495353273
1 - 1409733344.595411454
1 - 1409733344.695465623
1 - 1409733344.795339838
1 - 1409733344.895400641
1 - 1409733344.995466961
1 - 1409733345.095348335
1 - 1409733345.195428576
1 - 1409733345.295370294
1 - 1409733345.395442579
1 - 1409733345.495356788
1 - 1409733345.595547185
1 - 1409733345.695414462
1 - 1409733345.795365188
1 - 1409733345.895495938
1 - 1409733345.995391366
1 - 1409733346.095410849
1 - 1409733346.195424799
1 - 1409733346.295335864
1 - 1409733346.395373038
1 - 1409733346.495334931
1 - 1409733346.595363599
1 - 1409733346.695437292
1 - 1409733346.795477053
1 - 1409733346.895517034
1 - 1409733346.995455540
1 - 1409733347.095334629
1 - 1409733347.195439349
1 - 1409733347.295376103
1 - 1409733347.395291232
1 - 1409733347.495442118
1 - 1409733347.595386097
1 - 1409733347.695463087
1 - 1409733347.795351949
1 - 1409733347.895357624
1 - 1409733347.995357318
1 - 1409733348.095358821
1 - 1409733348.195350999
1 - 1409733348.295343990
1 - 1409733348.395366940
1 - 1409733348.495466732
1 - 1409733348.595430770
1 - 1409733348.695446658
1 - 1409733348.795529802
1 - 1409733348.895415469
1 - 1409733348.995283294
1 - 1409733349.095431436
1 - 1409733349.195321951
1 - 1409733349.295466663
1 - 1409733349.395337642
1 - 1409733349.495528679
1 - 1409733349.595479522
1 - 1409733349.695473752
1 - 1409733349.795332094
1 - 1409733349.895355961
1 - 1409733349.995333560
1 - 1409733350.095365562
1 - 1409733350.195332086
1 - 1409733350.295410663
1 - 1409733350.395436047
1 - 1409733350.495403894
1 - 1409733350.595338104
1 - 1409733350.695423087
1 - 1409733350.795476064
1 - 1409733350.895394728
1 - 1409733350.995436747
1 - 1409733351.095409755
1 - 1409733351.195425185
1 - 1409733351.295387360
1 - 1409733351.395399667
1 - 1409733351.495369692
1 - 1409733351.595383296
1 - 1409733351.695632267
1 - 1409733351.795338753
1 - 1409733351.895317738
1 - 1409733351.995316316
1 - 1409733352.095361366
1 - 1409733352.195338290
1 - 1409733352.295369055
1 - 1409733352.395446748
1 - 1409733352.495331934
1 - 1409733352.595370060
1 - 1409733352.695323224
1 - 1409733352.795391179
1 - 1409733352.895357537
1 - 1409733352.995470257
1 - 1409733353.095459807
1 - 1409733353.195351402
1 - 1409733353.295452168
1 - 1409733353.395425073
1 - 1409733353.495413989
1 - 1409733353.595430274
1 - 1409733353.695913534
1 - 1409733353.795439566
1 - 1409733353.895440802
1 - 1409733353.995356966
1 - 1409733354.095361072
1 - 1409733354.195476464
1 - 1409733354.295328867
1 - 1409733354.395442054
1 - 1409733354.495413778
1 - 1409733354.595341534
1 - 1409733354.695525534
1 - 1409733354.795374767
1 - 1409733354.895380284
1 - 1409733354.995408232
1 - 1409733355.095368274
1 - 1409733355.195333048
1 - 1409733355.295326145
1 - 1409733355.395414083
1 - 1409733355.495379889
1 - 1409733355.595424104
1 - 1409733355.695466232
1 - 1409733355.795361844
1 - 1409733355.895431531
1 - 1409733355.995340714
0 - 1409733356.095166365
0 - 1409733356.195161914
0 - 1409733356.295134765
0 - 1409733356.395161105
0 - 1409733356.495223275
0 - 1409733356.595190544
0 - 1409733356.695283510
1 - 1409733356.795382263
0 - 1409733356.895213398
0 - 1409733356.995207292
0 - 1409733357.095193203
0 - 1409733357.195125581
0 - 1409733357.295191635
0 - 1409733357.395187289
0 - 1409733357.495207648
0 - 1409733357.595192214
0 - 1409733357.695305241
0 - 1409733357.795307200
0 - 1409733357.895308940
0 - 1409733357.995326810
1 - 1409733358.095321451
1 - 1409733358.195358362
1 - 1409733358.295489737
1 - 1409733358.395320586
1 - 1409733358.495396824
1 - 1409733358.595331428
1 - 1409733358.695402692
1 - 1409733358.795341034
1 - 1409733358.895386382
1 - 1409733358.995433396
1 - 1409733359.095333969
1 - 1409733359.195332911
1 - 1409733359.295322098
1 - 1409733359.395417640
1 - 1409733359.495357673
1 - 1409733359.595358199
1 - 1409733359.695328894
1 - 1409733359.795473839
1 - 1409733359.895357518
1 - 1409733359.995434105
1 - 1409733360.095546251
1 - 1409733360.195392752
1 - 1409733360.295444735
1 - 1409733360.395458256
1 - 1409733360.495359018
1 - 1409733360.595362784
1 - 1409733360.695319829
1 - 1409733360.795369474
1 - 1409733360.895435936
1 - 1409733360.995412796
1 - 1409733361.095334018
1 - 1409733361.195375219
1 - 1409733361.295427242
1 - 1409733361.395333771
1 - 1409733361.495350689
1 - 1409733361.595390260
1 - 1409733361.695400840
1 - 1409733361.795498081
1 - 1409733361.895382536
1 - 1409733361.995311186
1 - 1409733362.095412228
1 - 1409733362.195372232
1 - 1409733362.295330958
1 - 1409733362.395457448
1 - 1409733362.495380093
1 - 1409733362.595402376
1 - 1409733362.695399589
1 - 1409733362.795323652
1 - 1409733362.895515323
1 - 1409733362.995451280
1 - 1409733363.095546468
1 - 1409733363.195329103
1 - 1409733363.295344250
1 - 1409733363.395368183
1 - 1409733363.495402853
1 - 1409733363.595405540
1 - 1409733363.695353942
1 - 1409733363.795382826
1 - 1409733363.895384687
1 - 1409733363.995364861
1 - 1409733364.095421428
1 - 1409733364.195402530
1 - 1409733364.295365056
1 - 1409733364.395406967
1 - 1409733364.495419426
1 - 1409733364.595423627
1 - 1409733364.695353154
1 - 1409733364.795435177
1 - 1409733364.895404825
1 - 1409733364.995361560
1 - 1409733365.095353406
1 - 1409733365.195713445
1 - 1409733365.295336410
1 - 1409733365.395418395
1 - 1409733365.495325378
1 - 1409733365.595605362
1 - 1409733365.695377769
1 - 1409733365.795351139
1 - 1409733365.895379725
1 - 1409733365.995366840
1 - 1409733366.095401792
1 - 1409733366.195326210
1 - 1409733366.295362468
1 - 1409733366.395454159
1 - 1409733366.495353415
1 - 1409733366.595316902
1 - 1409733366.695410252
1 - 1409733366.795447190
1 - 1409733366.895366337
1 - 1409733366.995465735
1 - 1409733367.095368824
1 - 1409733367.195412488
1 - 1409733367.295433780
1 - 1409733367.395425312
1 - 1409733367.495348524
1 - 1409733367.595366332
1 - 1409733367.695385285
1 - 1409733367.795449727
1 - 1409733367.895394427
1 - 1409733367.995322855
1 - 1409733368.095450093
1 - 1409733368.195435892
1 - 1409733368.295349889
1 - 1409733368.395383006
1 - 1409733368.495530466
1 - 1409733368.595337854
1 - 1409733368.695325062
1 - 1409733368.795408317
1 - 1409733368.895358060
1 - 1409733368.995485952
1 - 1409733369.095337858
1 - 1409733369.195345584
1 - 1409733369.295360259
1 - 1409733369.395367786
1 - 1409733369.495974914
1 - 1409733369.595398345
1 - 1409733369.695449436
1 - 1409733369.795329791
1 - 1409733369.895451644
1 - 1409733369.995328236
1 - 1409733370.095361069
1 - 1409733370.195339005
1 - 1409733370.295327358
1 - 1409733370.395421126
1 - 1409733370.495359478
1 - 1409733370.595361467
1 - 1409733370.695367416
1 - 1409733370.795368992
1 - 1409733370.895459083
1 - 1409733370.995427042
1 - 1409733371.095434845
1 - 1409733371.195323783
1 - 1409733371.295296340
1 - 1409733371.395332835
1 - 1409733371.495386558
1 - 1409733371.595465027
1 - 1409733371.695318468
1 - 1409733371.795421465
1 - 1409733371.895430163
1 - 1409733371.995436904
1 - 1409733372.095433915
1 - 1409733372.195340434
1 - 1409733372.295425832
1 - 1409733372.395384919
1 - 1409733372.495382119
1 - 1409733372.595531329
1 - 1409733372.695411878
1 - 1409733372.795458867
1 - 1409733372.895625008
1 - 1409733372.995556785
1 - 1409733373.095408806
1 - 1409733373.195420319
1 - 1409733373.295433487
1 - 1409733373.395322583
1 - 1409733373.495385514
1 - 1409733373.595437183
1 - 1409733373.696021358
1 - 1409733373.795369682
1 - 1409733373.895405588
1 - 1409733373.995377249
1 - 1409733374.095349160
1 - 1409733374.195544030
1 - 1409733374.295348874
1 - 1409733374.395316760
1 - 1409733374.495381879
1 - 1409733374.595325081
1 - 1409733374.695389459
1 - 1409733374.795415854
1 - 1409733374.895327117
1 - 1409733374.995398778
1 - 1409733375.095350109
1 - 1409733375.195356143
1 - 1409733375.295345634
1 - 1409733375.395332628
1 - 1409733375.495336369
1 - 1409733375.595459741
1 - 1409733375.695410117
1 - 1409733375.795589544
1 - 1409733375.895411238
1 - 1409733375.995307300
1 - 1409733376.095453792
1 - 1409733376.195335909
1 - 1409733376.295442462
1 - 1409733376.395382127
1 - 1409733376.495430118
1 - 1409733376.595426681
1 - 1409733376.695444030
1 - 1409733376.795363302
1 - 1409733376.895330683
1 - 1409733376.995376041
1 - 1409733377.095406230
1 - 1409733377.195383935
1 - 1409733377.295416373
1 - 1409733377.395390689
1 - 1409733377.495490328
1 - 1409733377.595367170
1 - 1409733377.695389681
1 - 1409733377.795320303
1 - 1409733377.895513350
1 - 1409733377.995517580
1 - 1409733378.095373957
1 - 1409733378.195347888
1 - 1409733378.295321420
1 - 1409733378.395475952
1 - 1409733378.495457993
1 - 1409733378.595432854
1 - 1409733378.695377904
1 - 1409733378.795330122
1 - 1409733378.895380563
1 - 1409733378.995782862
1 - 1409733379.095333941
1 - 1409733379.195414755
1 - 1409733379.295415879
1 - 1409733379.395493285
1 - 1409733379.495438815
1 - 1409733379.595374532
1 - 1409733379.695358861
1 - 1409733379.795439507
1 - 1409733379.895417320
1 - 1409733379.995369371
1 - 1409733380.095332930
1 - 1409733380.195315695
1 - 1409733380.295369891
1 - 1409733380.395371180
1 - 1409733380.495606997
1 - 1409733380.595442600
1 - 1409733380.695344545
1 - 1409733380.795380144
1 - 1409733380.895394597
1 - 1409733380.995480791
1 - 1409733381.095493602
1 - 1409733381.195330278
1 - 1409733381.295354350
1 - 1409733381.395385546
1 - 1409733381.495414197
1 - 1409733381.595331282
1 - 1409733381.695341325
1 - 1409733381.795526381
1 - 1409733381.895358699
1 - 1409733381.995391393
1 - 1409733382.095400161
1 - 1409733382.195411458
1 - 1409733382.295393513
1 - 1409733382.395327197
1 - 1409733382.495400403
1 - 1409733382.595438728
1 - 1409733382.695327809
1 - 1409733382.795535809
1 - 1409733382.895445524
1 - 1409733382.995478641
1 - 1409733383.095400637
1 - 1409733383.195414878
1 - 1409733383.295356373
1 - 1409733383.395307669
1 - 1409733383.495360281
1 - 1409733383.595347399
1 - 1409733383.695389738
1 - 1409733383.795442539
1 - 1409733383.895501516
1 - 1409733383.995356250
1 - 1409733384.095354644
1 - 1409733384.195406572
1 - 1409733384.295410829
1 - 1409733384.395430346
1 - 1409733384.495333918
1 - 1409733384.595397686
1 - 1409733384.695315583
1 - 1409733384.795522966
1 - 1409733384.895411322
1 - 1409733384.995372799
1 - 1409733385.095463976
1 - 1409733385.195329138
1 - 1409733385.295483099
1 - 1409733385.395355022
1 - 1409733385.495436004
1 - 1409733385.595353781
1 - 1409733385.695426998
1 - 1409733385.795367633
1 - 1409733385.895387905
1 - 1409733385.995648783
1 - 1409733386.095617212
1 - 1409733386.195424500
1 - 1409733386.295390247
1 - 1409733386.395406172
1 - 1409733386.495363936
1 - 1409733386.595467598
1 - 1409733386.695446721
1 - 1409733386.795330869
1 - 1409733386.895421299
1 - 1409733386.995420970
1 - 1409733387.095445584
1 - 1409733387.195357750
1 - 1409733387.295424665
1 - 1409733387.395406605
1 - 1409733387.495376601
1 - 1409733387.595486171
1 - 1409733387.695445778
1 - 1409733387.795320293
1 - 1409733387.895449720
1 - 1409733387.995344068
1 - 1409733388.095443687
1 - 1409733388.195318665
1 - 1409733388.295442853
1 - 1409733388.395338089
1 - 1409733388.495561567
1 - 1409733388.595517161
1 - 1409733388.695443337
1 - 1409733388.795390769
1 - 1409733388.895367639
1 - 1409733388.995394338
1 - 1409733389.095346315
1 - 1409733389.195338657
1 - 1409733389.295346486
1 - 1409733389.395370324
1 - 1409733389.495375849
1 - 1409733389.595407842
1 - 1409733389.695412247
1 - 1409733389.795327981
1 - 1409733389.895341171
1 - 1409733389.995413139
1 - 1409733390.095313850
1 - 1409733390.195369597
1 - 1409733390.295377900
1 - 1409733390.395363182
1 - 1409733390.495577435
1 - 1409733390.595427797
1 - 1409733390.695455398
1 - 1409733390.795351542
1 - 1409733390.895348528
1 - 1409733390.995368246
1 - 1409733391.095386302
1 - 1409733391.195442552
1 - 1409733391.295445297
1 - 1409733391.395386998
0 - 1409733391.495278535
0 - 1409733391.595288759
1 - 1409733391.695389436
1 - 1409733391.795379620
1 - 1409733391.895430837
1 - 1409733391.995352524
1 - 1409733392.095317615
1 - 1409733392.195417523
1 - 1409733392.295428124
1 - 1409733392.395349508
1 - 1409733392.495307298
1 - 1409733392.595344882
1 - 1409733392.695325757
1 - 1409733392.795316582
1 - 1409733392.895341638
1 - 1409733392.995392789
1 - 1409733393.095334021
1 - 1409733393.195419067
1 - 1409733393.295390057
1 - 1409733393.395485929
1 - 1409733393.495450039
1 - 1409733393.595325798
1 - 1409733393.695494938
1 - 1409733393.795403126
1 - 1409733393.895342605
1 - 1409733393.995355431
1 - 1409733394.095345451
1 - 1409733394.195391326
1 - 1409733394.295394862
1 - 1409733394.395359197
1 - 1409733394.495338505
1 - 1409733394.595343124
1 - 1409733394.695417933
1 - 1409733394.795334412
1 - 1409733394.895337037
1 - 1409733394.995336783
1 - 1409733395.095324947
1 - 1409733395.195367179
1 - 1409733395.295400740
1 - 1409733395.395395354
1 - 1409733395.495504980
1 - 1409733395.595373447
1 - 1409733395.695440596
1 - 1409733395.795530687
1 - 1409733395.895417526
1 - 1409733395.995415645
1 - 1409733396.095314381
1 - 1409733396.195320723
1 - 1409733396.295418951
1 - 1409733396.395400244
1 - 1409733396.495358749
1 - 1409733396.595354420
1 - 1409733396.695439206
1 - 1409733396.795328656
1 - 1409733396.895375997
1 - 1409733396.995493230
1 - 1409733397.095349254
1 - 1409733397.195494395
1 - 1409733397.295373581
1 - 1409733397.395335701
1 - 1409733397.495425843
1 - 1409733397.595396050
1 - 1409733397.695333947
1 - 1409733397.795496944
1 - 1409733397.895361356
1 - 1409733397.995360200
1 - 1409733398.095520945
1 - 1409733398.195370668
1 - 1409733398.295372948
1 - 1409733398.395360667
1 - 1409733398.495341738
1 - 1409733398.595328596
1 - 1409733398.695516991
1 - 1409733398.795403357
1 - 1409733398.895397504
1 - 1409733398.995431389
1 - 1409733399.095389278
1 - 1409733399.195347865
1 - 1409733399.295422940
1 - 1409733399.395338235
1 - 1409733399.495336232
1 - 1409733399.595433474
1 - 1409733399.695625146
1 - 1409733399.795431626
1 - 1409733399.895460779
1 - 1409733399.995485709
1 - 1409733400.095355742
1 - 1409733400.195431434
1 - 1409733400.295356503
1 - 1409733400.395328398
1 - 1409733400.495487579
1 - 1409733400.595378414
1 - 1409733400.695405375
1 - 1409733400.795407280
1 - 1409733400.895385933
1 - 1409733400.995297579
1 - 1409733401.095347902
1 - 1409733401.195475519
1 - 1409733401.295430948
1 - 1409733401.395293519
1 - 1409733401.495398885
1 - 1409733401.595343951
1 - 1409733401.695286226
1 - 1409733401.795420184
1 - 1409733401.895447172
1 - 1409733401.995322264
1 - 1409733402.095384866
1 - 1409733402.195433173
1 - 1409733402.295445137
1 - 1409733402.396191149
1 - 1409733402.495514271
1 - 1409733402.595424806
1 - 1409733402.695577004
1 - 1409733402.795466129
1 - 1409733402.895472901
1 - 1409733402.995364950
1 - 1409733403.095328832
1 - 1409733403.195294942
1 - 1409733403.295333140
1 - 1409733403.395364679
1 - 1409733403.495320665
1 - 1409733403.595351837
1 - 1409733403.695397572
1 - 1409733403.795523322
1 - 1409733403.895365678
1 - 1409733403.995335054
1 - 1409733404.095448051
1 - 1409733404.195344026
1 - 1409733404.295352577
1 - 1409733404.395454000
1 - 1409733404.495436856
1 - 1409733404.595326407
1 - 1409733404.695383953
1 - 1409733404.795379320
1 - 1409733404.895419019
1 - 1409733404.995355758
1 - 1409733405.095394427
1 - 1409733405.195343998
1 - 1409733405.295356893
1 - 1409733405.395394988
1 - 1409733405.495343035
1 - 1409733405.595347340
1 - 1409733405.695619911
1 - 1409733405.795384576
1 - 1409733405.895469849
1 - 1409733405.995351264
1 - 1409733406.095392830
1 - 1409733406.195427415
1 - 1409733406.295350649
1 - 1409733406.395386306
1 - 1409733406.495347862
1 - 1409733406.595343808
1 - 1409733406.695351688
1 - 1409733406.795466712
1 - 1409733406.895341721
1 - 1409733406.995347327
1 - 1409733407.095538909
1 - 1409733407.195461263
1 - 1409733407.295402718
1 - 1409733407.395350359
1 - 1409733407.495346034
1 - 1409733407.595345043
1 - 1409733407.695492640
1 - 1409733407.795402151
1 - 1409733407.895399147
1 - 1409733407.995368350
1 - 1409733408.095582099
1 - 1409733408.195364941
1 - 1409733408.295778247
1 - 1409733408.395475820
1 - 1409733408.495553974
1 - 1409733408.595459456
1 - 1409733408.695908150
1 - 1409733408.795425906
1 - 1409733408.895448533
1 - 1409733408.995413140
1 - 1409733409.095369509
1 - 1409733409.195341228
1 - 1409733409.295367369
1 - 1409733409.395381556
1 - 1409733409.495369186
1 - 1409733409.595422540
1 - 1409733409.695448304
1 - 1409733409.795443909
1 - 1409733409.896223207
1 - 1409733409.995460206
1 - 1409733410.095395781
1 - 1409733410.195343059
1 - 1409733410.295365943
1 - 1409733410.395417887
1 - 1409733410.495348719
1 - 1409733410.595393296
1 - 1409733410.695358240
1 - 1409733410.795456136
1 - 1409733410.895363919
1 - 1409733410.995402737
1 - 1409733411.095367279
1 - 1409733411.195360559
1 - 1409733411.295353962
1 - 1409733411.395360830
1 - 1409733411.495338447
1 - 1409733411.595384262
1 - 1409733411.695369829
1 - 1409733411.795348926
1 - 1409733411.895353478
1 - 1409733411.995488627
1 - 1409733412.095415655
1 - 1409733412.195449727
1 - 1409733412.295440937
1 - 1409733412.395344239
1 - 1409733412.495353743
1 - 1409733412.595520721
1 - 1409733412.695467739
1 - 1409733412.795404592
1 - 1409733412.895925422
1 - 1409733412.995337336
1 - 1409733413.095519881
1 - 1409733413.195325861
1 - 1409733413.295337425
1 - 1409733413.395363073
1 - 1409733413.495425305
1 - 1409733413.595327961
1 - 1409733413.695313945
1 - 1409733413.795427124
1 - 1409733413.895350509
1 - 1409733413.995414246
1 - 1409733414.095489481
1 - 1409733414.195587640
1 - 1409733414.295404081
1 - 1409733414.395329799
1 - 1409733414.495560162
1 - 1409733414.595365528
1 - 1409733414.695384575
1 - 1409733414.795328870
1 - 1409733414.895386443
1 - 1409733414.995325807
1 - 1409733415.095401574
1 - 1409733415.195380802
1 - 1409733415.295388068
1 - 1409733415.395341392
1 - 1409733415.495346108
1 - 1409733415.595302925
1 - 1409733415.695392654
1 - 1409733415.795327663
1 - 1409733415.895349008
1 - 1409733415.995410830
1 - 1409733416.095438985
1 - 1409733416.195330011
1 - 1409733416.295380193
1 - 1409733416.395319825
1 - 1409733416.495464114
1 - 1409733416.595430186
1 - 1409733416.695386459
1 - 1409733416.795465611
1 - 1409733416.895318811
1 - 1409733416.995361957
1 - 1409733417.095380699
1 - 1409733417.195418951
1 - 1409733417.295433167
1 - 1409733417.395402391
1 - 1409733417.495339699
1 - 1409733417.595318972
1 - 1409733417.695330750
1 - 1409733417.795361294
1 - 1409733417.895314905
1 - 1409733417.995350675
1 - 1409733418.095327568
1 - 1409733418.195357407
1 - 1409733418.295386869
1 - 1409733418.395521340
1 - 1409733418.495452351
1 - 1409733418.595339113
1 - 1409733418.696421360
1 - 1409733418.795345830
1 - 1409733418.895404148
1 - 1409733418.995526340
1 - 1409733419.095380759
1 - 1409733419.195392549
1 - 1409733419.295354960
1 - 1409733419.395433288
1 - 1409733419.495524583
1 - 1409733419.595407765
1 - 1409733419.695361542
1 - 1409733419.795346688
1 - 1409733419.895303189
1 - 1409733419.995353227
1 - 1409733420.095384422
1 - 1409733420.195296043
1 - 1409733420.295356076
1 - 1409733420.395413447
1 - 1409733420.495475272
1 - 1409733420.595351767
1 - 1409733420.695382222
1 - 1409733420.795414240
1 - 1409733420.895359150
1 - 1409733420.995328335
1 - 1409733421.095383632
1 - 1409733421.195354814
1 - 1409733421.295345208
1 - 1409733421.395357074
1 - 1409733421.495356156
1 - 1409733421.595383606
1 - 1409733421.695431162
1 - 1409733421.795466125
1 - 1409733421.895498611
1 - 1409733421.995341374
1 - 1409733422.095361501
1 - 1409733422.195455906
1 - 1409733422.295314336
1 - 1409733422.395429072
1 - 1409733422.495322528
1 - 1409733422.595481539
1 - 1409733422.695347125
1 - 1409733422.795455449
1 - 1409733422.895373990
1 - 1409733422.995420817
1 - 1409733423.095343856
1 - 1409733423.195357834
1 - 1409733423.295354765
1 - 1409733423.395460610
1 - 1409733423.495373618
1 - 1409733423.595328601
1 - 1409733423.695366092
1 - 1409733423.795398328
1 - 1409733423.895355750
1 - 1409733423.995458897
1 - 1409733424.095394064
1 - 1409733424.195362930
1 - 1409733424.295478605
1 - 1409733424.395378187
1 - 1409733424.495346687
1 - 1409733424.595354372
1 - 1409733424.695300855
1 - 1409733424.795356529
1 - 1409733424.895397848
1 - 1409733424.995404967
1 - 1409733425.095331294
1 - 1409733425.195348138
1 - 1409733425.295413431
1 - 1409733425.395426538
1 - 1409733425.495382538
1 - 1409733425.595306794
1 - 1409733425.695366441
1 - 1409733425.795388357
1 - 1409733425.895332052
1 - 1409733425.995375107
1 - 1409733426.095478140
1 - 1409733426.195355790
1 - 1409733426.295566833
1 - 1409733426.395392399
1 - 1409733426.495421414
1 - 1409733426.595352531
1 - 1409733426.695445585
1 - 1409733426.795333965
1 - 1409733426.895364642
1 - 1409733426.995348842
1 - 1409733427.095337032
1 - 1409733427.195415836
1 - 1409733427.295422422
1 - 1409733427.395417978
1 - 1409733427.495404708
1 - 1409733427.595435111
1 - 1409733427.695912198
1 - 1409733427.795466455
1 - 1409733427.895408694
1 - 1409733427.995359298
1 - 1409733428.095385981
1 - 1409733428.195348008
1 - 1409733428.295327652
1 - 1409733428.395502349
1 - 1409733428.495407218
1 - 1409733428.595415241
1 - 1409733428.695435452
1 - 1409733428.795330248
1 - 1409733428.895329402
1 - 1409733428.995424477
1 - 1409733429.095411706
1 - 1409733429.195403508
1 - 1409733429.295358070
1 - 1409733429.395493620
1 - 1409733429.495338522
1 - 1409733429.595348764
1 - 1409733429.695461013
1 - 1409733429.795388884
1 - 1409733429.895497819
1 - 1409733429.995419269
1 - 1409733430.095299645
1 - 1409733430.195371311
1 - 1409733430.295320191
1 - 1409733430.395333150
1 - 1409733430.495401832
1 - 1409733430.595364073
1 - 1409733430.695329581
1 - 1409733430.795397123
1 - 1409733430.895375298
1 - 1409733430.995360356
1 - 1409733431.095401974
1 - 1409733431.195427638
1 - 1409733431.295408364
1 - 1409733431.395294870
1 - 1409733431.495384585
1 - 1409733431.595415495
1 - 1409733431.695301724
1 - 1409733431.795342498
1 - 1409733431.895438530
1 - 1409733431.995451401
1 - 1409733432.095391735
1 - 1409733432.195365497
1 - 1409733432.295548544
1 - 1409733432.395462260
1 - 1409733432.495414271
1 - 1409733432.595365863
1 - 1409733432.695439602
1 - 1409733432.795489530
1 - 1409733432.895395358
1 - 1409733432.995332136
1 - 1409733433.095347070
1 - 1409733433.195818715
1 - 1409733433.295383123
1 - 1409733433.395367302
1 - 1409733433.495443137
1 - 1409733433.595334534
1 - 1409733433.695398085
1 - 1409733433.795362207
1 - 1409733433.895354135
1 - 1409733433.995354165
1 - 1409733434.095407323
1 - 1409733434.195382966
1 - 1409733434.295361006
1 - 1409733434.395445958
1 - 1409733434.495436001
1 - 1409733434.595384303
1 - 1409733434.695363552
1 - 1409733434.795408413
1 - 1409733434.895374378
1 - 1409733434.995327936
1 - 1409733435.095506978
1 - 1409733435.195369226
1 - 1409733435.295324080
1 - 1409733435.395318491
1 - 1409733435.495341678
1 - 1409733435.595409786
1 - 1409733435.695308461
1 - 1409733435.795312445
1 - 1409733435.895463934
1 - 1409733435.995338855
1 - 1409733436.095313042
1 - 1409733436.195407731
1 - 1409733436.295451987
1 - 1409733436.395561624
1 - 1409733436.495466699
1 - 1409733436.595438723
1 - 1409733436.695439698
1 - 1409733436.795456743
1 - 1409733436.895344553
1 - 1409733436.995337509
1 - 1409733437.095427063
1 - 1409733437.195464850
1 - 1409733437.295331890
1 - 1409733437.395661497
1 - 1409733437.495335020
1 - 1409733437.595386595
1 - 1409733437.695353244
1 - 1409733437.795499582
1 - 1409733437.895359966
1 - 1409733437.995464752
1 - 1409733438.095359642
1 - 1409733438.195358491
1 - 1409733438.295796965
1 - 1409733438.395441924
1 - 1409733438.495361498
1 - 1409733438.595427480
1 - 1409733438.695465703
1 - 1409733438.795429041
1 - 1409733438.895437002
1 - 1409733438.995411711
1 - 1409733439.095326342
1 - 1409733439.195432095
1 - 1409733439.295495303
1 - 1409733439.395514123
1 - 1409733439.495346471
1 - 1409733439.595333876
1 - 1409733439.695302305
1 - 1409733439.795374039
1 - 1409733439.895412618
1 - 1409733439.995461436
1 - 1409733440.095345379
1 - 1409733440.195375875
1 - 1409733440.295409352
0 - 1409733440.395330249
1 - 1409733440.495406936
0 - 1409733440.595291159
1 - 1409733440.695455514
1 - 1409733440.795470925
1 - 1409733440.895383382
1 - 1409733440.995435203
1 - 1409733441.095335485
1 - 1409733441.195348496
1 - 1409733441.295426700
1 - 1409733441.395495913
1 - 1409733441.495453459
1 - 1409733441.595353415
1 - 1409733441.695333570
1 - 1409733441.795389167
1 - 1409733441.895338897
1 - 1409733441.995330921
1 - 1409733442.095411565
1 - 1409733442.195305025
1 - 1409733442.295343272
1 - 1409733442.395401306
1 - 1409733442.495480488
1 - 1409733442.595348793
1 - 1409733442.695392877
1 - 1409733442.795395038
1 - 1409733442.895442279
1 - 1409733442.995385731
1 - 1409733443.095417875
1 - 1409733443.195354593
1 - 1409733443.295449233
0 - 1409733443.395315502
1 - 1409733443.495315595
1 - 1409733443.595336018
1 - 1409733443.695443790
1 - 1409733443.795428717
1 - 1409733443.895405978
1 - 1409733443.995334231
1 - 1409733444.095359039
1 - 1409733444.195345735
1 - 1409733444.295406525
1 - 1409733444.395545801
1 - 1409733444.495360389
1 - 1409733444.595430514
1 - 1409733444.695329410
1 - 1409733444.795398710
1 - 1409733444.895380342
1 - 1409733444.995328554
1 - 1409733445.095423192
1 - 1409733445.195530104
1 - 1409733445.295371022
1 - 1409733445.395432081
1 - 1409733445.495410962
1 - 1409733445.595390197
1 - 1409733445.695375588
1 - 1409733445.795394646
1 - 1409733445.895431127
1 - 1409733445.995373974
1 - 1409733446.095464631
1 - 1409733446.195345674
1 - 1409733446.295372161
1 - 1409733446.395391127
1 - 1409733446.495367918
1 - 1409733446.595483131
1 - 1409733446.695349104
1 - 1409733446.795396232
1 - 1409733446.895341495
1 - 1409733446.995390287
1 - 1409733447.095353971
1 - 1409733447.195476910
1 - 1409733447.295424639
1 - 1409733447.395489088
1 - 1409733447.495352703
1 - 1409733447.595351075
1 - 1409733447.695368108
1 - 1409733447.795425152
1 - 1409733447.895355807
1 - 1409733447.995416000
1 - 1409733448.095444958
1 - 1409733448.195446685
1 - 1409733448.295379664
1 - 1409733448.395439757
1 - 1409733448.495354218
1 - 1409733448.595437579
1 - 1409733448.695423262
1 - 1409733448.795369715
1 - 1409733448.895456028
1 - 1409733448.995339996
1 - 1409733449.095353551
1 - 1409733449.195320924
1 - 1409733449.295325206
1 - 1409733449.395327237
1 - 1409733449.495363150
1 - 1409733449.595383791
1 - 1409733449.695352249
1 - 1409733449.795358751
1 - 1409733449.895365777
1 - 1409733449.995403337
1 - 1409733450.095386741
1 - 1409733450.195423840
1 - 1409733450.295416197
1 - 1409733450.395313826
1 - 1409733450.495389535
1 - 1409733450.595436332
1 - 1409733450.695351723
1 - 1409733450.795384069
1 - 1409733450.895381326
1 - 1409733450.995386663
1 - 1409733451.095394201
1 - 1409733451.195441502
1 - 1409733451.295433010
1 - 1409733451.395339289
1 - 1409733451.495348836
1 - 1409733451.595438991
1 - 1409733451.695420135
1 - 1409733451.795368009
1 - 1409733451.895426650
1 - 1409733451.995340769
1 - 1409733452.095525511
1 - 1409733452.195422910
1 - 1409733452.295431921
1 - 1409733452.395513155
1 - 1409733452.495308663
1 - 1409733452.595443130
1 - 1409733452.695334604
1 - 1409733452.795434226
1 - 1409733452.895484192
1 - 1409733452.995354066
1 - 1409733453.095424015
1 - 1409733453.195424866
1 - 1409733453.295498927
1 - 1409733453.395496541
1 - 1409733453.495330614
1 - 1409733453.595402333
1 - 1409733453.695388480
1 - 1409733453.795430601
1 - 1409733453.895325115
1 - 1409733453.995359769
1 - 1409733454.095330212
1 - 1409733454.195431256
1 - 1409733454.295397122
1 - 1409733454.395375367
1 - 1409733454.495423878
1 - 1409733454.595381329
1 - 1409733454.695335881
1 - 1409733454.795389208
1 - 1409733454.895547436
1 - 1409733454.995415395
1 - 1409733455.095386392
1 - 1409733455.195427599
1 - 1409733455.295530932
1 - 1409733455.395386400
1 - 1409733455.495331225
1 - 1409733455.595325701
1 - 1409733455.695409696
1 - 1409733455.795321351
1 - 1409733455.895386084
1 - 1409733455.995360022
1 - 1409733456.095449292
1 - 1409733456.195426607
1 - 1409733456.295348353
1 - 1409733456.395336833
1 - 1409733456.495337143
1 - 1409733456.595335905
1 - 1409733456.695450904
1 - 1409733456.795339557
1 - 1409733456.895521536
1 - 1409733456.995431138
1 - 1409733457.095432183
1 - 1409733457.195300587
1 - 1409733457.295439765
1 - 1409733457.395381103
1 - 1409733457.495448398
1 - 1409733457.595505141
1 - 1409733457.695425544
1 - 1409733457.795542733
1 - 1409733457.895464350
1 - 1409733457.995391293
1 - 1409733458.095467916
1 - 1409733458.195391446
1 - 1409733458.295378277
1 - 1409733458.395370909
1 - 1409733458.495415138
1 - 1409733458.595511535
1 - 1409733458.695373522
1 - 1409733458.795424145
1 - 1409733458.895427397
0 - 1409733458.995166380
0 - 1409733459.095175423
0 - 1409733459.195130510
0 - 1409733459.295147124
0 - 1409733459.395205700
0 - 1409733459.495158744
0 - 1409733459.595226163
0 - 1409733459.695306270
1 - 1409733459.795442779
0 - 1409733459.895180268
0 - 1409733459.995191496
0 - 1409733460.095195009
0 - 1409733460.195185304
0 - 1409733460.295188004
0 - 1409733460.395184282
0 - 1409733460.495192254
0 - 1409733460.595295823
0 - 1409733460.695287696
0 - 1409733460.795290118
0 - 1409733460.895332683
1 - 1409733460.995387227
1 - 1409733461.095380268
1 - 1409733461.195358966
1 - 1409733461.295323514
1 - 1409733461.395404977
1 - 1409733461.495392824
1 - 1409733461.595925408
1 - 1409733461.695337172
1 - 1409733461.795381606
1 - 1409733461.895387311
1 - 1409733461.995321424
1 - 1409733462.095394923
1 - 1409733462.195457674
1 - 1409733462.295447727
1 - 1409733462.395335807
1 - 1409733462.495332957
1 - 1409733462.595374367
1 - 1409733462.695373752
1 - 1409733462.795392464
1 - 1409733462.895485707
1 - 1409733462.995340434
1 - 1409733463.095429089
1 - 1409733463.195367409
1 - 1409733463.295422588
1 - 1409733463.395355698
1 - 1409733463.495387575
1 - 1409733463.595326494
1 - 1409733463.695556048
1 - 1409733463.795361101
1 - 1409733463.895398733
1 - 1409733463.995383996
1 - 1409733464.095371873
1 - 1409733464.195350941
1 - 1409733464.295380413
1 - 1409733464.395391216
1 - 1409733464.495419680
1 - 1409733464.595705399
1 - 1409733464.695359305
1 - 1409733464.795328543
1 - 1409733464.895337880
1 - 1409733464.995489580
1 - 1409733465.095741949
1 - 1409733465.195391617
1 - 1409733465.295411463
1 - 1409733465.395370163
1 - 1409733465.495643455
1 - 1409733465.595374382
1 - 1409733465.695404738
1 - 1409733465.795309631
1 - 1409733465.895333022
1 - 1409733465.995338250
1 - 1409733466.095386089
1 - 1409733466.195435520
1 - 1409733466.295333788
1 - 1409733466.395440727
1 - 1409733466.495396250
1 - 1409733466.595405946
1 - 1409733466.695364883
1 - 1409733466.795361210
1 - 1409733466.895342340
1 - 1409733466.995295419
1 - 1409733467.095500026
1 - 1409733467.195358269
1 - 1409733467.295353633
1 - 1409733467.395331154
1 - 1409733467.495361779
1 - 1409733467.595471466
1 - 1409733467.695386945
1 - 1409733467.795449129
1 - 1409733467.895429164
1 - 1409733467.995619571
1 - 1409733468.095397302
1 - 1409733468.195434445
1 - 1409733468.295398523
1 - 1409733468.395343284
1 - 1409733468.495378067
1 - 1409733468.595413713
1 - 1409733468.695393436
1 - 1409733468.795440156
1 - 1409733468.895390033
1 - 1409733468.995413849
1 - 1409733469.095336399
1 - 1409733469.195333260
1 - 1409733469.295391852
1 - 1409733469.395429395
1 - 1409733469.495720012
1 - 1409733469.595484104
1 - 1409733469.695362921
1 - 1409733469.795402450
1 - 1409733469.895438217
1 - 1409733469.995306520
1 - 1409733470.095376950
1 - 1409733470.195358792
1 - 1409733470.295465254
1 - 1409733470.395533060
1 - 1409733470.495326826
1 - 1409733470.595485479
1 - 1409733470.695390769
1 - 1409733470.795553876
1 - 1409733470.895474700
1 - 1409733470.995408521
1 - 1409733471.095316648
1 - 1409733471.195325833
1 - 1409733471.295332005
1 - 1409733471.395421156
1 - 1409733471.495431652
1 - 1409733471.595383653
1 - 1409733471.695336297
1 - 1409733471.795408025
0 - 1409733471.895272518
1 - 1409733471.995389643
1 - 1409733472.095482225
1 - 1409733472.195480372
1 - 1409733472.295447467
1 - 1409733472.395407919
1 - 1409733472.495463205
1 - 1409733472.595470700
1 - 1409733472.695316196
1 - 1409733472.795344801
1 - 1409733472.895374016
1 - 1409733472.995339622
1 - 1409733473.095313679
1 - 1409733473.195362082
1 - 1409733473.295358672
1 - 1409733473.395350007
1 - 1409733473.495417572
1 - 1409733473.595371260
1 - 1409733473.695319836
1 - 1409733473.795398847
1 - 1409733473.895356508
1 - 1409733473.995471487
1 - 1409733474.095444238
1 - 1409733474.195341049
1 - 1409733474.295410281
1 - 1409733474.395328570
1 - 1409733474.495366768
1 - 1409733474.595374659
1 - 1409733474.695323796
1 - 1409733474.795339290
1 - 1409733474.895376645
1 - 1409733474.995357901
1 - 1409733475.095350366
1 - 1409733475.195382825
1 - 1409733475.295383464
1 - 1409733475.395365824
1 - 1409733475.495448374
1 - 1409733475.595382514
1 - 1409733475.695355714
1 - 1409733475.795303550
1 - 1409733475.895414742
1 - 1409733475.995354886
1 - 1409733476.095437424
1 - 1409733476.195320419
1 - 1409733476.295324100
1 - 1409733476.395396887
1 - 1409733476.495318268
1 - 1409733476.595335495
1 - 1409733476.695336872
1 - 1409733476.795614640
1 - 1409733476.895397342
1 - 1409733476.995356594
1 - 1409733477.095359405
1 - 1409733477.195357291
1 - 1409733477.295346695
1 - 1409733477.395338587
1 - 1409733477.495491098
1 - 1409733477.595386846
1 - 1409733477.695400661
1 - 1409733477.795556083
1 - 1409733477.895317775
1 - 1409733477.995448912
1 - 1409733478.095410891
0 - 1409733478.195394467
1 - 1409733478.295412388
0 - 1409733478.395399657
1 - 1409733478.495367240
1 - 1409733478.595405374
1 - 1409733478.695374184
1 - 1409733478.795409708
0 - 1409733478.895313301
1 - 1409733478.995422464
1 - 1409733479.095484645
1 - 1409733479.195515470
1 - 1409733479.295332579
1 - 1409733479.395329426
1 - 1409733479.495323701
1 - 1409733479.595403391
1 - 1409733479.695540152
1 - 1409733479.795398414
1 - 1409733479.895412587
1 - 1409733479.995469672
1 - 1409733480.095359873
1 - 1409733480.195301699
1 - 1409733480.295467364
1 - 1409733480.395388974
1 - 1409733480.495347890
1 - 1409733480.595362146
1 - 1409733480.695439683
1 - 1409733480.795368862
1 - 1409733480.895394883
1 - 1409733480.995439504
1 - 1409733481.095451766
1 - 1409733481.195402618
1 - 1409733481.295510876
1 - 1409733481.395373871
1 - 1409733481.495381647
1 - 1409733481.595383098
1 - 1409733481.695388908
1 - 1409733481.795346400
1 - 1409733481.895332702
1 - 1409733481.995347641
1 - 1409733482.095323604
1 - 1409733482.195314195
1 - 1409733482.295388955
1 - 1409733482.395358108
1 - 1409733482.495364581
1 - 1409733482.595345430
1 - 1409733482.695412749
1 - 1409733482.795539467
1 - 1409733482.895295513
1 - 1409733482.995388649
1 - 1409733483.095450603
1 - 1409733483.195334046
0 - 1409733483.295309826
0 - 1409733483.395244451
1 - 1409733483.495295491
1 - 1409733483.595470817
0 - 1409733483.695256072
0 - 1409733483.795282690
1 - 1409733483.895330670
1 - 1409733483.995401314
1 - 1409733484.095360202
1 - 1409733484.195501011
1 - 1409733484.295349045
1 - 1409733484.395380923
1 - 1409733484.495514300
1 - 1409733484.595367285
1 - 1409733484.695338660
1 - 1409733484.795320882
1 - 1409733484.895397278
1 - 1409733484.995351756
1 - 1409733485.095475807
1 - 1409733485.195445016
1 - 1409733485.295349928
1 - 1409733485.395431673
1 - 1409733485.495518729
1 - 1409733485.595401338
1 - 1409733485.695460328
1 - 1409733485.795356048
1 - 1409733485.895362521
1 - 1409733485.995347963
1 - 1409733486.095422052
1 - 1409733486.195484649
1 - 1409733486.295412398
1 - 1409733486.395403005
1 - 1409733486.495349103
1 - 1409733486.595430782
1 - 1409733486.695348004
1 - 1409733486.795380937
1 - 1409733486.895412896
1 - 1409733486.995363051
1 - 1409733487.095342965
1 - 1409733487.195413828
1 - 1409733487.295347054
1 - 1409733487.395394507
1 - 1409733487.495309486
1 - 1409733487.595324530
1 - 1409733487.695372012
1 - 1409733487.795333046
1 - 1409733487.895385527
1 - 1409733487.995366539
1 - 1409733488.095385637
1 - 1409733488.195425958
1 - 1409733488.295314951
1 - 1409733488.395357533
1 - 1409733488.495446687
1 - 1409733488.595312395
1 - 1409733488.695470093
1 - 1409733488.795447670
1 - 1409733488.895328978
1 - 1409733488.995358476
