1 - 1409675561.770136057
1 - 1409675561.870155615
1 - 1409675561.970190918
1 - 1409675562.070160792
0 - 1409675562.170169616
0 - 1409675562.270045114
1 - 1409675562.370247957
1 - 1409675562.470227126
1 - 1409675562.570147086
1 - 1409675564.570424715
0 - 1409675564.570718252
1 - 1409675564.670862643
1 - 1409675564.770927053
1 - 1409675564.870852136
1 - 1409675564.970817707
1 - 1409675565.070836145
1 - 1409675565.170827260
1 - 1409675565.270916190
1 - 1409675565.370899910
1 - 1409675565.470816194
1 - 1409675565.570811230
1 - 1409675565.670918955
1 - 1409675565.770892108
1 - 1409675565.870888588
1 - 1409675565.970822156
1 - 1409675566.070981755
1 - 1409675566.170823906
1 - 1409675566.270847233
1 - 1409675566.370903445
1 - 1409675566.470889459
1 - 1409675566.570824751
1 - 1409675566.670801521
1 - 1409675566.770888563
1 - 1409675566.870801619
1 - 1409675566.970856866
1 - 1409675567.070892054
1 - 1409675567.170788834
1 - 1409675567.270862040
1 - 1409675567.370889759
1 - 1409675567.470919462
1 - 1409675567.570801587
1 - 1409675567.670823855
1 - 1409675567.770907915
1 - 1409675567.870843333
1 - 1409675567.970822161
1 - 1409675568.070958818
1 - 1409675568.170871002
1 - 1409675568.270852459
1 - 1409675568.370906771
1 - 1409675568.470925372
1 - 1409675568.570845815
1 - 1409675568.670816569
1 - 1409675568.770940019
1 - 1409675568.870847939
1 - 1409675568.970937493
1 - 1409675569.071292228
1 - 1409675569.170866865
1 - 1409675569.270884931
1 - 1409675569.370863441
1 - 1409675569.470848132
1 - 1409675569.570882517
1 - 1409675569.670807479
1 - 1409675569.770937165
1 - 1409675569.870840700
1 - 1409675569.970800880
1 - 1409675570.070768931
1 - 1409675570.170836254
1 - 1409675570.270922595
1 - 1409675570.370826708
1 - 1409675570.470853433
1 - 1409675570.570913882
1 - 1409675570.671199488
1 - 1409675570.770960344
1 - 1409675570.870855889
1 - 1409675570.970827675
1 - 1409675571.070896434
1 - 1409675571.170912967
1 - 1409675571.270876685
1 - 1409675571.370906269
1 - 1409675571.470995160
1 - 1409675571.570802031
1 - 1409675571.670946060
1 - 1409675571.770869457
1 - 1409675571.870918953
1 - 1409675571.971045332
1 - 1409675572.071007289
1 - 1409675572.170927505
1 - 1409675572.270848378
1 - 1409675572.370838568
1 - 1409675572.470869611
1 - 1409675572.570920226
1 - 1409675572.670920522
1 - 1409675572.770805928
1 - 1409675572.870858435
1 - 1409675572.970801972
1 - 1409675573.070884284
1 - 1409675573.171008796
1 - 1409675573.270949511
1 - 1409675573.370829979
1 - 1409675573.470801283
1 - 1409675573.570970818
1 - 1409675573.670899350
1 - 1409675573.770834784
1 - 1409675573.870801135
1 - 1409675573.970861686
1 - 1409675574.070836052
1 - 1409675574.170870050
1 - 1409675574.270846937
1 - 1409675574.370786713
1 - 1409675574.470856166
1 - 1409675574.570873963
1 - 1409675574.670843141
1 - 1409675574.770805718
1 - 1409675574.870842948
1 - 1409675574.970810488
1 - 1409675575.070836870
1 - 1409675575.170835074
1 - 1409675575.270855555
1 - 1409675575.371006604
1 - 1409675575.470816354
1 - 1409675575.570894444
1 - 1409675575.670941115
1 - 1409675575.770863001
1 - 1409675575.870794539
1 - 1409675575.970894720
1 - 1409675576.070840455
1 - 1409675576.170976516
1 - 1409675576.270831847
1 - 1409675576.370861261
1 - 1409675576.470852891
1 - 1409675576.570882838
1 - 1409675576.670816947
1 - 1409675576.770834880
1 - 1409675576.870857012
1 - 1409675576.970867427
1 - 1409675577.070849261
1 - 1409675577.170838065
1 - 1409675577.270813203
1 - 1409675577.370861178
1 - 1409675577.470790633
1 - 1409675577.570792893
1 - 1409675577.670820689
1 - 1409675577.770807377
1 - 1409675577.870926997
1 - 1409675577.970865548
1 - 1409675578.071170224
1 - 1409675578.170907034
1 - 1409675578.270762848
1 - 1409675578.370897635
1 - 1409675578.470842578
1 - 1409675578.570815513
1 - 1409675578.670862446
1 - 1409675578.770878662
1 - 1409675578.870814318
1 - 1409675578.970860712
1 - 1409675579.070888059
1 - 1409675579.170866973
1 - 1409675579.270866343
1 - 1409675579.370832381
1 - 1409675579.470816987
1 - 1409675579.570915924
1 - 1409675579.670803458
1 - 1409675579.770876789
1 - 1409675579.870917472
1 - 1409675579.970855847
1 - 1409675580.070796210
1 - 1409675580.170806672
1 - 1409675580.270862029
1 - 1409675580.370916018
1 - 1409675580.470780802
1 - 1409675580.570839579
1 - 1409675580.670827049
1 - 1409675580.770904941
1 - 1409675580.870862797
1 - 1409675580.970831111
1 - 1409675581.070798139
1 - 1409675581.170830746
1 - 1409675581.270808728
1 - 1409675581.370858831
1 - 1409675581.470834962
1 - 1409675581.570818419
1 - 1409675581.670796815
1 - 1409675581.770845987
1 - 1409675581.870842689
1 - 1409675581.970848223
1 - 1409675582.070801008
1 - 1409675582.170860768
1 - 1409675582.270862277
1 - 1409675582.370816004
1 - 1409675582.470833746
1 - 1409675582.570798496
1 - 1409675582.670847815
1 - 1409675582.770870930
1 - 1409675582.870843659
1 - 1409675582.970934409
1 - 1409675583.070892694
1 - 1409675583.170852849
1 - 1409675583.270907750
1 - 1409675583.370902511
1 - 1409675583.470854257
1 - 1409675583.570844586
1 - 1409675583.670841985
1 - 1409675583.770834340
1 - 1409675583.870876152
1 - 1409675583.971193607
1 - 1409675584.070839440
1 - 1409675584.170819310
1 - 1409675584.270875219
1 - 1409675584.370936554
1 - 1409675584.470801175
1 - 1409675584.570870886
1 - 1409675584.670793331
1 - 1409675584.770859598
1 - 1409675584.870881167
1 - 1409675584.970958976
1 - 1409675585.070841608
1 - 1409675585.170932504
1 - 1409675585.270852072
1 - 1409675585.370883184
1 - 1409675585.470864591
1 - 1409675585.570859255
1 - 1409675585.670822346
1 - 1409675585.770781642
1 - 1409675585.870941119
1 - 1409675585.970813022
1 - 1409675586.070904184
1 - 1409675586.170849642
1 - 1409675586.270940380
1 - 1409675586.370808076
0 - 1409675586.470786388
0 - 1409675586.570776971
0 - 1409675586.670873061
0 - 1409675586.770778345
0 - 1409675586.870735843
0 - 1409675586.970785447
0 - 1409675587.070788993
0 - 1409675587.170718405
0 - 1409675587.270790805
0 - 1409675587.370728377
1 - 1409675587.470907523
1 - 1409675587.570836725
1 - 1409675587.670882525
1 - 1409675587.770891090
1 - 1409675587.870855458
1 - 1409675587.970889474
1 - 1409675588.070869608
1 - 1409675588.170838067
1 - 1409675588.270837852
1 - 1409675588.370839239
1 - 1409675588.470933715
1 - 1409675588.570820167
1 - 1409675588.670830822
1 - 1409675588.770813134
1 - 1409675588.870806350
1 - 1409675588.970806233
1 - 1409675589.070817970
1 - 1409675589.170852644
1 - 1409675589.270846743
1 - 1409675589.370825907
1 - 1409675589.470840107
1 - 1409675589.570836368
1 - 1409675589.670814712
1 - 1409675589.770899949
1 - 1409675589.870801784
1 - 1409675589.970917752
1 - 1409675590.070846207
1 - 1409675590.170827889
1 - 1409675590.270841836
1 - 1409675590.370919038
1 - 1409675590.470809249
1 - 1409675590.570809179
1 - 1409675590.670948184
1 - 1409675590.770835229
1 - 1409675590.870883890
1 - 1409675590.970790739
1 - 1409675591.070847778
1 - 1409675591.170857150
1 - 1409675591.270854782
1 - 1409675591.370858897
1 - 1409675591.470826087
1 - 1409675591.570945574
1 - 1409675591.670916472
1 - 1409675591.771356114
1 - 1409675591.870829803
1 - 1409675591.970859351
1 - 1409675592.070887039
1 - 1409675592.170918054
1 - 1409675592.270782801
1 - 1409675592.370877310
1 - 1409675592.470820520
1 - 1409675592.570814578
1 - 1409675592.671029737
1 - 1409675592.770837098
1 - 1409675592.871019578
1 - 1409675592.970937549
1 - 1409675593.070907309
1 - 1409675593.170900917
1 - 1409675593.270816766
1 - 1409675593.370842138
1 - 1409675593.470870616
1 - 1409675593.570785372
1 - 1409675593.670860889
1 - 1409675593.770868384
1 - 1409675593.870849511
1 - 1409675593.970820838
0 - 1409675594.070645515
0 - 1409675594.170644501
0 - 1409675594.270649850
0 - 1409675594.370636977
0 - 1409675594.470646415
0 - 1409675594.570643497
0 - 1409675594.670648040
1 - 1409675594.770896953
1 - 1409675594.870841349
0 - 1409675594.970656190
0 - 1409675595.070639929
0 - 1409675595.170624711
0 - 1409675595.270650451
0 - 1409675595.370632420
0 - 1409675595.470648321
0 - 1409675595.570645919
1 - 1409675595.670882873
0 - 1409675595.770677066
1 - 1409675595.871703123
1 - 1409675595.970917106
1 - 1409675596.070830784
1 - 1409675596.170848059
1 - 1409675596.270884925
1 - 1409675596.370856341
1 - 1409675596.470834516
1 - 1409675596.570837408
1 - 1409675596.670894383
1 - 1409675596.770816686
1 - 1409675596.870813932
1 - 1409675596.970842206
1 - 1409675597.070828499
1 - 1409675597.170800078
1 - 1409675597.270926402
1 - 1409675597.370815871
1 - 1409675597.470799726
1 - 1409675597.570915249
1 - 1409675597.671028335
1 - 1409675597.770940390
1 - 1409675597.870873595
1 - 1409675597.970888413
1 - 1409675598.070850898
1 - 1409675598.170931552
1 - 1409675598.270826485
1 - 1409675598.370800593
1 - 1409675598.470874862
1 - 1409675598.570817235
1 - 1409675598.670797592
1 - 1409675598.770915557
1 - 1409675598.870813390
1 - 1409675598.970803151
1 - 1409675599.070803473
1 - 1409675599.171148768
1 - 1409675599.270874050
1 - 1409675599.370779942
1 - 1409675599.470920993
1 - 1409675599.570872312
1 - 1409675599.671014991
1 - 1409675599.770925016
1 - 1409675599.870891955
1 - 1409675599.970821740
1 - 1409675600.070888591
1 - 1409675600.170922197
1 - 1409675600.270834366
1 - 1409675600.370910292
1 - 1409675600.470858249
1 - 1409675600.570808631
1 - 1409675600.670819643
1 - 1409675600.770850699
1 - 1409675600.870856766
1 - 1409675600.970833673
1 - 1409675601.071064133
1 - 1409675601.170920268
1 - 1409675601.270792153
1 - 1409675601.370882871
1 - 1409675601.470892863
1 - 1409675601.570887774
1 - 1409675601.670855505
1 - 1409675601.770851969
1 - 1409675601.870793312
1 - 1409675601.970850696
1 - 1409675602.070884650
1 - 1409675602.170889159
1 - 1409675602.270840533
1 - 1409675602.370857196
1 - 1409675602.470832251
1 - 1409675602.570775957
1 - 1409675602.670845780
1 - 1409675602.770867459
1 - 1409675602.870879490
1 - 1409675602.970861200
1 - 1409675603.070867924
1 - 1409675603.170851489
1 - 1409675603.270860287
1 - 1409675603.371016131
1 - 1409675603.470822501
1 - 1409675603.570846545
1 - 1409675603.670949877
1 - 1409675603.770862627
1 - 1409675603.870909281
1 - 1409675603.970864340
1 - 1409675604.070891971
1 - 1409675604.170805805
1 - 1409675604.270872625
1 - 1409675604.370813216
1 - 1409675604.470884049
1 - 1409675604.570804379
1 - 1409675604.670828381
1 - 1409675604.770855936
1 - 1409675604.870845465
1 - 1409675604.970902428
1 - 1409675605.070840726
1 - 1409675605.170899880
1 - 1409675605.270856848
1 - 1409675605.370899581
1 - 1409675605.470803004
1 - 1409675605.571101253
1 - 1409675605.670897257
1 - 1409675605.770856489
1 - 1409675605.870797070
1 - 1409675605.970888721
1 - 1409675606.070925549
1 - 1409675606.170874103
1 - 1409675606.270893058
1 - 1409675606.370825459
1 - 1409675606.470820884
1 - 1409675606.570882080
1 - 1409675606.670820193
1 - 1409675606.771008253
1 - 1409675606.870904349
1 - 1409675606.970843220
1 - 1409675607.070841270
1 - 1409675607.170816357
1 - 1409675607.270891486
1 - 1409675607.370821231
1 - 1409675607.470859521
1 - 1409675607.570805318
1 - 1409675607.670909876
1 - 1409675607.770872537
1 - 1409675607.870825408
1 - 1409675607.970797841
1 - 1409675608.070972326
1 - 1409675608.170808126
1 - 1409675608.270805529
1 - 1409675608.370860709
1 - 1409675608.470819582
1 - 1409675608.570872773
1 - 1409675608.670879621
1 - 1409675608.770913395
1 - 1409675608.870823428
1 - 1409675608.970906767
1 - 1409675609.070799990
1 - 1409675609.170889631
1 - 1409675609.270851571
1 - 1409675609.370795351
1 - 1409675609.470895208
1 - 1409675609.570945584
1 - 1409675609.670855297
1 - 1409675609.770853648
1 - 1409675609.870850077
1 - 1409675609.970868891
1 - 1409675610.070881075
1 - 1409675610.170801407
1 - 1409675610.270852888
1 - 1409675610.370932126
1 - 1409675610.470906782
1 - 1409675610.570917018
1 - 1409675610.670801888
1 - 1409675610.770841156
1 - 1409675610.870798274
1 - 1409675610.970927902
1 - 1409675611.070911473
1 - 1409675611.170982648
1 - 1409675611.270820134
1 - 1409675611.370935524
1 - 1409675611.470857259
1 - 1409675611.570817039
1 - 1409675611.670857090
1 - 1409675611.770824490
1 - 1409675611.870956526
1 - 1409675611.970941972
1 - 1409675612.070829166
1 - 1409675612.170875481
1 - 1409675612.270824860
1 - 1409675612.370826017
1 - 1409675612.470816957
1 - 1409675612.570866721
1 - 1409675612.670836730
1 - 1409675612.770853106
1 - 1409675612.871314775
1 - 1409675612.970988303
1 - 1409675613.070900624
1 - 1409675613.170868531
1 - 1409675613.271058424
1 - 1409675613.370913014
1 - 1409675613.470879792
1 - 1409675613.570875703
1 - 1409675613.670867242
1 - 1409675613.770845401
1 - 1409675613.870903413
1 - 1409675613.970855919
1 - 1409675614.070968270
1 - 1409675614.170854586
1 - 1409675614.270854666
1 - 1409675614.371015085
1 - 1409675614.470860886
1 - 1409675614.570848352
1 - 1409675614.670866690
1 - 1409675614.770805794
1 - 1409675614.870898051
1 - 1409675614.970850531
1 - 1409675615.070783768
1 - 1409675615.170950176
1 - 1409675615.271035341
1 - 1409675615.370909553
1 - 1409675615.470903910
1 - 1409675615.570901059
1 - 1409675615.670852859
1 - 1409675615.770855159
1 - 1409675615.870813939
1 - 1409675615.970895462
1 - 1409675616.070791167
1 - 1409675616.170855774
1 - 1409675616.270905760
1 - 1409675616.370912637
1 - 1409675616.470794200
1 - 1409675616.570896177
1 - 1409675616.670837656
1 - 1409675616.770808980
1 - 1409675616.870811100
1 - 1409675616.970888082
1 - 1409675617.070894792
1 - 1409675617.170821057
1 - 1409675617.270837482
1 - 1409675617.370799409
1 - 1409675617.470836824
1 - 1409675617.570840609
1 - 1409675617.670877259
1 - 1409675617.770847252
1 - 1409675617.871524823
1 - 1409675617.970810064
1 - 1409675618.070840369
1 - 1409675618.170902941
1 - 1409675618.270795048
1 - 1409675618.370966042
1 - 1409675618.470812963
1 - 1409675618.570873051
1 - 1409675618.670806615
1 - 1409675618.771216345
1 - 1409675618.870883481
1 - 1409675618.970817660
1 - 1409675619.071016736
1 - 1409675619.170869618
1 - 1409675619.270884178
1 - 1409675619.370816921
1 - 1409675619.470805745
1 - 1409675619.570920001
1 - 1409675619.670892946
1 - 1409675619.770867541
1 - 1409675619.870911751
1 - 1409675619.970956366
1 - 1409675620.070901889
0 - 1409675620.170821856
1 - 1409675620.270930785
1 - 1409675620.370839407
1 - 1409675620.470860342
1 - 1409675620.570843841
1 - 1409675620.670974806
1 - 1409675620.770888899
1 - 1409675620.870884164
1 - 1409675620.970818167
1 - 1409675621.070883727
1 - 1409675621.170845308
1 - 1409675621.270874183
1 - 1409675621.370923110
1 - 1409675621.470774518
1 - 1409675621.570814485
1 - 1409675621.672731353
1 - 1409675621.770976300
1 - 1409675621.870817938
1 - 1409675621.970843803
1 - 1409675622.070790726
1 - 1409675622.170897412
1 - 1409675622.270843177
1 - 1409675622.370780575
1 - 1409675622.470988311
1 - 1409675622.570797969
1 - 1409675622.670878848
1 - 1409675622.770807353
1 - 1409675622.870877451
1 - 1409675622.970797682
1 - 1409675623.070817727
1 - 1409675623.170810115
1 - 1409675623.270819352
1 - 1409675623.370802868
1 - 1409675623.470921855
1 - 1409675623.570900468
1 - 1409675623.670871537
1 - 1409675623.770891702
1 - 1409675623.870811967
1 - 1409675623.970808195
1 - 1409675624.070828838
1 - 1409675624.170867368
1 - 1409675624.270926416
1 - 1409675624.370805951
1 - 1409675624.470897332
1 - 1409675624.570864063
1 - 1409675624.670838481
1 - 1409675624.770818319
1 - 1409675624.870824983
1 - 1409675624.970927781
1 - 1409675625.070821537
1 - 1409675625.170875860
1 - 1409675625.270917969
1 - 1409675625.370862216
1 - 1409675625.470821925
1 - 1409675625.570830388
1 - 1409675625.670821678
1 - 1409675625.770938157
1 - 1409675625.870872767
1 - 1409675625.970869006
1 - 1409675626.070863194
1 - 1409675626.170800939
1 - 1409675626.270953871
1 - 1409675626.370970648
1 - 1409675626.470830435
1 - 1409675626.571006523
1 - 1409675626.671243806
1 - 1409675626.770835117
1 - 1409675626.870865930
1 - 1409675626.970824632
1 - 1409675627.070858913
1 - 1409675627.170858705
1 - 1409675627.270824541
1 - 1409675627.370811502
1 - 1409675627.470852682
1 - 1409675627.570820571
1 - 1409675627.670836860
1 - 1409675627.770852457
1 - 1409675627.870819534
1 - 1409675627.970829267
1 - 1409675628.070943128
1 - 1409675628.170859136
1 - 1409675628.270950251
1 - 1409675628.370979461
1 - 1409675628.470887105
1 - 1409675628.570856768
1 - 1409675628.670963588
1 - 1409675628.770806766
1 - 1409675628.870814983
1 - 1409675628.970825485
1 - 1409675629.070889408
1 - 1409675629.170893447
1 - 1409675629.270917167
1 - 1409675629.370861144
1 - 1409675629.470838103
1 - 1409675629.570855484
1 - 1409675629.670930992
1 - 1409675629.770848616
1 - 1409675629.870817386
1 - 1409675629.970808054
1 - 1409675630.070837748
1 - 1409675630.170848054
1 - 1409675630.270830150
1 - 1409675630.370810338
1 - 1409675630.471033999
1 - 1409675630.570908699
1 - 1409675630.670827979
1 - 1409675630.770799207
1 - 1409675630.870954100
1 - 1409675630.970808222
1 - 1409675631.070876892
1 - 1409675631.170824461
1 - 1409675631.270816029
1 - 1409675631.370874512
1 - 1409675631.471045390
1 - 1409675631.570869313
1 - 1409675631.670810269
1 - 1409675631.770825389
1 - 1409675631.870894616
1 - 1409675631.970840272
1 - 1409675632.070892480
1 - 1409675632.170887601
1 - 1409675632.270859753
1 - 1409675632.370844915
1 - 1409675632.470811107
1 - 1409675632.570836827
1 - 1409675632.670909907
1 - 1409675632.770810234
1 - 1409675632.871092119
1 - 1409675632.970903536
1 - 1409675633.070781890
1 - 1409675633.170783429
1 - 1409675633.270785331
1 - 1409675633.370913795
1 - 1409675633.470889830
1 - 1409675633.571054325
1 - 1409675633.670829474
1 - 1409675633.770897369
1 - 1409675633.870894201
1 - 1409675633.970923863
1 - 1409675634.070827165
1 - 1409675634.170824601
1 - 1409675634.270858087
1 - 1409675634.370861623
1 - 1409675634.470800771
1 - 1409675634.570838122
1 - 1409675634.670855177
1 - 1409675634.770816415
1 - 1409675634.870834264
1 - 1409675634.970872125
1 - 1409675635.070801635
1 - 1409675635.170819550
1 - 1409675635.270829515
1 - 1409675635.370813801
1 - 1409675635.470792339
1 - 1409675635.571019009
1 - 1409675635.671057320
1 - 1409675635.770804870
1 - 1409675635.870926213
1 - 1409675635.970834676
1 - 1409675636.070846359
1 - 1409675636.170830181
1 - 1409675636.270800086
1 - 1409675636.370827596
1 - 1409675636.470854898
1 - 1409675636.570810192
1 - 1409675636.670864232
1 - 1409675636.770897562
1 - 1409675636.870943899
1 - 1409675636.970808619
1 - 1409675637.070881124
1 - 1409675637.170805440
1 - 1409675637.270933678
1 - 1409675637.370853763
1 - 1409675637.470954965
1 - 1409675637.570935489
1 - 1409675637.670904340
1 - 1409675637.770972582
1 - 1409675637.871222801
1 - 1409675637.970897461
1 - 1409675638.070819425
1 - 1409675638.170864791
1 - 1409675638.270848946
1 - 1409675638.370997893
1 - 1409675638.470902857
1 - 1409675638.570811055
1 - 1409675638.670861230
1 - 1409675638.770826158
1 - 1409675638.870805852
1 - 1409675638.970909160
1 - 1409675639.070894273
1 - 1409675639.170839873
1 - 1409675639.270857357
1 - 1409675639.370780465
1 - 1409675639.470843822
1 - 1409675639.570851147
1 - 1409675639.670810145
1 - 1409675639.770863452
1 - 1409675639.870839790
1 - 1409675639.970846582
1 - 1409675640.070873511
1 - 1409675640.170878094
1 - 1409675640.270830532
1 - 1409675640.370857346
1 - 1409675640.470809078
1 - 1409675640.570800924
1 - 1409675640.670834730
1 - 1409675640.770889686
1 - 1409675640.870846410
1 - 1409675640.970834315
1 - 1409675641.070903963
1 - 1409675641.170823230
1 - 1409675641.270847611
1 - 1409675641.370907699
1 - 1409675641.470809536
1 - 1409675641.571426417
1 - 1409675641.670815171
1 - 1409675641.770884968
1 - 1409675641.870821590
1 - 1409675641.970949122
1 - 1409675642.070917338
1 - 1409675642.170920213
1 - 1409675642.271105284
1 - 1409675642.370840558
1 - 1409675642.470968216
1 - 1409675642.570959885
1 - 1409675642.670810336
1 - 1409675642.770951069
1 - 1409675642.871412257
1 - 1409675642.970876689
1 - 1409675643.070890890
1 - 1409675643.170851538
1 - 1409675643.270874127
1 - 1409675643.370860154
1 - 1409675643.471257400
1 - 1409675643.570889414
1 - 1409675643.670818114
1 - 1409675643.770806576
1 - 1409675643.870840206
1 - 1409675643.971054741
1 - 1409675644.070856319
1 - 1409675644.170921613
1 - 1409675644.270832029
1 - 1409675644.370835304
1 - 1409675644.470822037
1 - 1409675644.570845859
1 - 1409675644.670808470
1 - 1409675644.770815330
1 - 1409675644.870933730
1 - 1409675644.970822430
1 - 1409675645.070811696
1 - 1409675645.170890888
1 - 1409675645.270959598
1 - 1409675645.370798743
1 - 1409675645.470813859
1 - 1409675645.570845344
1 - 1409675645.670888192
1 - 1409675645.770835105
1 - 1409675645.870889269
1 - 1409675645.970873953
1 - 1409675646.070860321
1 - 1409675646.170885953
1 - 1409675646.270814426
1 - 1409675646.370968403
1 - 1409675646.470813494
1 - 1409675646.570858786
1 - 1409675646.670977413
1 - 1409675646.770841720
1 - 1409675646.870853999
1 - 1409675646.970947306
1 - 1409675647.070804922
1 - 1409675647.170897189
1 - 1409675647.270855475
1 - 1409675647.370916791
1 - 1409675647.470841940
1 - 1409675647.570909195
1 - 1409675647.670883631
1 - 1409675647.770823856
1 - 1409675647.870831162
1 - 1409675647.970808388
1 - 1409675648.071113288
1 - 1409675648.170892225
1 - 1409675648.270814205
1 - 1409675648.370930243
1 - 1409675648.470837926
1 - 1409675648.570794001
1 - 1409675648.670894231
1 - 1409675648.770821647
1 - 1409675648.870816575
1 - 1409675648.970800758
1 - 1409675649.070835176
1 - 1409675649.170848344
1 - 1409675649.270790934
1 - 1409675649.370886532
1 - 1409675649.470818652
1 - 1409675649.570912355
1 - 1409675649.670881966
1 - 1409675649.770882042
1 - 1409675649.870777503
1 - 1409675649.971070383
1 - 1409675650.070788305
1 - 1409675650.170896309
1 - 1409675650.270801100
1 - 1409675650.370854491
1 - 1409675650.470804982
1 - 1409675650.570937900
1 - 1409675650.670866829
1 - 1409675650.770776832
1 - 1409675650.870831673
1 - 1409675650.970802484
1 - 1409675651.070960522
1 - 1409675651.170821916
1 - 1409675651.270959535
1 - 1409675651.370845141
1 - 1409675651.470924435
1 - 1409675651.570822378
1 - 1409675651.670788088
1 - 1409675651.770856201
1 - 1409675651.870898428
1 - 1409675651.970790912
1 - 1409675652.070781395
1 - 1409675652.171343214
1 - 1409675652.270808096
1 - 1409675652.370952589
1 - 1409675652.470912746
1 - 1409675652.571055235
1 - 1409675652.671263958
1 - 1409675652.770897600
1 - 1409675652.871284071
1 - 1409675652.970815770
1 - 1409675653.070782917
1 - 1409675653.170820862
1 - 1409675653.270839046
1 - 1409675653.370837061
1 - 1409675653.470839482
1 - 1409675653.570878013
1 - 1409675653.670822647
1 - 1409675653.770799122
1 - 1409675653.870873561
1 - 1409675653.970847427
1 - 1409675654.070959632
1 - 1409675654.170855676
1 - 1409675654.270801381
1 - 1409675654.370836683
1 - 1409675654.470934587
1 - 1409675654.570892780
1 - 1409675654.670833049
1 - 1409675654.770912769
1 - 1409675654.870809936
1 - 1409675654.970954294
1 - 1409675655.070888689
1 - 1409675655.170831591
1 - 1409675655.270905558
1 - 1409675655.370890929
1 - 1409675655.470925936
1 - 1409675655.570947986
1 - 1409675655.670862008
1 - 1409675655.770819132
1 - 1409675655.870765523
1 - 1409675655.970905718
1 - 1409675656.070803366
1 - 1409675656.170830098
1 - 1409675656.270897454
1 - 1409675656.370873185
1 - 1409675656.470944107
1 - 1409675656.571075748
1 - 1409675656.670824959
1 - 1409675656.770848533
1 - 1409675656.870945945
1 - 1409675656.970896520
1 - 1409675657.070809542
1 - 1409675657.170891483
1 - 1409675657.270802818
1 - 1409675657.370841190
1 - 1409675657.470825553
1 - 1409675657.570876352
1 - 1409675657.670815657
1 - 1409675657.770801000
1 - 1409675657.870874413
1 - 1409675657.970915027
1 - 1409675658.070887427
1 - 1409675658.170867928
1 - 1409675658.270816661
1 - 1409675658.370855116
1 - 1409675658.470808717
1 - 1409675658.570928044
1 - 1409675658.670915011
1 - 1409675658.770834912
1 - 1409675658.870835582
1 - 1409675658.970851126
1 - 1409675659.070893466
1 - 1409675659.170926924
1 - 1409675659.271120923
1 - 1409675659.370850482
1 - 1409675659.470834342
1 - 1409675659.570814092
1 - 1409675659.670886970
1 - 1409675659.770810722
1 - 1409675659.870804008
1 - 1409675659.970944858
1 - 1409675660.070902004
1 - 1409675660.170870030
1 - 1409675660.270870877
1 - 1409675660.370793732
1 - 1409675660.470833705
1 - 1409675660.570835908
1 - 1409675660.670868757
1 - 1409675660.770825762
1 - 1409675660.870839611
1 - 1409675660.970815320
1 - 1409675661.070869944
1 - 1409675661.171160799
1 - 1409675661.270811747
1 - 1409675661.370810877
1 - 1409675661.470849155
1 - 1409675661.570992375
1 - 1409675661.670864375
1 - 1409675661.770865281
1 - 1409675661.870898960
1 - 1409675661.970840370
1 - 1409675662.070843954
1 - 1409675662.170814925
1 - 1409675662.270828473
1 - 1409675662.370889784
1 - 1409675662.470806553
1 - 1409675662.570899363
1 - 1409675662.670812211
1 - 1409675662.770784890
1 - 1409675662.871569777
1 - 1409675662.970838578
1 - 1409675663.070861094
1 - 1409675663.170907411
1 - 1409675663.270891602
1 - 1409675663.370822276
1 - 1409675663.470857303
1 - 1409675663.570779544
1 - 1409675663.670763591
1 - 1409675663.770892391
1 - 1409675663.870815330
1 - 1409675663.970802422
1 - 1409675664.070904956
1 - 1409675664.170810742
1 - 1409675664.270858372
1 - 1409675664.370836607
1 - 1409675664.470898566
1 - 1409675664.570820592
1 - 1409675664.670813803
1 - 1409675664.770840196
1 - 1409675664.870812913
1 - 1409675664.970811632
1 - 1409675665.070825477
1 - 1409675665.170936871
1 - 1409675665.270821265
1 - 1409675665.370939635
1 - 1409675665.470823349
1 - 1409675665.570822076
1 - 1409675665.670824439
1 - 1409675665.770809880
1 - 1409675665.870881665
1 - 1409675665.970887510
1 - 1409675666.070825087
1 - 1409675666.170861403
1 - 1409675666.270837927
1 - 1409675666.371348341
1 - 1409675666.470882106
1 - 1409675666.570900539
1 - 1409675666.670946084
1 - 1409675666.770855615
1 - 1409675666.870919838
1 - 1409675666.970917626
1 - 1409675667.070968137
1 - 1409675667.170902408
1 - 1409675667.270804618
1 - 1409675667.370815498
1 - 1409675667.470817081
1 - 1409675667.570926581
1 - 1409675667.670847107
1 - 1409675667.770870962
1 - 1409675667.871205552
1 - 1409675667.971051090
1 - 1409675668.070897308
1 - 1409675668.170861507
1 - 1409675668.270962981
1 - 1409675668.370829754
1 - 1409675668.470859526
1 - 1409675668.570867910
1 - 1409675668.670871067
1 - 1409675668.770831386
1 - 1409675668.870907282
1 - 1409675668.970825928
1 - 1409675669.070868777
1 - 1409675669.170871357
1 - 1409675669.270952259
1 - 1409675669.370926392
1 - 1409675669.470941923
1 - 1409675669.570761046
1 - 1409675669.670886490
1 - 1409675669.770804263
1 - 1409675669.870785663
1 - 1409675669.970817717
1 - 1409675670.070822626
1 - 1409675670.170809346
1 - 1409675670.270766584
1 - 1409675670.370834963
1 - 1409675670.470889991
1 - 1409675670.570863902
1 - 1409675670.670985159
1 - 1409675670.770863766
1 - 1409675670.870807974
1 - 1409675670.970787982
1 - 1409675671.070803931
1 - 1409675671.170803519
1 - 1409675671.270806444
1 - 1409675671.370839161
1 - 1409675671.470993802
1 - 1409675671.570888878
1 - 1409675671.670902354
1 - 1409675671.770814136
1 - 1409675671.870902293
1 - 1409675671.970853945
1 - 1409675672.070815701
1 - 1409675672.170812285
1 - 1409675672.270943499
1 - 1409675672.370946045
1 - 1409675672.470831499
1 - 1409675672.571011222
1 - 1409675672.670856582
1 - 1409675672.770808178
1 - 1409675672.870895154
1 - 1409675672.970871201
1 - 1409675673.070804466
1 - 1409675673.170855466
1 - 1409675673.270812752
1 - 1409675673.371024096
1 - 1409675673.471050690
1 - 1409675673.570936774
1 - 1409675673.670923223
1 - 1409675673.770925434
1 - 1409675673.870885344
1 - 1409675673.970863263
1 - 1409675674.070890959
1 - 1409675674.170884602
1 - 1409675674.270903185
1 - 1409675674.370828214
1 - 1409675674.470842262
1 - 1409675674.570825872
1 - 1409675674.670817821
1 - 1409675674.770840766
1 - 1409675674.870830650
1 - 1409675674.970847894
1 - 1409675675.070820466
1 - 1409675675.170921302
1 - 1409675675.270831525
1 - 1409675675.370881997
1 - 1409675675.470854590
1 - 1409675675.570838333
1 - 1409675675.670812551
1 - 1409675675.770844513
1 - 1409675675.870859653
1 - 1409675675.970811965
1 - 1409675676.070839381
1 - 1409675676.170833242
1 - 1409675676.270886593
1 - 1409675676.371047953
1 - 1409675676.470856755
1 - 1409675676.570810893
1 - 1409675676.670896281
1 - 1409675676.770960187
1 - 1409675676.870850196
0 - 1409675676.970641100
0 - 1409675677.070649646
0 - 1409675677.170683728
0 - 1409675677.270687465
0 - 1409675677.370683994
0 - 1409675677.470665855
0 - 1409675677.570683393
0 - 1409675677.670647802
1 - 1409675677.770855636
1 - 1409675677.870866120
0 - 1409675677.970656356
0 - 1409675678.070672820
0 - 1409675678.170669078
0 - 1409675678.270648204
0 - 1409675678.370645133
0 - 1409675678.470649621
0 - 1409675678.570636552
1 - 1409675678.670842753
1 - 1409675678.770824725
0 - 1409675678.870713317
0 - 1409675678.970767190
1 - 1409675679.070832984
1 - 1409675679.170817608
1 - 1409675679.270892964
1 - 1409675679.370823581
1 - 1409675679.470842946
1 - 1409675679.570868944
1 - 1409675679.670858476
1 - 1409675679.770810507
1 - 1409675679.870871284
1 - 1409675679.970854076
1 - 1409675680.070904888
1 - 1409675680.170832540
1 - 1409675680.271062846
1 - 1409675680.370804352
1 - 1409675680.470806213
1 - 1409675680.570875998
1 - 1409675680.670827531
1 - 1409675680.770831748
1 - 1409675680.870945238
1 - 1409675680.970813628
1 - 1409675681.070821840
1 - 1409675681.170899577
1 - 1409675681.270875223
1 - 1409675681.370892102
1 - 1409675681.470844095
1 - 1409675681.570790959
1 - 1409675681.670931848
1 - 1409675681.770903070
1 - 1409675681.870900813
1 - 1409675681.971082709
1 - 1409675682.070837542
1 - 1409675682.170909521
1 - 1409675682.270900803
1 - 1409675682.370854456
1 - 1409675682.470830084
1 - 1409675682.570844034
1 - 1409675682.670874802
1 - 1409675682.770874118
1 - 1409675682.870883374
1 - 1409675682.970852447
1 - 1409675683.070863811
1 - 1409675683.170826080
1 - 1409675683.270913959
1 - 1409675683.370809233
1 - 1409675683.470856010
1 - 1409675683.570929148
1 - 1409675683.670800038
1 - 1409675683.770801731
1 - 1409675683.870805075
1 - 1409675683.970822694
1 - 1409675684.070846802
1 - 1409675684.170898364
1 - 1409675684.270855334
1 - 1409675684.370865333
1 - 1409675684.471092348
1 - 1409675684.570948392
1 - 1409675684.671097896
1 - 1409675684.770978638
1 - 1409675684.870847788
1 - 1409675684.970790619
1 - 1409675685.070814705
1 - 1409675685.170897174
1 - 1409675685.270824499
1 - 1409675685.370915404
1 - 1409675685.470901801
1 - 1409675685.570836102
1 - 1409675685.670845960
1 - 1409675685.771260098
1 - 1409675685.870921131
1 - 1409675685.970873954
1 - 1409675686.070878109
1 - 1409675686.170922170
1 - 1409675686.270987428
1 - 1409675686.370833191
1 - 1409675686.470803441
1 - 1409675686.570907720
1 - 1409675686.670797787
1 - 1409675686.770863022
1 - 1409675686.870755318
1 - 1409675686.970886259
1 - 1409675687.070807820
1 - 1409675687.171178756
1 - 1409675687.270842657
1 - 1409675687.370830596
1 - 1409675687.470862882
1 - 1409675687.570828780
1 - 1409675687.670920404
1 - 1409675687.770822415
1 - 1409675687.870865359
1 - 1409675687.970759202
1 - 1409675688.070758738
1 - 1409675688.170884470
1 - 1409675688.270801846
1 - 1409675688.370935754
1 - 1409675688.470890685
1 - 1409675688.570852965
1 - 1409675688.671074189
1 - 1409675688.770961602
1 - 1409675688.870976315
1 - 1409675688.970866529
1 - 1409675689.070886937
1 - 1409675689.170815927
1 - 1409675689.270857138
1 - 1409675689.370811097
1 - 1409675689.470918227
1 - 1409675689.570834133
1 - 1409675689.670820146
1 - 1409675689.770897565
1 - 1409675689.870814554
1 - 1409675689.970852870
1 - 1409675690.070804489
1 - 1409675690.170826635
1 - 1409675690.270846927
1 - 1409675690.370814786
1 - 1409675690.470872650
1 - 1409675690.570824185
1 - 1409675690.670832398
1 - 1409675690.770932786
1 - 1409675690.870815369
1 - 1409675690.970851741
1 - 1409675691.070866735
1 - 1409675691.170795233
1 - 1409675691.270791155
1 - 1409675691.370870630
1 - 1409675691.470872951
1 - 1409675691.570831731
1 - 1409675691.670825055
1 - 1409675691.770921722
1 - 1409675691.870877555
1 - 1409675691.970868405
1 - 1409675692.070814292
1 - 1409675692.170886849
1 - 1409675692.270826661
1 - 1409675692.370890595
1 - 1409675692.470802103
1 - 1409675692.570804729
1 - 1409675692.670777288
1 - 1409675692.770789638
1 - 1409675692.870855767
1 - 1409675692.970841977
1 - 1409675693.070832255
1 - 1409675693.170837778
1 - 1409675693.270967845
1 - 1409675693.370808717
1 - 1409675693.470819690
1 - 1409675693.570806788
1 - 1409675693.670920910
1 - 1409675693.770852788
1 - 1409675693.870802437
1 - 1409675693.970819139
1 - 1409675694.070838889
1 - 1409675694.171057928
1 - 1409675694.270975355
1 - 1409675694.370823915
1 - 1409675694.470791041
1 - 1409675694.570854922
1 - 1409675694.670844553
1 - 1409675694.770835838
1 - 1409675694.870801448
1 - 1409675694.970842978
1 - 1409675695.071006725
1 - 1409675695.170822650
1 - 1409675695.270916920
1 - 1409675695.370753218
1 - 1409675695.470825643
1 - 1409675695.570846469
1 - 1409675695.670898276
1 - 1409675695.770900855
1 - 1409675695.870834754
1 - 1409675695.970796074
1 - 1409675696.070804322
1 - 1409675696.170821579
1 - 1409675696.270882848
1 - 1409675696.370822409
1 - 1409675696.470834969
1 - 1409675696.570884853
1 - 1409675696.671117210
1 - 1409675696.770962795
1 - 1409675696.870968051
1 - 1409675696.970903895
1 - 1409675697.070887459
1 - 1409675697.170780169
1 - 1409675697.270830047
1 - 1409675697.371456718
1 - 1409675697.470893419
1 - 1409675697.570820426
1 - 1409675697.670808473
1 - 1409675697.770893218
1 - 1409675697.870831034
1 - 1409675697.970907682
1 - 1409675698.070856503
1 - 1409675698.170870156
1 - 1409675698.270961115
1 - 1409675698.370808556
1 - 1409675698.470891555
1 - 1409675698.570858823
1 - 1409675698.670890733
1 - 1409675698.770970652
1 - 1409675698.870809410
1 - 1409675698.970804392
1 - 1409675699.070838395
1 - 1409675699.170809199
1 - 1409675699.270921809
1 - 1409675699.370923249
1 - 1409675699.471004229
1 - 1409675699.570866920
1 - 1409675699.670870911
1 - 1409675699.770843150
1 - 1409675699.870920770
1 - 1409675699.970891791
1 - 1409675700.070900996
1 - 1409675700.170919544
1 - 1409675700.270822602
1 - 1409675700.370824141
1 - 1409675700.470886794
1 - 1409675700.570803346
1 - 1409675700.670845760
1 - 1409675700.770819887
1 - 1409675700.870936477
1 - 1409675700.970873082
1 - 1409675701.070898013
1 - 1409675701.170857007
1 - 1409675701.270899332
1 - 1409675701.370949161
1 - 1409675701.470885257
1 - 1409675701.570911623
1 - 1409675701.670963534
1 - 1409675701.770896659
1 - 1409675701.870812114
1 - 1409675701.970792033
1 - 1409675702.070850494
1 - 1409675702.170829354
1 - 1409675702.270786538
1 - 1409675702.371442036
1 - 1409675702.470840164
1 - 1409675702.570831501
1 - 1409675702.670871380
1 - 1409675702.771011358
1 - 1409675702.870803429
1 - 1409675702.970865336
1 - 1409675703.070832647
1 - 1409675703.170887264
1 - 1409675703.270827654
1 - 1409675703.370817942
1 - 1409675703.470898474
1 - 1409675703.570841850
1 - 1409675703.670858595
1 - 1409675703.770840596
1 - 1409675703.870776024
1 - 1409675703.970848814
1 - 1409675704.070865332
1 - 1409675704.171088088
1 - 1409675704.270874211
1 - 1409675704.370887112
1 - 1409675704.470978465
1 - 1409675704.570817544
1 - 1409675704.670769671
1 - 1409675704.770814591
1 - 1409675704.870867071
1 - 1409675704.970821741
1 - 1409675705.070842551
1 - 1409675705.170811287
1 - 1409675705.270963748
1 - 1409675705.370835907
1 - 1409675705.470821482
1 - 1409675705.570912196
1 - 1409675705.670821266
1 - 1409675705.770883900
1 - 1409675705.871040435
1 - 1409675705.970783411
1 - 1409675706.070908714
1 - 1409675706.170888239
1 - 1409675706.270842912
1 - 1409675706.370828209
1 - 1409675706.470816564
1 - 1409675706.570847372
1 - 1409675706.670850422
1 - 1409675706.771344680
1 - 1409675706.870856489
1 - 1409675706.970931254
1 - 1409675707.070851591
1 - 1409675707.170802141
1 - 1409675707.270836731
1 - 1409675707.371232601
1 - 1409675707.470884657
1 - 1409675707.570807238
1 - 1409675707.670803450
1 - 1409675707.770889836
1 - 1409675707.870867123
1 - 1409675707.970921244
1 - 1409675708.070856121
1 - 1409675708.171019830
1 - 1409675708.270838075
1 - 1409675708.370943206
1 - 1409675708.471038427
1 - 1409675708.570876858
1 - 1409675708.670960939
1 - 1409675708.770846282
1 - 1409675708.870833530
1 - 1409675708.970909015
1 - 1409675709.070877310
1 - 1409675709.170831086
1 - 1409675709.270960532
1 - 1409675709.370854857
1 - 1409675709.470803185
1 - 1409675709.570797791
1 - 1409675709.670876324
1 - 1409675709.770915250
1 - 1409675709.870832422
1 - 1409675709.970902432
1 - 1409675710.070825143
1 - 1409675710.170800421
1 - 1409675710.270853698
1 - 1409675710.370918297
1 - 1409675710.470835651
1 - 1409675710.570866815
1 - 1409675710.670824420
1 - 1409675710.770837655
1 - 1409675710.870870956
1 - 1409675710.970795397
1 - 1409675711.070802647
1 - 1409675711.170927914
1 - 1409675711.270798889
1 - 1409675711.370799199
1 - 1409675711.470807002
1 - 1409675711.570896014
1 - 1409675711.670864742
1 - 1409675711.770926584
1 - 1409675711.870809460
1 - 1409675711.970806571
1 - 1409675712.070900782
1 - 1409675712.170794121
1 - 1409675712.270811743
1 - 1409675712.370838006
1 - 1409675712.470944484
1 - 1409675712.570850392
1 - 1409675712.670924263
1 - 1409675712.770800683
1 - 1409675712.870899050
1 - 1409675712.970874597
1 - 1409675713.070834064
1 - 1409675713.170852707
1 - 1409675713.270866681
1 - 1409675713.370835092
1 - 1409675713.470848316
1 - 1409675713.570918191
1 - 1409675713.670878802
1 - 1409675713.770821231
1 - 1409675713.870933841
1 - 1409675713.970871973
1 - 1409675714.070793938
1 - 1409675714.170863098
1 - 1409675714.270901243
1 - 1409675714.370790164
1 - 1409675714.470796117
1 - 1409675714.570924887
1 - 1409675714.671069663
1 - 1409675714.770842382
1 - 1409675714.870918065
1 - 1409675714.970876417
1 - 1409675715.070813466
1 - 1409675715.170826885
1 - 1409675715.270972010
1 - 1409675715.370807030
1 - 1409675715.470807778
1 - 1409675715.570974120
1 - 1409675715.670868885
1 - 1409675715.770849328
1 - 1409675715.870805470
1 - 1409675715.970805926
1 - 1409675716.070861545
1 - 1409675716.170934382
1 - 1409675716.270955357
1 - 1409675716.370813687
1 - 1409675716.470851249
1 - 1409675716.570805800
1 - 1409675716.670805134
1 - 1409675716.770814841
1 - 1409675716.870869966
1 - 1409675716.970856177
1 - 1409675717.070811651
1 - 1409675717.170836308
1 - 1409675717.270819452
1 - 1409675717.370802550
1 - 1409675717.470854384
1 - 1409675717.570869352
1 - 1409675717.670852162
1 - 1409675717.770849552
1 - 1409675717.870859405
1 - 1409675717.970836885
1 - 1409675718.070993033
1 - 1409675718.170760546
1 - 1409675718.270862586
1 - 1409675718.370935580
1 - 1409675718.470842178
1 - 1409675718.570803497
1 - 1409675718.671034703
1 - 1409675718.770877241
1 - 1409675718.870815399
1 - 1409675718.970856952
1 - 1409675719.070901410
1 - 1409675719.170813951
1 - 1409675719.270879067
1 - 1409675719.370855358
1 - 1409675719.470859011
1 - 1409675719.570880973
1 - 1409675719.670881105
1 - 1409675719.770802756
1 - 1409675719.870829556
1 - 1409675719.970983075
1 - 1409675720.070842907
1 - 1409675720.170821750
1 - 1409675720.270808348
1 - 1409675720.370935267
1 - 1409675720.470921050
1 - 1409675720.570878727
1 - 1409675720.670824365
1 - 1409675720.770826415
1 - 1409675720.870847617
1 - 1409675720.970786517
1 - 1409675721.070879211
1 - 1409675721.170841789
1 - 1409675721.270865302
1 - 1409675721.371016916
1 - 1409675721.470834033
1 - 1409675721.570886807
1 - 1409675721.670830845
1 - 1409675721.770833459
1 - 1409675721.870784001
1 - 1409675721.970801141
1 - 1409675722.070832560
1 - 1409675722.170805921
1 - 1409675722.270811105
1 - 1409675722.370868630
1 - 1409675722.470866252
1 - 1409675722.570933534
1 - 1409675722.670904385
1 - 1409675722.770898856
1 - 1409675722.870855484
1 - 1409675722.970892920
1 - 1409675723.070936704
1 - 1409675723.170835667
1 - 1409675723.270850914
1 - 1409675723.370803065
1 - 1409675723.470879296
1 - 1409675723.570889755
1 - 1409675723.670860594
1 - 1409675723.770804025
1 - 1409675723.870979583
1 - 1409675723.971076101
1 - 1409675724.070846738
1 - 1409675724.170817109
1 - 1409675724.270870331
1 - 1409675724.370819453
1 - 1409675724.470915132
1 - 1409675724.570890635
1 - 1409675724.670902408
1 - 1409675724.770862759
1 - 1409675724.870810417
1 - 1409675724.970807061
1 - 1409675725.070806388
1 - 1409675725.170983378
1 - 1409675725.270880181
1 - 1409675725.371144690
1 - 1409675725.470811837
1 - 1409675725.570810485
1 - 1409675725.670880690
1 - 1409675725.770969119
1 - 1409675725.870824290
1 - 1409675725.970914662
1 - 1409675726.070887349
1 - 1409675726.170884198
1 - 1409675726.270864638
1 - 1409675726.370861112
1 - 1409675726.470860008
1 - 1409675726.570865854
1 - 1409675726.670801225
1 - 1409675726.770796185
1 - 1409675726.870882491
1 - 1409675726.970876934
1 - 1409675727.070788140
1 - 1409675727.170858677
1 - 1409675727.270909238
1 - 1409675727.370804648
1 - 1409675727.470880422
1 - 1409675727.570941398
1 - 1409675727.670829415
1 - 1409675727.770936854
1 - 1409675727.870918531
1 - 1409675727.970809101
1 - 1409675728.070902763
1 - 1409675728.170913746
1 - 1409675728.270842316
1 - 1409675728.370865994
1 - 1409675728.470854248
1 - 1409675728.570818938
1 - 1409675728.670808719
1 - 1409675728.771044914
1 - 1409675728.870902276
1 - 1409675728.970924108
1 - 1409675729.070937987
1 - 1409675729.170969183
1 - 1409675729.270887556
1 - 1409675729.370805603
1 - 1409675729.470955322
1 - 1409675729.570893094
1 - 1409675729.670824604
1 - 1409675729.770903953
1 - 1409675729.870865127
1 - 1409675729.970859498
1 - 1409675730.070865065
1 - 1409675730.171110816
1 - 1409675730.270806697
1 - 1409675730.370810209
1 - 1409675730.470896379
1 - 1409675730.570764037
1 - 1409675730.670820300
1 - 1409675730.770770858
1 - 1409675730.870844035
1 - 1409675730.970960915
1 - 1409675731.070805180
1 - 1409675731.170837401
1 - 1409675731.270863753
1 - 1409675731.370929978
1 - 1409675731.471011334
1 - 1409675731.570912309
1 - 1409675731.670913582
1 - 1409675731.770884275
1 - 1409675731.870806064
1 - 1409675731.970831800
1 - 1409675732.070804620
1 - 1409675732.170793955
1 - 1409675732.270912991
1 - 1409675732.370822505
1 - 1409675732.470867266
1 - 1409675732.570870912
1 - 1409675732.670810454
1 - 1409675732.770853764
1 - 1409675732.870852224
1 - 1409675732.970798472
1 - 1409675733.070920838
1 - 1409675733.170931660
1 - 1409675733.270882496
1 - 1409675733.370942724
1 - 1409675733.470812593
1 - 1409675733.570833233
1 - 1409675733.670809889
1 - 1409675733.770841272
1 - 1409675733.870879623
1 - 1409675733.970765999
1 - 1409675734.070914514
1 - 1409675734.170803336
1 - 1409675734.271056788
1 - 1409675734.371033153
1 - 1409675734.470843035
1 - 1409675734.570963495
1 - 1409675734.670821851
1 - 1409675734.770927233
1 - 1409675734.870866805
1 - 1409675734.970812025
1 - 1409675735.070904662
1 - 1409675735.170815730
1 - 1409675735.270829793
1 - 1409675735.370903546
1 - 1409675735.470926541
1 - 1409675735.570766504
1 - 1409675735.670894594
1 - 1409675735.770846375
1 - 1409675735.870949168
1 - 1409675735.970829964
1 - 1409675736.070828832
1 - 1409675736.170916955
1 - 1409675736.270914101
1 - 1409675736.370872142
1 - 1409675736.470818184
1 - 1409675736.570922046
1 - 1409675736.671035402
1 - 1409675736.770967991
1 - 1409675736.870886577
1 - 1409675736.970814024
1 - 1409675737.070901901
1 - 1409675737.170849845
1 - 1409675737.270816222
1 - 1409675737.370855882
1 - 1409675737.471195637
1 - 1409675737.570915184
1 - 1409675737.670829126
1 - 1409675737.770933421
1 - 1409675737.870992981
1 - 1409675737.970928025
1 - 1409675738.070810149
1 - 1409675738.170900667
1 - 1409675738.271012555
1 - 1409675738.370905703
1 - 1409675738.470857299
1 - 1409675738.570802813
1 - 1409675738.670808103
1 - 1409675738.770897333
1 - 1409675738.870843417
1 - 1409675738.970869841
1 - 1409675739.070810421
1 - 1409675739.170818326
1 - 1409675739.270861004
1 - 1409675739.371076372
1 - 1409675739.470796294
1 - 1409675739.570841370
1 - 1409675739.670882427
1 - 1409675739.770820313
1 - 1409675739.870804354
1 - 1409675739.970781439
1 - 1409675740.070811206
1 - 1409675740.170907626
1 - 1409675740.271199164
1 - 1409675740.370824400
1 - 1409675740.470904734
1 - 1409675740.570932059
1 - 1409675740.670907172
1 - 1409675740.770917445
1 - 1409675740.870826455
1 - 1409675740.970932927
1 - 1409675741.070823994
1 - 1409675741.170872079
1 - 1409675741.270809754
1 - 1409675741.370841209
0 - 1409675741.470805744
0 - 1409675741.570720676
0 - 1409675741.670728291
0 - 1409675741.770731610
0 - 1409675741.870719851
0 - 1409675741.970754225
0 - 1409675742.070833259
0 - 1409675742.170795565
0 - 1409675742.270785014
0 - 1409675742.370719841
0 - 1409675742.470870233
1 - 1409675742.570852358
1 - 1409675742.670972147
1 - 1409675742.770907722
1 - 1409675742.871082813
1 - 1409675742.970817403
1 - 1409675743.070922878
1 - 1409675743.170835089
1 - 1409675743.270809182
1 - 1409675743.370792936
1 - 1409675743.470810033
1 - 1409675743.570939757
1 - 1409675743.671267457
1 - 1409675743.770811975
1 - 1409675743.870868626
1 - 1409675743.970958669
1 - 1409675744.070848404
1 - 1409675744.170801554
1 - 1409675744.270813867
1 - 1409675744.370822277
1 - 1409675744.470958344
1 - 1409675744.570874483
1 - 1409675744.670855978
1 - 1409675744.770817460
1 - 1409675744.870833827
1 - 1409675744.971089770
1 - 1409675745.071309083
1 - 1409675745.170817917
1 - 1409675745.270831554
1 - 1409675745.370837376
1 - 1409675745.470838820
1 - 1409675745.570846922
1 - 1409675745.670843025
1 - 1409675745.770851291
1 - 1409675745.870941692
1 - 1409675745.970890573
1 - 1409675746.070880981
1 - 1409675746.170876654
1 - 1409675746.271040002
1 - 1409675746.370870529
1 - 1409675746.470874171
1 - 1409675746.570822836
1 - 1409675746.670890986
1 - 1409675746.770800233
1 - 1409675746.870897745
1 - 1409675746.970900757
1 - 1409675747.070896346
1 - 1409675747.170878229
1 - 1409675747.270864609
1 - 1409675747.370889000
1 - 1409675747.471417906
1 - 1409675747.570864148
1 - 1409675747.670831149
1 - 1409675747.770802701
1 - 1409675747.870828010
1 - 1409675747.970770707
1 - 1409675748.071022326
1 - 1409675748.170963515
1 - 1409675748.270848799
1 - 1409675748.370827917
1 - 1409675748.470911673
1 - 1409675748.570889469
1 - 1409675748.670909440
1 - 1409675748.771452963
1 - 1409675748.870894424
1 - 1409675748.970783421
1 - 1409675749.070869576
1 - 1409675749.170842456
1 - 1409675749.270802298
1 - 1409675749.370927489
1 - 1409675749.470995634
1 - 1409675749.570825175
1 - 1409675749.670870562
1 - 1409675749.770824352
1 - 1409675749.870926982
1 - 1409675749.970843209
1 - 1409675750.070940865
1 - 1409675750.171155096
1 - 1409675750.270843462
1 - 1409675750.370850391
1 - 1409675750.470870242
1 - 1409675750.570806131
1 - 1409675750.670860104
1 - 1409675750.770816687
1 - 1409675750.870834791
1 - 1409675750.970865490
1 - 1409675751.070920305
1 - 1409675751.170871465
1 - 1409675751.270782373
1 - 1409675751.370845465
1 - 1409675751.470822398
1 - 1409675751.570897569
1 - 1409675751.670851533
1 - 1409675751.770871493
1 - 1409675751.870860641
1 - 1409675751.970826978
1 - 1409675752.070876219
1 - 1409675752.170811501
1 - 1409675752.270863758
1 - 1409675752.370815110
1 - 1409675752.471203723
1 - 1409675752.570909595
1 - 1409675752.670916317
1 - 1409675752.770903281
1 - 1409675752.870957695
1 - 1409675752.970792106
1 - 1409675753.070851676
1 - 1409675753.170914386
1 - 1409675753.270999695
1 - 1409675753.370798643
1 - 1409675753.470799449
1 - 1409675753.570885499
1 - 1409675753.670856162
1 - 1409675753.770826690
1 - 1409675753.870806395
1 - 1409675753.970846891
1 - 1409675754.070782028
1 - 1409675754.170828383
1 - 1409675754.270887405
1 - 1409675754.371356827
1 - 1409675754.470889773
1 - 1409675754.570810971
1 - 1409675754.670866410
1 - 1409675754.770800228
1 - 1409675754.870920819
1 - 1409675754.970820489
1 - 1409675755.070783912
1 - 1409675755.170760935
1 - 1409675755.270811904
1 - 1409675755.370852429
1 - 1409675755.470906851
1 - 1409675755.570914654
1 - 1409675755.670817160
1 - 1409675755.771175015
1 - 1409675755.870893319
1 - 1409675755.970845422
1 - 1409675756.070976294
1 - 1409675756.170833593
1 - 1409675756.270930332
1 - 1409675756.370912416
1 - 1409675756.470815370
1 - 1409675756.570816447
1 - 1409675756.670880261
1 - 1409675756.770843051
1 - 1409675756.870816558
1 - 1409675756.970805933
1 - 1409675757.070840588
1 - 1409675757.170827146
1 - 1409675757.270806769
1 - 1409675757.370880234
1 - 1409675757.471313471
1 - 1409675757.570868859
1 - 1409675757.670811175
1 - 1409675757.770911120
1 - 1409675757.870812953
1 - 1409675757.970905541
1 - 1409675758.070863447
1 - 1409675758.171017679
1 - 1409675758.270874574
1 - 1409675758.370856831
1 - 1409675758.470798477
1 - 1409675758.570894313
1 - 1409675758.670835742
1 - 1409675758.770805710
1 - 1409675758.870950990
1 - 1409675758.970812029
1 - 1409675759.070816679
1 - 1409675759.170874207
1 - 1409675759.270808346
1 - 1409675759.370913414
1 - 1409675759.470822501
1 - 1409675759.570825525
1 - 1409675759.670877926
1 - 1409675759.770813758
1 - 1409675759.870815527
1 - 1409675759.970811099
1 - 1409675760.071003659
1 - 1409675760.170807597
1 - 1409675760.270919592
1 - 1409675760.370813835
1 - 1409675760.470853138
1 - 1409675760.570798803
1 - 1409675760.670856344
1 - 1409675760.770850820
1 - 1409675760.870791564
1 - 1409675760.970819704
1 - 1409675761.070879306
1 - 1409675761.170813183
1 - 1409675761.270855338
1 - 1409675761.370901070
1 - 1409675761.470832614
1 - 1409675761.570814508
1 - 1409675761.670837244
1 - 1409675761.770806842
1 - 1409675761.870826665
1 - 1409675761.970921187
1 - 1409675762.070835376
1 - 1409675762.170910885
1 - 1409675762.270815289
1 - 1409675762.370814732
1 - 1409675762.471428544
1 - 1409675762.570831413
1 - 1409675762.670857936
1 - 1409675762.770831524
1 - 1409675762.870798928
1 - 1409675762.970948656
1 - 1409675763.070882406
1 - 1409675763.170852550
1 - 1409675763.270847864
1 - 1409675763.370824840
1 - 1409675763.470771923
1 - 1409675763.570802852
1 - 1409675763.670869707
1 - 1409675763.770792251
1 - 1409675763.870813210
1 - 1409675763.970861861
1 - 1409675764.070820669
1 - 1409675764.170771494
1 - 1409675764.270818161
1 - 1409675764.370845203
1 - 1409675764.470804267
1 - 1409675764.570861704
1 - 1409675764.670828633
1 - 1409675764.770848463
1 - 1409675764.870850669
1 - 1409675764.970848528
1 - 1409675765.070923712
1 - 1409675765.170911619
1 - 1409675765.270837171
1 - 1409675765.370809138
1 - 1409675765.470802533
1 - 1409675765.570883596
1 - 1409675765.670844417
1 - 1409675765.770822450
1 - 1409675765.870804008
1 - 1409675765.970904012
1 - 1409675766.070818593
1 - 1409675766.170835739
1 - 1409675766.270826219
1 - 1409675766.370880456
1 - 1409675766.470842974
1 - 1409675766.570920515
1 - 1409675766.670946681
1 - 1409675766.770872149
1 - 1409675766.870899017
1 - 1409675766.970997022
1 - 1409675767.070876953
1 - 1409675767.170891264
1 - 1409675767.270820871
1 - 1409675767.370786049
1 - 1409675767.470830687
1 - 1409675767.570947974
1 - 1409675767.670931028
1 - 1409675767.770809448
1 - 1409675767.870856116
1 - 1409675767.970787334
1 - 1409675768.070955898
1 - 1409675768.170942096
1 - 1409675768.270829314
1 - 1409675768.370862899
1 - 1409675768.470911175
1 - 1409675768.571023940
1 - 1409675768.671920143
1 - 1409675768.771221823
1 - 1409675768.870918815
1 - 1409675768.970820051
1 - 1409675769.070846403
1 - 1409675769.170899735
1 - 1409675769.270767436
1 - 1409675769.370875341
1 - 1409675769.470920049
1 - 1409675769.570965671
1 - 1409675769.670861932
1 - 1409675769.771061566
1 - 1409675769.870926623
1 - 1409675769.970924417
1 - 1409675770.070803154
1 - 1409675770.170823323
1 - 1409675770.270796595
1 - 1409675770.370791245
1 - 1409675770.470826954
1 - 1409675770.570901544
1 - 1409675770.670855987
1 - 1409675770.770801102
1 - 1409675770.870906115
1 - 1409675770.970832387
1 - 1409675771.071122488
1 - 1409675771.170873687
1 - 1409675771.270951747
1 - 1409675771.370805289
1 - 1409675771.470862715
1 - 1409675771.570878695
1 - 1409675771.670796703
1 - 1409675771.770811367
1 - 1409675771.871002111
1 - 1409675771.970800310
1 - 1409675772.070889209
1 - 1409675772.170863346
1 - 1409675772.270867584
1 - 1409675772.370941814
1 - 1409675772.471457038
1 - 1409675772.570882674
1 - 1409675772.670847791
1 - 1409675772.770935315
1 - 1409675772.870845407
1 - 1409675772.970855928
1 - 1409675773.070917215
1 - 1409675773.170814258
1 - 1409675773.270818314
1 - 1409675773.370886069
1 - 1409675773.470791592
1 - 1409675773.570848304
1 - 1409675773.670895145
1 - 1409675773.770899068
1 - 1409675773.870868792
1 - 1409675773.970940747
1 - 1409675774.070814133
1 - 1409675774.170861388
1 - 1409675774.270803195
1 - 1409675774.370882450
1 - 1409675774.471699947
1 - 1409675774.570802213
1 - 1409675774.670938607
1 - 1409675774.770826306
1 - 1409675774.870772350
1 - 1409675774.970792310
1 - 1409675775.070796908
1 - 1409675775.170868261
1 - 1409675775.270902659
1 - 1409675775.370960720
1 - 1409675775.471215236
1 - 1409675775.570787858
1 - 1409675775.670815586
1 - 1409675775.770803913
1 - 1409675775.870820004
1 - 1409675775.970784278
1 - 1409675776.070828455
1 - 1409675776.170817316
1 - 1409675776.270874290
1 - 1409675776.370861713
1 - 1409675776.470829107
1 - 1409675776.571009729
1 - 1409675776.670927461
1 - 1409675776.770809478
1 - 1409675776.870866231
1 - 1409675776.970973829
1 - 1409675777.070855576
1 - 1409675777.170837959
1 - 1409675777.270895220
1 - 1409675777.370846932
1 - 1409675777.470813472
1 - 1409675777.570817887
1 - 1409675777.670824087
1 - 1409675777.771028962
1 - 1409675777.870898425
1 - 1409675777.970808858
1 - 1409675778.070858292
1 - 1409675778.170833575
1 - 1409675778.270780713
1 - 1409675778.370812935
1 - 1409675778.470862135
1 - 1409675778.570819681
1 - 1409675778.670832325
1 - 1409675778.770836837
1 - 1409675778.870867283
1 - 1409675778.970831431
1 - 1409675779.070898851
1 - 1409675779.170835516
1 - 1409675779.270798765
1 - 1409675779.370875474
1 - 1409675779.470829617
1 - 1409675779.570907412
1 - 1409675779.670822164
1 - 1409675779.770802832
1 - 1409675779.870934899
1 - 1409675779.970861339
0 - 1409675780.070649383
0 - 1409675780.170607329
0 - 1409675780.270678382
0 - 1409675780.370652719
0 - 1409675780.470676246
0 - 1409675780.570666620
0 - 1409675780.670676270
1 - 1409675780.770836947
1 - 1409675780.870818608
0 - 1409675780.970645217
0 - 1409675781.070613722
0 - 1409675781.170676400
0 - 1409675781.270672353
0 - 1409675781.370668690
0 - 1409675781.470669449
0 - 1409675781.570665852
0 - 1409675781.670773316
0 - 1409675781.770770021
0 - 1409675781.870700205
0 - 1409675781.970790760
1 - 1409675782.070852701
1 - 1409675782.170818990
0 - 1409675782.270726149
0 - 1409675782.370718715
0 - 1409675782.470714538
0 - 1409675782.570722548
0 - 1409675782.920119972
0 - 1409675783.020194718
0 - 1409675783.120283792
0 - 1409675783.220212656
1 - 1409675783.870734733
0 - 1409675783.870934355
1 - 1409675783.971112174
1 - 1409675784.071180217
1 - 1409675784.171116358
1 - 1409675784.271074362
1 - 1409675784.371254000
1 - 1409675784.471077397
1 - 1409675784.571345323
1 - 1409675784.671127767
1 - 1409675784.771154243
1 - 1409675784.871113709
1 - 1409675784.971073719
1 - 1409675785.071108363
1 - 1409675785.171104304
1 - 1409675785.271071730
1 - 1409675785.371136466
1 - 1409675785.471098299
1 - 1409675785.571105825
1 - 1409675785.671064416
1 - 1409675785.771173721
1 - 1409675785.871097834
1 - 1409675785.971113325
1 - 1409675786.071116740
1 - 1409675786.171150287
1 - 1409675786.271082758
1 - 1409675786.371273328
1 - 1409675786.471151699
1 - 1409675786.571216308
1 - 1409675786.671177368
1 - 1409675786.771086087
1 - 1409675786.871128406
1 - 1409675786.971113278
1 - 1409675787.071105075
1 - 1409675787.171078101
1 - 1409675787.271111243
1 - 1409675787.371177606
1 - 1409675787.471148420
1 - 1409675787.571074881
1 - 1409675787.671090889
1 - 1409675787.771101848
1 - 1409675787.871159296
1 - 1409675787.971109875
1 - 1409675788.071209407
1 - 1409675788.171157517
1 - 1409675788.271127917
1 - 1409675788.371416023
1 - 1409675788.471176498
1 - 1409675788.571168964
1 - 1409675788.671160982
1 - 1409675788.771097071
1 - 1409675788.871109675
1 - 1409675788.971136627
1 - 1409675789.071306795
1 - 1409675789.171101568
1 - 1409675789.271276242
1 - 1409675789.371194065
1 - 1409675789.471124804
1 - 1409675789.571092734
1 - 1409675789.671171401
1 - 1409675789.771278612
1 - 1409675789.871081477
1 - 1409675789.971045293
1 - 1409675790.071089626
1 - 1409675790.171180441
1 - 1409675790.271174277
1 - 1409675790.371093204
1 - 1409675790.471145108
1 - 1409675790.571099809
1 - 1409675790.671096473
1 - 1409675790.771073484
1 - 1409675790.871091135
1 - 1409675790.971156674
1 - 1409675791.071129351
1 - 1409675791.171190705
1 - 1409675791.271195775
1 - 1409675791.371092215
1 - 1409675791.471069598
1 - 1409675791.571109903
1 - 1409675791.671119709
1 - 1409675791.771096529
1 - 1409675791.871140341
1 - 1409675791.971103494
1 - 1409675792.071085616
1 - 1409675792.171119257
1 - 1409675792.271144716
1 - 1409675792.371109877
1 - 1409675792.471234654
1 - 1409675792.571154628
1 - 1409675792.671180106
1 - 1409675792.771091579
1 - 1409675792.871171824
1 - 1409675792.971122029
1 - 1409675793.071261144
1 - 1409675793.171099315
1 - 1409675793.271129998
1 - 1409675793.371224841
1 - 1409675793.471076909
1 - 1409675793.571121897
1 - 1409675793.671322053
1 - 1409675793.771119117
1 - 1409675793.871193146
1 - 1409675793.971247124
1 - 1409675794.071257541
1 - 1409675794.171103976
1 - 1409675794.271163583
1 - 1409675794.371229936
1 - 1409675794.471203914
1 - 1409675794.571117652
1 - 1409675794.671143578
1 - 1409675794.771110772
1 - 1409675794.871262557
1 - 1409675794.971150859
1 - 1409675795.071192071
1 - 1409675795.171192996
1 - 1409675795.271126890
1 - 1409675795.371188462
1 - 1409675795.471179853
1 - 1409675795.571126108
1 - 1409675795.671123178
1 - 1409675795.771128668
1 - 1409675795.871232514
1 - 1409675795.971115302
1 - 1409675796.071210764
1 - 1409675796.171108975
1 - 1409675796.271076257
1 - 1409675796.371167298
1 - 1409675796.471065935
1 - 1409675796.571146225
1 - 1409675796.671240265
1 - 1409675796.771184448
1 - 1409675796.871119475
1 - 1409675796.971089438
1 - 1409675797.071411780
1 - 1409675797.171111540
1 - 1409675797.271212516
1 - 1409675797.371232070
1 - 1409675797.471111773
1 - 1409675797.571185910
1 - 1409675797.671150727
1 - 1409675797.771141897
1 - 1409675797.871153769
1 - 1409675797.971072593
1 - 1409675798.071147061
1 - 1409675798.171186987
1 - 1409675798.271087689
1 - 1409675798.371272931
1 - 1409675798.471251053
1 - 1409675798.571213037
1 - 1409675798.671136093
1 - 1409675798.771148525
1 - 1409675798.871137711
1 - 1409675798.971074529
1 - 1409675799.071118082
1 - 1409675799.171074083
1 - 1409675799.271131862
1 - 1409675799.371246745
1 - 1409675799.471193804
1 - 1409675799.571161150
1 - 1409675799.671152186
1 - 1409675799.771050177
1 - 1409675799.871247738
1 - 1409675799.971125828
1 - 1409675800.071185328
1 - 1409675800.171103444
1 - 1409675800.271142989
1 - 1409675800.371152741
1 - 1409675800.471081459
1 - 1409675800.571097350
1 - 1409675800.671151916
1 - 1409675800.771085854
1 - 1409675800.871085553
1 - 1409675800.971083867
1 - 1409675801.071181583
1 - 1409675801.171103721
1 - 1409675801.271151414
1 - 1409675801.371096707
1 - 1409675801.471154733
1 - 1409675801.571382121
1 - 1409675801.671110982
1 - 1409675801.771157032
1 - 1409675801.871190713
1 - 1409675801.971142829
1 - 1409675802.071109821
1 - 1409675802.171074280
1 - 1409675802.271264121
1 - 1409675802.371096903
1 - 1409675802.471089372
1 - 1409675802.571187672
1 - 1409675802.671133467
1 - 1409675802.771171798
1 - 1409675802.871123050
1 - 1409675802.971093622
1 - 1409675803.071389887
1 - 1409675803.171162570
1 - 1409675803.271230132
1 - 1409675803.371099533
1 - 1409675803.471081081
1 - 1409675803.571093016
1 - 1409675803.671121229
1 - 1409675803.771087606
1 - 1409675803.871182961
1 - 1409675803.971134565
1 - 1409675804.071128340
1 - 1409675804.171148416
1 - 1409675804.271182393
1 - 1409675804.371101002
1 - 1409675804.471098045
1 - 1409675804.571127071
1 - 1409675804.671110120
1 - 1409675804.771214493
1 - 1409675804.871068898
1 - 1409675804.971170263
1 - 1409675805.071484026
1 - 1409675805.171123738
1 - 1409675805.271203367
1 - 1409675805.371199116
1 - 1409675805.471181906
1 - 1409675805.571097735
1 - 1409675805.671300907
1 - 1409675805.771098527
1 - 1409675805.871080926
1 - 1409675805.971221830
1 - 1409675806.071102711
1 - 1409675806.171077377
1 - 1409675806.271091607
1 - 1409675806.371269366
1 - 1409675806.471094653
1 - 1409675806.571079620
1 - 1409675806.671090942
1 - 1409675806.771068516
1 - 1409675806.871211481
1 - 1409675806.971074180
1 - 1409675807.071160030
1 - 1409675807.171095742
1 - 1409675807.271390392
1 - 1409675807.371174804
1 - 1409675807.471143660
1 - 1409675807.571261985
1 - 1409675807.671132511
1 - 1409675807.771112126
1 - 1409675807.871183687
1 - 1409675807.971095116
1 - 1409675808.071148512
1 - 1409675808.171169681
1 - 1409675808.271082315
1 - 1409675808.371164892
1 - 1409675808.471159843
1 - 1409675808.571083864
1 - 1409675808.671139665
1 - 1409675808.771232821
1 - 1409675808.871166341
1 - 1409675808.971180037
1 - 1409675809.071209228
1 - 1409675809.171098064
1 - 1409675809.271240581
1 - 1409675809.371090471
1 - 1409675809.471060284
1 - 1409675809.571100672
1 - 1409675809.671187569
1 - 1409675809.771106509
1 - 1409675809.871041289
1 - 1409675809.971182787
1 - 1409675810.071268910
1 - 1409675810.171172636
1 - 1409675810.271237830
1 - 1409675810.371090842
1 - 1409675810.471153562
1 - 1409675810.571146014
1 - 1409675810.671136881
1 - 1409675810.771049322
1 - 1409675810.871102331
1 - 1409675810.971159916
1 - 1409675811.071089102
1 - 1409675811.171244291
1 - 1409675811.271137622
1 - 1409675811.371066748
1 - 1409675811.471143793
1 - 1409675811.571192422
1 - 1409675811.671399562
1 - 1409675811.771157252
1 - 1409675811.871190941
1 - 1409675811.971286280
1 - 1409675812.071167236
1 - 1409675812.171146174
1 - 1409675812.271201847
1 - 1409675812.371104784
1 - 1409675812.471095553
1 - 1409675812.571188306
1 - 1409675812.671199977
1 - 1409675812.771105298
1 - 1409675812.871188253
1 - 1409675812.971071877
1 - 1409675813.071097702
1 - 1409675813.171317082
1 - 1409675813.271253334
1 - 1409675813.371090352
1 - 1409675813.471131290
1 - 1409675813.571114234
1 - 1409675813.671257782
1 - 1409675813.771099658
1 - 1409675813.871238404
1 - 1409675813.971090349
1 - 1409675814.071145920
1 - 1409675814.171149626
1 - 1409675814.271180955
1 - 1409675814.371092826
1 - 1409675814.471113402
1 - 1409675814.571087635
1 - 1409675814.671073844
1 - 1409675814.771124933
1 - 1409675814.871091419
1 - 1409675814.971099929
1 - 1409675815.071178012
1 - 1409675815.171201126
1 - 1409675815.271078090
1 - 1409675815.371202995
1 - 1409675815.471160489
1 - 1409675815.571131751
1 - 1409675815.671065768
1 - 1409675815.771079378
1 - 1409675815.871120919
1 - 1409675815.971150210
1 - 1409675816.071143290
1 - 1409675816.171227159
1 - 1409675816.271150660
1 - 1409675816.371074887
1 - 1409675816.471109918
1 - 1409675816.571156873
1 - 1409675816.671114444
1 - 1409675816.771206190
1 - 1409675816.871150320
1 - 1409675816.971110603
1 - 1409675817.071211857
1 - 1409675817.171213535
1 - 1409675817.271085400
1 - 1409675817.371124922
1 - 1409675817.471153961
1 - 1409675817.571213711
1 - 1409675817.671207934
1 - 1409675817.771122148
1 - 1409675817.871070538
1 - 1409675817.971138392
1 - 1409675818.071155715
1 - 1409675818.171097916
1 - 1409675818.271180399
1 - 1409675818.371158953
1 - 1409675818.471092445
1 - 1409675818.571087673
0 - 1409675818.671100763
0 - 1409675818.771027302
0 - 1409675818.870993800
0 - 1409675818.970999067
0 - 1409675819.071028774
0 - 1409675819.170995228
0 - 1409675819.271088158
0 - 1409675819.371000525
0 - 1409675819.470988999
1 - 1409675819.571187124
1 - 1409675819.671164582
1 - 1409675819.771081442
1 - 1409675819.871131617
1 - 1409675819.971127664
1 - 1409675820.071245486
1 - 1409675820.171274865
1 - 1409675820.271331569
1 - 1409675820.371145357
1 - 1409675820.471176819
1 - 1409675820.571115218
1 - 1409675820.671100964
1 - 1409675820.771146712
1 - 1409675820.871078949
1 - 1409675820.971081650
1 - 1409675821.071173372
1 - 1409675821.171231335
1 - 1409675821.271152810
1 - 1409675821.371105487
1 - 1409675821.471265763
1 - 1409675821.571219059
1 - 1409675821.671158732
1 - 1409675821.771264273
1 - 1409675821.871146711
1 - 1409675821.971076744
1 - 1409675822.071247628
1 - 1409675822.171083958
1 - 1409675822.271324437
1 - 1409675822.371110626
1 - 1409675822.471074876
1 - 1409675822.571112846
1 - 1409675822.671106540
1 - 1409675822.771101557
1 - 1409675822.871144259
1 - 1409675822.971124143
1 - 1409675823.071235258
1 - 1409675823.171174942
1 - 1409675823.271088970
1 - 1409675823.371081479
1 - 1409675823.471098244
1 - 1409675823.571196123
1 - 1409675823.671362816
1 - 1409675823.771184108
1 - 1409675823.871188059
1 - 1409675823.971145563
1 - 1409675824.071234210
1 - 1409675824.171091964
1 - 1409675824.271159966
1 - 1409675824.371105481
1 - 1409675824.471091983
1 - 1409675824.571346721
1 - 1409675824.671067101
1 - 1409675824.771110206
1 - 1409675824.871163561
1 - 1409675824.971109792
1 - 1409675825.071109773
1 - 1409675825.171146309
1 - 1409675825.271156038
1 - 1409675825.371161267
1 - 1409675825.471161728
1 - 1409675825.571107320
1 - 1409675825.671165118
1 - 1409675825.771097440
1 - 1409675825.871091966
1 - 1409675825.971158642
1 - 1409675826.071633981
1 - 1409675826.171113764
1 - 1409675826.271138669
1 - 1409675826.371209365
1 - 1409675826.471093184
1 - 1409675826.571114026
1 - 1409675826.671125044
1 - 1409675826.771156346
1 - 1409675826.871170071
1 - 1409675826.971113108
1 - 1409675827.071090332
1 - 1409675827.171182191
1 - 1409675827.271128281
1 - 1409675827.371089057
1 - 1409675827.471179203
1 - 1409675827.571141483
1 - 1409675827.671107367
1 - 1409675827.771128942
1 - 1409675827.871247708
1 - 1409675827.971151928
1 - 1409675828.071320075
1 - 1409675828.171093647
1 - 1409675828.271103736
1 - 1409675828.371107612
1 - 1409675828.471111415
1 - 1409675828.571115590
1 - 1409675828.671149991
1 - 1409675828.771368461
1 - 1409675828.871086991
1 - 1409675828.971098084
1 - 1409675829.071149701
1 - 1409675829.171089384
1 - 1409675829.271098562
1 - 1409675829.371116212
1 - 1409675829.471189673
1 - 1409675829.571102653
1 - 1409675829.671094624
1 - 1409675829.771081968
1 - 1409675829.871148141
1 - 1409675829.971184604
1 - 1409675830.071130083
1 - 1409675830.171176921
1 - 1409675830.271141900
1 - 1409675830.371170208
1 - 1409675830.471155156
1 - 1409675830.571093874
1 - 1409675830.671088429
1 - 1409675830.771079317
1 - 1409675830.871065191
1 - 1409675830.971131872
1 - 1409675831.071104938
1 - 1409675831.171210035
1 - 1409675831.271248524
1 - 1409675831.371135003
1 - 1409675831.471201939
1 - 1409675831.571105008
1 - 1409675831.671106552
1 - 1409675831.771163369
1 - 1409675831.871081714
1 - 1409675831.971099638
1 - 1409675832.071111516
1 - 1409675832.171104584
1 - 1409675832.271104583
1 - 1409675832.371297037
1 - 1409675832.471096910
1 - 1409675832.571086004
1 - 1409675832.671106375
1 - 1409675832.771126632
1 - 1409675832.871104917
1 - 1409675832.971163491
1 - 1409675833.071124740
1 - 1409675833.171189033
1 - 1409675833.271084685
1 - 1409675833.371199834
1 - 1409675833.471116495
1 - 1409675833.571082024
1 - 1409675833.671141575
1 - 1409675833.771113076
1 - 1409675833.871194307
1 - 1409675833.971202743
1 - 1409675834.071202737
1 - 1409675834.171141086
1 - 1409675834.271183275
1 - 1409675834.371075421
1 - 1409675834.471098536
1 - 1409675834.571072906
1 - 1409675834.671190309
1 - 1409675834.771096959
1 - 1409675834.871262314
1 - 1409675834.971110039
1 - 1409675835.071149106
1 - 1409675835.171096116
1 - 1409675835.271142044
1 - 1409675835.371118827
1 - 1409675835.471411150
1 - 1409675835.571120940
1 - 1409675835.671107265
1 - 1409675835.771176343
1 - 1409675835.871160612
1 - 1409675835.971134782
1 - 1409675836.071535604
1 - 1409675836.171084596
1 - 1409675836.271078050
1 - 1409675836.371221755
1 - 1409675836.471075908
1 - 1409675836.571087189
1 - 1409675836.671121034
1 - 1409675836.771144534
1 - 1409675836.871273304
1 - 1409675836.971206787
1 - 1409675837.071174307
1 - 1409675837.171166428
1 - 1409675837.271147843
1 - 1409675837.371128819
1 - 1409675837.471084665
1 - 1409675837.571140033
1 - 1409675837.671151383
1 - 1409675837.771150371
1 - 1409675837.871382826
1 - 1409675837.971211649
1 - 1409675838.071212912
1 - 1409675838.171301528
1 - 1409675838.271108889
1 - 1409675838.371109323
1 - 1409675838.471080854
1 - 1409675838.571234142
1 - 1409675838.671194566
1 - 1409675838.771155422
1 - 1409675838.871140118
1 - 1409675838.971236745
1 - 1409675839.071128763
1 - 1409675839.171243096
1 - 1409675839.271206188
1 - 1409675839.371069799
1 - 1409675839.471125075
1 - 1409675839.571156214
1 - 1409675839.671178260
1 - 1409675839.771155454
1 - 1409675839.871155704
1 - 1409675839.971115824
1 - 1409675840.071136967
1 - 1409675840.171134868
1 - 1409675840.271106864
1 - 1409675840.371073296
1 - 1409675840.471231868
1 - 1409675840.571075818
1 - 1409675840.671109153
1 - 1409675840.771119306
1 - 1409675840.871181552
1 - 1409675840.971111625
1 - 1409675841.071714369
1 - 1409675841.171221791
1 - 1409675841.271145539
1 - 1409675841.371122183
1 - 1409675841.471219258
1 - 1409675841.571127010
1 - 1409675841.671121647
1 - 1409675841.771182968
1 - 1409675841.871089030
1 - 1409675841.971079611
1 - 1409675842.071176426
1 - 1409675842.171092357
1 - 1409675842.271204235
1 - 1409675842.371108919
1 - 1409675842.471144396
1 - 1409675842.571202185
1 - 1409675842.671147989
1 - 1409675842.771117736
1 - 1409675842.871145026
1 - 1409675842.971100661
1 - 1409675843.071106581
1 - 1409675843.171160834
1 - 1409675843.271079834
1 - 1409675843.371164586
1 - 1409675843.471086863
1 - 1409675843.571159849
1 - 1409675843.671106282
1 - 1409675843.771148556
1 - 1409675843.871128934
1 - 1409675843.971268246
1 - 1409675844.071230803
1 - 1409675844.171128779
1 - 1409675844.271095233
1 - 1409675844.371097273
1 - 1409675844.471084192
1 - 1409675844.571078012
1 - 1409675844.671206531
1 - 1409675844.771081200
1 - 1409675844.871094146
1 - 1409675844.971223388
1 - 1409675845.071144213
1 - 1409675845.171103834
1 - 1409675845.271131859
1 - 1409675845.371139151
1 - 1409675845.471091845
1 - 1409675845.571177266
1 - 1409675845.671344145
1 - 1409675845.771072669
1 - 1409675845.871109955
1 - 1409675845.971188252
1 - 1409675846.071492422
1 - 1409675846.171120791
1 - 1409675846.271168732
1 - 1409675846.371142380
1 - 1409675846.471091097
1 - 1409675846.571148780
1 - 1409675846.671115242
1 - 1409675846.771129305
1 - 1409675846.871119635
1 - 1409675846.971110114
1 - 1409675847.071084944
1 - 1409675847.171106505
1 - 1409675847.271303677
1 - 1409675847.371175463
1 - 1409675847.471108763
1 - 1409675847.571087261
1 - 1409675847.671082183
1 - 1409675847.771179884
1 - 1409675847.871075873
1 - 1409675847.971062010
1 - 1409675848.071069834
1 - 1409675848.171050721
1 - 1409675848.271182517
1 - 1409675848.371115898
1 - 1409675848.471100864
1 - 1409675848.571192907
1 - 1409675848.671150172
1 - 1409675848.771583445
1 - 1409675848.871119549
1 - 1409675848.971152433
1 - 1409675849.071072314
1 - 1409675849.171121408
1 - 1409675849.271076018
1 - 1409675849.371141648
1 - 1409675849.471191281
1 - 1409675849.571097011
1 - 1409675849.671115327
1 - 1409675849.771095367
1 - 1409675849.871083085
1 - 1409675849.971095870
1 - 1409675850.071098174
1 - 1409675850.171081422
1 - 1409675850.271099187
1 - 1409675850.371223736
1 - 1409675850.471157502
1 - 1409675850.571094129
1 - 1409675850.671209026
1 - 1409675850.771113516
1 - 1409675850.871143516
1 - 1409675850.971087182
1 - 1409675851.071207094
1 - 1409675851.171091202
1 - 1409675851.271158972
1 - 1409675851.371178081
1 - 1409675851.471075564
1 - 1409675851.571146469
1 - 1409675851.671084512
1 - 1409675851.771103608
1 - 1409675851.871100200
1 - 1409675851.971099179
1 - 1409675852.071140462
1 - 1409675852.171132409
1 - 1409675852.271094571
1 - 1409675852.371109868
1 - 1409675852.471167092
1 - 1409675852.571135983
1 - 1409675852.671108889
1 - 1409675852.771102190
1 - 1409675852.871095990
1 - 1409675852.971139442
1 - 1409675853.071118405
1 - 1409675853.171104147
1 - 1409675853.271199915
1 - 1409675853.371169038
1 - 1409675853.471111141
1 - 1409675853.571123801
1 - 1409675853.671105809
1 - 1409675853.771137571
1 - 1409675853.871115113
1 - 1409675853.971135897
1 - 1409675854.071049684
1 - 1409675854.171136564
1 - 1409675854.271193401
1 - 1409675854.371047887
1 - 1409675854.471237731
1 - 1409675854.571161560
1 - 1409675854.671119187
1 - 1409675854.771096583
1 - 1409675854.871222080
1 - 1409675854.971491659
1 - 1409675855.071143628
1 - 1409675855.171096448
1 - 1409675855.271105420
1 - 1409675855.371145547
1 - 1409675855.471165557
1 - 1409675855.571219002
1 - 1409675855.671104271
1 - 1409675855.771199221
1 - 1409675855.871139009
1 - 1409675855.971626827
1 - 1409675856.071587537
1 - 1409675856.171305069
1 - 1409675856.271087485
1 - 1409675856.371101557
1 - 1409675856.471370194
1 - 1409675856.571259215
1 - 1409675856.671289173
1 - 1409675856.771044073
1 - 1409675856.871095316
1 - 1409675856.971097725
1 - 1409675857.071145883
1 - 1409675857.171096354
1 - 1409675857.271048953
1 - 1409675857.371079370
1 - 1409675857.471135469
1 - 1409675857.571082212
1 - 1409675857.671284940
1 - 1409675857.771151173
1 - 1409675857.871594701
1 - 1409675857.971335675
1 - 1409675858.071199173
1 - 1409675858.171156814
1 - 1409675858.271167028
1 - 1409675858.371161860
1 - 1409675858.471146605
1 - 1409675858.571079918
1 - 1409675858.671132840
1 - 1409675858.771219617
1 - 1409675858.871122999
1 - 1409675858.971078160
1 - 1409675859.071135446
1 - 1409675859.171214804
1 - 1409675859.271152724
1 - 1409675859.371103830
1 - 1409675859.471191004
1 - 1409675859.571100690
1 - 1409675859.671088916
1 - 1409675859.771081997
1 - 1409675859.871074830
1 - 1409675859.971143262
1 - 1409675860.071160344
1 - 1409675860.171101317
1 - 1409675860.271115448
1 - 1409675860.371100275
1 - 1409675860.471084016
1 - 1409675860.571161502
1 - 1409675860.671207862
1 - 1409675860.771095706
1 - 1409675860.871106516
1 - 1409675860.971096946
1 - 1409675861.071516925
1 - 1409675861.171091884
1 - 1409675861.271056278
1 - 1409675861.371087393
1 - 1409675861.471092193
1 - 1409675861.571098164
1 - 1409675861.671124735
1 - 1409675861.771086618
1 - 1409675861.871352153
1 - 1409675861.971145298
1 - 1409675862.071091124
1 - 1409675862.171224558
1 - 1409675862.271192827
1 - 1409675862.371099007
1 - 1409675862.471235960
1 - 1409675862.571135349
1 - 1409675862.671131169
1 - 1409675862.771118249
1 - 1409675862.871077164
1 - 1409675862.971143066
1 - 1409675863.071095079
1 - 1409675863.171091917
1 - 1409675863.271223863
1 - 1409675863.371118605
1 - 1409675863.471153543
1 - 1409675863.571124694
1 - 1409675863.671182327
1 - 1409675863.771097180
1 - 1409675863.871553712
1 - 1409675863.971301458
1 - 1409675864.071079499
1 - 1409675864.171148097
1 - 1409675864.271464347
1 - 1409675864.371083554
1 - 1409675864.471181627
1 - 1409675864.571060875
1 - 1409675864.671164233
1 - 1409675864.771209511
1 - 1409675864.871114371
1 - 1409675864.971098599
1 - 1409675865.071140678
1 - 1409675865.171112993
1 - 1409675865.271157534
1 - 1409675865.371087269
1 - 1409675865.471018646
1 - 1409675865.571202960
1 - 1409675865.671100015
1 - 1409675865.771066253
1 - 1409675865.871162236
1 - 1409675865.971225507
1 - 1409675866.071534325
1 - 1409675866.171088044
1 - 1409675866.271145184
1 - 1409675866.371050601
1 - 1409675866.471093859
1 - 1409675866.571258830
1 - 1409675866.671116558
1 - 1409675866.771200216
1 - 1409675866.871170265
1 - 1409675866.971155620
1 - 1409675867.071171021
1 - 1409675867.171408586
1 - 1409675867.271122418
1 - 1409675867.371195183
1 - 1409675867.471202552
1 - 1409675867.571097343
1 - 1409675867.671116222
1 - 1409675867.771085802
1 - 1409675867.871098124
1 - 1409675867.971092973
1 - 1409675868.071092402
1 - 1409675868.171129054
1 - 1409675868.271136178
1 - 1409675868.371177908
1 - 1409675868.471096389
1 - 1409675868.571155953
1 - 1409675868.671149179
1 - 1409675868.771119447
1 - 1409675868.871069051
1 - 1409675868.971094453
1 - 1409675869.071076434
1 - 1409675869.171072041
1 - 1409675869.271140510
1 - 1409675869.371154052
1 - 1409675869.471118492
1 - 1409675869.571078124
1 - 1409675869.671125164
1 - 1409675869.771244969
1 - 1409675869.871178708
1 - 1409675869.971180664
1 - 1409675870.071126737
1 - 1409675870.171102404
1 - 1409675870.271194969
1 - 1409675870.371135942
1 - 1409675870.471082316
1 - 1409675870.571189958
1 - 1409675870.671043208
1 - 1409675870.771166982
1 - 1409675870.871174205
1 - 1409675870.971264241
1 - 1409675871.071113566
1 - 1409675871.171289786
1 - 1409675871.271154581
1 - 1409675871.371114863
1 - 1409675871.471133931
1 - 1409675871.571049766
1 - 1409675871.671084834
1 - 1409675871.771124224
1 - 1409675871.871152064
1 - 1409675871.971098762
1 - 1409675872.071112092
1 - 1409675872.171106497
1 - 1409675872.271108714
1 - 1409675872.371120348
1 - 1409675872.471133832
1 - 1409675872.571126930
1 - 1409675872.671093151
1 - 1409675872.771112858
1 - 1409675872.871106312
1 - 1409675872.971099891
1 - 1409675873.071138810
1 - 1409675873.171113073
1 - 1409675873.271158346
1 - 1409675873.371176190
1 - 1409675873.471111662
1 - 1409675873.571107496
1 - 1409675873.671110357
1 - 1409675873.771177902
1 - 1409675873.871109810
1 - 1409675873.971082998
1 - 1409675874.071103508
1 - 1409675874.171163986
1 - 1409675874.271086349
1 - 1409675874.371093926
1 - 1409675874.471089339
1 - 1409675874.571284006
1 - 1409675874.671177823
1 - 1409675874.771207395
1 - 1409675874.871113988
1 - 1409675874.971111014
1 - 1409675875.071185159
1 - 1409675875.171126252
1 - 1409675875.271089390
1 - 1409675875.371090061
1 - 1409675875.471095211
1 - 1409675875.571073060
1 - 1409675875.671108358
1 - 1409675875.771181380
1 - 1409675875.871120731
1 - 1409675875.971157408
1 - 1409675876.071129910
1 - 1409675876.171110402
1 - 1409675876.271344918
1 - 1409675876.371077875
1 - 1409675876.471104878
1 - 1409675876.571167367
