1409676096.995855654 : 842.657
1409676097.996198264 : 862.389
1409676098.996485741 : 1773.81
1409676100.497094519 : 816.37
1409676100.547092936 : 816.37
1409676100.597214857 : 818.675
1409676100.647227762 : 807.177
1409676100.697176401 : 807.177
1409676100.747210688 : 795.992
1409676100.797232892 : 818.675
1409676100.847233755 : 830.497
1409676100.897105774 : 847.178
1409676100.947223057 : 872.995
1409676100.997174985 : 872.995
1409676101.047152259 : 932.196
1409676101.097178364 : 947.608
1409676101.147180628 : 966.19
1409676101.197211721 : 999.947
1409676101.247216553 : 1017.71
1409676101.297173003 : 1051.71
1409676101.347212525 : 1095.43
1409676101.397233128 : 1116.72
1409676101.447170321 : 1116.72
1409676101.497718115 : 1142.76
1409676101.547180175 : 1161.82
1409676101.597203735 : 1166
1409676101.647220578 : 1215.36
1409676101.697191119 : 1215.36
1409676101.747142604 : 1246.11
1409676101.797161070 : 1215.36
1409676101.847177758 : 1269
1409676101.897185760 : 1269
1409676101.947159949 : 1332.99
1409676101.997323693 : 1364.67
1409676102.047193857 : 1397.86
1409676102.097180869 : 1369.84
1409676102.147149913 : 1403.41
1409676102.197185851 : 1438.65
1409676102.247203960 : 1469.22
1409676102.297173093 : 1469.22
1409676102.347249702 : 1507.66
1409676102.397360327 : 1590.75
1409676102.497487633 : 1590.75
1409676102.597597563 : 1644.65
1409676102.697400680 : 1753.37
1409676102.797512483 : 1744.23
1409676102.897541987 : 1798.59
1409676102.997509097 : 1856.37
1409676103.097524350 : 1856.37
1409676103.197440346 : 1930.06
1409676103.297501046 : 1930.06
1409676103.397582820 : 2008.22
1409676103.497538529 : 2008.22
1409676103.597487907 : 2008.22
1409676103.697508604 : 1997
1409676103.797404378 : 2068.66
1409676103.897568558 : 1940.18
1409676103.997489688 : 2008.22
1409676104.097472151 : 1930.06
1409676104.197500865 : 1930.06
1409676104.297549520 : 1940.18
1409676104.397520524 : 1948.17
1409676104.497504476 : 1930.06
1409676104.597509579 : 1948.17
1409676104.697631725 : 1940.18
1409676104.797553815 : 1940.18
1409676104.897502762 : 1940.18
1409676104.997433141 : 1883.78
1409676105.097416770 : 1883.78
1409676105.197568623 : 1883.78
1409676105.297498886 : 1883.78
1409676105.397591487 : 1883.78
1409676105.497495040 : 1883.78
1409676105.597595620 : 1883.78
1409676105.697565650 : 1948.17
1409676105.797563500 : 1823.49
1409676105.897568055 : 1823.49
1409676105.997475503 : 1883.78
1409676106.097557419 : 1883.78
1409676106.197610527 : 1883.78
1409676106.297542299 : 1888.99
1409676106.397504645 : 1888.99
1409676106.497522464 : 1888.99
1409676106.597614966 : 1953.93
1409676106.697504021 : 1888.99
1409676106.797541694 : 1888.99
1409676106.897501525 : 1888.99
1409676106.997614743 : 1892.14
1409676107.097563483 : 1831.07
1409676107.197550093 : 1888.99
1409676107.297508946 : 1892.14
1409676107.397564877 : 1892.14
1409676107.497552765 : 1892.14
1409676107.597579739 : 1831.07
1409676107.697571457 : 1892.14
1409676107.797582049 : 1831.07
1409676107.897533927 : 1892.14
1409676107.997507762 : 1828.22
1409676108.097493940 : 1828.22
1409676108.197519720 : 1771.22
1409676108.297518758 : 1831.07
1409676108.397545437 : 1892.14
1409676108.497496364 : 1771.22
1409676108.597543792 : 1831.07
1409676108.697705880 : 1828.22
1409676108.797431722 : 1828.22
1409676108.897567650 : 1828.22
1409676108.997681521 : 1823.49
1409676109.097680434 : 1766.92
1409676109.197532232 : 1823.49
1409676109.297510627 : 1828.22
1409676109.397502471 : 1823.49
1409676109.497558564 : 1883.78
1409676109.597520461 : 1823.49
1409676109.697654085 : 1883.78
1409676109.797521993 : 1816.94
1409676109.897498718 : 1883.78
1409676109.997495516 : 1823.49
1409676110.097616364 : 1823.49
1409676110.197504903 : 1823.49
1409676110.297497285 : 1816.94
1409676110.397564561 : 1876.56
1409676110.497565542 : 1816.94
1409676110.597487344 : 1808.61
1409676110.697519064 : 1876.56
1409676110.797527793 : 1816.94
1409676110.897495071 : 1816.94
1409676110.997488345 : 1808.61
1409676111.097522875 : 1876.56
1409676111.197499021 : 1816.94
1409676111.297575517 : 1867.39
1409676111.397499082 : 1816.94
1409676111.497570093 : 1808.61
1409676111.597415083 : 1808.61
1409676111.697502113 : 1808.61
1409676111.797525750 : 1808.61
1409676111.897525419 : 1808.61
1409676111.997564513 : 1867.39
1409676112.097551884 : 1808.61
1409676112.197514868 : 1808.61
1409676112.297489790 : 1867.39
1409676112.397511880 : 1856.37
1409676112.497571520 : 1808.61
1409676112.597537838 : 1798.59
1409676112.697613417 : 1798.59
1409676112.797527661 : 1798.59
1409676112.897527769 : 1798.59
1409676112.997508799 : 1798.59
1409676113.097575669 : 1786.96
1409676113.197580348 : 1798.59
1409676113.297539144 : 1798.59
1409676113.397681123 : 1798.59
1409676113.497390272 : 1798.59
1409676113.597489287 : 1856.37
1409676113.697560645 : 1856.37
1409676113.797509671 : 1798.59
1409676113.897473915 : 1798.59
1409676113.997525027 : 1786.96
1409676114.097422982 : 1786.96
1409676114.197568494 : 1798.59
1409676114.297473327 : 1786.96
1409676114.397493997 : 1786.96
1409676114.497498157 : 1798.59
1409676114.597502497 : 1786.96
1409676114.697577435 : 1786.96
1409676114.797575363 : 1744.23
1409676114.897535647 : 1744.23
1409676114.997564832 : 1798.59
1409676115.097559801 : 1733.62
1409676115.197503266 : 1786.96
1409676115.297524769 : 1786.96
1409676115.397484819 : 1733.62
1409676115.497591248 : 1798.59
1409676115.597508747 : 1786.96
1409676115.697514944 : 1733.62
1409676115.797496503 : 1786.96
1409676115.897493497 : 1786.96
1409676115.997545203 : 1786.96
1409676116.097458019 : 1786.96
1409676116.197393977 : 1721.6
1409676116.297563042 : 1773.81
1409676116.397522439 : 1773.81
1409676116.497541860 : 1786.96
1409676116.597517368 : 1773.81
1409676116.697391622 : 1829.17
1409676116.797493424 : 1786.96
1409676116.897515598 : 1773.81
1409676116.997578444 : 1773.81
1409676117.097486069 : 1773.81
1409676117.197516285 : 1773.81
1409676117.297491206 : 1759.26
1409676117.397547239 : 1773.81
1409676117.497481500 : 1759.26
1409676117.597505895 : 1743.41
1409676117.697545398 : 1759.26
1409676117.797518317 : 1743.41
1409676117.897583241 : 1813.22
1409676117.997608015 : 1813.22
1409676118.097540978 : 1759.26
1409676118.197504649 : 1813.22
1409676118.297559198 : 1795.89
1409676118.397614303 : 1773.81
1409676118.497506762 : 1813.22
1409676118.597512595 : 1795.89
1409676118.697495102 : 1759.26
1409676118.797585886 : 1813.22
1409676118.897551390 : 1795.89
1409676118.997503681 : 1795.89
1409676119.097532124 : 1813.22
1409676119.197519039 : 1795.89
1409676119.297502187 : 1851.42
1409676119.397566249 : 1795.89
1409676119.497496318 : 1813.22
1409676119.597559969 : 1851.42
1409676119.697519560 : 1831.07
1409676119.797541514 : 1851.42
1409676119.897393864 : 1777.29
1409676119.997516839 : 1851.42
1409676120.097576298 : 1851.42
1409676120.197513590 : 1777.29
1409676120.297501358 : 1795.89
1409676120.397508594 : 1795.89
1409676120.497412643 : 1795.89
1409676120.597565931 : 1795.89
1409676120.697549023 : 1795.89
1409676120.797521566 : 1795.89
1409676120.897677472 : 1777.29
1409676120.997562857 : 1777.29
1409676121.097571944 : 1726.38
1409676121.197494503 : 1777.29
1409676121.297516399 : 1757.57
1409676121.397548186 : 1708.29
1409676121.497510263 : 1757.57
1409676121.597522955 : 1809.53
1409676121.697519429 : 1757.57
1409676121.797521189 : 1777.29
1409676121.897552043 : 1757.57
1409676121.997561576 : 1757.57
1409676122.097561017 : 1757.57
1409676122.197501357 : 1757.57
1409676122.297540558 : 1809.53
1409676122.397542665 : 1809.53
1409676122.497491358 : 1757.57
1409676122.597559220 : 1736.86
1409676122.697570704 : 1757.57
1409676122.797545240 : 1757.57
1409676122.897532445 : 1757.57
1409676122.997492625 : 1809.53
1409676123.097558071 : 1809.53
1409676123.197493949 : 1809.53
1409676123.297484070 : 1736.86
1409676123.397553137 : 1708.29
1409676123.497496039 : 1757.57
1409676123.597672096 : 1736.86
1409676123.697606933 : 1757.57
1409676123.797574905 : 1809.53
1409676123.897537480 : 1809.53
1409676123.997488318 : 1757.57
1409676124.097567965 : 1757.57
1409676124.197478236 : 1757.57
1409676124.297517777 : 1786.96
1409676124.397528960 : 1757.57
1409676124.497510851 : 1786.96
1409676124.597510397 : 1809.53
1409676124.697577926 : 1809.53
1409676124.797523619 : 1809.53
1409676124.897593532 : 1864.37
1409676124.997558935 : 1786.96
1409676125.097553960 : 1809.53
1409676125.197550617 : 1736.86
1409676125.297457743 : 1786.96
1409676125.397514148 : 1809.53
1409676125.497498653 : 1864.37
1409676125.597496675 : 1809.53
1409676125.697497542 : 1809.53
1409676125.797571458 : 1786.96
1409676125.897512456 : 1831.07
1409676125.997522000 : 1831.07
1409676126.097522645 : 1831.07
1409676126.197516989 : 1777.29
1409676126.297507868 : 1887.95
1409676126.397469280 : 1809.53
1409676126.497575738 : 1809.53
1409676126.597524284 : 1831.07
1409676126.697674531 : 1831.07
1409676126.797577082 : 1831.07
1409676126.897414962 : 1809.53
1409676126.997435128 : 1757.57
1409676127.097550301 : 1809.53
1409676127.197418643 : 1809.53
1409676127.297504926 : 1757.57
1409676127.397496444 : 1809.53
1409676127.497533153 : 1809.53
1409676127.597499215 : 1887.95
1409676127.697544977 : 1809.53
1409676127.797562965 : 1809.53
1409676127.897538024 : 1864.37
1409676127.997548352 : 1831.07
1409676128.097524078 : 1887.95
1409676128.197575433 : 1948.17
1409676128.297615056 : 1864.37
1409676128.397565899 : 1887.95
1409676128.497518181 : 1910.28
1409676128.597550535 : 1948.17
1409676128.697558787 : 1887.95
1409676128.797563172 : 1887.95
1409676128.897571282 : 1948.17
1409676128.997493608 : 1948.17
1409676129.097564175 : 1948.17
1409676129.197716991 : 1910.28
1409676129.297565122 : 1839.71
1409676129.397513152 : 1809.53
1409676129.497521264 : 1864.37
1409676129.597720117 : 1809.53
1409676129.697565195 : 1864.37
1409676129.797493583 : 1809.53
1409676129.897496926 : 1831.07
1409676129.997475750 : 1786.96
1409676130.097415208 : 1809.53
1409676130.197540028 : 1864.37
1409676130.297575715 : 1809.53
1409676130.397534518 : 1864.37
1409676130.497518663 : 1786.96
1409676130.597479983 : 1864.37
1409676130.697505433 : 1809.53
1409676130.797500275 : 1839.71
1409676130.897585254 : 1809.53
1409676130.997554720 : 1864.37
1409676131.097483166 : 1786.96
1409676131.197552391 : 1809.53
1409676131.297493636 : 1786.96
1409676131.397543448 : 1786.96
1409676131.497424273 : 1809.53
1409676131.597419096 : 1786.96
1409676131.697557610 : 1809.53
1409676131.797568676 : 1809.53
1409676131.897601734 : 1757.57
1409676131.997602193 : 1809.53
1409676132.097540709 : 1809.53
1409676132.197532475 : 1757.57
1409676132.297513998 : 1757.57
1409676132.397508934 : 1736.86
1409676132.497555480 : 1736.86
1409676132.597518204 : 1809.53
1409676132.697480790 : 1757.57
1409676132.797496522 : 1757.57
1409676132.897440512 : 1777.29
1409676133.797525488 : 1726.38
1409676134.697515776 : 1809.53
1409676134.797469181 : 1777.29
1409676134.897494182 : 1777.29
1409676134.997514177 : 1777.29
1409676135.097506850 : 1777.29
1409676135.197534662 : 1757.57
1409676135.297514913 : 1777.29
1409676135.397505642 : 1726.38
1409676135.497529493 : 1757.57
1409676135.597590733 : 1708.29
1409676135.697497574 : 1777.29
1409676135.797542669 : 1708.29
1409676135.897554006 : 1708.29
1409676135.997513133 : 1726.38
1409676136.097553475 : 1661.49
1409676136.197389895 : 1678.13
1409676136.297563550 : 1708.29
1409676136.397548606 : 1661.49
1409676136.497497631 : 1678.13
1409676136.597421695 : 1708.29
1409676136.697519143 : 1708.29
1409676136.797515872 : 1726.38
1409676136.897542252 : 1726.38
1409676136.997537841 : 1708.29
1409676137.097510585 : 1777.29
1409676137.197545593 : 1777.29
1409676137.297427966 : 1708.29
1409676137.397509162 : 1777.29
1409676137.497499496 : 1777.29
1409676137.597580788 : 1809.53
1409676137.697582815 : 1809.53
1409676137.797387520 : 1777.29
1409676137.897680964 : 1777.29
1409676137.997520467 : 1777.29
1409676138.097605197 : 1831.07
1409676138.197408874 : 1831.07
1409676138.297575751 : 1831.07
1409676138.397610141 : 1831.07
1409676138.497863965 : 1831.07
1409676138.597497244 : 1809.53
1409676138.697507329 : 1809.53
1409676138.797581801 : 1809.53
1409676138.897536978 : 1809.53
1409676138.997489753 : 1809.53
1409676139.097546690 : 1864.37
1409676139.197506264 : 1809.53
1409676139.297525159 : 1864.37
1409676139.397555127 : 1864.37
1409676139.497409588 : 1864.37
1409676139.597496473 : 1839.71
1409676139.697486085 : 1839.71
1409676139.797488846 : 1786.96
1409676139.897551328 : 1864.37
1409676139.997564301 : 1867.39
1409676140.097639163 : 1895.3
1409676140.197610939 : 1839.71
1409676140.297501377 : 1814.15
1409676140.397577469 : 1839.71
1409676140.497563073 : 1839.71
1409676140.597569999 : 1814.15
1409676140.697496804 : 1838.74
1409676140.797522098 : 1839.71
1409676140.897546691 : 1839.71
1409676140.997513876 : 1867.39
1409676141.097533511 : 1867.39
1409676141.197588978 : 1814.15
1409676141.297561509 : 1839.71
1409676141.397512656 : 1867.39
1409676141.497576814 : 1838.74
1409676141.597500751 : 1838.74
1409676141.697510565 : 1733.62
1409676141.797521083 : 1787.84
1409676141.897548438 : 1714.51
1409676141.997489217 : 1693.01
1409676142.097467896 : 1693.01
1409676142.197545014 : 1627.64
1409676142.297569493 : 1693.01
1409676142.397522505 : 1689.25
1409676142.497562874 : 1715.3
1409676142.597503715 : 1606.62
1409676142.697530277 : 1689.25
1409676142.797510025 : 1625.63
1409676142.897567848 : 1669.39
1409676142.997537456 : 1669.39
1409676143.097569867 : 1643.96
1409676143.197494178 : 1689.25
1409676143.297525283 : 1689.25
1409676143.397525289 : 1736.86
1409676143.497567086 : 1689.25
1409676143.597529260 : 1669.39
1409676143.697539210 : 1689.25
1409676143.797476378 : 1736.86
1409676143.897552198 : 1708.29
1409676143.997517446 : 1708.29
1409676144.697532410 : 1627.64
1409676144.797576488 : 1715.3
1409676144.897543185 : 1763.5
1409676144.997576700 : 1689.25
1409676145.097498631 : 1786.96
1409676145.197502701 : 1763.5
1409676145.297518013 : 1786.96
1409676145.397639283 : 1786.96
1409676145.497572786 : 1864.37
1409676145.597514769 : 1864.37
1409676145.697541827 : 1839.71
1409676145.797600759 : 1864.37
1409676145.897509057 : 1864.37
1409676145.997852707 : 1864.37
1409676146.097566113 : 1895.3
1409676146.197522938 : 1895.3
1409676146.297512556 : 1839.71
1409676146.397559734 : 1895.3
1409676146.497561214 : 1895.3
1409676146.597527694 : 1839.71
1409676146.697492332 : 1839.71
1409676146.797537318 : 1839.71
1409676146.897500902 : 1922.29
1409676146.997501981 : 1867.39
1409676147.097531594 : 1867.39
1409676147.197520309 : 1895.3
1409676147.297487594 : 1839.71
1409676147.397584391 : 1814.15
1409676147.497548300 : 1895.3
1409676147.597410188 : 1814.15
1409676147.697530596 : 1839.71
1409676147.797402861 : 1763.5
1409676147.897507287 : 1763.5
1409676147.997541402 : 1786.96
1409676148.097499701 : 1786.96
1409676148.197525366 : 1786.96
1409676148.297562104 : 1786.96
1409676148.397505865 : 1809.53
1409676148.497527403 : 1864.37
1409676148.597557646 : 1839.71
1409676148.697504671 : 1809.53
1409676148.797518852 : 1786.96
1409676148.897544635 : 1864.37
1409676148.997437425 : 1839.71
1409676149.097468311 : 1787.84
1409676149.197619148 : 1895.3
1409676149.297607233 : 1922.29
1409676149.397511230 : 1922.29
1409676149.497463216 : 1839.71
1409676149.597490042 : 1864.37
1409676149.697487747 : 1786.96
1409676149.797525044 : 1864.37
1409676149.897494782 : 1809.53
1409676149.997444682 : 1839.71
1409676150.097396920 : 1839.71
1409676150.197562333 : 1839.71
1409676150.297584392 : 1864.37
1409676150.397410804 : 1839.71
1409676150.497517320 : 1864.37
1409676150.597404842 : 1864.37
1409676150.697550888 : 1809.53
1409676150.797421963 : 1864.37
1409676150.897553001 : 1864.37
1409676150.997413787 : 1839.71
1409676151.097408434 : 1839.71
1409676151.197513211 : 1809.53
1409676151.297510447 : 1786.96
1409676151.397496563 : 1809.53
1409676151.497497353 : 1864.37
1409676151.597500759 : 1864.37
1409676151.697510278 : 1864.37
1409676151.797545656 : 1809.53
1409676151.897581378 : 1786.96
1409676151.997415752 : 1809.53
1409676152.097491847 : 1809.53
1409676152.197542752 : 1864.37
1409676152.297493568 : 1809.53
1409676152.397574420 : 1809.53
1409676152.497588822 : 1864.37
1409676152.597520402 : 1757.57
1409676152.697585303 : 1757.57
1409676152.797540553 : 1809.53
1409676152.897544651 : 1809.53
1409676152.997509238 : 1809.53
1409676153.097560746 : 1757.57
1409676153.197474702 : 1757.57
1409676153.297547760 : 1809.53
1409676153.397492622 : 1757.57
1409676153.497551062 : 1786.96
1409676153.597550865 : 1757.57
1409676153.697506859 : 1809.53
1409676153.797657070 : 1809.53
1409676153.897509254 : 1757.57
1409676153.997532264 : 1736.86
1409676154.097554471 : 1757.57
1409676154.197507875 : 1689.25
1409676154.297506943 : 1689.25
1409676154.397500106 : 1757.57
1409676154.497607093 : 1643.96
1409676154.597428156 : 1689.25
1409676154.697513534 : 1757.57
1409676154.797507396 : 1708.29
1409676154.897561048 : 1689.25
1409676154.997590936 : 1661.49
1409676155.097558989 : 1708.29
1409676155.197614512 : 1661.49
1409676155.297497089 : 1617.03
1409676155.397497870 : 1643.96
1409676155.497485875 : 1600.85
1409676155.597488576 : 1617.03
1409676155.697506808 : 1617.03
1409676155.797435694 : 1617.03
1409676156.697664496 : 1643.96
1409676156.797510192 : 1689.25
1409676156.897524396 : 1736.86
1409676156.997535022 : 1757.57
1409676157.097556619 : 1786.96
1409676157.197501401 : 1809.53
1409676157.297401934 : 1786.96
1409676157.397493044 : 1809.53
1409676157.497620383 : 1809.53
1409676157.597431224 : 1864.37
1409676157.697582146 : 1864.37
1409676157.797594564 : 1922.29
1409676157.897564462 : 1922.29
1409676157.997513434 : 1922.29
1409676158.097565965 : 1922.29
1409676158.197551859 : 1864.37
1409676158.297554396 : 1922.29
1409676158.397541147 : 1983.54
1409676158.497841705 : 1887.95
1409676158.597553523 : 1922.29
1409676158.697585151 : 1922.29
1409676158.797516776 : 1887.95
1409676158.897496891 : 1887.95
1409676158.997399611 : 1864.37
1409676159.097530889 : 1887.95
1409676159.197610580 : 1864.37
1409676159.297482302 : 1831.07
1409676159.397411660 : 1757.57
1409676159.497507501 : 1864.37
1409676159.597538790 : 1809.53
1409676159.697554302 : 1809.53
1409676159.797504737 : 1809.53
1409676159.897505402 : 1864.37
1409676159.997501982 : 1809.53
1409676160.097411889 : 1831.07
1409676160.197526112 : 1864.37
1409676160.297489020 : 1809.53
1409676160.397495097 : 1864.37
1409676160.497597225 : 1809.53
1409676160.597499465 : 1864.37
1409676160.697518686 : 1864.37
1409676160.797598994 : 1887.95
1409676160.897554733 : 1831.07
1409676160.997550577 : 1887.95
1409676161.097556280 : 1831.07
1409676161.197511280 : 1864.37
1409676161.297397788 : 1948.17
1409676161.397494252 : 1948.17
1409676161.497511680 : 1948.17
1409676161.597547519 : 1948.17
1409676161.697495364 : 1948.17
1409676161.797523521 : 2012
1409676161.897483410 : 1983.54
1409676161.997508974 : 1948.17
1409676162.097558240 : 1948.17
1409676162.197591730 : 1887.95
1409676162.297560374 : 1948.17
1409676162.397516508 : 1948.17
1409676162.497599480 : 1922.29
1409676162.597544250 : 1948.17
1409676162.697551532 : 1864.37
1409676162.797621404 : 1864.37
1409676162.897481830 : 1922.29
1409676162.997394020 : 1864.37
1409676163.097508933 : 1922.29
1409676163.197563566 : 1831.07
1409676163.297507401 : 1887.95
1409676163.398014494 : 1887.95
1409676163.497526999 : 1864.37
1409676163.597573412 : 1887.95
1409676163.697489746 : 1864.37
1409676163.797560085 : 1864.37
1409676163.897510558 : 1809.53
1409676163.997529492 : 1809.53
1409676164.097525070 : 1839.71
1409676164.197518663 : 1809.53
1409676164.297393575 : 1864.37
1409676164.397574990 : 1809.53
1409676164.497484794 : 1864.37
1409676164.597491931 : 1864.37
1409676164.697514853 : 1809.53
1409676164.797523947 : 1864.37
1409676164.897559932 : 1839.71
1409676164.997502992 : 1809.53
1409676165.097392443 : 1786.96
1409676165.197524133 : 1864.37
1409676165.297537459 : 1809.53
1409676165.397502488 : 1757.57
1409676165.497500072 : 1809.53
1409676165.597535747 : 1786.96
1409676165.697548421 : 1839.71
1409676165.797417945 : 1839.71
1409676165.897529970 : 1809.53
1409676165.997494244 : 1809.53
1409676166.097501552 : 1864.37
1409676166.197519395 : 1864.37
1409676166.297494077 : 1922.29
1409676166.397495270 : 1809.53
1409676166.497475039 : 1809.53
1409676166.597545516 : 1809.53
1409676166.697497292 : 1809.53
1409676166.797540878 : 1839.71
1409676166.897587833 : 1786.96
1409676166.997502674 : 1864.37
1409676167.097559153 : 1809.53
1409676167.197499112 : 1809.53
1409676167.297519153 : 1809.53
1409676167.397491575 : 1864.37
1409676167.497401351 : 1809.53
1409676167.597510988 : 1809.53
1409676167.697522782 : 1736.86
1409676167.797498887 : 1809.53
1409676167.897546829 : 1809.53
1409676167.997536308 : 1809.53
1409676168.097461799 : 1757.57
1409676168.197405604 : 1736.86
1409676168.297496743 : 1708.29
1409676168.397740714 : 1708.29
1409676168.497530378 : 1736.86
1409676168.597498385 : 1809.53
1409676168.697525644 : 1777.29
1409676168.797504188 : 1708.29
1409676168.897490590 : 1757.57
1409676168.997489207 : 1708.29
1409676169.097520704 : 1757.57
1409676169.197540881 : 1708.29
1409676169.297568754 : 1708.29
1409676169.397540198 : 1708.29
1409676169.497506994 : 1777.29
1409676169.597404671 : 1726.38
1409676169.697493351 : 1726.38
1409676169.797481129 : 1708.29
1409676169.897496214 : 1777.29
1409676169.997489324 : 1777.29
1409676170.097552541 : 1757.57
1409676170.197505789 : 1831.07
1409676170.297527855 : 1757.57
1409676170.397483409 : 1831.07
1409676170.497505536 : 1831.07
1409676170.597526434 : 1831.07
1409676170.697511459 : 1831.07
1409676170.797487656 : 1831.07
1409676170.897500953 : 1831.07
1409676170.997503500 : 1851.42
1409676171.097585562 : 1809.53
1409676171.197903022 : 1777.29
1409676171.297504985 : 1831.07
1409676171.397480153 : 1887.95
1409676171.497689815 : 1831.07
1409676171.597532547 : 1887.95
1409676171.697561976 : 1831.07
1409676171.797579552 : 1831.07
1409676171.897553783 : 1887.95
1409676171.997580181 : 1851.42
1409676172.097569165 : 1887.95
1409676172.197516452 : 1887.95
1409676172.297538653 : 1864.37
1409676172.397508686 : 1887.95
1409676172.497572853 : 1809.53
1409676172.597519508 : 1809.53
1409676172.697432310 : 1831.07
1409676172.797524626 : 1809.53
1409676172.897431085 : 1809.53
1409676172.997502029 : 1809.53
1409676173.097388749 : 1809.53
1409676173.197502675 : 1831.07
1409676173.297497848 : 1809.53
1409676173.397491969 : 1809.53
1409676173.497547915 : 1757.57
1409676173.597501536 : 1809.53
1409676173.697573286 : 1786.96
1409676173.797516101 : 1809.53
1409676173.897595814 : 1809.53
1409676173.997519497 : 1757.57
1409676174.097520483 : 1757.57
1409676174.197540094 : 1809.53
1409676174.297546037 : 1757.57
1409676174.397496789 : 1708.29
1409676174.497603598 : 1757.57
1409676174.597551151 : 1777.29
1409676174.697512812 : 1757.57
1409676174.797517649 : 1726.38
1409676174.897497652 : 1708.29
1409676174.997559010 : 1708.29
1409676175.097493355 : 1708.29
1409676175.197574072 : 1777.29
1409676175.297495417 : 1777.29
1409676175.397592063 : 1777.29
1409676175.497530713 : 1809.53
1409676175.597491478 : 1777.29
1409676175.697572449 : 1777.29
1409676175.797550956 : 1809.53
1409676175.897567800 : 1809.53
1409676175.997498636 : 1831.07
1409676176.097495326 : 1809.53
1409676176.197536771 : 1809.53
1409676176.297507369 : 1809.53
1409676176.397489957 : 1736.86
1409676176.497514230 : 1736.86
1409676176.597473857 : 1786.96
1409676176.697525710 : 1736.86
1409676176.797530904 : 1757.57
1409676176.897578034 : 1786.96
1409676176.997551740 : 1736.86
1409676177.097475649 : 1786.96
1409676177.197527550 : 1736.86
1409676177.297631502 : 1763.5
1409676177.397446442 : 1786.96
1409676177.497404765 : 1736.86
1409676177.597520162 : 1736.86
1409676177.697527490 : 1715.3
1409676177.797395049 : 1715.3
1409676177.897518034 : 1736.86
1409676177.997554710 : 1736.86
1409676178.097508279 : 1736.86
1409676178.197497099 : 1736.86
1409676178.297567029 : 1757.57
1409676178.397510732 : 1736.86
1409676178.497546371 : 1736.86
1409676178.597514750 : 1757.57
1409676178.697697920 : 1736.86
1409676178.797558727 : 1736.86
1409676178.897550216 : 1736.86
1409676178.997423194 : 1757.57
1409676179.097566594 : 1809.53
1409676179.197505041 : 1809.53
1409676179.297416518 : 1809.53
1409676179.397554031 : 1809.53
1409676179.497558338 : 1736.86
1409676179.597495611 : 1809.53
1409676179.697580458 : 1809.53
1409676179.797506147 : 1809.53
1409676179.897576148 : 1757.57
1409676179.997524537 : 1831.07
1409676180.097539524 : 1757.57
1409676180.197775251 : 1736.86
1409676180.297509490 : 1777.29
1409676180.397560322 : 1809.53
1409676180.497397958 : 1809.53
1409676180.597527383 : 1831.07
1409676180.697634572 : 1809.53
1409676180.797491661 : 1809.53
1409676180.897575537 : 1831.07
1409676180.997518436 : 1831.07
1409676181.097503888 : 1831.07
1409676181.197560535 : 1831.07
1409676181.297561652 : 1831.07
1409676181.397489358 : 1786.96
1409676181.497500862 : 1831.07
1409676181.597403749 : 1831.07
1409676181.697450815 : 1851.42
1409676181.797608461 : 1887.95
1409676181.897392549 : 1851.42
1409676181.997541818 : 1851.42
1409676182.097423850 : 1777.29
1409676182.197545561 : 1887.95
1409676182.297512610 : 1777.29
1409676182.397428958 : 1831.07
1409676182.497531414 : 1757.57
1409676182.597512785 : 1726.38
1409676182.697548104 : 1777.29
1409676182.797505488 : 1777.29
1409676182.897514937 : 1777.29
1409676182.997512523 : 1726.38
1409676183.097532494 : 1777.29
1409676183.197555560 : 1831.07
1409676183.297574522 : 1777.29
1409676183.397401975 : 1831.07
1409676183.497477185 : 1851.42
1409676183.597580069 : 1831.07
1409676183.697534241 : 1831.07
1409676183.797491395 : 1831.07
1409676183.897517454 : 1757.57
1409676183.997492581 : 1809.53
1409676184.097550094 : 1831.07
1409676184.197541750 : 1757.57
1409676184.297503183 : 1809.53
1409676184.397401758 : 1864.37
1409676184.497547747 : 1864.37
1409676184.597562935 : 1864.37
1409676184.697405693 : 1864.37
1409676184.797556424 : 1786.96
1409676184.897620611 : 1864.37
1409676184.997428324 : 1786.96
1409676185.097592658 : 1839.71
1409676185.197497760 : 1786.96
1409676185.297532661 : 1786.96
1409676185.397574615 : 1786.96
1409676185.497496277 : 1786.96
1409676185.597475187 : 1809.53
1409676185.697502295 : 1786.96
1409676185.797515357 : 1786.96
1409676185.897510623 : 1736.86
1409676185.997467561 : 1736.86
1409676186.097407977 : 1809.53
1409676186.197473641 : 1809.53
1409676186.297396066 : 1786.96
1409676186.397488440 : 1809.53
1409676186.497558365 : 1809.53
1409676186.597530637 : 1786.96
1409676186.697500120 : 1736.86
1409676186.797478415 : 1786.96
1409676186.897509681 : 1809.53
1409676186.997539449 : 1786.96
1409676187.097508900 : 1809.53
1409676187.197538453 : 1809.53
1409676187.297588737 : 1786.96
1409676187.397441954 : 1786.96
1409676187.497503765 : 1839.71
1409676187.597578189 : 1786.96
1409676187.697557595 : 1839.71
1409676187.797524955 : 1839.71
1409676187.897614344 : 1814.15
1409676187.997404878 : 1786.96
1409676188.097618500 : 1839.71
1409676188.197418907 : 1839.71
1409676188.297510336 : 1839.71
1409676188.397483713 : 1763.5
1409676188.497550576 : 1786.96
1409676188.597509905 : 1839.71
1409676188.697501717 : 1814.15
1409676188.797511706 : 1763.5
1409676188.897521757 : 1786.96
1409676188.997558990 : 1814.15
1409676189.097583204 : 1786.96
1409676189.197425925 : 1736.86
1409676189.297497296 : 1763.5
1409676189.397559348 : 1763.5
1409676189.497507516 : 1786.96
1409676189.597505559 : 1736.86
1409676189.697558824 : 1786.96
1409676189.797513673 : 1786.96
1409676189.897492649 : 1786.96
1409676189.997481153 : 1809.53
1409676190.097543274 : 1763.5
1409676190.197502618 : 1786.96
1409676190.297499796 : 1809.53
1409676190.397550110 : 1809.53
1409676190.497546459 : 1736.86
1409676190.597540455 : 1786.96
1409676190.697493068 : 1736.86
1409676190.797490549 : 1786.96
1409676190.897576833 : 1736.86
1409676190.997513432 : 1786.96
1409676191.097576231 : 1809.53
1409676191.197558193 : 1786.96
1409676191.297492395 : 1736.86
1409676191.397534307 : 1786.96
1409676191.497408942 : 1736.86
1409676191.597474976 : 1786.96
1409676191.697449366 : 1736.86
1409676191.797568781 : 1809.53
1409676191.897434479 : 1736.86
1409676191.997519211 : 1786.96
1409676192.097534072 : 1736.86
1409676192.197513085 : 1736.86
1409676192.297497256 : 1786.96
1409676192.397502651 : 1786.96
1409676192.497520513 : 1786.96
1409676192.597587562 : 1809.53
1409676192.697560533 : 1736.86
1409676192.797447576 : 1809.53
1409676192.897428041 : 1839.71
1409676192.997480674 : 1809.53
1409676193.097509272 : 1786.96
1409676193.197514016 : 1763.5
1409676193.297508836 : 1809.53
1409676193.397468059 : 1736.86
1409676193.497498683 : 1757.57
1409676193.597514509 : 1786.96
1409676193.697505221 : 1809.53
1409676193.797561522 : 1786.96
1409676193.897511864 : 1736.86
1409676193.997553563 : 1736.86
1409676194.125706977 : 1786.96
1409676194.197511658 : 1786.96
1409676194.297524980 : 1736.86
1409676194.397577078 : 1786.96
1409676194.497599285 : 1786.96
1409676194.597496787 : 1786.96
1409676194.697653303 : 1786.96
1409676194.797516110 : 1786.96
1409676194.897558619 : 1736.86
1409676194.997536399 : 1757.57
1409676195.097519335 : 1736.86
1409676195.197669116 : 1736.86
1409676195.297571656 : 1786.96
1409676195.397555536 : 1786.96
1409676195.497497920 : 1786.96
1409676195.597504553 : 1814.15
1409676195.697395653 : 1814.15
1409676195.797500870 : 1814.15
1409676195.897537209 : 1814.15
1409676196.797589408 : 1787.84
1409676198.397842307 : 1458.98
1409676198.448034868 : 1425.86
1409676198.497898702 : 1425.86
1409676198.547930282 : 1425.86
1409676198.597924599 : 1458.98
1409676198.648308055 : 1425.86
1409676198.697965300 : 1440.97
1409676198.748035555 : 1475.18
1409676198.797927169 : 1490.89
1409676198.847894193 : 1527.76
1409676198.898203496 : 1566.3
1409676198.998337917 : 1625.63
1409676199.098437148 : 1736.86
1409676199.198355163 : 1786.96
1409676199.298366133 : 1839.71
1409676199.398212382 : 1809.53
1409676199.498218180 : 1786.96
1409676199.598336490 : 1839.71
1409676199.698275019 : 1786.96
1409676199.798375224 : 1786.96
1409676199.898342823 : 1864.37
1409676199.998216330 : 1786.96
1409676200.098466506 : 1786.96
1409676200.198375949 : 1786.96
1409676200.298418737 : 1786.96
1409676200.398375697 : 1786.96
1409676200.498370380 : 1786.96
1409676200.598328994 : 1786.96
1409676200.698375911 : 1786.96
1409676200.798377055 : 1786.96
1409676200.898311060 : 1757.57
1409676200.998535996 : 1809.53
1409676201.098321510 : 1757.57
1409676201.198221795 : 1809.53
1409676201.298360332 : 1809.53
1409676201.398321187 : 1736.86
1409676201.498325308 : 1777.29
1409676201.598356776 : 1757.57
1409676201.698328857 : 1777.29
1409676201.798388215 : 1777.29
1409676201.898316321 : 1757.57
1409676201.998403213 : 1757.57
1409676202.098359679 : 1777.29
1409676202.198419465 : 1795.89
1409676202.298389397 : 1777.29
1409676202.398314078 : 1795.89
1409676202.498236320 : 1693.76
1409676202.598349315 : 1743.41
1409676202.698302974 : 1743.41
1409676202.798298872 : 1726.38
1409676202.898386694 : 1678.13
1409676202.998230995 : 1678.13
1409676203.098218833 : 1743.41
1409676203.198340484 : 1693.76
1409676203.298321057 : 1743.41
1409676203.398318759 : 1759.26
1409676203.498308899 : 1693.76
1409676203.598376978 : 1708.29
1409676203.698310938 : 1759.26
1409676203.798334031 : 1795.89
1409676203.898322181 : 1795.89
1409676203.998372850 : 1795.89
1409676204.098338764 : 1743.41
1409676204.198364780 : 1726.38
1409676204.298311605 : 1726.38
1409676204.398360204 : 1777.29
1409676204.498326230 : 1726.38
1409676204.598368523 : 1678.13
1409676204.698334239 : 1726.38
1409676204.798242500 : 1708.29
1409676204.898303557 : 1708.29
1409676204.998306265 : 1661.49
1409676205.098360821 : 1726.38
1409676205.198301259 : 1708.29
1409676205.298383193 : 1708.29
1409676205.398347587 : 1708.29
1409676205.498244107 : 1708.29
1409676205.598320302 : 1708.29
1409676205.698376587 : 1678.13
1409676205.798224852 : 1661.49
1409676205.898377685 : 1643.96
1409676205.998369075 : 1661.49
1409676206.098372906 : 1661.49
1409676206.198362039 : 1661.49
1409676206.298353721 : 1661.49
1409676206.398312639 : 1661.49
1409676206.498426050 : 1661.49
1409676206.598343735 : 1643.96
1409676206.698360672 : 1678.13
1409676206.798303704 : 1617.03
1409676206.898386979 : 1708.29
1409676206.998392534 : 1678.13
1409676207.098418197 : 1708.29
1409676207.198289395 : 1661.49
1409676207.298348629 : 1617.03
1409676207.398381223 : 1708.29
1409676207.498373682 : 1708.29
1409676207.598205043 : 1678.13
1409676207.698406445 : 1678.13
1409676207.798370091 : 1678.13
1409676207.898362861 : 1726.38
1409676207.998308974 : 1726.38
1409676208.098459895 : 1743.41
1409676208.198431941 : 1743.41
1409676208.298377198 : 1777.29
1409676208.398400842 : 1726.38
1409676208.498367660 : 1726.38
1409676208.598320710 : 1726.38
1409676208.698312132 : 1777.29
1409676208.798315472 : 1795.89
1409676208.898350742 : 1777.29
1409676208.998219906 : 1795.89
1409676209.098358546 : 1777.29
1409676209.198191245 : 1777.29
1409676209.298315381 : 1777.29
1409676209.398322230 : 1795.89
1409676209.498318200 : 1777.29
1409676209.598316419 : 1777.29
1409676209.698381676 : 1795.89
1409676209.798223857 : 1851.42
1409676209.898261298 : 1831.07
1409676209.998389499 : 1757.57
1409676210.098359145 : 1795.89
1409676210.198326056 : 1831.07
1409676210.298378106 : 1777.29
1409676210.398389107 : 1777.29
1409676210.498435747 : 1851.42
1409676210.598407484 : 1795.89
1409676210.698391136 : 1851.42
1409676210.798368307 : 1870.43
1409676210.898314263 : 1851.42
1409676210.998336637 : 1887.95
1409676211.098316796 : 1831.07
1409676211.198217648 : 1887.95
1409676211.298303696 : 1831.07
1409676211.398422519 : 1831.07
1409676211.498367245 : 1910.28
1409676211.598291149 : 1851.42
1409676211.698392267 : 1887.95
1409676211.798327026 : 1831.07
1409676211.898247153 : 1809.53
1409676211.998315800 : 1831.07
1409676212.098320837 : 1777.29
1409676212.198302832 : 1831.07
1409676212.298322590 : 1831.07
1409676212.398336367 : 1757.57
1409676212.498295994 : 1887.95
1409676212.598363585 : 1887.95
1409676212.698316317 : 1851.42
1409676212.798249181 : 1809.53
1409676212.898366490 : 1887.95
1409676212.998363612 : 1809.53
1409676213.098389237 : 1887.95
1409676213.198292170 : 1864.37
1409676213.298374637 : 1809.53
1409676213.398353413 : 1864.37
1409676213.498227296 : 1864.37
1409676213.598368735 : 1831.07
1409676213.698318768 : 1786.96
1409676213.798343369 : 1809.53
1409676213.898309907 : 1786.96
1409676213.998379090 : 1809.53
1409676214.098386182 : 1736.86
1409676214.198382115 : 1736.86
1409676214.298343710 : 1736.86
1409676214.398382251 : 1689.25
1409676214.498235032 : 1708.29
1409676214.598347696 : 1757.57
1409676214.698369111 : 1708.29
1409676214.798362533 : 1708.29
1409676214.898391909 : 1661.49
1409676214.998341187 : 1689.25
1409676215.098329782 : 1736.86
1409676215.198313830 : 1708.29
1409676215.298362621 : 1736.86
1409676215.398374900 : 1708.29
1409676215.498343638 : 1736.86
1409676215.598213625 : 1757.57
1409676215.698394975 : 1757.57
1409676215.798343659 : 1757.57
1409676215.898321652 : 1736.86
1409676215.998366264 : 1757.57
1409676216.098511954 : 1757.57
1409676216.198333103 : 1777.29
1409676216.298302860 : 1708.29
1409676216.398396351 : 1708.29
1409676216.498536895 : 1757.57
1409676216.598241429 : 1757.57
1409676216.698328801 : 1777.29
1409676216.798316849 : 1708.29
1409676216.898325403 : 1708.29
1409676216.998376829 : 1777.29
1409676217.098316329 : 1726.38
1409676217.198383830 : 1777.29
1409676217.298558788 : 1726.38
1409676217.398353279 : 1777.29
1409676217.498442420 : 1777.29
1409676217.598410601 : 1777.29
1409676217.698375359 : 1726.38
1409676217.798363267 : 1831.07
1409676217.898417568 : 1777.29
1409676217.998307216 : 1777.29
1409676218.098319630 : 1831.07
1409676218.198329119 : 1777.29
1409676218.298311007 : 1726.38
1409676218.398378778 : 1777.29
1409676218.498452924 : 1809.53
1409676218.598293477 : 1777.29
1409676218.698343288 : 1809.53
1409676218.798330371 : 1757.57
1409676218.898321179 : 1831.07
1409676218.998360740 : 1809.53
1409676219.098427098 : 1786.96
1409676219.198334539 : 1809.53
1409676219.298513800 : 1757.57
1409676219.398333571 : 1809.53
1409676219.498351075 : 1786.96
1409676219.598363642 : 1809.53
1409676219.698316921 : 1786.96
1409676219.798388516 : 1786.96
1409676219.898301336 : 1864.37
1409676219.998430409 : 1809.53
1409676220.098367795 : 1864.37
1409676220.198349716 : 1736.86
1409676220.298318271 : 1809.53
1409676220.398398008 : 1715.3
1409676220.498223322 : 1809.53
1409676220.598376897 : 1786.96
1409676220.698367764 : 1786.96
1409676220.798383937 : 1736.86
1409676220.898368156 : 1757.57
1409676220.998209384 : 1786.96
1409676221.098391326 : 1809.53
1409676221.198374094 : 1736.86
1409676221.298358919 : 1736.86
1409676221.398346798 : 1689.25
1409676221.498483396 : 1757.57
1409676221.598333408 : 1736.86
1409676221.698378931 : 1689.25
1409676221.798232085 : 1757.57
1409676221.898529015 : 1689.25
1409676221.998361883 : 1689.25
1409676222.098375767 : 1689.25
1409676222.198319749 : 1669.39
1409676222.298381436 : 1643.96
1409676222.398315585 : 1643.96
1409676222.498382735 : 1643.96
1409676222.598317370 : 1643.96
1409676222.698314783 : 1689.25
1409676222.798207607 : 1661.49
1409676222.898950741 : 1708.29
1409676222.998337599 : 1661.49
1409676223.098334079 : 1708.29
1409676223.198373728 : 1708.29
1409676223.298391879 : 1661.49
1409676223.398316324 : 1661.49
1409676223.498331207 : 1661.49
1409676223.598384265 : 1643.96
1409676223.698405612 : 1689.25
1409676223.798256321 : 1661.49
1409676223.898349670 : 1689.25
1409676223.998346556 : 1625.63
1409676224.098397095 : 1689.25
1409676224.198346948 : 1736.86
1409676224.298350979 : 1736.86
1409676224.398402269 : 1757.57
1409676224.498324445 : 1757.57
1409676224.598313370 : 1777.29
1409676224.698322282 : 1786.96
1409676224.798357592 : 1809.53
1409676224.898334383 : 1739.31
1409676224.998301077 : 1786.96
1409676225.098300621 : 1831.07
1409676225.198391553 : 1864.37
1409676225.298280684 : 1736.86
1409676225.398327056 : 1757.57
1409676225.498326382 : 1809.53
1409676225.598351763 : 1786.96
1409676225.698449552 : 1809.53
1409676225.798222513 : 1786.96
1409676225.898382794 : 1757.57
1409676225.998375870 : 1786.96
1409676226.098310950 : 1809.53
1409676226.198361605 : 1786.96
1409676226.298292252 : 1809.53
1409676226.398353125 : 1736.86
1409676226.498325843 : 1736.86
1409676226.598348792 : 1786.96
1409676226.698347261 : 1736.86
1409676226.798352979 : 1763.5
1409676226.898424017 : 1715.3
1409676226.998222731 : 1839.71
1409676227.098352140 : 1786.96
1409676227.198376306 : 1786.96
1409676227.298329782 : 1763.5
1409676227.398349441 : 1786.96
1409676227.498391591 : 1763.5
1409676227.598384566 : 1786.96
1409676227.698385228 : 1736.86
1409676227.798373386 : 1786.96
1409676227.898320247 : 1809.53
1409676227.998364112 : 1736.86
1409676228.098349653 : 1809.53
1409676228.198400962 : 1809.53
1409676228.298324171 : 1809.53
1409676228.398331383 : 1736.86
1409676228.498327968 : 1757.57
1409676228.598235308 : 1777.29
1409676228.698335356 : 1777.29
1409676228.798228275 : 1757.57
1409676228.898408304 : 1777.29
1409676228.998334392 : 1757.57
1409676229.098353348 : 1757.57
1409676229.198394844 : 1777.29
1409676229.298388374 : 1777.29
1409676229.398318872 : 1777.29
1409676229.498375384 : 1777.29
1409676229.598438294 : 1757.57
1409676229.698371629 : 1777.29
1409676229.798348620 : 1777.29
1409676229.898384023 : 1777.29
1409676229.998344155 : 1777.29
1409676230.098316272 : 1777.29
1409676230.198369575 : 1777.29
1409676230.298324906 : 1777.29
1409676230.398388644 : 1795.89
1409676230.498344271 : 1795.89
1409676230.598359385 : 1831.07
1409676230.698358806 : 1777.29
1409676230.798334151 : 1777.29
1409676230.898352332 : 1809.53
1409676230.998346002 : 1809.53
1409676231.098374173 : 1809.53
1409676231.198342206 : 1809.53
1409676231.298229489 : 1831.07
1409676231.398377698 : 1757.57
1409676231.498314046 : 1809.53
1409676231.598337721 : 1757.57
1409676231.698351592 : 1809.53
1409676231.798332496 : 1736.86
1409676231.898329748 : 1786.96
1409676231.998411670 : 1736.86
1409676232.098341613 : 1763.5
1409676232.198320019 : 1763.5
1409676232.298402128 : 1786.96
1409676232.398341406 : 1736.86
1409676232.498376899 : 1763.5
1409676232.598330922 : 1814.15
1409676232.698393484 : 1814.15
1409676232.798435033 : 1814.15
1409676232.898342333 : 1763.5
1409676232.998298333 : 1715.3
1409676233.098357416 : 1839.71
1409676233.198394030 : 1763.5
1409676233.298381424 : 1763.5
1409676233.398322079 : 1839.71
1409676233.498238313 : 1763.5
1409676233.598336563 : 1786.96
1409676233.698367146 : 1715.3
1409676233.798359892 : 1715.3
1409676233.898441223 : 1736.86
1409676233.998214779 : 1715.3
1409676234.098208820 : 1693.01
1409676234.198355709 : 1715.3
1409676234.298364569 : 1715.3
1409676234.398400568 : 1669.39
1409676234.498359142 : 1736.86
1409676234.598345006 : 1669.39
1409676234.698348593 : 1715.3
1409676234.798359612 : 1669.39
1409676234.898302181 : 1715.3
1409676234.998327193 : 1669.39
1409676235.098342093 : 1689.25
1409676235.198364044 : 1669.39
1409676235.298389929 : 1689.25
1409676235.398360939 : 1643.96
1409676235.498348284 : 1661.49
1409676235.598386975 : 1661.49
1409676235.698236314 : 1643.96
1409676235.798531592 : 1689.25
1409676235.898357526 : 1643.96
1409676235.998369655 : 1689.25
1409676236.098387686 : 1625.63
1409676236.198421984 : 1689.25
1409676236.298438330 : 1643.96
1409676236.398346398 : 1661.49
1409676236.498287402 : 1643.96
1409676236.598640143 : 1689.25
1409676236.698353485 : 1643.96
1409676236.798320141 : 1661.49
1409676236.898313856 : 1643.96
1409676236.998307800 : 1643.96
1409676237.998320177 : 1600.85
1409676238.098360437 : 1583.91
1409676238.198363313 : 1600.85
1409676238.298329996 : 1643.96
1409676238.398337512 : 1600.85
1409676238.498576497 : 1643.96
1409676238.598308373 : 1643.96
1409676238.698330426 : 1643.96
1409676238.798343275 : 1661.49
1409676238.898337136 : 1708.29
1409676238.998302380 : 1689.25
1409676239.098399337 : 1708.29
1409676239.198382877 : 1669.39
1409676239.298244278 : 1795.89
1409676239.398729554 : 1777.29
1409676239.498416358 : 1708.29
1409676239.598358947 : 1726.38
1409676239.698233262 : 1757.57
1409676239.798408212 : 1736.86
1409676239.898359554 : 1777.29
1409676239.998359925 : 1851.42
1409676240.098365046 : 1795.89
1409676240.198333574 : 1831.07
1409676240.298327084 : 1831.07
1409676240.398348459 : 1809.53
1409676240.498314465 : 1777.29
1409676240.598306935 : 1757.57
1409676240.698338798 : 1887.95
1409676240.798336518 : 1809.53
1409676240.898353611 : 1757.57
1409676240.998320382 : 1809.53
1409676241.098335025 : 1831.07
1409676241.198335139 : 1831.07
1409676241.298378631 : 1809.53
1409676241.398298239 : 1831.07
1409676241.498269060 : 1736.86
1409676241.598218165 : 1757.57
1409676241.698408343 : 1809.53
1409676241.798369765 : 1736.86
1409676241.898381201 : 1736.86
1409676241.998399632 : 1736.86
1409676242.098360939 : 1757.57
1409676242.198312859 : 1736.86
1409676242.298340989 : 1736.86
1409676242.398371558 : 1786.96
1409676242.498256492 : 1757.57
1409676242.598356785 : 1736.86
1409676242.698377207 : 1689.25
1409676242.798368810 : 1689.25
1409676242.898297774 : 1689.25
1409676242.998361335 : 1736.86
1409676243.098394554 : 1689.25
1409676243.198307466 : 1689.25
1409676243.298252597 : 1708.29
1409676243.398379372 : 1708.29
1409676243.498328833 : 1708.29
1409676243.598363698 : 1689.25
1409676243.698361555 : 1689.25
1409676243.798439802 : 1708.29
1409676243.898335679 : 1689.25
1409676243.998338059 : 1708.29
1409676244.098382392 : 1757.57
1409676244.198357205 : 1736.86
1409676244.298376412 : 1736.86
1409676244.398294111 : 1736.86
1409676244.498328344 : 1757.57
1409676244.598331595 : 1736.86
1409676244.698351133 : 1757.57
1409676244.798310327 : 1757.57
1409676244.898317865 : 1736.86
1409676244.998254726 : 1736.86
1409676245.098342465 : 1736.86
1409676245.198344773 : 1757.57
1409676245.298331481 : 1736.86
1409676245.398574518 : 1757.57
1409676245.498325572 : 1736.86
1409676245.598343010 : 1736.86
1409676245.698364470 : 1757.57
1409676245.798390368 : 1736.86
1409676245.898336458 : 1757.57
1409676245.998221280 : 1757.57
1409676246.098325743 : 1708.29
1409676246.198336096 : 1736.86
1409676246.298301244 : 1736.86
1409676246.398383280 : 1757.57
1409676246.498315306 : 1736.86
1409676246.598324427 : 1736.86
1409676246.698311004 : 1736.86
1409676246.798326428 : 1736.86
1409676246.898445925 : 1689.25
1409676246.998380408 : 1736.86
1409676247.098375734 : 1736.86
1409676247.198335196 : 1736.86
1409676247.298405769 : 1715.3
1409676247.398307459 : 1648.81
1409676247.498311683 : 1736.86
1409676247.598322068 : 1669.39
1409676247.698322306 : 1648.81
1409676247.798375980 : 1715.3
1409676247.898339593 : 1715.3
1409676247.998349759 : 1648.81
1409676248.098328152 : 1648.81
1409676248.198377023 : 1669.39
1409676248.298460413 : 1648.81
1409676248.398375669 : 1669.39
1409676248.498351839 : 1669.39
1409676248.598367894 : 1669.39
1409676248.698384749 : 1669.39
1409676248.798358332 : 1648.81
1409676248.898329967 : 1669.39
1409676248.998347025 : 1669.39
1409676249.098332195 : 1669.39
1409676249.198327699 : 1669.39
1409676249.298371294 : 1689.25
1409676249.398361946 : 1669.39
1409676249.498395423 : 1669.39
1409676249.598343161 : 1669.39
1409676249.698329619 : 1689.25
1409676249.798533871 : 1669.39
1409676249.898399714 : 1689.25
1409676249.998381171 : 1625.63
1409676250.098324524 : 1669.39
1409676250.198346782 : 1669.39
1409676250.298315769 : 1689.25
1409676250.398432668 : 1689.25
1409676250.498327916 : 1669.39
1409676250.598374960 : 1736.86
1409676250.698360202 : 1715.3
1409676250.798290492 : 1715.3
1409676250.898320703 : 1715.3
1409676250.998340291 : 1715.3
1409676251.098236989 : 1715.3
1409676251.198376841 : 1715.3
1409676251.298403037 : 1715.3
1409676251.398331178 : 1786.96
1409676251.498359607 : 1763.5
1409676251.598314412 : 1715.3
1409676251.698331375 : 1763.5
1409676251.798396424 : 1763.5
1409676251.898298553 : 1786.96
1409676251.998338256 : 1763.5
1409676252.098252280 : 1786.96
1409676252.198398341 : 1763.5
1409676252.298369653 : 1763.5
1409676252.398434632 : 1715.3
1409676252.498365821 : 1763.5
1409676252.598327440 : 1787.84
1409676252.698335152 : 1763.5
1409676252.798334937 : 1763.5
1409676252.898369078 : 1763.5
1409676252.998309465 : 1763.5
1409676253.098324978 : 1739.31
1409676253.198364244 : 1763.5
1409676253.298216407 : 1715.3
1409676253.398296876 : 1763.5
1409676253.498407184 : 1715.3
1409676253.598398528 : 1715.3
1409676253.698381171 : 1669.39
1409676253.798225945 : 1736.86
1409676253.898214530 : 1689.25
1409676253.998309067 : 1736.86
1409676254.098348514 : 1689.25
1409676254.198348332 : 1757.57
1409676254.298334986 : 1689.25
1409676254.398330315 : 1715.3
1409676254.498368373 : 1715.3
1409676254.598341345 : 1715.3
1409676254.698333845 : 1715.3
1409676254.798379690 : 1736.86
1409676254.898367033 : 1736.86
1409676254.998426786 : 1715.3
1409676255.098365084 : 1715.3
1409676255.198312567 : 1715.3
1409676255.298318571 : 1786.96
1409676255.398316885 : 1763.5
1409676255.498304553 : 1763.5
1409676255.598325378 : 1786.96
1409676255.698331151 : 1839.71
1409676255.798387200 : 1763.5
1409676255.898402176 : 1763.5
1409676255.998319202 : 1786.96
1409676256.098325637 : 1839.71
1409676256.198360458 : 1839.71
1409676256.298217064 : 1763.5
1409676256.398322143 : 1763.5
1409676256.498321833 : 1839.71
1409676256.598312370 : 1814.15
1409676256.698357572 : 1814.15
1409676256.798318211 : 1814.15
1409676256.898376882 : 1786.96
1409676256.998369591 : 1814.15
1409676257.098378742 : 1814.15
1409676257.198352983 : 1763.5
1409676257.298364891 : 1715.3
1409676257.398444874 : 1715.3
1409676257.498372835 : 1715.3
1409676257.598381741 : 1715.3
1409676257.698344436 : 1736.86
1409676257.798381094 : 1715.3
1409676257.898209023 : 1763.5
1409676257.998373205 : 1786.96
1409676258.098369189 : 1763.5
1409676258.198330853 : 1786.96
1409676258.298313213 : 1786.96
1409676258.398371552 : 1736.86
1409676258.498304977 : 1736.86
1409676258.598367290 : 1736.86
1409676258.698348712 : 1736.86
1409676258.798384526 : 1736.86
1409676258.898218587 : 1786.96
1409676258.998421574 : 1786.96
1409676259.098331578 : 1786.96
1409676259.198291533 : 1809.53
1409676259.298324796 : 1786.96
1409676259.398226729 : 1736.86
1409676259.498444244 : 1786.96
1409676259.598328416 : 1809.53
1409676259.698313618 : 1763.5
1409676259.798364926 : 1736.86
1409676259.898328718 : 1757.57
1409676259.998319035 : 1736.86
1409676260.098341346 : 1809.53
1409676260.198361357 : 1736.86
1409676260.298342644 : 1757.57
1409676260.398322638 : 1757.57
1409676260.498321629 : 1757.57
1409676260.598348659 : 1736.86
1409676260.698384126 : 1864.37
1409676260.798329261 : 1809.53
1409676260.898314294 : 1809.53
1409676260.998357930 : 1809.53
1409676261.098345466 : 1786.96
1409676261.198367320 : 1757.57
1409676261.298303952 : 1736.86
1409676261.398358712 : 1757.57
1409676261.498313661 : 1757.57
1409676261.598306756 : 1757.57
1409676261.698317899 : 1736.86
1409676261.798355081 : 1757.57
1409676261.898470099 : 1708.29
1409676261.998311531 : 1736.86
1409676262.098361183 : 1708.29
1409676262.198228870 : 1757.57
1409676262.298407133 : 1708.29
1409676262.398296143 : 1736.86
1409676262.498313461 : 1757.57
1409676262.598359125 : 1757.57
1409676262.698319375 : 1757.57
1409676262.798233821 : 1809.53
1409676262.898221227 : 1757.57
1409676262.998354077 : 1757.57
1409676263.098317463 : 1736.86
1409676263.198316325 : 1757.57
1409676263.298325381 : 1757.57
1409676263.398334969 : 1736.86
1409676263.498355746 : 1689.25
1409676263.598314504 : 1708.29
1409676263.698360883 : 1689.25
1409676263.798606367 : 1708.29
1409676263.898391771 : 1757.57
1409676263.998238030 : 1736.86
1409676264.098350093 : 1708.29
1409676264.198352310 : 1708.29
1409676264.298371202 : 1708.29
1409676264.398228125 : 1708.29
1409676264.498331669 : 1757.57
1409676264.598410791 : 1757.57
1409676264.698309559 : 1708.29
1409676264.798340708 : 1708.29
1409676264.898297375 : 1777.29
1409676264.998376155 : 1726.38
1409676265.098383811 : 1708.29
1409676265.198529329 : 1726.38
1409676265.298387539 : 1726.38
1409676265.398364400 : 1708.29
1409676265.498393582 : 1726.38
1409676265.598354094 : 1726.38
1409676265.698337297 : 1743.41
1409676265.798373216 : 1726.38
1409676265.898333989 : 1743.41
1409676265.998316618 : 1777.29
1409676266.098363503 : 1743.41
1409676266.198329618 : 1777.29
1409676266.298379908 : 1777.29
1409676266.398371464 : 1726.38
1409676266.498333695 : 1831.07
1409676266.598337758 : 1777.29
1409676266.698310000 : 1831.07
1409676266.798339695 : 1786.96
1409676266.898344883 : 1757.57
1409676266.998307960 : 1809.53
1409676267.098386869 : 1786.96
1409676267.198317297 : 1809.53
1409676267.298422840 : 1736.86
1409676267.398346892 : 1786.96
1409676267.498346355 : 1736.86
1409676267.598374207 : 1757.57
1409676267.698319860 : 1736.86
1409676267.798321335 : 1708.29
1409676267.898341490 : 1689.25
1409676267.998420000 : 1689.25
1409676268.098413693 : 1708.29
1409676268.198244484 : 1708.29
1409676268.298333484 : 1757.57
1409676268.398338281 : 1708.29
1409676268.498366349 : 1708.29
1409676268.598216756 : 1708.29
1409676268.698308123 : 1708.29
1409676268.798343707 : 1708.29
1409676268.898322558 : 1689.25
1409676268.998392961 : 1736.86
1409676269.098394851 : 1689.25
1409676269.198487190 : 1708.29
1409676269.298302406 : 1708.29
1409676269.398370595 : 1736.86
1409676269.498325851 : 1777.29
1409676269.598215686 : 1726.38
1409676269.698311275 : 1708.29
1409676269.798308240 : 1726.38
1409676269.898312312 : 1726.38
1409676269.998343411 : 1777.29
1409676270.098330442 : 1777.29
1409676270.198384651 : 1831.07
1409676270.298432434 : 1831.07
1409676270.398332346 : 1809.53
1409676270.498311417 : 1757.57
1409676270.598365387 : 1831.07
1409676270.698350992 : 1777.29
1409676270.798214922 : 1777.29
1409676270.898354904 : 1777.29
1409676270.998396210 : 1777.29
1409676271.098236757 : 1851.42
1409676271.198329360 : 1831.07
1409676271.298222192 : 1777.29
1409676271.398381144 : 1743.41
1409676271.498313350 : 1777.29
1409676271.598252211 : 1777.29
1409676271.698406395 : 1777.29
1409676271.798233712 : 1795.89
1409676271.898373382 : 1831.07
1409676271.998309982 : 1777.29
1409676272.098385179 : 1795.89
1409676272.198433358 : 1795.89
1409676272.298340115 : 1795.89
1409676272.398325891 : 1777.29
1409676272.498363796 : 1851.42
1409676272.598313449 : 1851.42
1409676272.698334384 : 1795.89
1409676272.798365602 : 1831.07
1409676272.898319685 : 1777.29
1409676272.998331577 : 1795.89
1409676273.098329935 : 1831.07
1409676273.198208419 : 1777.29
1409676273.298326274 : 1777.29
1409676273.398252266 : 1777.29
1409676273.498382631 : 1777.29
1409676273.598341449 : 1777.29
1409676273.698321207 : 1777.29
1409676273.798337177 : 1743.41
1409676273.898373212 : 1726.38
1409676273.998320883 : 1726.38
1409676274.098491244 : 1726.38
1409676274.198336843 : 1726.38
1409676274.298361154 : 1726.38
1409676274.398389179 : 1708.29
1409676274.498420985 : 1726.38
1409676274.598328660 : 1777.29
1409676274.698334209 : 1726.38
1409676274.798352121 : 1726.38
1409676274.898352198 : 1678.13
1409676274.998329838 : 1678.13
1409676275.098321690 : 1726.38
1409676275.198333087 : 1678.13
1409676275.298319375 : 1726.38
1409676275.398308727 : 1726.38
1409676275.498403021 : 1708.29
1409676275.598340113 : 1708.29
1409676275.698291436 : 1678.13
1409676275.798228541 : 1678.13
1409676275.898333535 : 1693.76
1409676275.998338747 : 1693.76
1409676276.098349030 : 1743.41
1409676276.198231828 : 1743.41
1409676276.298358919 : 1726.38
1409676276.398365705 : 1726.38
1409676276.498327909 : 1726.38
1409676276.598345394 : 1726.38
1409676276.698325693 : 1708.29
1409676276.798316719 : 1678.13
1409676276.898633937 : 1661.49
1409676276.998322724 : 1726.38
1409676277.098329667 : 1726.38
1409676277.198324957 : 1708.29
1409676277.298361290 : 1689.25
1409676277.398371676 : 1689.25
1409676277.498330815 : 1661.49
1409676277.598335360 : 1689.25
1409676277.698328281 : 1708.29
1409676277.798482896 : 1708.29
1409676277.898466793 : 1757.57
1409676277.998348642 : 1708.29
1409676278.098404611 : 1708.29
1409676278.198291613 : 1661.49
1409676278.298259193 : 1661.49
1409676278.398370388 : 1708.29
1409676278.498306942 : 1689.25
1409676278.598382199 : 1643.96
1409676278.698346371 : 1643.96
1409676278.798356456 : 1643.96
1409676278.898445617 : 1617.03
1409676279.798314232 : 1661.49
1409676279.898249746 : 1617.03
1409676280.698377440 : 1600.85
1409676280.898354942 : 1661.49
1409676280.998259179 : 1643.96
1409676281.098341091 : 1625.63
1409676281.198401101 : 1643.96
1409676281.298258863 : 1643.96
1409676281.398459513 : 1643.96
1409676281.498302275 : 1661.49
1409676281.598320989 : 1661.49
1409676281.698227474 : 1661.49
1409676281.798376095 : 1643.96
1409676281.898307674 : 1643.96
1409676281.998357462 : 1689.25
1409676282.098327324 : 1689.25
1409676282.198315460 : 1757.57
1409676282.298404342 : 1757.57
1409676282.398386596 : 1736.86
1409676282.498359296 : 1777.29
1409676282.598338253 : 1736.86
1409676282.698316623 : 1736.86
1409676282.798366190 : 1757.57
1409676282.898325999 : 1708.29
1409676282.998442567 : 1757.57
1409676283.098370950 : 1757.57
1409676283.198343714 : 1736.86
1409676283.298348725 : 1689.25
1409676283.398338166 : 1736.86
1409676283.498345086 : 1736.86
1409676283.598313216 : 1708.29
1409676283.698308054 : 1736.86
1409676283.798225661 : 1757.57
1409676283.898350238 : 1736.86
1409676283.998326439 : 1736.86
1409676284.098425729 : 1757.57
1409676284.198396648 : 1736.86
1409676284.298208010 : 1757.57
1409676284.398290890 : 1708.29
1409676284.498320686 : 1757.57
1409676284.598337557 : 1757.57
1409676284.698330069 : 1708.29
1409676284.798311657 : 1708.29
1409676284.898341890 : 1689.25
1409676284.998325176 : 1736.86
1409676285.098428965 : 1736.86
1409676285.198449739 : 1736.86
1409676285.298225408 : 1757.57
1409676285.398244276 : 1757.57
1409676285.498333064 : 1736.86
1409676285.598388646 : 1757.57
1409676285.698310604 : 1757.57
1409676285.798354480 : 1736.86
1409676285.898270861 : 1736.86
1409676285.998405607 : 1757.57
1409676286.098384952 : 1809.53
1409676286.198366085 : 1809.53
1409676286.298232313 : 1809.53
1409676286.398359961 : 1757.57
1409676286.498307674 : 1736.86
1409676286.598359754 : 1786.96
1409676286.698358797 : 1809.53
1409676286.798367757 : 1809.53
1409676286.898407840 : 1757.57
1409676286.998323409 : 1757.57
1409676287.098317770 : 1757.57
1409676287.198354240 : 1757.57
1409676287.298390323 : 1757.57
1409676287.398424073 : 1757.57
1409676287.498302114 : 1757.57
1409676287.598354428 : 1757.57
1409676287.698340252 : 1757.57
1409676287.798435288 : 1757.57
1409676287.898441907 : 1757.57
1409676287.998359922 : 1757.57
1409676288.098311599 : 1757.57
1409676288.198387188 : 1757.57
1409676288.298319942 : 1708.29
1409676288.398370918 : 1689.25
1409676288.498313892 : 1708.29
1409676288.598361975 : 1708.29
1409676288.698361320 : 1689.25
1409676288.798295008 : 1689.25
1409676288.898342728 : 1726.38
1409676288.998471138 : 1708.29
1409676289.098317877 : 1708.29
1409676289.198321127 : 1708.29
1409676289.298401924 : 1708.29
1409676289.398232875 : 1708.29
1409676289.498312642 : 1708.29
1409676289.598343721 : 1661.49
1409676289.698311073 : 1708.29
1409676289.798307634 : 1708.29
1409676289.898318871 : 1661.49
1409676289.998318917 : 1661.49
1409676290.098317383 : 1643.96
1409676290.198355029 : 1661.49
1409676290.298290888 : 1661.49
1409676290.398285602 : 1708.29
1409676290.498318672 : 1661.49
1409676290.598305000 : 1708.29
1409676290.698317822 : 1661.49
1409676290.798320740 : 1661.49
1409676290.898374229 : 1661.49
1409676290.998378646 : 1708.29
1409676291.098310431 : 1708.29
1409676291.198344826 : 1708.29
1409676291.298412795 : 1708.29
1409676291.398392156 : 1661.49
1409676291.498365192 : 1661.49
1409676291.598364447 : 1708.29
1409676291.698319671 : 1708.29
1409676291.798361917 : 1689.25
1409676291.898323803 : 1708.29
1409676291.998369669 : 1689.25
1409676292.098332750 : 1708.29
1409676292.198381772 : 1689.25
1409676292.298323601 : 1708.29
1409676292.398373170 : 1689.25
1409676292.498338545 : 1708.29
1409676292.598391877 : 1736.86
1409676292.698323830 : 1757.57
1409676292.798328866 : 1689.25
1409676292.898396074 : 1736.86
1409676292.998323780 : 1689.25
1409676293.098372137 : 1689.25
1409676293.198329262 : 1689.25
1409676293.298392057 : 1689.25
1409676293.398222906 : 1669.39
1409676293.498307424 : 1715.3
1409676293.598323403 : 1669.39
1409676293.698377627 : 1689.25
1409676293.798250420 : 1669.39
1409676293.898218906 : 1689.25
1409676293.998371192 : 1689.25
1409676294.098386581 : 1669.39
1409676294.198348617 : 1625.63
1409676294.298346057 : 1669.39
1409676294.398411100 : 1689.25
1409676294.498387979 : 1643.96
1409676294.598249445 : 1736.86
1409676294.698498813 : 1625.63
1409676294.798388250 : 1643.96
1409676294.898340518 : 1625.63
1409676294.998405605 : 1661.49
1409676295.098213661 : 1661.49
1409676295.198337243 : 1689.25
1409676295.298385667 : 1689.25
1409676295.398340766 : 1689.25
1409676295.498229455 : 1736.86
1409676295.598372733 : 1736.86
1409676295.698362023 : 1757.57
1409676295.798318288 : 1809.53
1409676295.898338923 : 1736.86
1409676295.998306688 : 1786.96
1409676296.098319562 : 1786.96
1409676296.198320627 : 1809.53
1409676296.298328205 : 1786.96
1409676296.398344393 : 1786.96
1409676296.498385858 : 1839.71
1409676296.598298233 : 1786.96
1409676296.698309451 : 1786.96
1409676296.798312444 : 1786.96
1409676296.898422928 : 1839.71
1409676296.998356361 : 1786.96
1409676297.098347575 : 1839.71
1409676297.198339429 : 1786.96
1409676297.298321964 : 1809.53
1409676297.398308137 : 1786.96
1409676297.498322202 : 1736.86
1409676297.598338748 : 1809.53
1409676297.698347530 : 1736.86
1409676297.798331692 : 1809.53
1409676297.898370373 : 1715.3
1409676297.998372580 : 1715.3
1409676298.098234290 : 1786.96
1409676298.198347286 : 1736.86
1409676298.298315348 : 1736.86
1409676298.398331992 : 1708.29
1409676298.498322660 : 1689.25
1409676298.598225579 : 1708.29
1409676298.698306861 : 1736.86
1409676298.798322186 : 1669.39
1409676298.898397996 : 1689.25
1409676298.998359092 : 1669.39
1409676299.098374931 : 1669.39
1409676299.198231739 : 1736.86
1409676299.298230146 : 1643.96
1409676299.398251640 : 1689.25
1409676299.498329202 : 1736.86
1409676299.598332643 : 1708.29
1409676299.698337331 : 1708.29
1409676299.798356040 : 1736.86
1409676299.898331708 : 1736.86
1409676299.998370267 : 1736.86
1409676300.098457394 : 1757.57
1409676300.198257708 : 1736.86
1409676300.298303357 : 1757.57
1409676300.398343318 : 1708.29
1409676300.498438956 : 1757.57
1409676300.598336803 : 1708.29
1409676300.698369803 : 1757.57
1409676300.798213933 : 1757.57
1409676300.898351413 : 1757.57
1409676300.998308280 : 1689.25
1409676301.098317997 : 1736.86
1409676301.198217651 : 1736.86
1409676301.298331243 : 1757.57
1409676301.398436396 : 1708.29
1409676301.498384213 : 1757.57
1409676301.598323419 : 1777.29
1409676301.698336694 : 1777.29
1409676301.798333517 : 1757.57
1409676301.898332189 : 1809.53
1409676301.998321023 : 1809.53
1409676302.098260137 : 1757.57
1409676302.198237851 : 1809.53
1409676302.298342581 : 1809.53
1409676302.398315217 : 1757.57
1409676302.498355484 : 1757.57
1409676302.598426347 : 1757.57
1409676302.698541559 : 1809.53
1409676302.798381355 : 1757.57
1409676302.898335810 : 1708.29
1409676302.998334482 : 1757.57
1409676303.098368205 : 1757.57
1409676303.198320896 : 1689.25
1409676303.298345346 : 1757.57
1409676303.398361891 : 1689.25
1409676303.498317456 : 1757.57
1409676303.598366792 : 1736.86
1409676303.698223114 : 1736.86
1409676303.798346916 : 1669.39
1409676303.898481568 : 1736.86
1409676303.998317229 : 1708.29
1409676304.098343481 : 1689.25
1409676304.198386540 : 1689.25
1409676304.298378124 : 1689.25
1409676304.398375080 : 1689.25
1409676304.498317859 : 1661.49
1409676304.598316670 : 1643.96
1409676304.698380529 : 1661.49
1409676304.798370691 : 1661.49
1409676304.898314925 : 1643.96
1409676304.998351513 : 1643.96
1409676305.098318651 : 1708.29
1409676305.198324618 : 1689.25
1409676305.298377012 : 1708.29
1409676305.398320236 : 1661.49
1409676305.498383753 : 1661.49
1409676305.598322005 : 1689.25
1409676305.698325612 : 1661.49
1409676305.798312090 : 1708.29
1409676305.898360036 : 1757.57
1409676305.998311309 : 1708.29
1409676306.098338684 : 1708.29
1409676306.198316223 : 1708.29
1409676306.298327391 : 1726.38
1409676306.398351611 : 1661.49
1409676306.498305313 : 1661.49
1409676306.598327899 : 1708.29
1409676306.698326374 : 1757.57
1409676306.798380386 : 1708.29
1409676306.898317138 : 1708.29
1409676306.998314096 : 1708.29
1409676307.098364737 : 1708.29
1409676307.198271677 : 1736.86
1409676307.298206435 : 1736.86
1409676307.398363947 : 1708.29
1409676307.498314306 : 1757.57
1409676307.598379198 : 1736.86
1409676307.698328781 : 1736.86
1409676307.798420111 : 1736.86
1409676307.898279084 : 1736.86
1409676307.998374196 : 1736.86
1409676308.098310127 : 1669.39
1409676308.198339081 : 1736.86
1409676308.298311653 : 1736.86
1409676308.398348899 : 1736.86
1409676308.498388889 : 1736.86
1409676308.598333777 : 1736.86
1409676308.698354050 : 1757.57
1409676308.798313570 : 1757.57
1409676308.898390452 : 1757.57
1409676308.998390533 : 1689.25
1409676309.098425411 : 1689.25
1409676309.198311057 : 1689.25
1409676309.298329484 : 1736.86
1409676309.398363520 : 1689.25
1409676309.498379912 : 1757.57
1409676309.598421186 : 1736.86
1409676309.698323118 : 1689.25
1409676309.798304607 : 1736.86
1409676309.898364109 : 1736.86
1409676309.998226504 : 1689.25
1409676310.098315802 : 1757.57
1409676310.198351557 : 1736.86
1409676310.298355048 : 1736.86
1409676310.398336701 : 1736.86
1409676310.498309554 : 1736.86
1409676310.598420353 : 1736.86
1409676310.698368138 : 1715.3
1409676310.798371608 : 1736.86
1409676310.898246663 : 1763.5
1409676310.998311480 : 1736.86
1409676311.098353592 : 1763.5
1409676311.198409797 : 1763.5
1409676311.298326106 : 1736.86
1409676311.398277488 : 1786.96
1409676311.498301011 : 1786.96
1409676311.598359776 : 1736.86
1409676311.698342257 : 1736.86
1409676311.798324976 : 1689.25
1409676311.898406466 : 1715.3
1409676311.998367203 : 1736.86
1409676312.098333638 : 1715.3
1409676312.198308000 : 1708.29
1409676312.298297148 : 1689.25
1409676312.398318957 : 1689.25
1409676312.498402585 : 1708.29
1409676312.598344070 : 1689.25
1409676312.698293247 : 1689.25
1409676312.798347864 : 1643.96
1409676312.898227931 : 1708.29
1409676312.998340060 : 1689.25
1409676313.098371819 : 1708.29
1409676313.198362598 : 1643.96
1409676313.298325218 : 1661.49
1409676313.398346417 : 1661.49
1409676313.498359209 : 1689.25
1409676313.598385953 : 1689.25
1409676313.698317654 : 1689.25
1409676313.798320489 : 1757.57
1409676313.898336729 : 1708.29
1409676313.998367721 : 1689.25
1409676314.098413821 : 1689.25
1409676314.198376902 : 1757.57
1409676314.298383083 : 1757.57
1409676314.398327250 : 1757.57
1409676314.498307467 : 1757.57
1409676314.598266418 : 1708.29
1409676314.698319049 : 1708.29
1409676314.798336349 : 1736.86
1409676314.898300168 : 1736.86
1409676314.998307449 : 1757.57
1409676315.098353536 : 1736.86
1409676315.198339161 : 1757.57
1409676315.298355315 : 1757.57
1409676315.398529066 : 1757.57
1409676315.498316718 : 1736.86
1409676315.598349522 : 1708.29
1409676315.698323317 : 1757.57
1409676315.798324799 : 1786.96
1409676315.898370200 : 1786.96
1409676315.998316981 : 1757.57
1409676316.098344932 : 1757.57
1409676316.198337523 : 1736.86
1409676316.298327086 : 1809.53
1409676316.398330950 : 1757.57
1409676316.498280545 : 1757.57
1409676316.598393662 : 1757.57
1409676316.698344643 : 1809.53
1409676316.798239606 : 1786.96
1409676316.898394642 : 1786.96
1409676316.998370917 : 1809.53
1409676317.098343282 : 1736.86
1409676317.198298923 : 1786.96
1409676317.298363302 : 1786.96
1409676317.398321826 : 1786.96
1409676317.498332882 : 1763.5
1409676317.598321532 : 1763.5
1409676317.698376090 : 1763.5
1409676317.798327342 : 1763.5
1409676317.898339732 : 1786.96
1409676317.998335764 : 1715.3
1409676318.098360699 : 1763.5
1409676318.198314855 : 1715.3
1409676318.298323184 : 1715.3
1409676318.398326246 : 1736.86
1409676318.498420093 : 1669.39
1409676318.598350911 : 1689.25
1409676318.698424770 : 1643.96
1409676318.798366969 : 1643.96
1409676318.898213843 : 1643.96
1409676318.998347332 : 1643.96
1409676319.098477491 : 1689.25
1409676319.198327873 : 1643.96
1409676319.298347903 : 1643.96
1409676319.398366844 : 1661.49
1409676319.498386793 : 1661.49
1409676319.598344689 : 1661.49
1409676319.698297402 : 1661.49
1409676319.798346503 : 1661.49
1409676319.898382287 : 1617.03
1409676319.998320261 : 1678.13
1409676320.098370739 : 1661.49
1409676320.198331288 : 1632.35
1409676320.298329893 : 1661.49
1409676320.398409022 : 1617.03
1409676321.698346947 : 1559.77
1409676321.798398870 : 1617.03
1409676321.898389901 : 1643.96
1409676321.998377361 : 1661.49
1409676322.098370733 : 1708.29
1409676322.198360591 : 1689.25
1409676322.298322163 : 1689.25
1409676322.398319097 : 1689.25
1409676322.498445027 : 1736.86
1409676322.598364716 : 1757.57
1409676322.698352336 : 1757.57
1409676322.798321340 : 1708.29
1409676322.898357701 : 1757.57
1409676322.998352998 : 1757.57
1409676323.098475360 : 1839.71
1409676323.198372818 : 1839.71
1409676323.298348091 : 1839.71
1409676323.398382699 : 1786.96
1409676323.498320561 : 1786.96
1409676323.598309043 : 1809.53
1409676323.698361312 : 1786.96
1409676323.798399729 : 1809.53
1409676323.898354511 : 1809.53
1409676323.998410340 : 1809.53
1409676324.098335312 : 1809.53
1409676324.198457545 : 1809.53
1409676324.298348141 : 1839.71
1409676324.398442960 : 1809.53
1409676324.498229871 : 1786.96
1409676324.598290234 : 1809.53
1409676324.698334994 : 1786.96
1409676324.798355330 : 1786.96
1409676324.898441073 : 1839.71
1409676324.998228830 : 1839.71
1409676325.098322884 : 1786.96
1409676325.198225187 : 1809.53
1409676325.298334163 : 1786.96
1409676325.398328206 : 1786.96
1409676325.498326672 : 1715.3
1409676325.598405389 : 1809.53
1409676325.698317199 : 1786.96
1409676325.798322064 : 1809.53
1409676325.898254865 : 1763.5
1409676325.998314662 : 1736.86
1409676326.098361395 : 1839.71
1409676326.198330113 : 1809.53
1409676326.298388094 : 1809.53
1409676326.398248952 : 1809.53
1409676326.498402649 : 1786.96
1409676326.598364444 : 1809.53
1409676326.698293544 : 1809.53
1409676326.798331874 : 1757.57
1409676326.898331654 : 1809.53
1409676326.998329935 : 1757.57
1409676327.098336119 : 1757.57
1409676327.198300507 : 1809.53
1409676327.298526455 : 1809.53
1409676327.398364018 : 1809.53
1409676327.498345415 : 1864.37
1409676327.598375379 : 1757.57
1409676327.698359128 : 1809.53
1409676327.798326092 : 1786.96
1409676327.898307338 : 1809.53
1409676327.998386710 : 1809.53
1409676328.098370763 : 1786.96
1409676328.198378226 : 1757.57
1409676328.298287202 : 1757.57
1409676328.398390096 : 1757.57
1409676328.498221570 : 1708.29
1409676328.598378793 : 1777.29
1409676328.698382715 : 1708.29
1409676328.798374427 : 1757.57
1409676328.898401591 : 1809.53
1409676328.998406634 : 1757.57
1409676329.098337042 : 1736.86
1409676329.198353831 : 1757.57
1409676329.298312648 : 1757.57
1409676329.398332019 : 1757.57
1409676329.498333685 : 1809.53
1409676329.598358682 : 1809.53
1409676329.698472581 : 1809.53
1409676329.798228212 : 1757.57
1409676329.898211932 : 1757.57
1409676329.998358042 : 1809.53
1409676330.098378818 : 1757.57
1409676330.198533964 : 1786.96
1409676330.298321713 : 1831.07
1409676330.398306997 : 1831.07
1409676330.498326564 : 1864.37
1409676330.598348181 : 1809.53
1409676330.698249508 : 1831.07
1409676330.798354308 : 1809.53
1409676330.898308993 : 1809.53
1409676330.998311684 : 1757.57
1409676331.098225600 : 1757.57
1409676331.198246336 : 1831.07
1409676331.298334324 : 1809.53
1409676331.398343323 : 1831.07
1409676331.498537393 : 1757.57
1409676332.098397617 : 1809.53
1409676332.198319198 : 1777.29
1409676332.298443168 : 1777.29
1409676332.398334168 : 1757.57
1409676332.498355571 : 1786.96
1409676332.598316477 : 1809.53
1409676332.698334356 : 1757.57
1409676332.798331354 : 1757.57
1409676332.898293096 : 1757.57
1409676332.998365265 : 1757.57
1409676333.098380320 : 1777.29
1409676333.198331157 : 1809.53
1409676333.298338234 : 1777.29
1409676333.398352735 : 1777.29
1409676333.498313978 : 1777.29
1409676333.598355868 : 1757.57
1409676333.698318313 : 1757.57
1409676333.798317073 : 1757.57
1409676333.898382785 : 1757.57
1409676333.998312488 : 1757.57
1409676334.098339571 : 1757.57
1409676334.198360457 : 1809.53
1409676334.298320711 : 1809.53
1409676334.398318675 : 1726.38
1409676334.498347959 : 1777.29
1409676334.598327376 : 1757.57
1409676334.698431993 : 1757.57
1409676334.798338026 : 1757.57
1409676334.898343596 : 1757.57
1409676334.998361027 : 1757.57
1409676335.098275145 : 1757.57
1409676335.198322635 : 1757.57
1409676335.298324097 : 1708.29
1409676335.398350611 : 1689.25
1409676335.498302096 : 1708.29
1409676335.598389522 : 1689.25
1409676335.698378682 : 1757.57
1409676335.798323550 : 1708.29
1409676335.898300654 : 1689.25
1409676335.998236340 : 1757.57
1409676336.098380872 : 1736.86
1409676336.198350487 : 1689.25
1409676336.298366525 : 1708.29
1409676336.398325386 : 1736.86
1409676336.498340551 : 1736.86
1409676336.598215161 : 1689.25
1409676336.698253964 : 1689.25
1409676336.798309841 : 1736.86
1409676336.898406782 : 1708.29
1409676336.998522948 : 1757.57
1409676337.098324644 : 1689.25
1409676337.198406666 : 1757.57
1409676337.298318707 : 1736.86
1409676337.398372892 : 1757.57
1409676337.498318223 : 1757.57
1409676337.598371845 : 1757.57
1409676337.698232537 : 1757.57
1409676337.798465285 : 1708.29
1409676337.898371308 : 1736.86
1409676337.998313726 : 1757.57
1409676338.098216992 : 1736.86
1409676338.198379185 : 1809.53
1409676338.298416594 : 1736.86
1409676338.398343085 : 1757.57
1409676338.498303662 : 1736.86
1409676338.598309290 : 1786.96
1409676338.698305541 : 1736.86
1409676338.798315657 : 1786.96
1409676338.898297452 : 1736.86
1409676338.998316132 : 1786.96
1409676339.098331748 : 1786.96
1409676339.198308450 : 1809.53
1409676339.298221040 : 1809.53
1409676339.398444335 : 1864.37
1409676339.498353674 : 1786.96
1409676339.598325480 : 1864.37
1409676339.698320721 : 1864.37
1409676339.798321487 : 1887.95
1409676339.898332570 : 1786.96
1409676339.998401042 : 1839.71
1409676340.098247181 : 1922.29
1409676340.198235527 : 1839.71
1409676340.298389191 : 1864.37
1409676340.398328767 : 1809.53
1409676340.498490185 : 1786.96
1409676340.598388199 : 1864.37
1409676340.698325572 : 1809.53
1409676340.798303682 : 1809.53
1409676340.898408069 : 1786.96
1409676340.998336793 : 1839.71
1409676341.098377277 : 1786.96
1409676341.198389922 : 1786.96
1409676341.298342700 : 1809.53
1409676341.398356226 : 1736.86
1409676341.498318047 : 1736.86
1409676341.598251547 : 1757.57
1409676341.698419098 : 1757.57
1409676341.798359091 : 1757.57
1409676341.898424530 : 1736.86
1409676341.998373579 : 1736.86
1409676342.098331420 : 1757.57
1409676342.198327570 : 1757.57
1409676342.298349720 : 1757.57
1409676342.398332783 : 1757.57
1409676342.498387653 : 1757.57
1409676342.598339292 : 1757.57
1409676342.698306012 : 1757.57
1409676342.798378872 : 1757.57
1409676342.898344547 : 1757.57
1409676342.998373564 : 1708.29
1409676343.098308936 : 1757.57
1409676343.198315527 : 1708.29
1409676343.298365223 : 1708.29
1409676343.398379517 : 1777.29
1409676343.498335239 : 1708.29
1409676343.598372296 : 1726.38
1409676343.698475029 : 1726.38
1409676343.798590197 : 1708.29
1409676343.898353445 : 1726.38
1409676343.998319034 : 1708.29
1409676344.098233879 : 1743.41
1409676344.198372535 : 1726.38
1409676344.298260901 : 1678.13
1409676344.398223440 : 1726.38
1409676344.498205875 : 1678.13
1409676344.598376886 : 1661.49
1409676344.698430382 : 1678.13
1409676344.798361069 : 1726.38
1409676344.898386699 : 1678.13
1409676344.998333034 : 1708.29
1409676345.098346537 : 1726.38
1409676345.198313226 : 1726.38
1409676345.298330889 : 1726.38
1409676345.398439772 : 1726.38
1409676345.498212025 : 1689.25
1409676345.598319815 : 1708.29
1409676345.698298994 : 1708.29
1409676345.798455959 : 1726.38
1409676345.898382677 : 1726.38
1409676345.998409780 : 1757.57
1409676346.098334473 : 1689.25
1409676346.198359764 : 1708.29
1409676346.298324063 : 1757.57
1409676346.398324141 : 1708.29
1409676346.498408712 : 1689.25
1409676346.598226891 : 1708.29
1409676346.698378772 : 1708.29
1409676346.798325496 : 1689.25
1409676346.898355094 : 1708.29
1409676346.998328994 : 1689.25
1409676347.098406785 : 1757.57
1409676347.198246864 : 1708.29
1409676347.298456203 : 1669.39
1409676347.398341032 : 1689.25
1409676347.498323694 : 1669.39
1409676347.598333551 : 1669.39
1409676347.698389894 : 1689.25
1409676347.798441316 : 1643.96
1409676347.898356403 : 1689.25
1409676347.998220993 : 1643.96
1409676348.098551346 : 1689.25
1409676348.198327149 : 1689.25
1409676348.298365830 : 1689.25
1409676348.398436736 : 1661.49
1409676348.498568303 : 1661.49
1409676348.598430535 : 1661.49
1409676348.698397958 : 1625.63
1409676348.798327242 : 1661.49
1409676348.898336691 : 1689.25
1409676348.998364171 : 1708.29
1409676349.098330897 : 1708.29
1409676349.198343168 : 1726.38
1409676349.298305695 : 1708.29
1409676349.398308184 : 1708.29
1409676349.498356743 : 1678.13
1409676349.598425820 : 1661.49
1409676349.698378766 : 1708.29
1409676349.798273864 : 1643.96
1409676349.898294787 : 1757.57
1409676349.998314423 : 1777.29
1409676350.098383747 : 1689.25
1409676350.198371921 : 1736.86
1409676350.298382319 : 1777.29
1409676350.398368947 : 1757.57
1409676350.498314144 : 1809.53
1409676350.698360688 : 1831.07
1409676350.798376848 : 1777.29
1409676350.898352546 : 1757.57
1409676350.998363218 : 1831.07
1409676351.098374597 : 1831.07
1409676351.198407508 : 1777.29
1409676351.298221774 : 1777.29
1409676351.398356922 : 1777.29
1409676351.498370706 : 1726.38
1409676351.598367252 : 1743.41
1409676351.698390535 : 1726.38
1409676351.798371933 : 1743.41
1409676351.898345187 : 1726.38
1409676351.998332362 : 1726.38
1409676352.098360520 : 1726.38
1409676352.198369271 : 1743.41
1409676352.298348068 : 1777.29
1409676352.398324118 : 1726.38
1409676352.498357411 : 1726.38
1409676352.598687312 : 1708.29
1409676352.698428172 : 1726.38
1409676352.798344953 : 1726.38
1409676352.898256802 : 1708.29
1409676352.998374713 : 1726.38
1409676353.098333140 : 1708.29
1409676353.198318139 : 1777.29
1409676353.298363408 : 1726.38
1409676353.398240226 : 1708.29
1409676353.498372661 : 1708.29
1409676353.598321972 : 1708.29
1409676353.698382875 : 1708.29
1409676353.798323064 : 1726.38
1409676353.898329461 : 1643.96
1409676353.998347843 : 1708.29
1409676354.098350192 : 1708.29
1409676354.198495762 : 1643.96
1409676354.298318731 : 1643.96
1409676354.398322335 : 1661.49
1409676354.498321662 : 1643.96
1409676354.598337321 : 1661.49
1409676354.698294224 : 1661.49
1409676354.798324693 : 1643.96
1409676354.898311577 : 1661.49
1409676354.998387430 : 1661.49
1409676355.098315098 : 1643.96
1409676355.198402374 : 1661.49
1409676355.298303832 : 1661.49
1409676355.398338590 : 1708.29
1409676355.498352227 : 1661.49
1409676355.598431832 : 1708.29
1409676355.698319198 : 1726.38
1409676355.798362494 : 1643.96
1409676355.898375071 : 1708.29
1409676355.998317733 : 1708.29
1409676356.098308921 : 1661.49
1409676356.198298133 : 1726.38
1409676356.298349165 : 1708.29
1409676356.398367738 : 1726.38
1409676356.498375371 : 1757.57
1409676356.598342367 : 1708.29
1409676356.698361813 : 1757.57
1409676356.798324066 : 1726.38
1409676356.898368969 : 1777.29
1409676356.998240399 : 1831.07
1409676357.098328285 : 1831.07
1409676357.198379137 : 1887.95
1409676357.798316134 : 1757.57
1409676357.898305127 : 1689.25
1409676357.998336393 : 1736.86
1409676358.098385201 : 1786.96
1409676358.198369279 : 1757.57
1409676358.298404724 : 1757.57
1409676358.398359425 : 1736.86
1409676358.498342143 : 1786.96
1409676358.598385918 : 1757.57
1409676358.698338897 : 1736.86
1409676358.798461627 : 1708.29
1409676358.898382203 : 1736.86
1409676358.998346984 : 1715.3
1409676359.098322101 : 1736.86
1409676359.198341306 : 1736.86
1409676359.298323617 : 1736.86
1409676359.398318862 : 1736.86
1409676359.498347176 : 1736.86
1409676359.598323206 : 1715.3
1409676359.698330599 : 1757.57
1409676359.798368242 : 1786.96
1409676359.898363607 : 1736.86
1409676359.998343561 : 1757.57
1409676360.098319410 : 1786.96
1409676360.198295944 : 1809.53
1409676360.298315086 : 1809.53
1409676360.398355303 : 1777.29
1409676360.498385623 : 1809.53
1409676360.598365050 : 1809.53
1409676360.698448442 : 1809.53
1409676360.798354540 : 1757.57
1409676360.898444078 : 1809.53
1409676360.998320025 : 1757.57
1409676361.098332288 : 1777.29
1409676361.198317185 : 1777.29
1409676361.298352716 : 1809.53
1409676361.398390486 : 1809.53
1409676361.498208151 : 1757.57
1409676361.598314859 : 1757.57
1409676361.698364617 : 1809.53
1409676361.798354866 : 1809.53
1409676361.898227238 : 1864.37
1409676361.998334956 : 1809.53
1409676362.098356393 : 1809.53
1409676362.198264425 : 1809.53
1409676362.298373708 : 1809.53
1409676362.398308980 : 1809.53
1409676362.498340900 : 1809.53
1409676362.598318403 : 1786.96
1409676362.698326848 : 1757.57
1409676362.798238216 : 1809.53
1409676362.898372372 : 1786.96
1409676362.998290760 : 1757.57
1409676363.098354318 : 1786.96
1409676363.198321345 : 1809.53
1409676363.298433161 : 1786.96
1409676363.398318197 : 1786.96
1409676363.498335258 : 1786.96
1409676363.598381137 : 1736.86
1409676363.698306867 : 1736.86
1409676363.798309516 : 1736.86
1409676363.898341344 : 1786.96
1409676363.998364437 : 1715.3
1409676364.098324706 : 1736.86
1409676364.198346050 : 1757.57
1409676364.298326403 : 1736.86
1409676364.398330113 : 1669.39
1409676364.498335129 : 1757.57
1409676364.598371384 : 1736.86
1409676364.698383504 : 1689.25
1409676364.798360553 : 1736.86
1409676364.898316782 : 1689.25
1409676364.998310832 : 1736.86
1409676365.098315131 : 1736.86
1409676365.198305004 : 1757.57
1409676365.298400334 : 1757.57
1409676365.398315546 : 1757.57
1409676365.498387087 : 1708.29
1409676365.598428592 : 1708.29
1409676365.698339696 : 1708.29
1409676365.798332954 : 1708.29
1409676365.898308240 : 1708.29
1409676365.998315057 : 1757.57
1409676366.098318746 : 1708.29
1409676366.198448760 : 1726.38
1409676366.298337176 : 1726.38
1409676366.398330756 : 1708.29
1409676366.498329809 : 1726.38
1409676366.598353708 : 1708.29
1409676366.698314077 : 1708.29
1409676366.798376283 : 1777.29
1409676366.898225752 : 1777.29
1409676366.998333159 : 1777.29
1409676367.098316362 : 1777.29
1409676367.198315353 : 1726.38
1409676367.298326549 : 1777.29
1409676367.398353717 : 1726.38
1409676367.498393195 : 1777.29
1409676367.598281031 : 1777.29
1409676367.698370941 : 1726.38
1409676367.798365316 : 1777.29
1409676367.898305467 : 1726.38
1409676367.998257675 : 1777.29
1409676368.098219775 : 1777.29
1409676368.198374246 : 1743.41
1409676368.298312302 : 1726.38
1409676368.398376530 : 1726.38
1409676368.498414617 : 1726.38
1409676368.598384053 : 1757.57
1409676368.698391008 : 1777.29
1409676368.798222829 : 1708.29
1409676368.898371288 : 1777.29
1409676368.998352513 : 1726.38
1409676369.098216323 : 1757.57
1409676369.198308560 : 1708.29
1409676369.298341502 : 1726.38
1409676369.398333701 : 1726.38
1409676369.498326330 : 1743.41
1409676369.598328828 : 1726.38
1409676369.698319635 : 1708.29
1409676369.798361971 : 1661.49
1409676369.898255089 : 1726.38
1409676369.998324616 : 1661.49
1409676370.098328709 : 1678.13
1409676370.198362940 : 1678.13
1409676370.298381420 : 1678.13
1409676370.398302410 : 1726.38
1409676370.498225622 : 1661.49
1409676370.598322445 : 1726.38
1409676370.698337174 : 1661.49
1409676370.798314080 : 1661.49
1409676370.898350525 : 1708.29
1409676370.998382762 : 1661.49
1409676371.098473407 : 1643.96
1409676371.198386435 : 1643.96
1409676371.298329668 : 1689.25
1409676371.398210708 : 1708.29
1409676371.498316639 : 1708.29
1409676371.598318524 : 1689.25
1409676371.698329974 : 1708.29
1409676371.798381800 : 1643.96
1409676371.898416850 : 1689.25
1409676371.998345729 : 1689.25
1409676372.098367189 : 1689.25
1409676372.198410055 : 1708.29
1409676372.298463929 : 1689.25
1409676372.398259269 : 1736.86
1409676372.498395210 : 1689.25
1409676372.598463599 : 1643.96
1409676372.698214777 : 1669.39
1409676372.798322712 : 1669.39
1409676372.898301158 : 1689.25
1409676372.998393985 : 1689.25
1409676373.098391531 : 1689.25
1409676373.198354698 : 1689.25
1409676373.298372216 : 1669.39
1409676373.398216986 : 1715.3
1409676373.498366121 : 1736.86
1409676373.598373940 : 1669.39
1409676373.698238358 : 1708.29
1409676373.798322544 : 1689.25
1409676373.898353778 : 1689.25
1409676373.998355148 : 1669.39
1409676374.098328616 : 1669.39
1409676374.198326702 : 1715.3
1409676374.298410266 : 1736.86
1409676374.398343065 : 1736.86
1409676374.498614311 : 1736.86
1409676374.598361924 : 1736.86
1409676374.698454091 : 1669.39
1409676374.798374711 : 1736.86
1409676374.898383734 : 1689.25
1409676374.998371862 : 1786.96
1409676375.100180156 : 1736.86
1409676375.198352428 : 1689.25
1409676375.298622653 : 1689.25
1409676375.398384386 : 1736.86
1409676375.498354689 : 1736.86
1409676375.598737005 : 1715.3
1409676375.698350377 : 1757.57
1409676375.798359241 : 1715.3
1409676375.898352071 : 1736.86
1409676375.998336291 : 1736.86
1409676376.098326276 : 1715.3
1409676376.198530590 : 1715.3
1409676376.298344739 : 1786.96
1409676376.398339814 : 1786.96
1409676376.498582478 : 1736.86
1409676376.598265629 : 1736.86
1409676376.698207569 : 1736.86
1409676376.798364018 : 1736.86
1409676376.898429488 : 1736.86
1409676376.998335678 : 1736.86
1409676377.098313593 : 1715.3
1409676377.198376678 : 1786.96
1409676377.298312311 : 1763.5
1409676377.398319581 : 1786.96
1409676377.498336047 : 1763.5
1409676377.598334958 : 1736.86
1409676377.698315915 : 1736.86
1409676377.798377938 : 1786.96
1409676377.898424659 : 1786.96
1409676377.998313904 : 1715.3
1409676378.098371036 : 1715.3
1409676378.198310510 : 1786.96
1409676378.298337344 : 1786.96
1409676378.398309570 : 1736.86
1409676378.498320771 : 1763.5
1409676378.598392730 : 1786.96
1409676378.698209204 : 1763.5
1409676378.798363422 : 1715.3
1409676378.898365110 : 1736.86
1409676378.998331800 : 1715.3
1409676379.098368248 : 1736.86
1409676379.198417750 : 1715.3
1409676379.298326591 : 1736.86
1409676379.398381673 : 1736.86
1409676379.498352938 : 1757.57
1409676379.598300728 : 1736.86
1409676379.698319045 : 1736.86
1409676379.798334530 : 1736.86
1409676379.898319848 : 1736.86
1409676379.998320903 : 1736.86
1409676380.098334537 : 1736.86
1409676380.198406364 : 1786.96
1409676380.298308616 : 1736.86
1409676380.398385530 : 1786.96
1409676380.498454108 : 1786.96
1409676380.598322524 : 1736.86
1409676380.698658152 : 1736.86
1409676380.798320663 : 1786.96
1409676380.898409345 : 1786.96
1409676380.998255488 : 1809.53
1409676381.098234695 : 1736.86
1409676381.198314441 : 1786.96
1409676381.298385573 : 1786.96
1409676381.398323070 : 1736.86
1409676381.498359954 : 1786.96
1409676381.598348284 : 1736.86
1409676381.698383379 : 1757.57
1409676381.798208965 : 1786.96
1409676381.898376248 : 1736.86
1409676382.798377201 : 1786.96
1409676382.898250572 : 1736.86
1409676383.698407698 : 1757.57
1409676383.898353189 : 1757.57
1409676383.998310603 : 1786.96
1409676384.098297850 : 1736.86
1409676384.198393973 : 1757.57
1409676384.298316551 : 1736.86
1409676384.398382422 : 1708.29
1409676384.498228910 : 1689.25
1409676384.598371307 : 1689.25
1409676384.698318296 : 1643.96
1409676384.798317716 : 1689.25
1409676384.898400359 : 1661.49
1409676384.998318529 : 1643.96
1409676385.098324766 : 1708.29
1409676385.198317323 : 1661.49
1409676385.298358514 : 1708.29
1409676385.398398232 : 1643.96
1409676385.498316779 : 1661.49
1409676385.598377037 : 1643.96
1409676385.698308207 : 1661.49
1409676385.798227568 : 1661.49
1409676385.898375879 : 1708.29
1409676385.998390527 : 1689.25
1409676386.098388464 : 1661.49
1409676386.198250622 : 1708.29
1409676386.298341966 : 1643.96
1409676386.398320313 : 1708.29
1409676386.498344893 : 1708.29
1409676386.598302284 : 1661.49
1409676386.698369748 : 1643.96
1409676386.798225896 : 1643.96
1409676386.898342605 : 1643.96
1409676386.998348826 : 1708.29
1409676387.098345945 : 1708.29
1409676387.198335594 : 1708.29
1409676387.298351390 : 1708.29
1409676387.398301942 : 1708.29
1409676387.498227753 : 1708.29
1409676387.598254878 : 1708.29
1409676387.698372157 : 1757.57
1409676387.798316168 : 1708.29
1409676387.898357281 : 1708.29
1409676387.998303466 : 1757.57
1409676388.098315943 : 1777.29
1409676388.198380656 : 1757.57
1409676388.298348949 : 1757.57
1409676388.398388370 : 1777.29
1409676388.498377121 : 1757.57
1409676388.598337053 : 1757.57
1409676388.698330688 : 1777.29
1409676388.798377890 : 1757.57
1409676388.898205608 : 1777.29
1409676388.998320756 : 1726.38
1409676389.098415552 : 1757.57
1409676389.198344163 : 1726.38
1409676389.298296142 : 1777.29
1409676389.398340306 : 1777.29
1409676389.498351852 : 1795.89
1409676389.598216252 : 1743.41
1409676389.698345863 : 1777.29
1409676389.798360539 : 1726.38
1409676389.898355657 : 1777.29
1409676389.998313976 : 1777.29
1409676390.098353315 : 1726.38
1409676390.198248084 : 1795.89
1409676390.298423357 : 1777.29
1409676390.398230808 : 1726.38
1409676390.498343957 : 1726.38
1409676390.598401055 : 1795.89
1409676390.698255665 : 1726.38
1409676390.798357669 : 1777.29
1409676390.898369783 : 1743.41
1409676390.998402672 : 1777.29
1409676391.098351600 : 1743.41
1409676391.198245554 : 1777.29
1409676391.298394201 : 1726.38
1409676391.398434588 : 1726.38
1409676391.498343995 : 1743.41
1409676391.598462845 : 1726.38
1409676391.698761182 : 1777.29
1409676391.798377816 : 1743.41
1409676391.898373899 : 1726.38
1409676391.998415403 : 1777.29
1409676392.098380854 : 1726.38
1409676392.198406638 : 1726.38
1409676392.298330344 : 1726.38
1409676392.398324031 : 1708.29
1409676392.498333410 : 1777.29
1409676392.598320720 : 1726.38
1409676392.698320859 : 1757.57
1409676392.798450927 : 1643.96
1409676392.898321830 : 1661.49
1409676392.998359940 : 1708.29
1409676393.098255696 : 1726.38
1409676393.198329641 : 1708.29
1409676393.298427659 : 1689.25
1409676393.398378438 : 1708.29
1409676393.498378204 : 1708.29
1409676393.598398153 : 1661.49
1409676393.698341205 : 1708.29
1409676393.798221434 : 1708.29
1409676393.898365776 : 1708.29
1409676393.998375249 : 1708.29
1409676394.098331227 : 1777.29
1409676394.198394314 : 1708.29
1409676394.298354540 : 1757.57
1409676394.398333980 : 1689.25
1409676394.498383381 : 1708.29
1409676394.598315889 : 1757.57
1409676394.698368497 : 1757.57
1409676394.798314045 : 1736.86
1409676394.898366078 : 1757.57
1409676394.998408048 : 1689.25
1409676395.098302695 : 1757.57
1409676395.198378015 : 1736.86
1409676395.298310688 : 1757.57
1409676395.398328903 : 1757.57
1409676395.498379929 : 1736.86
1409676395.598333492 : 1689.25
1409676395.698457777 : 1689.25
1409676395.798388749 : 1689.25
1409676395.898435438 : 1643.96
1409676395.998324224 : 1689.25
1409676396.098369761 : 1708.29
1409676396.198209324 : 1708.29
1409676396.298458323 : 1625.63
1409676396.398351059 : 1708.29
1409676396.498317931 : 1661.49
1409676396.598353512 : 1661.49
1409676396.698385639 : 1643.96
1409676396.798368000 : 1600.85
1409676396.898297837 : 1643.96
1409676396.998226760 : 1600.85
1409676397.098326379 : 1643.96
1409676397.198333558 : 1600.85
1409676397.298320075 : 1625.63
1409676397.398370022 : 1625.63
1409676397.498352966 : 1669.39
1409676397.598204676 : 1669.39
1409676397.698310650 : 1648.81
1409676397.798369576 : 1648.81
1409676397.898318812 : 1669.39
1409676397.998366607 : 1715.3
1409676398.098315369 : 1786.96
1409676398.198399969 : 1693.01
1409676398.298355139 : 1736.86
1409676398.398399662 : 1757.57
1409676398.498323716 : 1757.57
1409676398.598417220 : 1689.25
1409676398.698322337 : 1736.86
1409676398.798354676 : 1736.86
1409676398.898477217 : 1777.29
1409676398.998320065 : 1689.25
1409676399.098323019 : 1708.29
1409676399.198333122 : 1708.29
1409676399.298319125 : 1736.86
1409676399.398319754 : 1757.57
1409676399.498333302 : 1757.57
1409676399.598326012 : 1809.53
1409676399.698228688 : 1736.86
1409676399.798349508 : 1757.57
1409676399.898419571 : 1757.57
1409676399.998466211 : 1757.57
1409676400.098243017 : 1809.53
1409676400.198341712 : 1757.57
1409676400.298376808 : 1809.53
1409676400.398368909 : 1809.53
1409676400.498369678 : 1809.53
1409676400.598337191 : 1786.96
1409676400.698323880 : 1809.53
1409676400.798364267 : 1786.96
1409676400.898314758 : 1757.57
1409676400.998446538 : 1786.96
1409676401.098511940 : 1809.53
1409676401.198399203 : 1809.53
1409676401.298380262 : 1786.96
1409676401.398333503 : 1809.53
1409676401.498388741 : 1809.53
1409676401.598318857 : 1736.86
1409676401.698416955 : 1809.53
1409676401.798406713 : 1757.57
1409676401.898316911 : 1757.57
1409676401.998385944 : 1736.86
1409676402.098410632 : 1757.57
1409676402.198383256 : 1757.57
1409676402.298280515 : 1736.86
1409676402.398340163 : 1757.57
1409676402.498313992 : 1757.57
1409676402.598377951 : 1757.57
1409676402.698348487 : 1736.86
1409676402.798325792 : 1757.57
1409676402.898340163 : 1736.86
1409676402.998399081 : 1786.96
1409676403.098387943 : 1809.53
1409676403.198348445 : 1736.86
1409676403.298317826 : 1736.86
1409676403.398299176 : 1708.29
1409676403.498396634 : 1757.57
1409676403.598337515 : 1757.57
1409676403.698310843 : 1736.86
1409676403.798232174 : 1786.96
1409676403.898392580 : 1809.53
1409676403.998380234 : 1757.57
1409676404.098366469 : 1708.29
1409676404.198318774 : 1757.57
1409676404.298337660 : 1726.38
1409676404.398308392 : 1777.29
1409676404.498345638 : 1708.29
1409676404.598320710 : 1726.38
1409676404.698410730 : 1726.38
1409676404.798366278 : 1757.57
1409676404.898337147 : 1708.29
1409676404.998354504 : 1757.57
1409676405.098346602 : 1726.38
1409676405.198413641 : 1708.29
1409676405.298380871 : 1708.29
1409676405.398307773 : 1708.29
1409676405.498351662 : 1661.49
1409676405.598384035 : 1661.49
1409676405.698224048 : 1726.38
1409676405.798370234 : 1708.29
1409676405.898311908 : 1726.38
1409676405.998408940 : 1678.13
1409676406.098420248 : 1661.49
1409676406.198380158 : 1661.49
1409676406.298337082 : 1708.29
1409676406.398351888 : 1678.13
1409676406.498372187 : 1678.13
1409676406.598372781 : 1678.13
1409676406.698303011 : 1678.13
1409676406.798368822 : 1678.13
1409676406.898229881 : 1632.35
1409676406.998333147 : 1678.13
1409676407.098388460 : 1726.38
1409676407.198334404 : 1678.13
1409676407.298304395 : 1632.35
1409676407.398376143 : 1678.13
1409676407.498354552 : 1661.49
1409676407.598387873 : 1678.13
1409676407.698396048 : 1678.13
1409676407.798398006 : 1632.35
1409676407.898361169 : 1678.13
1409676407.998370850 : 1678.13
1409676408.098393683 : 1661.49
1409676408.198470866 : 1678.13
1409676408.298397616 : 1693.76
1409676408.398292913 : 1678.13
1409676408.498397467 : 1678.13
1409676408.598320830 : 1678.13
1409676408.698336120 : 1726.38
1409676408.798424769 : 1726.38
1409676408.898404272 : 1708.29
1409676408.998317015 : 1708.29
1409676409.098312904 : 1777.29
1409676409.198337302 : 1708.29
1409676409.298218174 : 1757.57
1409676409.398378805 : 1757.57
1409676409.498428707 : 1708.29
1409676409.598308988 : 1708.29
1409676409.698317366 : 1708.29
1409676409.798347635 : 1777.29
1409676409.898308690 : 1726.38
1409676409.998371889 : 1726.38
1409676410.098346938 : 1726.38
1409676410.198258054 : 1689.25
1409676410.298326742 : 1689.25
1409676410.398322502 : 1726.38
1409676410.498323238 : 1708.29
1409676410.598366119 : 1757.57
1409676410.698355155 : 1757.57
1409676410.798320922 : 1736.86
1409676410.898382334 : 1757.57
1409676410.998377047 : 1757.57
1409676411.098321490 : 1708.29
1409676411.198322035 : 1757.57
1409676411.298384115 : 1757.57
1409676411.398237683 : 1757.57
1409676411.498390826 : 1736.86
1409676411.598329678 : 1757.57
1409676411.698347540 : 1736.86
1409676411.798338154 : 1736.86
1409676411.898255575 : 1757.57
1409676411.998348181 : 1757.57
1409676412.098329688 : 1689.25
1409676412.198351820 : 1689.25
1409676412.298387953 : 1736.86
1409676412.398318067 : 1757.57
1409676412.498334610 : 1757.57
1409676412.598333746 : 1786.96
1409676412.698332960 : 1689.25
1409676412.798390848 : 1757.57
1409676412.898242775 : 1757.57
1409676412.998389436 : 1757.57
1409676413.098325360 : 1689.25
1409676413.198313527 : 1689.25
1409676413.298281616 : 1708.29
1409676413.398312058 : 1708.29
1409676413.498294230 : 1757.57
1409676413.598368004 : 1736.86
1409676413.698334986 : 1757.57
1409676413.798315351 : 1708.29
1409676413.898404974 : 1708.29
1409676413.998403688 : 1757.57
1409676414.098360923 : 1757.57
1409676414.198382222 : 1757.57
1409676414.298336494 : 1757.57
1409676414.398346393 : 1777.29
1409676414.498317275 : 1757.57
1409676414.598225653 : 1777.29
1409676414.698227054 : 1757.57
1409676414.798316892 : 1736.86
1409676414.898369308 : 1757.57
1409676414.998290967 : 1736.86
1409676415.098317763 : 1809.53
1409676415.198383044 : 1786.96
1409676415.298363571 : 1757.57
1409676415.398305107 : 1757.57
1409676415.498228072 : 1809.53
1409676415.598207402 : 1757.57
1409676415.698297169 : 1757.57
1409676415.798310611 : 1809.53
1409676415.898367353 : 1736.86
1409676415.998333369 : 1809.53
1409676416.098353246 : 1786.96
1409676416.198364398 : 1757.57
1409676416.298294597 : 1736.86
1409676416.398358737 : 1809.53
1409676416.498348129 : 1757.57
1409676416.598316914 : 1757.57
1409676416.698346515 : 1708.29
1409676416.798305285 : 1708.29
1409676416.898329607 : 1708.29
1409676416.998328812 : 1736.86
1409676417.098368218 : 1757.57
1409676417.198327225 : 1736.86
1409676417.298351422 : 1708.29
1409676417.398221095 : 1736.86
1409676417.498377089 : 1757.57
1409676417.598324956 : 1757.57
1409676417.698318962 : 1757.57
1409676417.798382849 : 1736.86
1409676417.898209552 : 1757.57
1409676417.998335402 : 1689.25
1409676418.098323603 : 1708.29
1409676418.198312744 : 1757.57
1409676418.298351433 : 1708.29
1409676418.398279578 : 1757.57
1409676418.498394128 : 1708.29
1409676418.598386096 : 1757.57
1409676418.698369921 : 1757.57
1409676418.798311889 : 1708.29
1409676418.898333620 : 1708.29
1409676418.998317366 : 1708.29
1409676419.098297369 : 1708.29
1409676419.198351610 : 1708.29
1409676419.298310994 : 1757.57
1409676419.398350089 : 1777.29
1409676419.498367733 : 1757.57
1409676419.598323476 : 1726.38
1409676419.698383834 : 1708.29
1409676419.798322796 : 1708.29
1409676419.898312154 : 1726.38
1409676419.998401751 : 1757.57
1409676420.098342517 : 1708.29
1409676420.198207229 : 1708.29
1409676420.298208740 : 1708.29
1409676420.398381225 : 1757.57
1409676420.498351179 : 1757.57
1409676420.598352444 : 1689.25
1409676420.698325314 : 1689.25
1409676420.798408007 : 1736.86
1409676420.898210450 : 1708.29
1409676420.998397810 : 1689.25
1409676421.098499052 : 1708.29
1409676421.198370670 : 1726.38
1409676421.298303675 : 1708.29
1409676421.398334046 : 1708.29
1409676421.498304111 : 1689.25
1409676421.598303566 : 1708.29
1409676421.698384690 : 1708.29
1409676421.798216941 : 1736.86
1409676421.898415901 : 1708.29
1409676421.998503479 : 1689.25
1409676422.098482129 : 1661.49
1409676422.198391391 : 1689.25
1409676422.298345847 : 1708.29
1409676422.398338890 : 1689.25
1409676422.498344282 : 1708.29
1409676422.598379178 : 1708.29
1409676422.698347605 : 1708.29
1409676422.798343334 : 1689.25
1409676422.898313428 : 1643.96
1409676422.998316589 : 1661.49
1409676423.098379083 : 1689.25
1409676423.198452222 : 1689.25
1409676423.298317472 : 1689.25
1409676423.398303702 : 1689.25
1409676423.498337606 : 1689.25
1409676423.598356648 : 1689.25
1409676423.698361317 : 1689.25
1409676423.798331934 : 1757.57
1409676423.898486056 : 1757.57
1409676423.998376822 : 1736.86
1409676424.098319571 : 1757.57
1409676424.198378870 : 1689.25
1409676424.298374191 : 1736.86
1409676424.398443869 : 1757.57
1409676424.498313952 : 1708.29
1409676424.598364513 : 1736.86
1409676424.698349566 : 1736.86
1409676424.798333413 : 1757.57
1409676424.898292287 : 1757.57
1409676424.998323416 : 1736.86
1409676425.098316999 : 1736.86
1409676425.198314841 : 1757.57
1409676425.298955069 : 1708.29
1409676425.398233327 : 1736.86
1409676425.498407053 : 1689.25
1409676425.598251463 : 1708.29
1409676425.698302691 : 1757.57
1409676425.798335822 : 1757.57
1409676425.898318781 : 1708.29
1409676425.998317439 : 1708.29
1409676426.098357533 : 1757.57
1409676426.198253084 : 1708.29
