1409740376.757593444 : 2.16513 -2.16103 0
1409740377.157665441 : 2.20224 -2.18634 0
1409740377.757655565 : 2.20215 -2.27793 0
1409740379.057660376 : 2.16096 -2.51672 0
1409740380.357656833 : 2.10988 -2.72974 0
1409740381.657661472 : 2.06186 -2.91557 0
1409740383.457653491 : 2.02809 -3.09862 0
1409740385.857672473 : 1.97011 -3.32444 0
1409740386.857648996 : 1.9661 -3.26782 0
1409740387.157651415 : 1.96816 -3.24634 0
1409740387.757673423 : 1.97759 -3.28979 0
1409740388.057673511 : 1.96671 -3.30638 0
1409740388.257713351 : 1.96444 -3.32408 0
1409740389.257689943 : 2.04928 -3.35756 0
1409740389.557686850 : 2.04633 -3.3621 0
1409740390.057656935 : 2.04221 -3.35408 0
1409740390.357649547 : 2.04377 -3.34373 0
1409740390.557632192 : 2.03409 -3.37501 0
1409740393.657663013 : 2.27834 -3.43332 0
1409740394.957657569 : 2.51857 -3.48945 0
1409740396.757679522 : 2.75537 -3.55237 0
1409740398.757664815 : 2.88401 -3.57287 0
1409740399.057659331 : 2.88421 -3.57312 0
1409740399.257665474 : 2.87796 -3.59323 0
1409740399.557650659 : 2.87943 -3.59504 0
1409740399.757651019 : 2.87641 -3.59209 0
1409740399.957661407 : 2.88449 -3.56979 0
1409740400.357666742 : 2.89462 -3.54092 0
1409740402.757675311 : 2.94665 -3.29179 0
1409740403.957686216 : 2.98506 -3.01419 0
1409740405.857663552 : 2.99032 -2.77262 0
1409740407.657655019 : 2.99655 -2.67472 0
1409740407.857666163 : 2.9875 -2.70006 0
1409740408.157660880 : 2.97873 -2.7209 0
1409740408.357669864 : 2.96996 -2.75152 0
1409740408.557662055 : 2.96379 -2.75833 0
1409740408.957653891 : 2.95045 -2.77072 0
1409740409.557662623 : 2.94161 -2.77293 0
1409740409.857660992 : 2.93542 -2.77931 0
1409740410.157657794 : 2.92977 -2.77962 0
1409740410.457619174 : 2.92558 -2.76494 0
1409740410.757648686 : 2.92504 -2.75468 0
1409740411.057680757 : 2.93198 -2.72263 0
1409740411.257672643 : 2.9396 -2.71445 0
1409740411.557660604 : 2.94801 -2.70332 0
1409740411.857655732 : 2.94384 -2.70622 0
1409740412.157681905 : 2.94179 -2.70878 0
1409740412.357669221 : 2.9444 -2.7181 0
1409740412.557687772 : 2.94767 -2.71545 0
1409740412.957686923 : 2.94286 -2.72741 0
1409740413.257684031 : 2.94294 -2.72381 0
1409740413.457654733 : 2.94347 -2.72571 0
1409740413.757667851 : 2.93986 -2.72874 0
1409740414.057667489 : 2.94261 -2.72842 0
1409740414.257664531 : 2.94719 -2.72327 0
1409740414.457673581 : 2.95668 -2.7212 0
1409740414.757680285 : 2.97013 -2.69676 0
1409740415.057661757 : 2.99051 -2.65447 0
1409740415.857658335 : 2.99092 -2.64816 0
1409740416.157660104 : 2.98847 -2.65106 0
1409740416.357679892 : 2.99196 -2.64301 0
1409740416.557723330 : 2.99289 -2.64707 0
1409740416.857688931 : 2.98646 -2.66713 0
1409740417.257685230 : 2.97721 -2.68322 0
1409740417.757695888 : 2.97377 -2.68558 0
1409740420.657704184 : 2.71655 -2.66517 0
1409740421.957664152 : 2.46072 -2.64206 0
1409740423.857701043 : 2.19612 -2.64416 0
1409740425.457659466 : 2.12686 -2.64315 0
1409740425.557657892 : 2.122 -2.64861 0
1409740425.757659625 : 2.1196 -2.64292 0
1409740426.057683944 : 2.11911 -2.64418 0
1409740426.257655043 : 2.12097 -2.63686 0
1409740426.557665109 : 2.12337 -2.63266 0
1409740429.757685582 : 2.08654 -2.84723 0
1409740431.157662518 : 2.04497 -3.07651 0
1409740433.257691696 : 2.00968 -3.31451 0
1409740434.557739248 : 2.00146 -3.36599 0
1409740434.857680062 : 1.99885 -3.36623 0
1409740435.057667738 : 1.99897 -3.38473 0
1409740435.257656191 : 2.003 -3.39496 0
1409740435.557668007 : 2.00548 -3.39866 0
1409740435.757670150 : 2.00906 -3.4079 0
1409740436.157666766 : 2.00696 -3.42194 0
1409740438.757661528 : 2.26304 -3.44455 0
1409740439.957693215 : 2.51251 -3.48661 0
1409740441.757652719 : 2.76689 -3.51152 0
1409740443.557669264 : 2.87616 -3.5173 0
1409740443.757656855 : 2.87763 -3.51524 0
1409740443.957797194 : 2.87696 -3.52127 0
1409740444.257691983 : 2.87724 -3.5167 0
1409740444.457694849 : 2.87632 -3.52632 0
1409740444.757665225 : 2.87649 -3.51256 0
1409740445.157680494 : 2.87547 -3.49473 0
1409740447.757654112 : 2.90234 -3.23872 0
1409740449.057661282 : 2.93019 -2.97981 0
1409740451.157655700 : 2.9465 -2.71953 0
1409740451.657654490 : 2.95265 -2.70213 0
1409740451.957667869 : 2.95721 -2.69951 0
1409740452.257663649 : 2.95591 -2.70789 0
1409740452.957720945 : 2.9529 -2.70362 0
1409740453.257668049 : 2.95171 -2.71555 0
1409740453.557667096 : 2.94882 -2.70993 0
1409740454.957670928 : 2.89478 -2.70096 0
1409740455.257670622 : 2.8888 -2.7082 0
1409740455.557669312 : 2.88401 -2.71142 0
1409740455.857685718 : 2.88283 -2.71615 0
1409740456.157662845 : 2.88264 -2.71762 0
1409740456.457654860 : 2.8811 -2.7052 0
1409740456.757664050 : 2.88456 -2.70497 0
1409740457.057667752 : 2.88833 -2.69209 0
1409740457.257679292 : 2.89154 -2.68778 0
1409740457.657658588 : 2.89235 -2.68683 0
1409740457.957660682 : 2.89022 -2.68215 0
1409740458.257659528 : 2.89075 -2.68415 0
1409740458.457657643 : 2.89003 -2.68156 0
1409740459.457655664 : 2.89163 -2.68415 0
1409740459.757656424 : 2.88943 -2.68654 0
1409740459.957696470 : 2.89188 -2.68944 0
1409740460.157685003 : 2.89359 -2.68877 0
1409740460.457688339 : 2.89694 -2.69122 0
1409740460.657634701 : 2.89816 -2.69207 0
1409740460.857671619 : 2.89772 -2.68909 0
1409740461.457621041 : 2.90514 -2.69735 0
1409740461.657686339 : 2.9078 -2.7023 0
1409740461.957722516 : 2.90565 -2.70264 0
1409740462.157655492 : 2.90257 -2.70112 0
1409740462.457656889 : 2.9022 -2.69897 0
1409740462.757657859 : 2.89992 -2.69522 0
1409740463.657663418 : 2.87606 -2.68863 0
1409740463.957733501 : 2.87086 -2.68548 0
1409740464.257657312 : 2.86468 -2.68303 0
1409740464.557689519 : 2.87135 -2.68762 0
1409740464.957654047 : 2.867 -2.68867 0
1409740465.257659172 : 2.87124 -2.68715 0
1409740465.457657778 : 2.87299 -2.6856 0
1409740465.757661540 : 2.87288 -2.67787 0
1409740466.157717992 : 2.86975 -2.67446 0
1409740466.457680265 : 2.87445 -2.67581 0
1409740466.657670506 : 2.87392 -2.67351 0
1409740467.757662518 : 2.87351 -2.67523 0
1409740467.957684984 : 2.87383 -2.67674 0
1409740468.257658831 : 2.86933 -2.66999 0
1409740468.457624529 : 2.87123 -2.67355 0
1409740468.757695038 : 2.86895 -2.67625 0
1409740468.957649900 : 2.86597 -2.67955 0
1409740469.157681786 : 2.86526 -2.67871 0
1409740469.357662531 : 2.86663 -2.68184 0
1409740469.657657880 : 2.86912 -2.68014 0
1409740469.957676272 : 2.86703 -2.68075 0
1409740472.657692791 : 2.62102 -2.64777 0
1409740474.157672739 : 2.36291 -2.61481 0
1409740476.057665554 : 2.15657 -2.59552 0
1409740476.257657610 : 2.14994 -2.59078 0
1409740476.657660946 : 2.14885 -2.58678 0
1409740476.957665480 : 2.15197 -2.58401 0
1409740477.157781327 : 2.15386 -2.57759 0
1409740477.457681584 : 2.15504 -2.57365 0
1409740478.657621205 : 2.15563 -2.57717 0
1409740478.957711245 : 2.14917 -2.5906 0
1409740479.357671899 : 2.13196 -2.61592 0
1409740480.057665231 : 2.12844 -2.61633 0
1409740480.357704499 : 2.1244 -2.62113 0
1409740480.657663008 : 2.12297 -2.6197 0
1409740481.057660601 : 2.12633 -2.6101 0
1409740483.757801530 : 2.09615 -2.85108 0
1409740485.157693002 : 2.05523 -3.10051 0
1409740487.257688653 : 2.01728 -3.34601 0
1409740488.457651949 : 2.01422 -3.37127 0
1409740488.657651748 : 2.01402 -3.37263 0
1409740488.857663709 : 2.01637 -3.37773 0
1409740489.157661488 : 2.01783 -3.37935 0
1409740489.357670407 : 2.0198 -3.37415 0
1409740489.557713675 : 2.02384 -3.37615 0
1409740489.957663844 : 2.02572 -3.37844 0
1409740492.757689731 : 2.27903 -3.4261 0
1409740494.057656259 : 2.53294 -3.47382 0
1409740496.057649520 : 2.78383 -3.51491 0
1409740497.557664057 : 2.8675 -3.52792 0
1409740497.757666752 : 2.86719 -3.53189 0
1409740498.057676177 : 2.87059 -3.53047 0
1409740498.257659042 : 2.86984 -3.53444 0
1409740498.457661336 : 2.86784 -3.53278 0
1409740498.757660263 : 2.86788 -3.53382 0
1409740499.157685403 : 2.86894 -3.53241 0
1409740501.757619371 : 2.89682 -3.27685 0
1409740503.057843972 : 2.92692 -3.02099 0
1409740504.957655575 : 2.94557 -2.76833 0
1409740506.357757321 : 2.94317 -2.70998 0
1409740506.657749685 : 2.93874 -2.70732 0
1409740506.957734411 : 2.93786 -2.70591 0
1409740507.157659444 : 2.93672 -2.69795 0
1409740507.457654908 : 2.9369 -2.69951 0
1409740507.657650417 : 2.93312 -2.7022 0
1409740507.957661079 : 2.9334 -2.70069 0
1409740508.257658337 : 2.93486 -2.7028 0
1409740509.057674676 : 2.93522 -2.70329 0
1409740509.257714847 : 2.93516 -2.70422 0
1409740509.457676003 : 2.93691 -2.70484 0
1409740509.757659949 : 2.94089 -2.70505 0
1409740510.057747958 : 2.94452 -2.70363 0
1409740510.257659912 : 2.94896 -2.70365 0
1409740510.657653591 : 2.95066 -2.70295 0
1409740510.957686344 : 2.95692 -2.70121 0
1409740511.157687411 : 2.9566 -2.69717 0
1409740511.457660393 : 2.95643 -2.69513 0
1409740511.757658573 : 2.95243 -2.69371 0
1409740511.957653770 : 2.94751 -2.69232 0
1409740512.257659808 : 2.9452 -2.69519 0
1409740513.557659126 : 2.92131 -2.70102 0
1409740514.857662708 : 2.66626 -2.6998 0
1409740516.257836036 : 2.40462 -2.67861 0
1409740518.357655622 : 2.14457 -2.65433 0
1409740519.657675887 : 2.10096 -2.64956 0
1409740519.957629829 : 2.09434 -2.64912 0
1409740520.157785374 : 2.09047 -2.64302 0
1409740520.457662869 : 2.08309 -2.6456 0
1409740520.657669929 : 2.08398 -2.63566 0
1409740520.857658748 : 2.08567 -2.63212 0
1409740521.257667261 : 2.08517 -2.63119 0
1409740523.757650727 : 2.04073 -2.88655 0
1409740525.357669933 : 2.00104 -3.14037 0
1409740528.057660250 : 1.97468 -3.35868 0
1409740528.357663451 : 1.97304 -3.36005 0
1409740528.557684749 : 1.97154 -3.36061 0
1409740528.757687203 : 1.97039 -3.36029 0
1409740529.057662205 : 1.97121 -3.35213 0
1409740529.257688319 : 1.97118 -3.35465 0
1409740529.657928494 : 1.97128 -3.35563 0
1409740532.657670153 : 2.22801 -3.40359 0
1409740533.957705848 : 2.48099 -3.45928 0
1409740535.757696278 : 2.73639 -3.50684 0
1409740537.757670481 : 2.88374 -3.52975 0
1409740538.057659109 : 2.88657 -3.53598 0
1409740538.257664014 : 2.88918 -3.54347 0
1409740538.457671255 : 2.89141 -3.54572 0
1409740538.657660162 : 2.89081 -3.54502 0
1409740538.957628615 : 2.89043 -3.54612 0
1409740539.257677057 : 2.89316 -3.54287 0
1409740542.757687548 : 2.9127 -3.2829 0
1409740544.057689246 : 2.93391 -3.02516 0
1409740545.957699020 : 2.95068 -2.77407 0
1409740547.857664969 : 2.95378 -2.67197 0
1409740548.057696139 : 2.95419 -2.67231 0
1409740548.257682487 : 2.95225 -2.67159 0
1409740548.457653004 : 2.95062 -2.67095 0
1409740548.757664649 : 2.9481 -2.67077 0
1409740548.957658870 : 2.94058 -2.66753 0
1409740551.657670645 : 2.68166 -2.627 0
1409740552.957666535 : 2.42407 -2.60345 0
1409740555.057669041 : 2.17164 -2.60311 0
1409740556.457670474 : 2.1097 -2.60509 0
1409740556.657714719 : 2.10883 -2.60169 0
1409740556.957690172 : 2.10795 -2.60122 0
1409740557.157686452 : 2.10126 -2.59911 0
1409740557.357663244 : 2.10414 -2.59636 0
1409740557.657766442 : 2.10545 -2.59659 0
1409740560.757685845 : 2.05066 -2.84885 0
1409740562.257654618 : 2.005 -3.09994 0
1409740565.257642455 : 1.98256 -3.35553 0
1409740565.457685459 : 1.98665 -3.35546 0
1409740565.757689186 : 1.99549 -3.3591 0
1409740565.957692247 : 1.99732 -3.36251 0
1409740566.157678169 : 1.99961 -3.36471 0
1409740566.457667012 : 2.00013 -3.36742 0
1409740566.757665277 : 2.00752 -3.36238 0
1409740569.657734469 : 2.26765 -3.40912 0
1409740570.957680915 : 2.52183 -3.46449 0
1409740572.957757580 : 2.77502 -3.51644 0
1409740574.757637033 : 2.89592 -3.5283 0
1409740575.057650683 : 2.89761 -3.52676 0
1409740575.257655568 : 2.89564 -3.52615 0
1409740575.457617509 : 2.89689 -3.52965 0
1409740575.757668084 : 2.89531 -3.53425 0
1409740575.957669467 : 2.89646 -3.53647 0
1409740576.357758718 : 2.89525 -3.53045 0
1409740578.757666407 : 2.91866 -3.28213 0
1409740580.057663786 : 2.93992 -3.02693 0
1409740581.957662018 : 2.9548 -2.77443 0
1409740583.657685835 : 2.95883 -2.67583 0
1409740583.957657545 : 2.96224 -2.68061 0
1409740584.157673154 : 2.96451 -2.68227 0
1409740584.457682539 : 2.96275 -2.68197 0
1409740584.657661867 : 2.95997 -2.68014 0
1409740584.957657886 : 2.95377 -2.68067 0
1409740587.657666930 : 2.69198 -2.65142 0
1409740588.957668553 : 2.43139 -2.62655 0
1409740591.157655258 : 2.17685 -2.61426 0
1409740591.357661612 : 2.17325 -2.61287 0
1409740591.657679721 : 2.16913 -2.61576 0
1409740591.957668976 : 2.16683 -2.61699 0
1409740592.157679113 : 2.16715 -2.62125 0
1409740592.457753195 : 2.16218 -2.6234 0
1409740592.757729325 : 2.15719 -2.62727 0
1409740593.157668178 : 2.15805 -2.62449 0
1409740593.357660254 : 2.15691 -2.62554 0
1409740593.657660645 : 2.15691 -2.62773 0
1409740593.957661886 : 2.16178 -2.62616 0
1409740595.057655346 : 2.16683 -2.63062 0
1409740595.457667963 : 2.17685 -2.63287 0
1409740595.757695269 : 2.17847 -2.63851 0
1409740596.057750318 : 2.17748 -2.63489 0
1409740596.357657936 : 2.17683 -2.63578 0
1409740596.657682746 : 2.17304 -2.63567 0
1409740596.957672136 : 2.18084 -2.63292 0
1409740597.257650606 : 2.17282 -2.63687 0
1409740597.457661420 : 2.17176 -2.63621 0
1409740597.857661082 : 2.16591 -2.63168 0
1409740598.157659457 : 2.15832 -2.63459 0
1409740598.357654585 : 2.14916 -2.63606 0
1409740598.657672594 : 2.14251 -2.63464 0
1409740598.957673921 : 2.13586 -2.63372 0
1409740599.157702591 : 2.134 -2.63656 0
1409740599.457653087 : 2.1339 -2.64091 0
1409740599.957654638 : 2.13763 -2.64296 0
1409740600.257651650 : 2.14123 -2.6431 0
1409740600.457612811 : 2.14431 -2.64359 0
1409740600.657656279 : 2.14468 -2.6391 0
1409740600.957654739 : 2.14396 -2.64247 0
1409740601.157661148 : 2.14011 -2.6415 0
1409740601.357657188 : 2.13346 -2.64011 0
1409740601.657655708 : 2.12529 -2.63982 0
1409740601.857653122 : 2.11861 -2.63889 0
1409740602.457664520 : 2.11479 -2.64299 0
1409740602.757692663 : 2.11231 -2.64161 0
1409740603.157673382 : 2.10863 -2.63986 0
