1409577425.106762664 : 0
1409577426.107060932 : 0
1409577427.107264191 : 0
1409577428.107490308 : 0
1409577429.107816745 : 767
1409577430.108288236 : 770
1409577431.108442649 : 797
1409577432.108732989 : 1118
1409577433.109064095 : 1224
1409577433.609394462 : 1352
1409577433.659523499 : 1361
1409577433.709446258 : 1370
1409577433.759474316 : 1376
1409577433.809676553 : 1389
1409577433.909782942 : 1402
1409577434.009806408 : 1411
1409577434.109752643 : 1425
1409577434.209730367 : 1445
1409577434.309939380 : 1451
1409577434.409765192 : 1464
1409577434.509769396 : 1461
1409577434.609773633 : 1458
1409577434.709861549 : 1470
1409577434.809828975 : 1486
1409577434.909826176 : 1513
1409577435.009760047 : 1518
1409577435.109770862 : 1520
1409577435.209821577 : 1498
1409577435.309778739 : 1469
1409577435.409788591 : 1445
1409577435.509815307 : 1440
1409577435.609764519 : 1436
1409577435.709764611 : 1468
1409577435.809845967 : 1477
1409577435.909800968 : 1491
1409577436.009782589 : 1495
1409577436.109750020 : 1505
1409577436.209753691 : 1506
1409577436.309786750 : 1505
1409577436.409855855 : 1498
1409577436.509774837 : 1484
1409577436.609779104 : 1470
1409577436.709755705 : 1469
1409577436.809779599 : 1459
1409577436.909785412 : 1453
1409577437.009904167 : 1460
1409577437.109929544 : 1463
1409577437.209921455 : 1462
1409577437.309782751 : 1463
1409577437.409800791 : 1467
1409577437.509751870 : 1472
1409577437.609791780 : 1470
1409577437.709754593 : 1472
1409577437.809801165 : 1473
1409577437.909793482 : 1478
1409577438.009767711 : 1479
1409577438.109770574 : 1478
1409577438.209794319 : 1480
1409577438.309798825 : 1485
1409577438.409801823 : 1500
1409577438.509792639 : 1511
1409577438.609792407 : 1504
1409577438.709791219 : 1504
1409577438.809801365 : 1499
1409577438.909809068 : 1494
1409577439.009791589 : 1500
1409577439.109831902 : 1502
1409577439.209767832 : 1498
1409577439.309758495 : 1492
1409577439.409778462 : 1494
1409577439.509797602 : 1494
1409577439.609781049 : 1493
1409577439.709805997 : 1486
1409577439.809793960 : 1479
1409577439.909799742 : 1499
1409577440.009777093 : 1525
1409577440.109803845 : 1537
1409577440.209782699 : 1531
1409577440.309808158 : 1534
1409577440.409824197 : 1534
1409577440.509825623 : 1529
1409577440.609806039 : 1524
1409577440.709774257 : 1526
1409577440.809792513 : 1529
1409577440.909825846 : 1538
1409577441.009787969 : 1536
1409577441.109795699 : 1547
1409577441.209792895 : 1546
1409577441.309779531 : 1559
1409577441.409792176 : 1564
1409577441.509796309 : 1575
1409577441.609804331 : 1579
1409577441.709792546 : 1581
1409577441.809805563 : 1580
1409577441.909782133 : 1579
1409577442.009747516 : 1575
1409577442.109757443 : 1573
1409577442.209775236 : 1579
1409577442.309779396 : 1582
1409577442.409821067 : 1575
1409577442.509786903 : 1580
1409577442.609763351 : 1577
1409577442.709786328 : 1581
1409577442.809773636 : 1581
1409577442.909772164 : 1583
1409577443.009816627 : 1584
1409577443.109811089 : 1593
1409577443.209798784 : 1595
1409577443.309785416 : 1597
1409577443.409764176 : 1587
1409577443.509772324 : 1589
1409577443.609795640 : 1606
1409577443.709786473 : 1630
1409577443.809790821 : 1649
1409577443.909768497 : 1672
1409577444.009779781 : 1663
1409577444.109775847 : 1660
1409577444.209790893 : 1660
1409577444.309794368 : 1657
1409577444.409822506 : 1657
1409577444.509770217 : 1658
1409577444.609762278 : 1654
1409577444.709788982 : 1655
1409577444.809800508 : 1659
1409577444.909785807 : 1655
1409577445.009799700 : 1656
1409577445.109832284 : 1655
1409577445.209813050 : 1683
1409577445.309782760 : 1704
1409577445.410025831 : 1735
1409577445.509816850 : 1750
1409577445.609828347 : 1750
1409577445.709782739 : 1735
1409577445.809808059 : 1732
1409577445.909880585 : 1728
1409577446.009788389 : 1727
1409577446.109786404 : 1722
1409577446.209791299 : 1732
1409577446.309785401 : 1728
1409577446.409790289 : 1739
1409577446.509833088 : 1739
1409577446.609896679 : 1731
1409577446.709781712 : 1720
1409577446.809787129 : 1726
1409577446.909798988 : 1721
1409577447.009847121 : 1728
1409577447.109764742 : 1736
1409577447.209782634 : 1723
1409577447.309903609 : 1715
1409577447.409804223 : 1716
1409577447.509916869 : 1715
1409577447.609778786 : 1726
1409577447.709786738 : 1727
1409577447.809802347 : 1731
1409577447.909755287 : 1735
1409577448.009751096 : 1738
1409577448.109793879 : 1733
1409577448.209838680 : 1731
1409577448.309758858 : 1723
1409577448.409762842 : 1720
1409577448.509781448 : 1726
1409577448.609842271 : 1714
1409577448.709823828 : 1702
1409577448.809856807 : 1694
1409577448.909766138 : 1698
1409577449.009782256 : 1700
1409577449.109780915 : 1705
1409577449.209769371 : 1702
1409577449.309816291 : 1704
1409577449.409751645 : 1707
1409577449.509764443 : 1704
1409577449.609759495 : 1703
1409577449.709799667 : 1701
1409577449.809761523 : 1699
1409577449.909812434 : 1696
1409577450.009788764 : 1695
1409577450.109812157 : 1695
1409577450.209789899 : 1699
1409577450.309807565 : 1716
1409577450.409775157 : 1713
1409577450.509962909 : 1729
1409577450.609784876 : 1714
1409577450.709787368 : 1723
1409577450.809796723 : 1711
1409577450.909756112 : 1710
1409577451.009804057 : 1708
1409577451.109780053 : 1711
1409577451.209763083 : 1709
1409577451.309790592 : 1716
1409577451.409797468 : 1714
1409577451.509782786 : 1717
1409577451.609782986 : 1713
1409577451.709758897 : 1718
1409577451.809794463 : 1710
1409577451.909955449 : 1714
1409577452.009840985 : 1716
1409577452.109759831 : 1721
1409577452.209799048 : 1716
1409577452.309802252 : 1716
1409577452.409784460 : 1712
1409577452.509818242 : 1712
1409577452.609792419 : 1721
1409577452.709768890 : 1726
1409577452.809832856 : 1741
1409577452.909785386 : 1735
1409577453.009796838 : 1726
1409577453.109786245 : 1731
1409577453.209814414 : 1727
1409577453.309780839 : 1723
1409577453.409771383 : 1721
1409577453.509905751 : 1718
1409577453.609914928 : 1722
1409577453.709785107 : 1720
1409577453.809880582 : 1722
1409577453.909764475 : 1734
1409577454.009791386 : 1742
1409577454.109812064 : 1750
1409577454.209768477 : 1745
1409577454.309786872 : 1742
1409577454.409783243 : 1759
1409577454.509772613 : 1753
1409577454.609838895 : 1762
1409577454.709802103 : 1749
1409577454.809786055 : 1748
1409577454.909805788 : 1739
1409577455.009902605 : 1733
1409577455.109804292 : 1734
1409577455.209757340 : 1732
1409577455.309839719 : 1730
1409577455.409797394 : 1730
1409577455.509800061 : 1737
1409577455.609765936 : 1742
1409577455.709797348 : 1749
1409577455.809777046 : 1755
1409577455.909787390 : 1756
1409577456.009785880 : 1761
1409577456.109782849 : 1764
1409577456.209805733 : 1775
1409577456.309908177 : 1777
1409577456.409851671 : 1783
1409577456.509810304 : 1788
1409577456.609766482 : 1795
1409577456.709787335 : 1788
1409577456.809799102 : 1789
1409577456.909797599 : 1792
1409577457.009763578 : 1796
1409577457.109810024 : 1796
1409577457.209781071 : 1774
1409577457.309757201 : 1764
1409577457.409784021 : 1756
1409577457.509770383 : 1756
1409577457.609793268 : 1761
1409577457.709777028 : 1767
1409577457.809808059 : 1777
1409577457.909867038 : 1779
1409577458.009848233 : 1778
1409577458.109761681 : 1774
1409577458.209879166 : 1769
1409577458.309959019 : 1767
1409577458.409769061 : 1761
1409577458.509766377 : 1768
1409577458.609782675 : 1763
1409577458.709845007 : 1757
1409577458.809788794 : 1756
1409577458.909858571 : 1729
1409577459.009788689 : 1739
1409577459.109758537 : 1732
1409577459.209940813 : 1733
1409577459.309780070 : 1736
1409577459.409805696 : 1727
1409577459.509836535 : 1721
1409577459.609777255 : 1722
1409577459.709810989 : 1720
1409577460.609814073 : 1714
1409577461.509828241 : 1716
1409577461.709822533 : 1711
1409577461.809817910 : 1718
1409577461.909778177 : 1717
1409577462.009826554 : 1715
1409577462.109798746 : 1739
1409577462.209784472 : 1718
1409577462.309767972 : 1707
1409577462.409801834 : 1717
1409577462.509772071 : 1714
1409577462.609771974 : 1729
1409577462.709760856 : 1718
1409577462.809775557 : 1707
1409577462.909801650 : 1714
1409577463.009787075 : 1709
1409577463.109852446 : 1712
1409577463.209762532 : 1715
1409577463.309778213 : 1716
1409577463.409757467 : 1707
1409577463.509907487 : 1704
1409577463.609793467 : 1703
1409577463.709809654 : 1703
1409577463.809922570 : 1706
1409577463.909767307 : 1701
1409577464.009780588 : 1706
1409577464.109782082 : 1706
1409577464.209807545 : 1706
1409577464.309760070 : 1705
1409577464.409792378 : 1703
1409577464.509789543 : 1704
1409577464.609885487 : 1702
1409577464.709767076 : 1704
1409577464.809780523 : 1710
1409577464.909773307 : 1703
1409577465.009782652 : 1693
1409577465.109835541 : 1681
1409577465.210098159 : 1665
1409577465.309781889 : 1662
1409577465.409769874 : 1666
1409577465.509824870 : 1668
1409577465.609912332 : 1669
1409577465.709808357 : 1667
1409577465.809866908 : 1665
