1409751614.444397802 : 0
1409751615.444816893 : 0
1409751616.445216889 : 0
1409751617.445433555 : 0
1409751618.445758259 : 0
1409751619.446035117 : 338
1409751620.446302342 : 777
1409751621.446530553 : 739
1409751622.446773452 : 738
1409751623.447038343 : 734
1409751623.947308807 : 748
1409751623.997389954 : 747
1409751624.047399116 : 752
1409751624.097381010 : 758
1409751624.147413541 : 767
1409751624.197378326 : 778
1409751624.247401241 : 787
1409751624.297380835 : 816
1409751624.347442565 : 837
1409751624.397384593 : 867
1409751624.447404106 : 895
1409751624.497373949 : 926
1409751624.547423419 : 963
1409751624.597379373 : 1000
1409751624.647432681 : 1027
1409751624.697402117 : 1057
1409751624.747465972 : 1096
1409751624.797382934 : 1155
1409751624.847421791 : 1193
1409751624.897400592 : 1230
1409751624.947433375 : 1277
1409751624.997401077 : 1320
1409751625.047447514 : 1359
1409751625.097421924 : 1394
1409751625.147418442 : 1438
1409751625.197413643 : 1487
1409751625.247423756 : 1535
1409751625.297397422 : 1575
1409751625.347515218 : 1615
1409751625.397441799 : 1647
1409751625.447503195 : 1671
1409751625.497405601 : 1700
1409751625.547413149 : 1716
1409751625.597457475 : 1745
1409751625.647404115 : 1763
1409751625.697406165 : 1787
1409751625.747468704 : 1795
1409751625.797389108 : 1800
1409751625.847465573 : 1802
1409751625.897453994 : 1796
1409751625.947450566 : 1792
1409751625.997384442 : 1789
1409751626.047424192 : 1783
1409751626.097407748 : 1781
1409751626.147494121 : 1778
1409751626.197407259 : 1774
1409751626.247457296 : 1769
1409751626.297458178 : 1764
1409751626.347429050 : 1758
1409751626.397403349 : 1752
1409751626.447451290 : 1748
1409751626.497417035 : 1749
1409751626.547416858 : 1750
1409751626.597430852 : 1755
1409751626.647452406 : 1791
1409751626.697403258 : 1801
1409751626.747412572 : 1815
1409751626.797466467 : 1831
1409751626.847402467 : 1846
1409751626.897419988 : 1862
1409751626.947580164 : 1926
1409751627.047662560 : 1975
1409751627.147691797 : 2014
1409751627.247718192 : 2034
1409751627.347711679 : 2045
1409751627.447690122 : 2051
1409751627.547666757 : 2050
1409751627.647726871 : 2047
1409751627.747685309 : 2047
1409751627.847716215 : 2029
1409751627.947687480 : 2024
1409751628.047712853 : 2035
1409751628.147721175 : 2041
1409751628.247707605 : 2048
1409751628.347713809 : 2051
1409751628.447731024 : 2045
1409751628.547724055 : 2040
1409751628.647706884 : 2022
1409751628.747689962 : 2007
1409751628.847697656 : 1991
1409751628.947693684 : 1974
1409751629.047708485 : 1964
1409751629.147728117 : 1948
1409751629.247692427 : 1933
1409751629.347731960 : 1907
1409751629.447700093 : 1892
1409751629.547685641 : 1903
1409751629.647746516 : 1915
1409751629.747659437 : 1932
1409751629.847832308 : 1939
1409751629.947696209 : 1962
1409751630.047688560 : 1980
1409751630.147713030 : 2006
1409751630.247680044 : 2009
1409751630.347738302 : 2007
1409751630.447657874 : 2005
1409751630.547682034 : 1994
1409751630.647721598 : 1980
1409751630.747665800 : 1958
1409751630.847657966 : 1938
1409751630.947667643 : 1936
1409751631.047694303 : 1927
1409751631.147702470 : 1922
1409751631.247695821 : 1934
1409751631.347694817 : 1947
1409751631.447691680 : 1960
1409751631.547668889 : 1969
1409751631.647695062 : 1971
1409751631.747705611 : 1967
1409751631.847694231 : 1968
1409751631.947716645 : 1976
1409751632.047660897 : 1968
1409751632.147698757 : 1953
1409751632.247676109 : 1945
1409751632.347686757 : 1940
1409751632.447707672 : 1937
1409751632.547693832 : 1938
1409751632.647698598 : 1948
1409751632.747686019 : 1957
1409751632.847698673 : 1962
1409751632.947666400 : 1972
1409751633.047960270 : 1975
1409751633.147688346 : 1977
1409751633.247673118 : 1990
1409751633.347701649 : 1986
1409751633.447722465 : 1981
1409751633.547774240 : 1986
1409751633.647718931 : 1983
1409751633.747680008 : 1977
1409751633.847706965 : 1971
1409751633.947672308 : 1957
1409751634.447959786 : 1949
1409751634.498208066 : 1947
1409751634.598317483 : 1950
1409751634.698323666 : 1944
1409751635.198724690 : 1941
1409751635.248911031 : 1943
1409751635.349024477 : 1944
1409751635.449050454 : 1948
1409751635.549079036 : 1946
1409751635.649017943 : 1944
1409751635.749117315 : 1941
1409751635.849013439 : 1934
1409751635.949046823 : 1928
1409751636.049159746 : 1925
1409751636.149004324 : 1923
1409751636.249050156 : 1922
1409751636.349042231 : 1923
1409751636.449024525 : 1926
1409751636.549120366 : 1928
1409751636.649002387 : 1927
1409751636.749033497 : 1926
1409751636.849040483 : 1931
1409751636.949043103 : 1932
1409751637.049152415 : 1922
1409751637.149044915 : 1923
1409751637.249036890 : 1930
1409751637.349038371 : 1918
1409751637.849411451 : 1940
1409751637.899780707 : 1940
1409751638.400130877 : 1933
1409751638.450237696 : 1931
1409751638.500380591 : 1926
1409751638.600500876 : 1922
1409751639.100823358 : 1944
1409751639.151096766 : 1942
1409751639.251195159 : 1932
1409751639.351191314 : 1925
1409751639.451162147 : 1923
1409751639.551201234 : 1929
1409751639.651202581 : 1938
1409751639.751175369 : 1946
1409751639.851225069 : 1951
1409751639.951198329 : 1950
1409751640.051208181 : 1956
1409751640.151241100 : 1957
1409751640.251186836 : 1969
1409751640.351172628 : 1971
1409751640.451187248 : 1971
1409751640.551191266 : 1971
1409751640.651187678 : 1971
1409751640.751196395 : 1973
1409751640.851193936 : 1975
1409751640.951163334 : 1976
1409751641.051178376 : 1971
1409751641.151165420 : 1985
1409751641.251257024 : 1994
1409751641.351191100 : 1996
1409751641.451211418 : 2002
1409751641.551170170 : 1991
1409751641.651199670 : 1991
1409751641.751191556 : 1985
1409751641.851189928 : 1983
1409751641.951157335 : 1969
1409751642.051182438 : 1955
1409751642.151179709 : 1946
1409751642.251225998 : 1939
1409751642.351302079 : 1935
1409751642.451202041 : 1927
1409751642.551168254 : 1921
1409751642.651162521 : 1921
1409751642.751221990 : 1922
1409751642.851212670 : 1927
1409751642.951212546 : 1943
1409751643.051212801 : 1952
1409751643.151189273 : 1957
1409751643.251189495 : 1968
1409751643.351226439 : 1973
1409751643.451161551 : 1987
1409751643.551201741 : 1990
1409751643.651203865 : 1976
1409751643.751203228 : 1978
1409751643.851186160 : 1976
1409751643.951203538 : 1974
1409751644.051169984 : 1973
1409751644.151299478 : 1971
1409751644.251193517 : 1948
1409751644.351173250 : 1964
1409751644.451183930 : 1972
1409751644.551233206 : 1982
1409751644.651196121 : 1992
1409751644.751173248 : 1997
1409751644.851167032 : 2000
1409751644.951188525 : 2004
1409751645.051230727 : 2017
1409751645.151307838 : 2022
1409751645.251170136 : 2021
1409751645.351182045 : 2008
1409751645.451179845 : 1997
1409751645.551202788 : 1987
1409751645.651163818 : 1982
1409751645.751162583 : 1988
1409751645.851213744 : 1971
1409751645.951335248 : 1969
1409751646.451652055 : 1964
1409751646.501935162 : 1964
1409751646.602051083 : 1965
1409751647.102434409 : 1960
1409751647.152671584 : 1965
1409751647.252779453 : 1968
1409751647.352773078 : 1963
1409751647.452891253 : 1958
1409751647.953162744 : 1944
1409751648.003463675 : 1943
1409751648.103644558 : 1940
1409751648.203577528 : 1937
1409751648.303575735 : 1923
1409751648.804035458 : 1913
1409751648.854284063 : 1916
1409751648.954384204 : 1911
1409751649.054385899 : 1905
1409751649.154385921 : 1903
1409751649.254388183 : 1905
1409751649.354396802 : 1910
1409751649.454454465 : 1915
1409751649.554411626 : 1918
1409751649.654421446 : 1918
1409751649.754503611 : 1926
1409751649.854398606 : 1959
1409751649.954402236 : 1958
1409751650.054404947 : 1963
1409751650.154364487 : 1968
1409751650.254383030 : 1967
1409751650.354363800 : 1973
1409751650.454355441 : 1958
1409751650.554381932 : 1954
1409751650.654378239 : 1946
1409751650.754357005 : 1944
1409751650.854472237 : 1942
1409751650.954389474 : 1950
1409751651.054387773 : 1943
1409751651.154397104 : 1927
1409751651.254366620 : 1915
1409751651.354513911 : 1900
1409751651.454378778 : 1885
1409751651.554371481 : 1847
1409751651.654396648 : 1847
1409751651.754388054 : 1842
1409751651.854380713 : 1846
1409751651.954413366 : 1855
1409751652.054383642 : 1870
1409751652.154416513 : 1873
1409751652.254360375 : 1886
1409751652.354348698 : 1904
1409751652.454401685 : 1914
1409751652.554496657 : 1928
1409751652.654393320 : 1947
1409751652.754377698 : 1965
1409751652.854381135 : 1978
1409751652.954474955 : 1989
1409751653.054383352 : 2002
1409751653.154412178 : 2007
1409751653.254506091 : 2017
1409751653.354416213 : 2017
1409751653.454412398 : 2019
1409751653.554402274 : 2028
1409751653.654392612 : 2034
1409751653.754383871 : 2035
1409751653.854432671 : 2040
1409751653.954378140 : 2041
1409751654.054384096 : 2037
1409751654.154398915 : 2031
1409751654.254359664 : 2029
1409751654.354364703 : 2014
1409751654.454392126 : 1997
1409751654.554385692 : 2017
1409751654.654376462 : 2040
1409751654.754404168 : 2027
1409751654.854408803 : 2011
1409751654.954366245 : 2006
1409751655.054421640 : 2010
1409751655.154370578 : 1995
1409751655.254400415 : 1982
1409751655.354383046 : 1973
1409751655.454440069 : 1965
1409751655.554512989 : 1958
1409751655.654425708 : 1952
1409751655.754404047 : 1959
1409751655.854378531 : 1958
1409751655.954406752 : 1960
1409751656.054388064 : 1963
1409751656.154387569 : 1968
1409751656.254382815 : 1987
1409751656.354393547 : 1954
1409751656.454356107 : 1961
1409751656.554377773 : 1962
1409751656.654771631 : 1958
1409751656.754391458 : 1949
1409751656.854371313 : 1940
1409751656.954398481 : 1937
1409751657.054371480 : 1929
1409751657.154399448 : 1928
1409751657.254392850 : 1930
1409751657.354475400 : 1941
1409751657.454361370 : 1942
1409751657.554359321 : 1952
1409751657.654416859 : 1951
1409751657.754393391 : 1953
1409751657.854386700 : 1948
1409751657.954406650 : 1945
1409751658.054440819 : 1945
1409751658.154395016 : 1942
1409751658.254451575 : 1965
1409751658.354409201 : 2026
1409751658.454429062 : 2030
1409751658.554374250 : 2029
1409751658.654392356 : 2022
1409751658.754423882 : 2008
1409751658.854421196 : 1992
1409751658.954416690 : 1968
1409751659.054527537 : 1955
1409751659.154381037 : 1926
1409751659.254389245 : 1911
1409751659.354363608 : 1914
1409751659.454511836 : 1908
1409751659.554388815 : 1916
1409751659.654415372 : 1926
1409751659.754437089 : 1940
1409751659.854475783 : 1939
1409751659.954374523 : 1946
1409751660.054381654 : 1951
1409751660.154359390 : 1956
1409751660.254376576 : 1954
1409751660.354389116 : 1953
1409751660.454385842 : 1948
1409751660.554361652 : 1953
1409751660.654360851 : 1949
1409751660.754431175 : 1948
1409751660.854368369 : 1945
1409751660.954469385 : 1951
1409751661.054358264 : 1964
1409751661.154432531 : 1950
1409751661.254377197 : 1935
1409751661.354379957 : 1929
1409751661.454368348 : 1935
1409751661.554471498 : 1939
1409751661.654388814 : 1939
1409751661.754384701 : 1927
1409751661.854395578 : 1925
1409751662.354830266 : 1945
1409751662.405125633 : 1946
1409751662.505296848 : 1949
1409751662.605248254 : 1948
1409751662.705225731 : 1939
1409751662.805242472 : 1939
1409751662.905384956 : 1921
1409751663.005204358 : 1915
1409751663.105245260 : 1918
1409751663.205232278 : 1924
1409751663.305235907 : 1931
1409751663.405248554 : 1942
1409751663.505231325 : 1950
1409751663.605313996 : 1958
1409751663.705235275 : 1960
1409751663.805235336 : 1961
1409751663.905218370 : 1941
1409751664.005242676 : 1925
1409751664.105298020 : 1908
1409751664.205228082 : 1887
1409751664.305226966 : 1887
1409751664.405295830 : 1914
1409751664.505289547 : 1927
1409751664.605337023 : 1934
1409751664.705200194 : 1946
1409751664.805224930 : 1956
1409751664.905240166 : 1964
1409751665.005360082 : 1973
1409751665.105260634 : 1985
1409751665.205393070 : 1997
1409751665.305272472 : 2000
1409751665.405386903 : 1998
1409751665.505254209 : 1996
1409751665.605237360 : 2009
1409751665.705239890 : 2005
1409751665.805230690 : 1999
1409751665.905321760 : 1991
1409751666.005232680 : 1984
1409751666.105207173 : 1932
1409751666.205243168 : 1897
1409751666.305369097 : 1891
1409751666.405223086 : 1902
1409751666.505243516 : 1913
1409751666.605337599 : 1933
1409751666.705232444 : 1947
1409751666.805230490 : 1973
1409751666.905231010 : 1983
1409751667.005205748 : 1992
1409751667.105374009 : 1998
1409751667.205234107 : 1999
1409751667.305229385 : 2001
1409751667.405218788 : 2005
1409751667.505259958 : 2008
1409751667.605311168 : 2005
1409751667.705389685 : 1993
1409751667.805236179 : 1982
1409751667.905218962 : 1974
1409751668.005236005 : 1966
1409751668.105210380 : 1962
1409751668.205203324 : 2032
1409751668.705536885 : 1943
1409751668.755850967 : 1935
1409751668.855935818 : 1927
1409751668.955908354 : 1914
1409751669.055927349 : 1935
1409751669.155939464 : 1962
1409751669.256025701 : 1978
1409751669.355925523 : 1963
1409751669.455961151 : 1967
1409751669.555885771 : 1960
1409751669.655904828 : 1948
1409751669.755913428 : 1943
1409751669.855902551 : 1907
1409751670.356391174 : 1901
1409751670.406670086 : 1907
1409751670.506771106 : 1913
1409751670.606841711 : 1908
1409751670.706761911 : 1906
1409751670.806952385 : 1896
1409751670.906805057 : 1896
1409751671.006796606 : 1898
1409751671.106783048 : 1903
1409751671.206763318 : 1912
1409751671.306770706 : 1910
1409751671.406783136 : 1910
1409751671.506797905 : 1912
1409751671.606774673 : 1914
1409751671.706817388 : 1915
1409751671.806835432 : 1922
1409751671.906775926 : 1926
1409751672.006875203 : 1932
1409751672.106773623 : 1941
1409751672.206829579 : 1947
1409751672.306757770 : 1953
1409751672.406747943 : 1958
1409751672.506750081 : 1969
1409751672.606744436 : 1973
1409751672.706794245 : 1975
1409751672.806880614 : 1986
1409751672.906769899 : 1997
1409751673.006805083 : 1988
1409751673.106788909 : 1980
1409751673.206886483 : 1975
1409751673.306777791 : 1964
1409751673.406767523 : 1961
1409751673.506744974 : 1931
1409751673.606760796 : 1906
1409751673.707054412 : 1897
1409751673.806782445 : 1868
1409751673.906764709 : 1867
1409751674.006773249 : 1873
1409751674.106790341 : 1879
1409751674.206762266 : 1896
1409751674.306760536 : 1899
1409751674.406851048 : 1922
1409751674.506743441 : 1949
1409751674.606797677 : 1967
1409751674.706768486 : 1969
1409751674.806783464 : 1963
1409751674.906867086 : 1951
1409751675.006768893 : 1944
1409751675.106892540 : 1940
1409751675.206788640 : 1952
1409751675.306757970 : 1972
1409751675.406742436 : 1977
1409751675.506751245 : 1972
1409751675.606883261 : 1976
1409751675.706827107 : 1979
1409751675.806781580 : 1980
1409751675.906771983 : 1960
1409751676.006742320 : 1962
1409751676.106774641 : 1935
1409751676.206780662 : 1937
1409751676.306783521 : 1942
1409751676.406764144 : 1951
1409751676.506837387 : 1962
1409751676.606753303 : 1973
1409751676.706751851 : 1982
1409751676.806776670 : 1979
1409751676.906774630 : 2000
1409751677.006768824 : 2002
1409751677.106782987 : 2003
1409751677.206761526 : 2003
1409751677.306765560 : 2005
1409751677.406785982 : 2004
1409751677.506810836 : 2006
1409751677.606878551 : 2001
1409751677.706770866 : 2000
1409751677.806735556 : 1982
1409751677.906772846 : 1991
1409751678.006777436 : 1984
1409751678.106763214 : 1977
1409751678.206756646 : 1983
1409751678.306767557 : 1979
1409751678.406736994 : 1967
1409751678.506792718 : 1957
1409751678.606771499 : 1951
1409751678.706780013 : 1944
1409751678.806765593 : 1944
1409751678.906738193 : 1951
1409751679.006759553 : 1949
1409751679.106764331 : 1951
1409751679.206809668 : 1950
1409751679.306751943 : 1943
1409751679.406765402 : 1941
1409751679.506822063 : 1939
1409751679.606788336 : 1946
1409751679.706759994 : 1938
1409751679.806760826 : 1924
1409751679.906765818 : 1914
1409751680.006823599 : 1903
1409751680.106794581 : 1899
1409751680.206833978 : 1897
1409751680.306778876 : 1902
1409751680.406814316 : 1906
1409751680.506772064 : 1913
1409751680.606787575 : 1922
1409751680.706743598 : 1934
1409751680.806913238 : 1941
1409751680.906771395 : 1951
1409751681.006845781 : 1962
1409751681.106775300 : 1973
1409751681.206763400 : 1980
1409751681.306880171 : 1986
1409751681.406734481 : 1991
1409751681.506767409 : 1994
1409751681.606785647 : 2009
1409751681.706752164 : 2027
1409751681.806785340 : 2023
1409751681.906783805 : 2017
1409751682.006773432 : 2016
1409751682.106797576 : 2010
1409751682.206744727 : 1983
1409751682.306853934 : 1979
1409751682.406787929 : 1976
1409751682.506769402 : 1969
1409751682.606789712 : 1955
1409751682.706785116 : 1951
1409751682.806764887 : 1941
1409751682.906788084 : 1929
1409751683.006776301 : 1924
1409751683.106902629 : 1920
1409751683.206763390 : 1919
1409751683.306764271 : 1922
1409751683.406836500 : 1931
1409751683.506900819 : 1940
1409751683.606793529 : 1946
1409751683.706851386 : 1952
1409751683.806797986 : 1958
1409751683.906882267 : 1965
1409751684.006768127 : 1967
1409751684.106767958 : 1975
1409751684.206764757 : 1979
1409751684.306835967 : 1975
1409751684.406763732 : 1975
1409751684.506764607 : 1971
1409751684.606785049 : 1964
1409751684.706747835 : 1960
1409751684.806756561 : 1955
1409751684.906744468 : 1949
1409751685.006767406 : 1944
1409751685.106748858 : 1957
1409751685.206734383 : 1947
1409751685.306758192 : 1948
1409751685.406795619 : 1943
1409751685.506772963 : 1933
1409751685.606758893 : 1926
1409751685.706744297 : 1928
1409751685.806789893 : 1934
1409751685.906742080 : 1938
1409751686.006778284 : 1945
1409751686.106778963 : 1945
1409751686.206767570 : 1943
1409751686.306766103 : 1964
1409751686.406782200 : 1955
1409751686.506793808 : 1953
1409751686.606811546 : 1952
1409751686.706834775 : 1974
1409751686.806769375 : 1963
1409751686.906792818 : 1977
1409751687.006768724 : 1959
1409751687.106748843 : 1940
1409751687.206774135 : 1934
1409751687.306944846 : 1941
1409751687.406742468 : 1953
1409751687.506741979 : 1951
1409751687.606855851 : 1955
1409751687.706758584 : 1959
1409751687.806767076 : 1948
1409751687.906830032 : 1939
1409751688.006764769 : 1949
1409751688.106762468 : 1943
1409751688.206786607 : 1937
1409751688.306766291 : 1929
1409751688.406789097 : 1926
1409751688.506856617 : 1932
1409751688.606782256 : 1933
1409751688.706767152 : 1917
1409751688.806776539 : 1915
1409751688.906782514 : 1919
1409751689.006760252 : 1928
1409751689.106902692 : 1934
1409751689.206861016 : 1942
1409751689.306789567 : 1949
1409751689.406774746 : 1967
1409751689.506780747 : 1973
1409751689.606802416 : 1983
1409751689.706855011 : 1988
1409751689.806770806 : 1996
1409751689.906857792 : 2019
1409751690.006888770 : 2026
1409751690.106772139 : 2032
1409751690.206793292 : 2034
1409751690.306873748 : 2037
1409751690.406776114 : 2051
1409751690.506838662 : 2030
1409751690.606708397 : 2017
1409751690.706781434 : 2013
1409751690.806757806 : 2005
1409751690.906756985 : 1996
1409751691.006758779 : 1986
1409751691.106753884 : 1995
1409751691.206754967 : 1992
1409751691.306734507 : 1982
1409751691.406745666 : 1974
1409751691.506793951 : 1964
1409751691.606797295 : 1956
1409751691.706756421 : 1951
1409751691.806778968 : 1946
1409751691.906742263 : 1944
1409751692.006891883 : 1948
1409751692.106755569 : 1947
1409751692.206752907 : 1952
1409751692.306779798 : 1960
1409751692.406768095 : 1967
1409751692.506764247 : 1968
1409751692.606763954 : 1968
1409751692.706773423 : 1982
1409751692.806740254 : 1979
1409751692.906763420 : 1978
1409751693.006758096 : 1976
1409751693.106855633 : 1980
1409751693.206925999 : 1978
1409751693.306904239 : 1979
1409751693.406768877 : 1976
1409751693.506837361 : 1981
1409751693.606845802 : 1973
1409751693.706813795 : 1966
1409751693.806767770 : 1965
1409751693.906773854 : 1956
1409751694.006766394 : 1948
1409751694.106794188 : 1946
1409751694.206770376 : 1949
1409751694.306789082 : 1942
1409751694.406786968 : 1942
1409751694.506798362 : 1949
1409751694.606787994 : 1953
1409751694.706781992 : 1970
1409751694.806759243 : 1971
1409751694.906765528 : 1972
1409751695.006742884 : 1968
1409751695.106741618 : 1968
1409751695.206775367 : 1976
1409751695.306875700 : 1971
1409751695.406738009 : 1972
1409751695.506789382 : 1963
1409751695.606813102 : 1956
1409751695.706769815 : 1955
1409751695.806798662 : 1952
1409751695.906763828 : 1951
1409751696.006757819 : 1951
1409751696.106798054 : 1948
1409751696.206794417 : 1944
1409751696.306784353 : 1941
1409751696.406783483 : 1933
1409751696.506802321 : 1920
1409751696.606888797 : 1924
1409751696.706748851 : 1930
1409751696.806748920 : 1938
1409751696.906743166 : 1935
1409751697.006727376 : 1934
1409751697.106784027 : 1935
1409751697.206772858 : 1949
1409751697.306839693 : 1951
1409751697.406749572 : 1949
1409751697.506754592 : 1939
1409751697.606800166 : 1932
1409751697.706807131 : 1940
1409751697.806916045 : 1919
1409751697.906778860 : 1909
1409751698.006855988 : 1923
1409751698.106771776 : 1915
1409751698.206778679 : 1916
1409751698.306819160 : 1958
1409751698.406770449 : 1973
1409751698.506766471 : 1978
1409751698.606805232 : 1982
1409751698.706779034 : 1980
1409751698.806808762 : 1979
1409751698.906760831 : 1972
1409751699.006801520 : 1968
1409751699.106760741 : 1958
1409751699.206877277 : 1954
1409751699.306741240 : 1952
1409751699.406745089 : 1959
1409751699.506781140 : 1957
1409751699.606891598 : 1953
1409751699.706776542 : 1951
1409751699.806758879 : 1951
1409751699.906795964 : 1948
1409751700.006762504 : 1956
1409751700.106773470 : 1958
1409751700.206780871 : 1970
1409751700.306756520 : 1968
1409751700.406930987 : 1966
1409751700.506890802 : 1965
1409751700.606791651 : 1961
1409751700.706771437 : 1949
1409751700.806776761 : 1941
1409751700.906750340 : 1937
1409751701.006739518 : 1927
1409751701.106943185 : 1921
1409751701.206767730 : 1919
1409751701.307184694 : 1926
1409751701.406743177 : 1943
1409751701.506784250 : 1958
1409751701.606777128 : 1960
1409751701.706738984 : 1963
1409751701.806752288 : 1963
1409751701.906765014 : 1965
1409751702.006741935 : 1964
1409751702.106864886 : 1967
1409751702.206770488 : 1967
1409751702.306735493 : 1963
1409751702.406780816 : 1954
1409751702.506807499 : 1947
1409751702.606823226 : 1927
1409751702.706778055 : 1919
1409751702.806844186 : 1902
1409751702.906761046 : 1896
1409751703.006790680 : 1897
1409751703.106789051 : 1898
1409751703.206805813 : 1910
1409751703.306778228 : 1921
1409751703.406743497 : 1931
1409751703.506788093 : 1937
1409751703.606746166 : 1952
1409751703.706783772 : 1960
1409751703.806778558 : 1966
1409751703.906784383 : 1962
1409751704.006815961 : 1964
1409751704.106749143 : 1963
1409751704.206742923 : 1954
1409751704.306775279 : 1954
1409751704.406906079 : 1951
1409751704.506751918 : 1946
1409751704.606753608 : 1960
1409751704.706766569 : 1961
1409751704.806774930 : 1956
1409751704.906748692 : 1950
1409751705.006763799 : 1954
1409751705.106805800 : 1957
1409751705.206747093 : 1959
1409751705.306737984 : 1960
1409751705.406788602 : 1964
1409751705.506870513 : 1975
1409751705.606741269 : 1985
1409751705.706742961 : 1988
1409751705.806808654 : 1988
1409751705.906780974 : 1998
1409751706.006790841 : 1992
1409751706.106774722 : 1992
1409751706.206755043 : 1990
1409751706.306773464 : 1997
1409751706.406799582 : 1982
1409751706.506769148 : 1978
1409751706.606753416 : 1965
1409751706.706757712 : 1967
1409751706.806730993 : 1968
1409751706.906771840 : 1991
1409751707.006747914 : 1996
1409751707.106768384 : 1991
1409751707.206770907 : 1975
1409751707.306755558 : 1963
1409751707.406781705 : 1954
1409751707.506800355 : 1931
1409751707.606744269 : 1927
1409751707.706787199 : 1924
1409751707.806739088 : 1923
1409751707.906891590 : 1913
1409751708.407157071 : 1936
1409751708.457377768 : 1936
1409751708.557489433 : 1937
1409751708.657513213 : 1934
1409751708.757498454 : 1931
1409751708.857608163 : 1929
1409751708.957547544 : 1928
1409751709.057505952 : 1923
1409751709.157501263 : 1924
1409751709.257495028 : 1917
1409751709.357495820 : 1903
1409751709.457613144 : 1894
1409751709.557554923 : 1893
1409751709.657541975 : 1888
1409751709.757533439 : 1895
1409751709.857494577 : 1899
1409751709.957510621 : 1899
1409751710.057486202 : 1880
1409751710.157506684 : 1890
1409751710.257474745 : 1889
1409751710.357572712 : 1901
1409751710.457509768 : 1898
1409751710.557490766 : 1907
1409751710.657485841 : 1918
1409751710.757490002 : 1932
1409751710.857500597 : 1941
1409751710.957491892 : 1941
1409751711.057454154 : 1946
1409751711.157483914 : 1951
1409751711.257464418 : 1959
1409751711.357657535 : 1965
1409751711.457509104 : 1963
1409751711.557491817 : 1963
1409751711.657492258 : 1964
1409751711.757518130 : 1960
1409751711.857661015 : 1949
1409751711.957601275 : 1947
1409751712.057490290 : 1952
1409751712.157477213 : 1945
1409751712.257468110 : 1930
1409751712.357471438 : 1936
1409751712.457483949 : 1942
1409751712.557475044 : 1946
1409751712.657474161 : 1936
1409751712.757515244 : 1937
1409751712.857471671 : 1939
1409751712.957485881 : 1940
1409751713.057483578 : 1931
1409751713.157484253 : 1901
1409751713.257523665 : 1901
1409751713.357460557 : 1910
1409751713.457496088 : 1914
1409751713.557503102 : 1927
1409751713.657490990 : 1936
1409751713.757486985 : 1938
1409751713.857466384 : 1945
1409751713.957489369 : 1954
1409751714.057503593 : 1959
1409751714.157614399 : 1959
1409751714.257484925 : 1965
1409751714.357479897 : 1985
1409751714.457494560 : 1984
1409751714.557513515 : 1982
1409751714.657498039 : 1985
1409751714.757496304 : 1985
1409751714.857475369 : 1986
1409751714.957522841 : 1985
1409751715.057508009 : 1990
1409751715.157559613 : 1993
1409751715.257491998 : 1998
1409751715.357498901 : 2001
1409751715.457484726 : 2008
1409751715.557550765 : 2020
1409751715.657505067 : 2018
1409751715.757532940 : 2012
1409751715.857516991 : 2011
1409751715.957498195 : 2010
1409751716.057488758 : 2003
1409751716.157499443 : 2021
1409751716.257488068 : 2008
1409751716.357542062 : 1994
1409751716.457459463 : 1985
1409751716.557504729 : 1977
1409751716.657477549 : 1973
1409751716.757512862 : 1970
1409751716.857603071 : 1967
1409751716.957491275 : 1958
1409751717.057482824 : 1953
1409751717.157722599 : 1953
1409751717.257495427 : 1950
1409751717.357478252 : 1947
1409751717.457486200 : 1944
1409751717.557522865 : 1940
1409751717.657479705 : 1938
1409751717.757502253 : 1939
1409751717.857485083 : 1934
1409751717.957503324 : 1934
1409751718.057482491 : 1934
1409751718.157583973 : 1937
1409751718.257482937 : 1943
1409751718.357506693 : 1945
1409751718.457490727 : 1951
1409751718.557469274 : 1955
1409751718.657482782 : 1956
1409751718.757574938 : 1959
1409751718.857471038 : 1958
1409751718.957506628 : 1960
1409751719.057492097 : 1962
1409751719.157491247 : 1963
1409751719.257462183 : 1972
1409751719.357461369 : 1972
1409751719.457497449 : 1965
1409751719.557457773 : 1959
1409751719.657494794 : 1963
1409751719.757499354 : 1953
1409751719.857470280 : 1946
1409751720.357772720 : 1946
1409751720.407877561 : 1951
1409751720.458044798 : 1962
1409751720.958362152 : 1955
1409751721.008635066 : 1963
1409751721.508930059 : 1949
1409751721.559227511 : 1947
1409751721.659315804 : 1957
1409751721.759305145 : 1959
1409751721.859280968 : 1963
1409751721.959264812 : 1963
1409751722.059277547 : 1963
1409751722.159277591 : 1963
1409751722.259333833 : 1960
1409751722.759784147 : 1963
1409751723.209867330 : 1963
1409751723.259867887 : 1949
1409751723.310055134 : 1949
1409751724.160496895 : 1958
1409751724.210434559 : 1985
1409751724.260410203 : 1985
1409751724.310481806 : 1985
1409751724.360598878 : 1983
1409751724.460696105 : 1982
1409751724.560726691 : 1991
1409751724.660714770 : 2004
1409751724.760708445 : 1999
1409751724.860698544 : 1998
1409751724.960681097 : 2003
1409751725.060722060 : 2004
1409751725.160846555 : 1998
1409751725.260708827 : 1992
1409751725.360811566 : 1990
1409751725.460726676 : 1983
1409751725.560703731 : 1992
1409751726.061053166 : 1933
1409751726.111266135 : 1932
1409751726.211349333 : 1922
1409751726.311402481 : 1916
1409751726.411387478 : 1907
1409751726.511358604 : 1909
1409751726.611404381 : 1901
1409751726.711352631 : 1896
1409751726.811390425 : 1903
1409751726.911422283 : 1909
1409751727.011461215 : 1906
1409751727.111404223 : 1918
1409751727.211353753 : 1923
1409751727.311476002 : 1928
1409751727.411412636 : 1930
1409751727.511502780 : 1945
1409751727.611506518 : 1949
1409751727.711377891 : 1951
1409751727.811381852 : 1950
1409751727.911383520 : 1974
1409751728.011361641 : 1968
1409751728.111559188 : 1970
1409751728.211407096 : 1959
1409751728.311404287 : 1943
1409751728.411379754 : 1932
1409751728.511358927 : 1930
1409751728.611377790 : 1925
1409751728.711393428 : 1932
1409751728.811464654 : 1935
1409751728.911416657 : 1931
1409751729.011354521 : 1933
1409751729.111360639 : 1940
1409751729.211387696 : 1943
1409751729.311433933 : 1946
1409751729.411423227 : 1943
1409751729.511550667 : 1928
1409751729.611404077 : 1943
1409751729.711394472 : 1979
1409751729.811376817 : 1984
1409751729.911398984 : 1984
1409751730.011372528 : 1971
1409751730.111332754 : 1953
1409751730.211346164 : 1943
1409751730.311362239 : 1937
1409751730.411352840 : 1929
1409751730.511356109 : 1936
1409751730.611339060 : 1934
1409751730.711345128 : 1932
1409751730.811396223 : 1924
1409751730.911400349 : 1922
1409751731.011385802 : 1922
1409751731.111459023 : 1918
1409751731.211383324 : 1917
1409751731.311448858 : 1919
1409751731.411380641 : 1915
1409751731.511391603 : 1896
1409751731.612211450 : 1887
1409751731.711376795 : 1861
1409751731.811399197 : 1833
1409751731.911435977 : 1836
1409751732.011383101 : 1845
1409751732.111361225 : 1864
1409751732.211385373 : 1884
1409751732.311431562 : 1901
1409751732.411374788 : 1914
1409751732.511416506 : 1926
1409751732.611406879 : 1946
1409751732.711379663 : 1962
1409751732.811418965 : 1965
1409751732.911406950 : 1970
1409751733.011381461 : 1976
1409751733.111349876 : 1983
1409751733.211342390 : 1989
1409751733.311480424 : 1981
1409751733.411353010 : 1980
1409751733.511348457 : 1984
1409751733.611425646 : 1983
1409751733.711403942 : 1980
1409751733.811401700 : 1972
1409751733.911358384 : 1961
1409751734.011404960 : 1953
1409751734.111354062 : 1954
1409751734.211397414 : 1956
1409751734.311730942 : 1958
1409751734.411396400 : 1965
1409751734.511396746 : 1969
1409751734.611338690 : 1970
1409751734.711391985 : 1960
1409751734.811400795 : 1962
1409751734.911419792 : 1965
1409751735.011534636 : 1965
1409751735.111489218 : 1963
1409751735.211394500 : 1965
1409751735.311351807 : 1941
1409751735.411508156 : 1934
1409751735.511390710 : 1937
1409751735.611361551 : 1941
1409751735.711388716 : 1945
1409751735.811420668 : 1936
1409751735.911404366 : 1928
1409751736.011362340 : 1916
1409751736.111388204 : 1908
1409751736.211402665 : 1889
1409751736.311418222 : 1875
1409751736.411360347 : 1877
1409751736.511344450 : 1888
1409751736.611351249 : 1900
1409751736.711409604 : 1920
1409751736.811411708 : 1934
1409751736.911354528 : 1939
1409751737.011342710 : 1947
1409751737.111459527 : 1948
1409751737.211409808 : 1880
1409751737.311391544 : 1831
1409751737.411347859 : 1828
1409751737.511384032 : 1838
1409751737.611377720 : 1854
1409751737.711506496 : 1878
1409751737.811432533 : 1907
1409751737.911421164 : 1931
1409751738.411750449 : 1999
1409751738.462009189 : 2002
1409751738.562208405 : 2007
1409751738.662103908 : 2010
1409751738.762138277 : 2013
1409751738.862102343 : 2010
1409751738.962103151 : 1998
1409751739.062149925 : 1989
1409751739.162115129 : 1984
1409751739.262095503 : 1983
1409751739.362126609 : 1984
1409751739.462115545 : 1987
1409751739.562120736 : 1989
1409751739.662129297 : 1996
1409751739.762141793 : 2001
1409751739.862093555 : 1985
1409751739.962119856 : 1979
1409751740.062092875 : 1963
1409751740.162048737 : 1954
1409751740.262153987 : 1962
1409751740.362170120 : 1957
1409751740.462319713 : 1970
1409751740.562224352 : 1956
1409751741.062448348 : 1979
1409751741.112547855 : 1980
1409751741.162550425 : 1973
1409751741.212848252 : 1972
1409751741.312908614 : 1977
1409751741.412910863 : 1986
1409751741.512916991 : 1999
1409751742.013269581 : 1973
1409751742.063603741 : 1974
1409751742.163704128 : 1965
1409751742.263779045 : 1960
1409751742.363732744 : 1956
1409751742.463711028 : 1952
1409751742.563727994 : 1951
1409751742.663702146 : 1949
1409751742.763813698 : 1949
1409751742.863714810 : 1942
1409751742.963710185 : 1929
1409751743.063762929 : 1932
1409751743.163716437 : 1935
1409751743.263736466 : 1939
1409751743.363847197 : 1965
1409751743.463710562 : 1966
1409751743.964044810 : 1938
1409751744.014312853 : 1938
1409751744.064147629 : 1938
1409751744.114232051 : 1933
1409751744.164119398 : 1926
1409751744.214140922 : 1924
1409751744.264171865 : 1920
1409751744.314181590 : 1917
1409751744.364175939 : 1919
1409751744.414315603 : 1911
1409751744.514520878 : 1911
1409751744.614417982 : 1906
1409751744.714426700 : 1890
1409751744.814482265 : 1892
1409751744.914427667 : 1896
1409751745.014426690 : 1898
1409751745.114418396 : 1904
1409751745.214390361 : 1912
1409751745.314446005 : 1919
1409751745.414447614 : 1921
1409751745.514402370 : 1935
1409751745.614442130 : 1943
1409751745.714427879 : 1948
1409751745.814507742 : 1953
1409751745.914485442 : 1956
1409751746.014419948 : 1956
1409751746.114438021 : 1960
1409751746.214434448 : 1960
1409751746.314430839 : 1957
1409751746.414484474 : 1953
1409751746.914832908 : 1948
1409751746.965249285 : 1941
1409751747.065339343 : 1970
1409751747.165334059 : 1947
1409751747.265381193 : 1930
1409751747.365345034 : 1916
1409751747.465356813 : 1912
1409751747.565356710 : 1910
1409751747.665353532 : 1912
1409751747.765372678 : 1914
1409751747.865330602 : 1916
1409751747.965333634 : 1918
1409751748.065332747 : 1921
1409751748.165537497 : 1929
1409751748.265390546 : 1931
1409751748.365357460 : 1917
1409751748.465337487 : 1920
1409751748.565348567 : 1935
1409751748.665360720 : 1944
1409751748.765376292 : 1950
1409751748.865407264 : 1959
1409751748.965384572 : 1968
1409751749.065356021 : 1975
1409751749.165378358 : 1980
1409751749.265358035 : 1985
1409751749.365477496 : 1990
1409751749.465356127 : 1999
1409751749.565350908 : 1987
1409751749.665386640 : 1971
1409751749.765357422 : 1959
1409751749.865341106 : 1963
1409751749.965356595 : 1963
1409751750.065355768 : 1960
1409751750.165383362 : 1961
1409751750.265353957 : 1970
1409751750.365361271 : 1979
1409751750.465387978 : 1988
1409751750.565530274 : 2004
1409751750.665370330 : 2026
1409751750.765334102 : 2032
1409751750.865355940 : 2040
1409751750.965359506 : 2034
1409751751.065459828 : 2026
1409751751.165384519 : 2024
1409751751.265441307 : 2031
1409751751.365369768 : 2020
1409751751.465373072 : 2014
1409751751.565357538 : 2000
1409751751.665350475 : 1994
1409751751.765466713 : 1984
1409751751.865356837 : 1973
1409751751.965402760 : 1965
1409751752.065374245 : 1967
1409751752.165384391 : 1959
1409751752.265368153 : 1957
1409751752.365440984 : 1958
1409751752.465421941 : 1961
1409751752.565371394 : 1951
1409751752.665366282 : 1957
1409751752.765320192 : 1959
1409751752.865342729 : 1962
1409751752.965369542 : 1967
1409751753.065475386 : 1978
1409751753.165418744 : 1989
1409751753.265370337 : 1980
1409751753.365347178 : 1972
1409751753.465368460 : 1965
1409751753.565351806 : 1960
1409751753.665363523 : 1956
1409751753.765349638 : 1952
1409751753.865357124 : 1954
1409751753.965409593 : 1954
1409751754.065363575 : 1967
1409751754.165332654 : 1965
1409751754.265388663 : 1956
1409751754.365331359 : 1967
1409751754.465351341 : 1964
1409751754.565360499 : 1961
1409751754.665357432 : 1964
1409751754.765378153 : 1954
1409751754.865369602 : 1939
1409751754.965409673 : 1933
1409751755.065415575 : 1934
1409751755.165378419 : 1937
1409751755.265331814 : 1937
1409751755.365340156 : 1948
1409751755.465358584 : 1949
1409751755.565364770 : 1937
1409751755.665421396 : 1935
1409751755.765388627 : 1948
1409751755.865343490 : 1927
1409751755.965350216 : 1920
1409751756.065380183 : 1912
1409751756.165445844 : 1902
1409751756.265374949 : 1899
1409751756.365333851 : 1923
1409751756.865698819 : 1926
1409751756.915915167 : 1921
1409751757.016021877 : 1921
1409751757.116028307 : 1919
1409751757.616450721 : 1945
1409751757.666690828 : 1943
1409751758.166930555 : 1971
1409751758.217183253 : 1967
1409751758.717492829 : 1955
1409751758.767886638 : 1954
1409751758.867935434 : 1952
1409751758.968036016 : 1949
1409751759.067955199 : 1947
1409751759.168055654 : 1957
1409751759.267926295 : 1959
1409751759.367934285 : 1959
1409751759.467949813 : 1957
1409751759.567919702 : 1956
1409751759.667936917 : 1985
1409751759.767931415 : 1965
1409751759.867931679 : 1964
1409751759.967939333 : 1978
1409751760.067952733 : 1979
1409751760.167973359 : 1976
1409751760.267904341 : 1972
1409751760.367952540 : 1967
1409751760.467917675 : 1965
1409751760.567922881 : 1970
1409751760.668032176 : 1971
1409751760.767916477 : 1972
1409751760.867954348 : 1966
1409751760.967936768 : 1960
1409751761.068021451 : 1953
1409751761.167908982 : 1947
1409751761.268024683 : 1950
1409751761.367931045 : 1950
1409751761.467962434 : 1951
1409751761.567930068 : 1947
1409751761.668005860 : 1943
1409751761.767914217 : 1970
1409751761.867934124 : 1969
1409751761.968049636 : 1970
1409751762.068105107 : 1966
1409751762.167925811 : 1966
1409751762.267933839 : 1959
1409751762.367953925 : 1955
1409751762.467953242 : 1936
1409751762.567929100 : 1887
1409751762.667963737 : 1882
1409751762.767927698 : 1877
1409751762.868099051 : 1881
1409751762.967920520 : 1895
1409751763.067994846 : 1897
1409751763.167928945 : 1907
1409751763.267943811 : 1918
1409751763.367952764 : 1930
1409751763.467937126 : 1939
1409751763.567904590 : 1960
1409751763.667929393 : 1977
1409751763.767919732 : 1982
1409751763.867922891 : 1982
1409751763.967917157 : 1981
1409751764.067911214 : 1977
1409751764.167899424 : 1977
1409751764.267969095 : 1982
1409751764.368061236 : 1988
1409751764.467910147 : 1994
1409751764.567990642 : 2013
1409751764.667995113 : 2017
1409751764.767902175 : 2009
1409751764.867951122 : 1996
1409751764.967927568 : 1993
1409751765.067926579 : 1985
1409751765.167938690 : 1963
1409751765.267920174 : 1959
1409751765.367918836 : 1952
1409751765.467933774 : 1945
1409751765.567943048 : 1939
1409751765.667997146 : 1940
1409751765.767945250 : 1940
1409751765.867958915 : 1935
1409751765.967921861 : 1930
1409751766.067949880 : 1924
1409751766.167921141 : 1870
1409751766.267973247 : 1862
1409751766.367959872 : 1882
1409751766.467968506 : 1888
1409751766.567903579 : 1896
1409751766.667945805 : 1908
1409751766.767926722 : 1914
1409751766.867932975 : 1914
1409751766.967957571 : 1916
1409751767.067965688 : 1929
1409751767.167996086 : 1935
1409751767.267920437 : 1938
1409751767.367898746 : 1945
1409751767.467947533 : 1948
1409751767.567919356 : 1949
1409751767.667990609 : 1954
1409751767.767906278 : 1938
1409751767.867965056 : 1927
1409751767.967996045 : 1919
1409751768.067934136 : 1915
1409751768.167984025 : 1916
1409751768.267936756 : 1929
1409751768.367955763 : 1928
1409751768.467927746 : 1917
1409751768.567952664 : 1901
1409751768.667936456 : 1874
1409751768.767909450 : 1873
1409751768.867922856 : 1879
1409751768.967914195 : 1886
1409751769.068128879 : 1893
1409751769.167930948 : 1894
1409751769.267983428 : 1889
1409751769.368069347 : 1874
1409751769.467953149 : 1875
1409751769.567989864 : 1859
1409751769.667946209 : 1870
1409751769.767960456 : 1855
1409751769.868023054 : 1864
1409751769.967933767 : 1880
1409751770.067937897 : 1896
1409751770.168008815 : 1904
1409751770.267950015 : 1917
1409751770.367906785 : 1940
1409751770.467966601 : 1951
1409751770.567929415 : 1955
1409751770.667936782 : 1962
1409751770.768021845 : 1963
1409751770.867974306 : 1972
1409751770.967910698 : 1980
1409751771.068639030 : 1980
1409751771.167898702 : 2000
1409751771.267918122 : 2004
1409751771.367925511 : 2045
1409751771.467934117 : 2044
1409751771.567914073 : 2035
1409751771.668152241 : 2025
1409751771.768040064 : 2022
1409751771.867957672 : 2006
1409751771.967930933 : 1997
1409751772.067901149 : 1987
1409751772.168068169 : 1978
1409751772.267937315 : 1964
1409751772.367898214 : 1953
1409751772.467961315 : 1950
1409751772.567929116 : 1999
1409751772.667955134 : 2026
1409751772.768004300 : 2035
1409751772.867920921 : 2029
1409751772.967960322 : 2019
1409751773.067930275 : 2008
1409751773.167966752 : 1991
1409751773.267949705 : 1977
1409751773.367946437 : 1965
1409751773.467909252 : 1954
1409751773.567933537 : 1945
1409751773.668034045 : 1946
1409751773.767935584 : 1948
1409751773.867920627 : 1946
1409751773.968039770 : 1946
1409751774.067913227 : 1948
1409751774.167961768 : 1956
1409751774.267932304 : 1960
1409751774.367910129 : 1964
1409751774.468040330 : 1971
1409751774.567962236 : 1978
1409751774.667956583 : 1982
1409751774.767929445 : 1980
1409751774.867970955 : 1982
1409751774.968007029 : 1984
1409751775.067985136 : 1981
1409751775.167951641 : 1981
1409751775.267910608 : 1978
1409751775.367936325 : 1974
1409751775.467939951 : 1969
1409751775.567944221 : 1975
1409751775.668023171 : 1977
1409751775.767949071 : 1977
1409751775.867918368 : 1975
1409751775.967924846 : 1971
1409751776.067979785 : 1968
1409751776.167975086 : 1964
1409751776.267916958 : 1958
1409751776.367940046 : 1959
1409751776.868254432 : 1928
1409751776.918345337 : 1924
1409751776.968340719 : 1928
1409751777.018380982 : 1934
1409751777.069384174 : 1942
1409751777.118377357 : 1957
1409751777.168325151 : 1975
1409751777.218373592 : 1999
1409751777.268468654 : 2026
1409751777.368585038 : 2104
1409751777.468662885 : 2171
1409751777.568572469 : 2203
1409751777.668710395 : 2234
1409751777.768702169 : 2247
1409751777.868570358 : 2256
1409751777.968634328 : 2267
1409751778.068567120 : 2267
1409751778.168580724 : 2266
1409751778.268623276 : 2254
1409751778.368676721 : 2243
1409751778.468684314 : 2237
1409751778.568563892 : 2232
1409751778.668584466 : 2237
1409751778.768724826 : 2240
1409751778.868615125 : 2241
1409751778.968612669 : 2241
1409751779.068790363 : 2240
1409751779.168574680 : 2238
1409751779.268567801 : 2235
1409751779.368599135 : 2211
1409751779.468548163 : 2202
1409751779.568547411 : 2198
1409751779.668646823 : 2203
1409751779.768653125 : 2200
1409751779.868569540 : 2204
1409751779.968580083 : 2205
1409751780.068569198 : 2206
1409751780.168566825 : 2198
1409751780.268602054 : 2194
1409751780.368584943 : 2197
1409751780.468572897 : 2201
1409751780.568599889 : 2205
1409751780.668683633 : 2212
1409751780.768553080 : 2220
1409751780.868608289 : 2161
1409751780.968562659 : 2135
1409751781.068624568 : 2132
1409751781.168571207 : 2142
1409751781.268663722 : 2157
1409751781.368559532 : 2170
1409751781.468684026 : 2183
1409751781.568577230 : 2194
1409751781.668589995 : 2207
1409751781.768625623 : 2216
1409751781.868587204 : 2241
1409751781.968664997 : 2244
1409751782.068583676 : 2268
1409751782.168685204 : 2281
1409751782.268592275 : 2287
1409751782.368569274 : 2290
1409751782.468566069 : 2295
1409751782.568584977 : 2301
1409751782.668573907 : 2365
1409751782.768578794 : 2368
1409751782.868711459 : 2360
1409751782.968559530 : 2351
1409751783.068561764 : 2338
1409751783.168555031 : 2312
1409751783.268565267 : 2290
1409751783.768879840 : 2230
1409751783.819104113 : 2217
1409751783.919197170 : 2188
1409751784.019194287 : 2184
1409751784.119235974 : 2171
1409751784.219208253 : 2169
1409751784.319241931 : 2174
1409751784.419205962 : 2182
1409751784.519185239 : 2196
1409751784.619213221 : 2211
1409751784.719208513 : 2223
1409751784.819291976 : 2230
1409751784.919189378 : 2244
1409751785.019209329 : 2252
1409751785.119225016 : 2253
1409751785.219213650 : 2253
1409751785.319199454 : 2260
1409751785.419250390 : 2249
1409751785.519274523 : 2252
1409751785.619242637 : 2260
1409751785.719208696 : 2256
1409751785.819183997 : 2252
1409751785.919226002 : 2237
1409751786.019183867 : 2221
1409751786.119194390 : 2217
1409751786.219312976 : 2214
1409751786.319180753 : 2217
1409751786.419217961 : 2220
1409751786.519318853 : 2215
1409751786.619233864 : 2206
1409751786.719186219 : 2205
1409751786.819212609 : 2200
1409751786.919454508 : 2191
1409751787.019229514 : 2188
1409751787.119239361 : 2186
1409751787.219205067 : 2177
1409751787.319183989 : 2153
1409751787.419203556 : 2153
1409751787.519203619 : 2148
1409751787.619247345 : 2151
1409751787.719329356 : 2159
1409751787.819259348 : 2178
1409751787.919219413 : 2198
1409751788.019195468 : 2212
1409751788.119214865 : 2223
1409751788.219194965 : 2238
1409751788.319222156 : 2253
1409751788.419208919 : 2267
1409751788.519181116 : 2285
1409751788.619272079 : 2294
1409751788.719339666 : 2302
1409751788.819261585 : 2297
1409751788.919203419 : 2293
1409751789.019263662 : 2289
1409751789.119267290 : 2263
1409751789.619800424 : 2232
1409751789.670105853 : 2238
1409751789.770378584 : 2241
1409751789.870178259 : 2229
1409751789.970188283 : 2227
1409751790.070177205 : 2224
1409751790.170230319 : 2225
1409751790.270269870 : 2223
1409751790.370211230 : 2223
1409751790.470205334 : 2213
1409751790.570258928 : 2164
1409751790.670261701 : 2142
1409751790.770215620 : 2151
1409751790.870258311 : 2156
1409751790.970213775 : 2162
1409751791.070267853 : 2172
1409751791.170202073 : 2174
1409751791.270187905 : 2177
1409751791.370260945 : 2179
1409751791.470241861 : 2182
1409751791.570201162 : 2187
1409751791.670204319 : 2198
1409751791.770205482 : 2208
1409751791.870200830 : 2212
1409751791.970276182 : 2216
1409751792.070259991 : 2250
1409751792.170411297 : 2249
1409751792.270233274 : 2258
1409751792.370231168 : 2258
1409751792.470280864 : 2261
1409751792.570311745 : 2262
1409751792.670242181 : 2280
1409751792.770336782 : 2297
1409751792.870197753 : 2302
1409751792.970185473 : 2276
1409751793.070202465 : 2270
1409751793.170212350 : 2266
1409751793.270215619 : 2268
1409751793.370226516 : 2263
1409751793.470175754 : 2273
1409751793.570220247 : 2271
1409751793.670244072 : 2269
1409751793.770203115 : 2266
1409751793.870229600 : 2261
1409751793.970314254 : 2250
1409751794.070240161 : 2244
1409751794.170183930 : 2230
1409751794.270295667 : 2222
1409751794.370201407 : 2213
1409751794.470261255 : 2209
1409751794.570186346 : 2211
1409751794.670198101 : 2212
1409751794.770181137 : 2211
1409751794.870226734 : 2217
1409751794.970224293 : 2227
1409751795.070206408 : 2231
1409751795.170195822 : 2236
1409751795.270245479 : 2237
1409751795.370199561 : 2238
1409751795.470212155 : 2237
1409751795.570233665 : 2236
1409751795.670219313 : 2236
1409751795.770211914 : 2234
1409751795.870382288 : 2227
1409751795.970238731 : 2228
1409751796.070215654 : 2196
1409751796.170323864 : 2195
1409751796.270195383 : 2194
1409751796.370178859 : 2212
1409751796.470212027 : 2218
1409751796.570212853 : 2226
1409751796.670198531 : 2233
1409751796.770193254 : 2249
1409751796.870197218 : 2222
1409751796.970197584 : 2226
1409751797.070233132 : 2231
1409751797.170200051 : 2235
1409751797.270223800 : 2237
1409751797.370255191 : 2243
1409751797.470234475 : 2238
1409751797.570190584 : 2235
1409751797.670263679 : 2241
1409751797.770211215 : 2245
1409751797.870184057 : 2252
1409751797.970186728 : 2255
1409751798.070207314 : 2258
1409751798.170227824 : 2258
1409751798.270226493 : 2253
1409751798.370188132 : 2252
1409751798.470225813 : 2252
1409751798.570208703 : 2254
1409751798.670307573 : 2261
1409751798.770314675 : 2260
1409751798.870320822 : 2257
1409751798.970185689 : 2248
1409751799.070218584 : 2242
1409751799.170228715 : 2217
1409751799.270183574 : 2214
1409751799.370202420 : 2211
1409751799.470201604 : 2208
1409751799.570181539 : 2202
1409751799.670246631 : 2163
1409751799.770257595 : 2165
1409751799.870187619 : 2173
1409751799.970218499 : 2179
1409751800.070194918 : 2188
1409751800.170264347 : 2208
1409751800.270199678 : 2212
1409751800.370224363 : 2217
1409751800.470240896 : 2168
1409751800.570282241 : 2172
1409751800.670241188 : 2177
1409751800.770184560 : 2185
1409751800.870349939 : 2181
1409751800.970197297 : 2125
1409751801.070263696 : 2139
1409751801.170345194 : 2227
1409751801.270280621 : 2259
1409751801.370194827 : 2248
1409751801.470211451 : 2230
1409751801.570198467 : 2191
1409751801.670184491 : 2173
1409751801.770196967 : 2166
1409751801.870191012 : 2171
1409751801.970367506 : 2178
1409751802.071222373 : 2186
1409751802.170227738 : 2195
1409751802.270206692 : 2206
1409751802.370221669 : 2219
1409751802.470187947 : 2232
1409751802.570216719 : 2248
1409751802.670218392 : 2233
1409751802.770207794 : 2248
1409751802.870195250 : 2266
1409751802.970220145 : 2268
1409751803.070233477 : 2265
1409751803.170207722 : 2266
1409751803.270205002 : 2269
1409751803.770512409 : 2253
1409751803.820590468 : 2251
1409751803.870845035 : 2249
1409751803.970939035 : 2245
1409751804.070925564 : 2240
1409751804.170933213 : 2237
1409751804.270948773 : 2236
1409751804.370934976 : 2237
1409751804.470952300 : 2233
1409751804.570929374 : 2229
1409751804.670946878 : 2224
1409751804.770936343 : 2217
1409751804.870914012 : 2205
1409751804.970958309 : 2205
1409751805.070953968 : 2201
1409751805.171076667 : 2203
1409751805.270929471 : 2206
1409751805.370919734 : 2223
1409751805.470977180 : 2228
1409751805.570904129 : 2235
1409751805.670905252 : 2240
1409751805.770997592 : 2250
1409751805.870957251 : 2254
1409751805.970920112 : 2265
1409751806.070945629 : 2265
1409751806.170975082 : 2266
1409751806.270913557 : 2271
1409751806.370983376 : 2270
1409751806.470922714 : 2265
1409751806.570936902 : 2266
1409751806.670907359 : 2262
1409751806.770958584 : 2260
1409751806.870929409 : 2259
1409751806.970976700 : 2258
1409751807.071055217 : 2254
