1409751623.312001988 : 1.87745 -1.72219 0
1409751624.212046115 : 1.99359 -1.93242 0
1409751625.612051872 : 2.09684 -2.1624 0
1409751627.012128040 : 2.17592 -2.33152 0
1409751628.112085162 : 2.20137 -2.45611 0
1409751630.012053517 : 2.37028 -2.70817 0
1409751631.512056436 : 2.35711 -2.64349 0
1409751631.812054510 : 2.36468 -2.61193 0
1409751632.112055136 : 2.36236 -2.6633 0
1409751632.412066570 : 2.35647 -2.69781 0
1409751632.712068894 : 2.35107 -2.72195 0
1409751633.012091424 : 2.35095 -2.71449 0
1409751633.312048475 : 2.33712 -2.72141 0
1409751633.612015430 : 2.31825 -2.75268 0
1409751633.912051515 : 2.2974 -2.77998 0
1409751634.112153020 : 2.26282 -2.80741 0
1409751634.412057010 : 2.23757 -2.81545 0
1409751634.812094654 : 2.21981 -2.81599 0
1409751635.012049801 : 2.21672 -2.83835 0
1409751635.312014913 : 2.21932 -2.85074 0
1409751635.612071254 : 2.21402 -2.86508 0
1409751635.912095561 : 2.21251 -2.87834 0
1409751636.312074141 : 2.20501 -2.90738 0
1409751636.512075192 : 2.20903 -2.89618 0
1409751636.812167149 : 2.21823 -2.90109 0
1409751637.112150171 : 2.22796 -2.88784 0
1409751637.412043507 : 2.23526 -2.87775 0
1409751637.712058910 : 2.23799 -2.86255 0
1409751638.012062857 : 2.23606 -2.87346 0
1409751638.312075084 : 2.24269 -2.87306 0
1409751638.612057372 : 2.23898 -2.88155 0
1409751638.912011599 : 2.25777 -2.89773 0
1409751639.312054834 : 2.26639 -2.89101 0
1409751639.612064985 : 2.29079 -2.94692 0
1409751640.112243875 : 2.3368 -3.01636 0
1409751640.512059144 : 2.3704 -3.11158 0
1409751640.912050392 : 2.38691 -3.18854 0
1409751641.412075191 : 2.3958 -3.23438 0
1409751641.812052533 : 2.39127 -3.26868 0
1409751642.412017459 : 2.36239 -3.35044 0
1409751644.412033308 : 2.28888 -3.48379 0
1409751644.712054770 : 2.28716 -3.4807 0
1409751644.912053681 : 2.27785 -3.47859 0
1409751645.212063628 : 2.2723 -3.46582 0
1409751645.412056967 : 2.26635 -3.46786 0
1409751645.612072306 : 2.25466 -3.47502 0
1409751645.812057291 : 2.25366 -3.49114 0
1409751646.112104266 : 2.25177 -3.48648 0
1409751649.212062468 : 2.50951 -3.53859 0
1409751650.512061434 : 2.75982 -3.58237 0
1409751652.412069074 : 2.98432 -3.5755 0
1409751654.112049256 : 3.07483 -3.57507 0
1409751654.412045376 : 3.07296 -3.57499 0
1409751654.612050066 : 3.07435 -3.57684 0
1409751654.812053733 : 3.07438 -3.57239 0
1409751655.112038111 : 3.07378 -3.55586 0
1409751655.612048107 : 3.0746 -3.53571 0
1409751658.312058208 : 3.1178 -3.26383 0
1409751659.612102784 : 3.16084 -2.99199 0
1409751661.712048862 : 3.19405 -2.72944 0
1409751663.412121144 : 3.19727 -2.63248 0
1409751663.712062825 : 3.19892 -2.6428 0
1409751663.912078314 : 3.20503 -2.66749 0
1409751664.112045268 : 3.21131 -2.67263 0
1409751664.312003343 : 3.21958 -2.68271 0
1409751664.612045963 : 3.21728 -2.68971 0
1409751667.212039969 : 2.96174 -2.63457 0
1409751668.412065561 : 2.70249 -2.58207 0
1409751669.812093995 : 2.44556 -2.5131 0
1409751672.612097350 : 2.21104 -2.47897 0
1409751672.912063146 : 2.20706 -2.47652 0
1409751673.112072927 : 2.20111 -2.47049 0
1409751673.312084738 : 2.19819 -2.48669 0
1409751673.512057551 : 2.19817 -2.48825 0
1409751673.812056923 : 2.19689 -2.48382 0
1409751674.212061095 : 2.19734 -2.46427 0
1409751676.312037042 : 2.19332 -2.50603 0
1409751677.612097358 : 2.1774 -2.77021 0
1409751679.012078865 : 2.17794 -3.0596 0
1409751681.012051925 : 2.19099 -3.34899 0
1409751682.412088231 : 2.19958 -3.4086 0
1409751682.612035967 : 2.20134 -3.41254 0
1409751682.812070960 : 2.20187 -3.41247 0
1409751683.112180984 : 2.20436 -3.41307 0
1409751683.312120530 : 2.20634 -3.42773 0
1409751683.712043316 : 2.20882 -3.43377 0
1409751686.212515898 : 2.45844 -3.47895 0
1409751687.512076921 : 2.70889 -3.52044 0
1409751689.412048736 : 2.96541 -3.54225 0
1409751690.512065279 : 3.05005 -3.54874 0
1409751690.812054204 : 3.04898 -3.54937 0
1409751691.112071688 : 3.04967 -3.5571 0
1409751691.312051283 : 3.05125 -3.54886 0
1409751691.612082588 : 3.0517 -3.54262 0
1409751691.912049452 : 3.05633 -3.50934 0
1409751692.212054061 : 3.06027 -3.4912 0
1409751692.512062153 : 3.05891 -3.48976 0
1409751695.412049176 : 3.03114 -3.19847 0
1409751696.812088599 : 3.06461 -2.92572 0
1409751698.812074974 : 3.13127 -2.66667 0
1409751700.012065044 : 3.14452 -2.62173 0
1409751700.212286309 : 3.14677 -2.62449 0
1409751700.412069916 : 3.15422 -2.63976 0
1409751700.612346960 : 3.16091 -2.63956 0
1409751700.912087143 : 3.16446 -2.63675 0
1409751701.112048063 : 3.16651 -2.65378 0
1409751701.412050558 : 3.1613 -2.6542 0
1409751704.212054379 : 2.90848 -2.60681 0
1409751705.412042614 : 2.65471 -2.54827 0
1409751707.012045898 : 2.39952 -2.50953 0
1409751709.512054487 : 2.20129 -2.48397 0
1409751709.712086587 : 2.19638 -2.48987 0
1409751710.012050685 : 2.19315 -2.48359 0
1409751710.212053697 : 2.19251 -2.48065 0
1409751710.412096734 : 2.19259 -2.4769 0
1409751710.712049169 : 2.19472 -2.45375 0
1409751712.012072431 : 2.19246 -2.44788 0
1409751713.312081085 : 2.1716 -2.71168 0
1409751714.712011091 : 2.17603 -2.98862 0
1409751716.612069118 : 2.18655 -3.2605 0
1409751718.712167523 : 2.19869 -3.42443 0
1409751719.012753669 : 2.2004 -3.42398 0
1409751719.212387578 : 2.20296 -3.42307 0
1409751719.512066485 : 2.207 -3.42062 0
1409751719.712052602 : 2.21318 -3.41112 0
1409751720.012073639 : 2.21694 -3.41129 0
1409751722.512058003 : 2.47136 -3.44332 0
1409751723.712041700 : 2.72589 -3.49031 0
1409751725.712071835 : 2.97983 -3.52931 0
1409751726.712070207 : 3.05019 -3.53966 0
1409751727.412050544 : 3.0484 -3.54156 0
1409751727.712066940 : 3.04814 -3.5407 0
1409751727.912045119 : 3.04905 -3.54089 0
1409751728.112042939 : 3.04842 -3.543 0
1409751728.412052158 : 3.04808 -3.54004 0
1409751728.812024503 : 3.05723 -3.52191 0
1409751731.112055529 : 3.11912 -3.26449 0
1409751732.412076872 : 3.17712 -3.00131 0
1409751734.512053245 : 3.2004 -2.74281 0
1409751736.012482484 : 3.19602 -2.65324 0
1409751736.312068591 : 3.20172 -2.65979 0
1409751736.512058262 : 3.20459 -2.66323 0
1409751736.712059158 : 3.20415 -2.66172 0
1409751737.012067195 : 3.2063 -2.6592 0
1409751737.312044572 : 3.19958 -2.66493 0
1409751740.112068004 : 2.94234 -2.60908 0
1409751741.412062545 : 2.68578 -2.55006 0
1409751742.812096988 : 2.428 -2.49789 0
1409751745.612054829 : 2.19634 -2.46515 0
1409751745.912073536 : 2.19003 -2.46425 0
1409751746.112059207 : 2.18456 -2.45819 0
1409751746.312074516 : 2.18088 -2.44951 0
1409751746.612049934 : 2.17736 -2.44652 0
1409751746.812048475 : 2.17826 -2.44261 0
1409751747.212043392 : 2.18259 -2.42632 0
1409751749.912069058 : 2.16111 -2.61676 0
1409751751.212052028 : 2.16128 -2.88498 0
1409751752.712055645 : 2.18326 -3.16435 0
1409751755.812083290 : 2.20425 -3.42324 0
1409751756.012070690 : 2.20168 -3.42936 0
1409751756.212085984 : 2.20669 -3.42339 0
1409751756.512047009 : 2.20888 -3.42701 0
1409751756.712053192 : 2.21232 -3.43135 0
1409751757.112044490 : 2.21506 -3.43711 0
1409751759.412088982 : 2.46878 -3.47738 0
1409751760.712063488 : 2.72351 -3.51509 0
1409751762.612027207 : 2.98073 -3.54412 0
1409751763.512060900 : 3.03799 -3.55099 0
1409751763.812051402 : 3.04218 -3.5538 0
1409751764.212059350 : 3.04688 -3.55764 0
1409751764.412064710 : 3.05234 -3.55557 0
1409751764.612254802 : 3.04893 -3.5547 0
1409751765.012071107 : 3.04624 -3.5548 0
1409751765.212048038 : 3.04502 -3.54865 0
1409751765.512077920 : 3.04475 -3.55029 0
1409751766.112045383 : 3.04385 -3.54653 0
1409751766.812054867 : 3.04164 -3.52099 0
1409751767.112055216 : 3.04252 -3.51835 0
1409751767.412044947 : 3.04396 -3.50947 0
1409751767.712047691 : 3.04482 -3.50858 0
1409751768.012053176 : 3.04135 -3.50939 0
1409751768.312071438 : 3.0388 -3.50562 0
1409751768.612047472 : 3.04055 -3.49932 0
1409751768.912097399 : 3.03956 -3.49773 0
1409751769.212052456 : 3.03828 -3.49485 0
1409751769.512079191 : 3.04027 -3.4987 0
1409751769.812076262 : 3.0444 -3.49705 0
1409751770.112093157 : 3.04939 -3.49845 0
1409751770.412038648 : 3.05314 -3.50302 0
1409751770.712050054 : 3.05539 -3.50489 0
1409751771.012018373 : 3.05407 -3.50461 0
1409751771.312081237 : 3.05958 -3.504 0
1409751771.612063721 : 3.06187 -3.49903 0
1409751772.512110118 : 3.06341 -3.48789 0
1409751772.812050436 : 3.06633 -3.48335 0
1409751773.012049904 : 3.06668 -3.47812 0
1409751773.212016473 : 3.06183 -3.47427 0
1409751773.512060490 : 3.06036 -3.47811 0
1409751773.712079287 : 3.05937 -3.47605 0
1409751774.012052019 : 3.05213 -3.47571 0
1409751774.212065233 : 3.054 -3.47256 0
1409751774.412046284 : 3.057 -3.47075 0
1409751775.012061015 : 3.05999 -3.46872 0
1409751775.312066892 : 3.0636 -3.4698 0
1409751775.612115271 : 3.06395 -3.47161 0
1409751775.812069691 : 3.06363 -3.469 0
1409751776.112234555 : 3.06711 -3.46865 0
1409751779.312046203 : 3.12989 -3.22315 0
1409751780.612055909 : 3.18019 -2.97314 0
1409751782.812055634 : 3.20428 -2.71727 0
1409751784.412058423 : 3.2018 -2.63582 0
1409751784.612072913 : 3.22168 -2.62562 0
1409751784.812049601 : 3.22946 -2.63086 0
1409751785.112062835 : 3.23636 -2.62885 0
1409751785.312050330 : 3.24356 -2.62494 0
1409751785.812052900 : 3.24119 -2.62493 0
1409751788.212016247 : 2.97988 -2.57291 0
1409751789.512081794 : 2.72038 -2.52915 0
1409751790.912021598 : 2.46038 -2.49137 0
1409751793.812063528 : 2.20051 -2.46077 0
1409751794.112106505 : 2.19223 -2.45245 0
1409751794.312075248 : 2.19145 -2.44245 0
1409751794.512066743 : 2.19148 -2.4415 0
1409751794.812151359 : 2.18864 -2.43717 0
1409751795.012076944 : 2.18794 -2.43052 0
1409751795.512069850 : 2.18826 -2.42086 0
1409751797.712076887 : 2.17642 -2.5563 0
1409751799.012080490 : 2.17197 -2.82867 0
1409751800.512090856 : 2.16959 -3.1003 0
1409751802.812053998 : 2.19208 -3.3756 0
1409751804.012038918 : 2.19792 -3.40989 0
1409751804.212062521 : 2.2003 -3.41592 0
1409751804.412068198 : 2.19979 -3.41632 0
1409751804.712056645 : 2.20264 -3.41568 0
1409751804.912062688 : 2.20532 -3.42107 0
1409751805.312166042 : 2.21048 -3.42004 0
1409751808.212060303 : 2.46177 -3.46469 0
1409751809.512056777 : 2.71165 -3.5028 0
1409751811.412106519 : 2.96504 -3.53466 0
1409751812.512060520 : 3.04667 -3.54563 0
1409751812.812074948 : 3.04673 -3.55041 0
1409751813.012054544 : 3.04559 -3.55267 0
1409751813.312067262 : 3.04624 -3.55677 0
1409751813.712049229 : 3.0447 -3.55832 0
1409751814.012011823 : 3.04657 -3.56421 0
1409751814.212121516 : 3.05372 -3.5662 0
1409751814.512061128 : 3.05366 -3.56926 0
1409751814.812060405 : 3.0506 -3.57143 0
1409751815.112067986 : 3.04682 -3.57739 0
1409751815.512048894 : 3.04954 -3.58072 0
1409751815.712082697 : 3.04806 -3.58128 0
1409751816.012062680 : 3.04976 -3.5802 0
1409751816.212074275 : 3.04756 -3.57709 0
1409751816.512241444 : 3.05441 -3.57422 0
1409751816.812058171 : 3.04812 -3.57553 0
1409751817.112065116 : 3.04265 -3.57285 0
1409751817.412054219 : 3.0336 -3.57226 0
1409751817.713270361 : 3.02588 -3.56913 0
1409751818.012021470 : 3.02202 -3.57491 0
1409751818.212203908 : 3.01926 -3.57855 0
1409751818.512077002 : 3.01873 -3.58214 0
1409751818.812037380 : 3.02483 -3.58011 0
1409751819.212046830 : 3.0303 -3.58105 0
1409751819.512077719 : 3.03604 -3.58209 0
1409751819.712064743 : 3.04089 -3.58373 0
1409751820.012052223 : 3.04568 -3.58313 0
1409751820.312166935 : 3.04672 -3.58394 0
1409751820.712016961 : 3.05858 -3.59241 0
1409751821.012052330 : 3.07422 -3.596 0
1409751821.312060731 : 3.07516 -3.59223 0
1409751822.012063966 : 3.07799 -3.59055 0
1409751822.812073209 : 3.07802 -3.5901 0
1409751823.112082308 : 3.08157 -3.58665 0
1409751823.312089128 : 3.08051 -3.58569 0
1409751823.712043439 : 3.08136 -3.58482 0
1409751826.312057183 : 3.13333 -3.33604 0
1409751827.512049234 : 3.17716 -3.08746 0
1409751829.212051361 : 3.20087 -2.83122 0
1409751831.912050899 : 3.19882 -2.62733 0
1409751832.112056315 : 3.20027 -2.62457 0
1409751832.312143320 : 3.19908 -2.62528 0
1409751832.612093503 : 3.20205 -2.61958 0
1409751832.812142859 : 3.20468 -2.61941 0
1409751833.112115945 : 3.20501 -2.61637 0
1409751836.212047186 : 2.95796 -2.55787 0
